$MeshFormat
2.2 0 8
$EndMeshFormat
$Nodes
169
1 0 0 0
2 1 0 0
3 1 1 0
4 0 1 0
5 2 0 0
6 2 1 0
7 3 0 0
8 3 1 0
9 4 0 0
10 4 1 0
11 5 0 0
12 5 1 0
13 6 0 0
14 6 1 0
15 0 2 0
16 1 2 0
17 2 2 0
18 3 2 0
19 4 2 0
20 5 2 0
21 6 2 0
22 0 3 0
23 1 3 0
24 2 3 0
25 3 3 0
26 4 3 0
27 5 3 0
28 6 3 0
29 0 4 0
30 1 4 0
31 2 4 0
32 3 4 0
33 4 4 0
34 5 4 0
35 6 4 0
36 0 5 0
37 1 5 0
38 2 5 0
39 3 5 0
40 4 5 0
41 5 5 0
42 6 5 0
43 0 6 0
44 1 6 0
45 2 6 0
46 3 6 0
47 4 6 0
48 5 6 0
49 6 6 0
50 0.4999999999986718 0 0
51 1 0.4999999999986718 0
52 0.5000000000013305 1 0
53 0 0.5000000000013305 0
54 1.499999999998621 0 0
55 2 0.4999999999986718 0
56 1.500000000001379 1 0
57 2.5 0 0
58 3 0.4999999999986718 0
59 2.5 1 0
60 3.5 0 0
61 4 0.4999999999986718 0
62 3.5 1 0
63 4.499999999996719 0 0
64 5 0.4999999999986718 0
65 4.500000000003281 1 0
66 5.499999999996719 0 0
67 6 0.4999999999986718 0
68 5.500000000003281 1 0
69 0 1.500000000001379 0
70 1 1.499999999998621 0
71 0.5000000000013305 2 0
72 2 1.499999999998621 0
73 1.500000000001379 2 0
74 3 1.499999999998621 0
75 2.5 2 0
76 4 1.499999999998621 0
77 3.5 2 0
78 5 1.499999999998621 0
79 4.500000000003281 2 0
80 6 1.499999999998621 0
81 5.500000000003281 2 0
82 0 2.5 0
83 1 2.5 0
84 0.5000000000013305 3 0
85 2 2.5 0
86 1.500000000001379 3 0
87 3 2.5 0
88 2.5 3 0
89 4 2.5 0
90 3.5 3 0
91 5 2.5 0
92 4.500000000003281 3 0
93 6 2.5 0
94 5.500000000003281 3 0
95 0 3.5 0
96 1 3.5 0
97 0.5000000000013305 4 0
98 2 3.5 0
99 1.500000000001379 4 0
100 3 3.5 0
101 2.5 4 0
102 4 3.5 0
103 3.5 4 0
104 5 3.5 0
105 4.500000000003281 4 0
106 6 3.5 0
107 5.500000000003281 4 0
108 0 4.500000000003281 0
109 1 4.499999999996719 0
110 0.5000000000013305 5 0
111 2 4.499999999996719 0
112 1.500000000001379 5 0
113 3 4.499999999996719 0
114 2.5 5 0
115 4 4.499999999996719 0
116 3.5 5 0
117 5 4.499999999996719 0
118 4.500000000003281 5 0
119 6 4.499999999996719 0
120 5.500000000003281 5 0
121 0 5.500000000003281 0
122 1 5.499999999996719 0
123 0.5000000000013305 6 0
124 2 5.499999999996719 0
125 1.500000000001379 6 0
126 3 5.499999999996719 0
127 2.5 6 0
128 4 5.499999999996719 0
129 3.5 6 0
130 5 5.499999999996719 0
131 4.500000000003281 6 0
132 6 5.499999999996719 0
133 5.500000000003281 6 0
134 0.5 0.5 0
135 1.5 0.5 0
136 2.5 0.5 0
137 3.5 0.5 0
138 4.5 0.5 0
139 5.5 0.5 0
140 0.5 1.5 0
141 1.5 1.5 0
142 2.5 1.5 0
143 3.5 1.5 0
144 4.5 1.5 0
145 5.5 1.5 0
146 0.5 2.5 0
147 1.5 2.5 0
148 2.5 2.5 0
149 3.5 2.5 0
150 4.5 2.5 0
151 5.5 2.5 0
152 0.5 3.5 0
153 1.5 3.5 0
154 2.5 3.5 0
155 3.5 3.5 0
156 4.5 3.5 0
157 5.5 3.5 0
158 0.5 4.5 0
159 1.5 4.5 0
160 2.5 4.5 0
161 3.5 4.5 0
162 4.5 4.5 0
163 5.5 4.5 0
164 0.5 5.5 0
165 1.5 5.5 0
166 2.5 5.5 0
167 3.5 5.5 0
168 4.5 5.5 0
169 5.5 5.5 0
$EndNodes
$Elements
91
1 15 2 191 415 43
2 8 2 183 1 1 2 50
3 8 2 182 4 4 1 53
4 8 2 183 9 2 5 54
5 8 2 183 14 5 7 57
6 8 2 183 19 7 9 60
7 8 2 183 24 9 11 63
8 8 2 183 29 11 13 66
9 8 2 182 33 15 4 69
10 8 2 182 63 22 15 82
11 8 2 182 93 29 22 95
12 8 2 182 123 36 29 108
13 8 2 182 153 43 36 121
14 8 2 184 156 44 43 123
15 8 2 184 161 45 44 125
16 8 2 184 166 46 45 127
17 8 2 184 171 47 46 129
18 8 2 184 176 48 47 131
19 8 2 184 181 49 48 133
20 9 2 185 6 4 1 3 53 134 52
21 9 2 185 6 3 1 2 134 50 51
22 9 2 186 7 2 5 3 54 135 51
23 9 2 186 7 5 6 3 55 56 135
24 9 2 187 12 5 7 6 57 136 55
25 9 2 187 12 7 8 6 58 59 136
26 9 2 188 17 7 9 8 60 137 58
27 9 2 188 17 9 10 8 61 62 137
28 9 2 189 22 9 11 10 63 138 61
29 9 2 189 22 11 12 10 64 65 138
30 9 2 190 27 11 13 12 66 139 64
31 9 2 190 27 13 14 12 67 68 139
32 9 2 186 32 15 4 16 69 140 71
33 9 2 186 32 16 4 3 140 52 70
34 9 2 186 37 3 6 16 56 141 70
35 9 2 186 37 6 17 16 72 73 141
36 9 2 187 42 6 8 17 59 142 72
37 9 2 187 42 8 18 17 74 75 142
38 9 2 188 47 8 10 18 62 143 74
39 9 2 188 47 10 19 18 76 77 143
40 9 2 189 52 10 12 19 65 144 76
41 9 2 189 52 12 20 19 78 79 144
42 9 2 190 57 12 14 20 68 145 78
43 9 2 190 57 14 21 20 80 81 145
44 9 2 187 62 22 15 23 82 146 84
45 9 2 187 62 23 15 16 146 71 83
46 9 2 187 67 16 17 23 73 147 83
47 9 2 187 67 17 24 23 85 86 147
48 9 2 187 72 17 18 24 75 148 85
49 9 2 187 72 18 25 24 87 88 148
50 9 2 188 77 18 19 25 77 149 87
51 9 2 188 77 19 26 25 89 90 149
52 9 2 189 82 19 20 26 79 150 89
53 9 2 189 82 20 27 26 91 92 150
54 9 2 190 87 20 21 27 81 151 91
55 9 2 190 87 21 28 27 93 94 151
56 9 2 188 92 29 22 30 95 152 97
57 9 2 188 92 30 22 23 152 84 96
58 9 2 188 97 23 24 30 86 153 96
59 9 2 188 97 24 31 30 98 99 153
60 9 2 188 102 24 25 31 88 154 98
61 9 2 188 102 25 32 31 100 101 154
62 9 2 188 107 25 26 32 90 155 100
63 9 2 188 107 26 33 32 102 103 155
64 9 2 189 112 26 27 33 92 156 102
65 9 2 189 112 27 34 33 104 105 156
66 9 2 190 117 27 28 34 94 157 104
67 9 2 190 117 28 35 34 106 107 157
68 9 2 189 122 36 29 37 108 158 110
69 9 2 189 122 37 29 30 158 97 109
70 9 2 189 127 30 31 37 99 159 109
71 9 2 189 127 31 38 37 111 112 159
72 9 2 189 132 31 32 38 101 160 111
73 9 2 189 132 32 39 38 113 114 160
74 9 2 189 137 32 33 39 103 161 113
75 9 2 189 137 33 40 39 115 116 161
76 9 2 189 142 33 34 40 105 162 115
77 9 2 189 142 34 41 40 117 118 162
78 9 2 190 147 34 35 41 107 163 117
79 9 2 190 147 35 42 41 119 120 163
80 9 2 190 152 43 36 44 121 164 123
81 9 2 190 152 44 36 37 164 110 122
82 9 2 190 157 37 38 44 112 165 122
83 9 2 190 157 38 45 44 124 125 165
84 9 2 190 162 38 39 45 114 166 124
85 9 2 190 162 39 46 45 126 127 166
86 9 2 190 167 39 40 46 116 167 126
87 9 2 190 167 40 47 46 128 129 167
88 9 2 190 172 40 41 47 118 168 128
89 9 2 190 172 41 48 47 130 131 168
90 9 2 190 177 41 42 48 120 169 130
91 9 2 190 177 42 49 48 132 133 169
$EndElements
