$MeshFormat
2.2 0 8
$EndMeshFormat
$Nodes
136
1 0 0 0
2 1 0 0
3 1 1 0
4 0 1 0
5 0.3 0.5 0
6 0.5 0.7 0
7 0.7 0.5 0
8 0.5 0.3 0
9 0.2499999999994121 0 0
10 0.4999999999986943 0 0
11 0.7499999999993416 0 0
12 0.1249999999997757 0 0
13 0.3749999999990532 0 0
14 0.6249999999990179 0 0
15 0.8749999999996708 0 0
16 1 0.2499999999994121 0
17 1 0.4999999999986943 0
18 1 0.7499999999993416 0
19 1 0.1249999999997757 0
20 1 0.3749999999990532 0
21 1 0.6249999999990179 0
22 1 0.8749999999996708 0
23 0.7500000000003466 1 0
24 0.5000000000020587 1 0
25 0.2500000000010403 1 0
26 0.8750000000000182 1 0
27 0.6250000000010362 1 0
28 0.3750000000015494 1 0
29 0.1250000000005201 1 0
30 0 0.7500000000003466 0
31 0 0.5000000000020587 0
32 0 0.2500000000010403 0
33 0 0.8750000000000182 0
34 0 0.6250000000010362 0
35 0 0.3750000000015494 0
36 0 0.1250000000005201 0
37 0.3585786437624361 0.6414213562370552 0
38 0.3152240934976682 0.5765366864728383 0
39 0.4234633135269997 0.6847759065022647 0
40 0.6414213562370212 0.6414213562375977 0
41 0.5765366864727923 0.6847759065023508 0
42 0.6847759065022219 0.5765366864731034 0
43 0.6414213562375609 0.358578643762942 0
44 0.684775906502254 0.4234633135269739 0
45 0.5765366864730381 0.315224093497751 0
46 0.3585786437629311 0.3585786437624499 0
47 0.4234633135272733 0.315224093497622 0
48 0.3152240934978863 0.4234633135266352 0
49 0.6265876825183705 0.835831770773233 0
50 0.1638759517215592 0.6265876825184439 0
51 0.834713093899603 0.3746816974607667 0
52 0.3734123174816448 0.1641682292267661 0
53 0.8361240482780835 0.6265876825181815 0
54 0.6265876825181871 0.1641682292271192 0
55 0.3746780890968633 0.8344208163940107 0
56 0.1638759517219283 0.373412317482006 0
57 0.183071602302797 0.8156217528215726 0
58 0.8154549015251986 0.8154224262469797 0
59 0.815621752821702 0.1831040775812552 0
60 0.1845450984747467 0.1845775737531156 0
61 0.5002109619361453 0.8416644674119543 0
62 0.1575023938007521 0.5000000000002217 0
63 0.8424976061992896 0.4999999999999246 0
64 0.4999999999998184 0.1581003735248808 0
65 0.7284381288811099 0.7284218912422886 0
66 0.7210212920217846 0.8256270985101064 0
67 0.6340045193776959 0.7386265635054153 0
68 0.2708251230326166 0.7285215545293139 0
69 0.1734737770121781 0.7211047176700083 0
70 0.2612272977419977 0.6340045193777495 0
71 0.7285215545296315 0.2708413606720986 0
72 0.8251674233606525 0.278892887521011 0
73 0.738067225068582 0.3666301706118544 0
74 0.7387727022575523 0.6340045193778896 0
75 0.825789474901641 0.7210050543825806 0
76 0.2715618711188389 0.2715781087577827 0
77 0.2789787079781958 0.1743729014899408 0
78 0.3659954806222879 0.261373436494608 0
79 0.3666283664296497 0.737921086315533 0
80 0.2788748456998302 0.8250212846077916 0
81 0.6340045193778741 0.2613734364950306 0
82 0.7211047176699446 0.1736361534041872 0
83 0.2612272977424297 0.365995480622228 0
84 0.1742105250983375 0.2789949456175608 0
85 0.5632938412591852 0.7679158853866165 0
86 0.2319379758607796 0.5632938412592219 0
87 0.7673565469498015 0.4373408487303834 0
88 0.4367061587408224 0.2320841146133831 0
89 0.7680620241390417 0.5632938412590908 0
90 0.5632938412590935 0.2320841146135596 0
91 0.4373390445484316 0.7672104081970053 0
92 0.2319379758609642 0.436706158741003 0
93 0.3123390445489518 0.9172104081970054 0
94 0.437339044549461 0.9172104081970054 0
95 0.08193797586096417 0.3117061587415232 0
96 0.08193797586096417 0.4367061587420323 0
97 0.9180620241390418 0.6882938412587616 0
98 0.9180620241390418 0.5632938412584378 0
99 0.6882938412587644 0.08208411461355959 0
100 0.5632938412584407 0.08208411461355959 0
101 0.0819379758607796 0.5632938412602513 0
102 0.0819379758607796 0.6882938412593953 0
103 0.5632938412602146 0.9179158853866165 0
104 0.6882938412593586 0.9179158853866165 0
105 0.4367061587401695 0.08208411461338307 0
106 0.3117061587405285 0.08208411461338307 0
107 0.9173565469498015 0.4373408487297305 0
108 0.9173565469498015 0.3123408487300894 0
109 0.7827274507627726 0.9077112131234899 0
110 0.9077274507625993 0.9077112131234899 0
111 0.09153580115139852 0.7828108764109596 0
112 0.09153580115139852 0.9078108764107863 0
113 0.9077274507625993 0.7827112131231606 0
114 0.2165358011519187 0.9078108764107863 0
115 0.09227254923737335 0.09228878687655778 0
116 0.09227254923737335 0.2172887868770779 0
117 0.907810876410851 0.09155203879062761 0
118 0.7828108764105218 0.09155203879062761 0
119 0.907810876410851 0.2165520387903337 0
120 0.2172725492370794 0.09228878687655778 0
121 0.563399322227258 0.8387481190925936 0
122 0.5001054809680727 0.7708322337059772 0
123 0.1606891727611556 0.5632938412593328 0
124 0.228751196900376 0.5000000000001108 0
125 0.8386053500494464 0.4373408487303456 0
126 0.7712488030996447 0.4999999999999623 0
127 0.4367061587407316 0.1611343013758235 0
128 0.4999999999999092 0.2290501867624404 0
129 0.8393108272386866 0.563293841259053 0
130 0.5632938412590027 0.161134301376 0
131 0.4374445255165043 0.8380426419029825 0
132 0.1606891727613402 0.4367061587411138 0
133 0.500105480969102 0.9208322337059771 0
134 0.07875119690037605 0.5000000000011402 0
135 0.9212488030996449 0.4999999999993094 0
136 0.4999999999992563 0.07905018676244041 0
$EndNodes
$Elements
76
1 15 2 1 1 1
2 15 2 2 2 2
3 15 2 3 3 3
4 15 2 4 4 4
5 8 2 1 1 1 9 12
6 8 2 1 1 9 10 13
7 8 2 1 1 10 11 14
8 8 2 1 1 11 2 15
9 8 2 2 2 2 16 19
10 8 2 2 2 16 17 20
11 8 2 2 2 17 18 21
12 8 2 2 2 18 3 22
13 8 2 3 3 3 23 26
14 8 2 3 3 23 24 27
15 8 2 3 3 24 25 28
16 8 2 3 3 25 4 29
17 8 2 4 4 4 30 33
18 8 2 4 4 30 31 34
19 8 2 4 4 31 32 35
20 8 2 4 4 32 1 36
21 9 2 11 11 40 58 49 65 66 67
22 9 2 11 11 37 57 50 68 69 70
23 9 2 11 11 43 59 51 71 72 73
24 9 2 11 11 40 53 58 74 75 65
25 9 2 11 11 46 60 52 76 77 78
26 9 2 11 11 37 55 57 79 80 68
27 9 2 11 11 43 54 59 81 82 71
28 9 2 11 11 46 56 60 83 84 76
29 9 2 11 11 6 40 49 41 67 85
30 9 2 11 11 5 37 50 38 70 86
31 9 2 11 11 7 43 51 44 73 87
32 9 2 11 11 8 46 52 47 78 88
33 9 2 11 11 7 53 40 89 74 42
34 9 2 11 11 8 54 43 90 81 45
35 9 2 11 11 6 55 37 91 79 39
36 9 2 11 11 5 56 46 92 83 48
37 9 2 11 11 24 25 55 28 93 94
38 9 2 11 11 31 32 56 35 95 96
39 9 2 11 11 17 18 53 21 97 98
40 9 2 11 11 10 11 54 14 99 100
41 9 2 11 11 30 31 50 34 101 102
42 9 2 11 11 23 24 49 27 103 104
43 9 2 11 11 10 52 9 105 106 13
44 9 2 11 11 17 51 16 107 108 20
45 9 2 11 11 3 23 58 26 109 110
46 9 2 11 11 4 30 57 33 111 112
47 9 2 11 11 18 3 58 22 110 113
48 9 2 11 11 4 57 25 112 114 29
49 9 2 11 11 1 60 32 115 116 36
50 9 2 11 11 11 2 59 15 117 118
51 9 2 11 11 16 59 2 119 117 19
52 9 2 11 11 1 9 60 12 120 115
53 9 2 11 11 6 49 61 85 121 122
54 9 2 11 11 5 50 62 86 123 124
55 9 2 11 11 7 51 63 87 125 126
56 9 2 11 11 8 52 64 88 127 128
57 9 2 11 11 7 63 53 126 129 89
58 9 2 11 11 8 64 54 128 130 90
59 9 2 11 11 6 61 55 122 131 91
60 9 2 11 11 5 62 56 124 132 92
61 9 2 11 11 24 55 61 94 131 133
62 9 2 11 11 31 56 62 96 132 134
63 9 2 11 11 17 53 63 98 129 135
64 9 2 11 11 10 54 64 100 130 136
65 9 2 11 11 31 62 50 134 123 101
66 9 2 11 11 24 61 49 133 121 103
67 9 2 11 11 10 64 52 136 127 105
68 9 2 11 11 17 63 51 135 125 107
69 9 2 11 11 23 49 58 104 66 109
70 9 2 11 11 30 50 57 102 69 111
71 9 2 11 11 16 51 59 108 72 119
72 9 2 11 11 9 52 60 106 77 120
73 9 2 11 11 18 58 53 113 75 97
74 9 2 11 11 11 59 54 118 82 99
75 9 2 11 11 25 57 55 114 80 93
76 9 2 11 11 32 60 56 116 84 95
$EndElements
