$MeshFormat
2.2 0 8
$EndMeshFormat
$Nodes
405
1 0 0 0
2 0.1 0 0
3 0.1 0 0.1
4 0 0 0.1
5 0 0.5 0.1
6 0.1 0.5 0.1
7 0.1 0.5 0
8 0 0.5 0
9 0 1 0.1
10 0.1 1 0.1
11 0.1 1 0
12 0 1 0
13 0 -0.1 0.1
14 0.1 -0.1 0.1
15 0.1 -0.1 0
16 0 -0.1 0
17 0 1.1 0.1
18 0.1 1.1 0.1
19 0.1 1.1 0
20 0 1.1 0
21 0.04999999999985524 0 0.1
22 0.1 0 0.05000000000015159
23 0.05000000000015159 0 0
24 0 0 0.04999999999985524
25 0.04999999999985524 0.5 0.1
26 0.1 0.5 0.05000000000015159
27 0.05000000000015159 0.5 0
28 0 0.5 0.04999999999985524
29 0 0.02462603172736284 0.1
30 0 0.05294596787377292 0.1
31 0 0.08551389416893469 0.1
32 0 0.1229670094673272 0.1
33 0 0.1660380919944446 0.1
34 0 0.2155698369390478 0.1
35 0 0.2725313437827144 0.1
36 0 0.3380370764467547 0.1
37 0 0.4133686688718276 0.1
38 0 0.01231301586368306 0.1
39 0 0.03878599980056542 0.1
40 0 0.06922993102136113 0.1
41 0 0.104240451818131 0.1
42 0 0.1445025507308859 0.1
43 0 0.1908039644667462 0.1
44 0 0.2440505903608192 0.1
45 0 0.3052842101147346 0.1
46 0 0.3757028726592911 0.1
47 0 0.4566843344359138 0.1
48 0.1 0.02462603172736284 0.1
49 0.1 0.05294596787377292 0.1
50 0.1 0.08551389416893469 0.1
51 0.1 0.1229670094673272 0.1
52 0.1 0.1660380919944446 0.1
53 0.1 0.2155698369390478 0.1
54 0.1 0.2725313437827144 0.1
55 0.1 0.3380370764467547 0.1
56 0.1 0.4133686688718276 0.1
57 0.1 0.01231301586368306 0.1
58 0.1 0.03878599980056542 0.1
59 0.1 0.06922993102136113 0.1
60 0.1 0.104240451818131 0.1
61 0.1 0.1445025507308859 0.1
62 0.1 0.1908039644667462 0.1
63 0.1 0.2440505903608192 0.1
64 0.1 0.3052842101147346 0.1
65 0.1 0.3757028726592911 0.1
66 0.1 0.4566843344359138 0.1
67 0.1 0.02462603172736284 0
68 0.1 0.05294596787377292 0
69 0.1 0.08551389416893469 0
70 0.1 0.1229670094673272 0
71 0.1 0.1660380919944446 0
72 0.1 0.2155698369390478 0
73 0.1 0.2725313437827144 0
74 0.1 0.3380370764467547 0
75 0.1 0.4133686688718276 0
76 0.1 0.01231301586368306 0
77 0.1 0.03878599980056542 0
78 0.1 0.06922993102136113 0
79 0.1 0.104240451818131 0
80 0.1 0.1445025507308859 0
81 0.1 0.1908039644667462 0
82 0.1 0.2440505903608192 0
83 0.1 0.3052842101147346 0
84 0.1 0.3757028726592911 0
85 0.1 0.4566843344359138 0
86 0 0.02462603172736284 0
87 0 0.05294596787377292 0
88 0 0.08551389416893469 0
89 0 0.1229670094673272 0
90 0 0.1660380919944446 0
91 0 0.2155698369390478 0
92 0 0.2725313437827144 0
93 0 0.3380370764467547 0
94 0 0.4133686688718276 0
95 0 0.01231301586368306 0
96 0 0.03878599980056542 0
97 0 0.06922993102136113 0
98 0 0.104240451818131 0
99 0 0.1445025507308859 0
100 0 0.1908039644667462 0
101 0 0.2440505903608192 0
102 0 0.3052842101147346 0
103 0 0.3757028726592911 0
104 0 0.4566843344359138 0
105 0.04999999999985524 1 0.1
106 0.1 1 0.05000000000015159
107 0.05000000000015159 1 0
108 0 1 0.04999999999985524
109 0 0.5866313311278974 0.1
110 0 0.6619629235527664 0.1
111 0 0.7274686562166613 0.1
112 0 0.7844301630604065 0.1
113 0 0.8339619080051792 0.1
114 0 0.8770329905324314 0.1
115 0 0.9144861058309299 0.1
116 0 0.9470540321261619 0.1
117 0 0.9753739682726023 0.1
118 0 0.543315665563932 0.1
119 0 0.6242971273402497 0.1
120 0 0.694715789884684 0.1
121 0 0.7559494096383836 0.1
122 0 0.8091960355328194 0.1
123 0 0.8554974492687852 0.1
124 0 0.8957595481816782 0.1
125 0 0.930770068978499 0.1
126 0 0.9612140001994034 0.1
127 0 0.987686984136297 0.1
128 0.1 0.5866313311278974 0.1
129 0.1 0.6619629235527664 0.1
130 0.1 0.7274686562166613 0.1
131 0.1 0.7844301630604065 0.1
132 0.1 0.8339619080051792 0.1
133 0.1 0.8770329905324314 0.1
134 0.1 0.9144861058309299 0.1
135 0.1 0.9470540321261619 0.1
136 0.1 0.9753739682726023 0.1
137 0.1 0.543315665563932 0.1
138 0.1 0.6242971273402497 0.1
139 0.1 0.694715789884684 0.1
140 0.1 0.7559494096383836 0.1
141 0.1 0.8091960355328194 0.1
142 0.1 0.8554974492687852 0.1
143 0.1 0.8957595481816782 0.1
144 0.1 0.930770068978499 0.1
145 0.1 0.9612140001994034 0.1
146 0.1 0.987686984136297 0.1
147 0.1 0.5866313311278974 0
148 0.1 0.6619629235527664 0
149 0.1 0.7274686562166613 0
150 0.1 0.7844301630604065 0
151 0.1 0.8339619080051792 0
152 0.1 0.8770329905324314 0
153 0.1 0.9144861058309299 0
154 0.1 0.9470540321261619 0
155 0.1 0.9753739682726023 0
156 0.1 0.543315665563932 0
157 0.1 0.6242971273402497 0
158 0.1 0.694715789884684 0
159 0.1 0.7559494096383836 0
160 0.1 0.8091960355328194 0
161 0.1 0.8554974492687852 0
162 0.1 0.8957595481816782 0
163 0.1 0.930770068978499 0
164 0.1 0.9612140001994034 0
165 0.1 0.987686984136297 0
166 0 0.5866313311278974 0
167 0 0.6619629235527664 0
168 0 0.7274686562166613 0
169 0 0.7844301630604065 0
170 0 0.8339619080051792 0
171 0 0.8770329905324314 0
172 0 0.9144861058309299 0
173 0 0.9470540321261619 0
174 0 0.9753739682726023 0
175 0 0.543315665563932 0
176 0 0.6242971273402497 0
177 0 0.694715789884684 0
178 0 0.7559494096383836 0
179 0 0.8091960355328194 0
180 0 0.8554974492687852 0
181 0 0.8957595481816782 0
182 0 0.930770068978499 0
183 0 0.9612140001994034 0
184 0 0.987686984136297 0
185 0.04999999999985524 -0.1 0.1
186 0.1 -0.1 0.05000000000015159
187 0.05000000000015159 -0.1 0
188 0 -0.1 0.04999999999985524
189 0 -0.04999999999985524 0.1
190 0.1 -0.04999999999985524 0.1
191 0.1 -0.04999999999985524 0
192 0 -0.04999999999985524 0
193 0.04999999999985524 1.1 0.1
194 0.1 1.1 0.05000000000015159
195 0.05000000000015159 1.1 0
196 0 1.1 0.04999999999985524
197 0 1.05 0.1
198 0.1 1.05 0.1
199 0.1 1.05 0
200 0 1.05 0
201 0.05000000000000342 0 0.05000000000000341
202 0.05 0.02462603172736284 0.1
203 0.0499999999999971 0.01231301586346369 0.1
204 0.05 0.05294596787377293 0.1
205 0.05 0.03878599980056542 0.1
206 0.05 0.08551389416893468 0.1
207 0.05 0.06922993102136112 0.1
208 0.05 0.1229670094673272 0.1
209 0.05 0.1042404518181309 0.1
210 0.05 0.1660380919944446 0.1
211 0.05 0.144502550730886 0.1
212 0.05 0.2155698369390477 0.1
213 0.05 0.1908039644667462 0.1
214 0.05 0.2725313437827144 0.1
215 0.05 0.2440505903608192 0.1
216 0.05 0.3380370764467547 0.1
217 0.05 0.3052842101147346 0.1
218 0.05 0.4133686688718276 0.1
219 0.05 0.3757028726592912 0.1
220 0.0499999999999971 0.4566843344359138 0.1
221 0.1 0.02462603172736284 0.05
222 0.1 0.01231301586346369 0.05000000000000304
223 0.1 0.05294596787377293 0.05
224 0.1 0.03878599980056542 0.05
225 0.1 0.08551389416893468 0.05
226 0.1 0.06922993102136112 0.05
227 0.1 0.1229670094673272 0.05
228 0.1 0.1042404518181309 0.05
229 0.1 0.1660380919944446 0.05
230 0.1 0.144502550730886 0.05
231 0.1 0.2155698369390477 0.05
232 0.1 0.1908039644667462 0.05
233 0.1 0.2725313437827144 0.05
234 0.1 0.2440505903608192 0.05
235 0.1 0.3380370764467547 0.05
236 0.1 0.3052842101147346 0.05
237 0.1 0.4133686688718276 0.05
238 0.1 0.3757028726592912 0.05
239 0.1 0.4566843344359138 0.05000000000000304
240 0.05 0.02462603172736284 0
241 0.05000000000000304 0.01231301586346369 0
242 0.05 0.05294596787377293 0
243 0.05 0.03878599980056542 0
244 0.05 0.08551389416893468 0
245 0.05 0.06922993102136112 0
246 0.05 0.1229670094673272 0
247 0.05 0.1042404518181309 0
248 0.05 0.1660380919944446 0
249 0.05 0.144502550730886 0
250 0.05 0.2155698369390477 0
251 0.05 0.1908039644667462 0
252 0.05 0.2725313437827144 0
253 0.05 0.2440505903608192 0
254 0.05 0.3380370764467547 0
255 0.05 0.3052842101147346 0
256 0.05 0.4133686688718276 0
257 0.05 0.3757028726592912 0
258 0.05000000000000304 0.4566843344359138 0
259 0 0.02462603172736284 0.05
260 0 0.01231301586346369 0.0499999999999971
261 0 0.05294596787377293 0.05
262 0 0.03878599980056542 0.05
263 0 0.08551389416893468 0.05
264 0 0.06922993102136112 0.05
265 0 0.1229670094673272 0.05
266 0 0.1042404518181309 0.05
267 0 0.1660380919944446 0.05
268 0 0.144502550730886 0.05
269 0 0.2155698369390477 0.05
270 0 0.1908039644667462 0.05
271 0 0.2725313437827144 0.05
272 0 0.2440505903608192 0.05
273 0 0.3380370764467547 0.05
274 0 0.3052842101147346 0.05
275 0 0.4133686688718276 0.05
276 0 0.3757028726592912 0.05
277 0 0.4566843344359138 0.0499999999999971
278 0.05000000000000342 0.5 0.05000000000000341
279 0.05 0.5866313311278974 0.1
280 0.0499999999999971 0.543315665563932 0.1
281 0.05 0.6619629235527664 0.1
282 0.05 0.6242971273402496 0.1
283 0.05 0.7274686562166613 0.1
284 0.05 0.6947157898846836 0.1
285 0.05 0.7844301630604065 0.1
286 0.05 0.7559494096383839 0.1
287 0.05 0.8339619080051792 0.1
288 0.05 0.8091960355328196 0.1
289 0.05 0.8770329905324314 0.1
290 0.05 0.8554974492687852 0.1
291 0.05 0.9144861058309299 0.1
292 0.05 0.8957595481816781 0.1
293 0.05 0.9470540321261619 0.1
294 0.05 0.9307700689784992 0.1
295 0.05 0.9753739682726023 0.1
296 0.05 0.9612140001994036 0.1
297 0.0499999999999971 0.9876869841362969 0.1
298 0.1 0.5866313311278974 0.05
299 0.1 0.543315665563932 0.05000000000000304
300 0.1 0.6619629235527664 0.05
301 0.1 0.6242971273402496 0.05
302 0.1 0.7274686562166613 0.05
303 0.1 0.6947157898846836 0.05
304 0.1 0.7844301630604065 0.05
305 0.1 0.7559494096383839 0.05
306 0.1 0.8339619080051792 0.05
307 0.1 0.8091960355328196 0.05
308 0.1 0.8770329905324314 0.05
309 0.1 0.8554974492687852 0.05
310 0.1 0.9144861058309299 0.05
311 0.1 0.8957595481816781 0.05
312 0.1 0.9470540321261619 0.05
313 0.1 0.9307700689784992 0.05
314 0.1 0.9753739682726023 0.05
315 0.1 0.9612140001994036 0.05
316 0.1 0.9876869841362969 0.05000000000000304
317 0.05 0.5866313311278974 0
318 0.05000000000000304 0.543315665563932 0
319 0.05 0.6619629235527664 0
320 0.05 0.6242971273402496 0
321 0.05 0.7274686562166613 0
322 0.05 0.6947157898846836 0
323 0.05 0.7844301630604065 0
324 0.05 0.7559494096383839 0
325 0.05 0.8339619080051792 0
326 0.05 0.8091960355328196 0
327 0.05 0.8770329905324314 0
328 0.05 0.8554974492687852 0
329 0.05 0.9144861058309299 0
330 0.05 0.8957595481816781 0
331 0.05 0.9470540321261619 0
332 0.05 0.9307700689784992 0
333 0.05 0.9753739682726023 0
334 0.05 0.9612140001994036 0
335 0.05000000000000304 0.9876869841362969 0
336 0 0.5866313311278974 0.05
337 0 0.543315665563932 0.0499999999999971
338 0 0.6619629235527664 0.05
339 0 0.6242971273402496 0.05
340 0 0.7274686562166613 0.05
341 0 0.6947157898846836 0.05
342 0 0.7844301630604065 0.05
343 0 0.7559494096383839 0.05
344 0 0.8339619080051792 0.05
345 0 0.8091960355328196 0.05
346 0 0.8770329905324314 0.05
347 0 0.8554974492687852 0.05
348 0 0.9144861058309299 0.05
349 0 0.8957595481816781 0.05
350 0 0.9470540321261619 0.05
351 0 0.9307700689784992 0.05
352 0 0.9753739682726023 0.05
353 0 0.9612140001994036 0.05
354 0 0.9876869841362969 0.0499999999999971
355 0.05000000000000342 1 0.05000000000000341
356 0.05 -0.05 0.1
357 0.1 -0.05 0.05
358 0.05 -0.05 0
359 0 -0.05 0.05
360 0.05000000000000342 -0.1 0.05000000000000341
361 0.05 1.05 0.1
362 0.1 1.05 0.05
363 0.05 1.05 0
364 0 1.05 0.05
365 0.05000000000000342 1.1 0.05000000000000341
366 0.05 0.02462603172736284 0.05
367 0.05 0.01231301586368142 0.05
368 0.05 0.05294596787377292 0.05
369 0.05 0.03878599980056788 0.05
370 0.05 0.08551389416893469 0.05
371 0.05 0.0692299310213538 0.05
372 0.05 0.1229670094673272 0.05
373 0.05 0.104240451818131 0.05
374 0.05 0.1660380919944446 0.05
375 0.05 0.1445025507308859 0.05
376 0.05 0.2155698369390478 0.05
377 0.05 0.1908039644667462 0.05
378 0.05 0.2725313437827144 0.05
379 0.05 0.2440505903608811 0.05
380 0.05 0.3380370764467547 0.05
381 0.05 0.3052842101147346 0.05
382 0.05 0.4133686688718276 0.05
383 0.05 0.3757028726592911 0.05
384 0.05 0.4566843344359138 0.05
385 0.05 0.5866313311278974 0.05
386 0.05 0.5433156655639486 0.05
387 0.05 0.6619629235527664 0.05
388 0.05 0.624297127340332 0.05
389 0.05 0.7274686562166613 0.05
390 0.05 0.6947157898847139 0.05
391 0.05 0.7844301630604065 0.05
392 0.05 0.755949409638534 0.05
393 0.05 0.8339619080051792 0.05
394 0.05 0.8091960355327927 0.05
395 0.05 0.8770329905324314 0.05
396 0.05 0.8554974492688052 0.05
397 0.05 0.9144861058309299 0.05
398 0.05 0.8957595481816807 0.05
399 0.05 0.9470540321261619 0.05
400 0.05 0.9307700689785459 0.05
401 0.05 0.9753739682726023 0.05
402 0.05 0.961214000199382 0.05
403 0.05 0.9876869841363012 0.05
404 0.05 -0.05 0.05
405 0.05 1.05 0.05
$EndNodes
$Elements
104
1 10 2 54 6 4 3 2 1 21 22 23 24 201
2 10 2 58 15 4 3 48 29 21 57 202 38 203
3 10 2 58 15 29 48 49 30 202 58 204 39 205
4 10 2 58 15 30 49 50 31 204 59 206 40 207
5 10 2 58 15 31 50 51 32 206 60 208 41 209
6 10 2 58 15 32 51 52 33 208 61 210 42 211
7 10 2 58 15 33 52 53 34 210 62 212 43 213
8 10 2 58 15 34 53 54 35 212 63 214 44 215
9 10 2 58 15 35 54 55 36 214 64 216 45 217
10 10 2 58 15 36 55 56 37 216 65 218 46 219
11 10 2 58 15 37 56 6 5 218 66 25 47 220
12 10 2 105 19 3 2 67 48 22 76 221 57 222
13 10 2 105 19 48 67 68 49 221 77 223 58 224
14 10 2 105 19 49 68 69 50 223 78 225 59 226
15 10 2 105 19 50 69 70 51 225 79 227 60 228
16 10 2 105 19 51 70 71 52 227 80 229 61 230
17 10 2 105 19 52 71 72 53 229 81 231 62 232
18 10 2 105 19 53 72 73 54 231 82 233 63 234
19 10 2 105 19 54 73 74 55 233 83 235 64 236
20 10 2 105 19 55 74 75 56 235 84 237 65 238
21 10 2 105 19 56 75 7 6 237 85 26 66 239
22 10 2 57 23 2 1 86 67 23 95 240 76 241
23 10 2 57 23 67 86 87 68 240 96 242 77 243
24 10 2 57 23 68 87 88 69 242 97 244 78 245
25 10 2 57 23 69 88 89 70 244 98 246 79 247
26 10 2 57 23 70 89 90 71 246 99 248 80 249
27 10 2 57 23 71 90 91 72 248 100 250 81 251
28 10 2 57 23 72 91 92 73 250 101 252 82 253
29 10 2 57 23 73 92 93 74 252 102 254 83 255
30 10 2 57 23 74 93 94 75 254 103 256 84 257
31 10 2 57 23 75 94 8 7 256 104 27 85 258
32 10 2 106 27 1 4 29 86 24 38 259 95 260
33 10 2 106 27 86 29 30 87 259 39 261 96 262
34 10 2 106 27 87 30 31 88 261 40 263 97 264
35 10 2 106 27 88 31 32 89 263 41 265 98 266
36 10 2 106 27 89 32 33 90 265 42 267 99 268
37 10 2 106 27 90 33 34 91 267 43 269 100 270
38 10 2 106 27 91 34 35 92 269 44 271 101 272
39 10 2 106 27 92 35 36 93 271 45 273 102 274
40 10 2 106 27 93 36 37 94 273 46 275 103 276
41 10 2 106 27 94 37 5 8 275 47 28 104 277
42 10 2 58 37 5 6 128 109 25 137 279 118 280
43 10 2 58 37 109 128 129 110 279 138 281 119 282
44 10 2 58 37 110 129 130 111 281 139 283 120 284
45 10 2 58 37 111 130 131 112 283 140 285 121 286
46 10 2 58 37 112 131 132 113 285 141 287 122 288
47 10 2 58 37 113 132 133 114 287 142 289 123 290
48 10 2 58 37 114 133 134 115 289 143 291 124 292
49 10 2 58 37 115 134 135 116 291 144 293 125 294
50 10 2 58 37 116 135 136 117 293 145 295 126 296
51 10 2 58 37 117 136 10 9 295 146 105 127 297
52 10 2 105 41 6 7 147 128 26 156 298 137 299
53 10 2 105 41 128 147 148 129 298 157 300 138 301
54 10 2 105 41 129 148 149 130 300 158 302 139 303
55 10 2 105 41 130 149 150 131 302 159 304 140 305
56 10 2 105 41 131 150 151 132 304 160 306 141 307
57 10 2 105 41 132 151 152 133 306 161 308 142 309
58 10 2 105 41 133 152 153 134 308 162 310 143 311
59 10 2 105 41 134 153 154 135 310 163 312 144 313
60 10 2 105 41 135 154 155 136 312 164 314 145 315
61 10 2 105 41 136 155 11 10 314 165 106 146 316
62 10 2 57 45 7 8 166 147 27 175 317 156 318
63 10 2 57 45 147 166 167 148 317 176 319 157 320
64 10 2 57 45 148 167 168 149 319 177 321 158 322
65 10 2 57 45 149 168 169 150 321 178 323 159 324
66 10 2 57 45 150 169 170 151 323 179 325 160 326
67 10 2 57 45 151 170 171 152 325 180 327 161 328
68 10 2 57 45 152 171 172 153 327 181 329 162 330
69 10 2 57 45 153 172 173 154 329 182 331 163 332
70 10 2 57 45 154 173 174 155 331 183 333 164 334
71 10 2 57 45 155 174 12 11 333 184 107 165 335
72 10 2 106 49 8 5 109 166 28 118 336 175 337
73 10 2 106 49 166 109 110 167 336 119 338 176 339
74 10 2 106 49 167 110 111 168 338 120 340 177 341
75 10 2 106 49 168 111 112 169 340 121 342 178 343
76 10 2 106 49 169 112 113 170 342 122 344 179 345
77 10 2 106 49 170 113 114 171 344 123 346 180 347
78 10 2 106 49 171 114 115 172 346 124 348 181 349
79 10 2 106 49 172 115 116 173 348 125 350 182 351
80 10 2 106 49 173 116 117 174 350 126 352 183 353
81 10 2 106 49 174 117 9 12 352 127 108 184 354
82 10 2 53 50 9 10 11 12 105 106 107 108 355
83 12 2 51 1 4 3 2 1 29 48 67 86 21 24 38 22 57 23 76 95 202 259 221 240 201 203 260 222 241 366 367
84 12 2 51 1 29 48 67 86 30 49 68 87 202 259 39 221 58 240 77 96 204 261 223 242 366 205 262 224 243 368 369
85 12 2 51 1 30 49 68 87 31 50 69 88 204 261 40 223 59 242 78 97 206 263 225 244 368 207 264 226 245 370 371
86 12 2 51 1 31 50 69 88 32 51 70 89 206 263 41 225 60 244 79 98 208 265 227 246 370 209 266 228 247 372 373
87 12 2 51 1 32 51 70 89 33 52 71 90 208 265 42 227 61 246 80 99 210 267 229 248 372 211 268 230 249 374 375
88 12 2 51 1 33 52 71 90 34 53 72 91 210 267 43 229 62 248 81 100 212 269 231 250 374 213 270 232 251 376 377
89 12 2 51 1 34 53 72 91 35 54 73 92 212 269 44 231 63 250 82 101 214 271 233 252 376 215 272 234 253 378 379
90 12 2 51 1 35 54 73 92 36 55 74 93 214 271 45 233 64 252 83 102 216 273 235 254 378 217 274 236 255 380 381
91 12 2 51 1 36 55 74 93 37 56 75 94 216 273 46 235 65 254 84 103 218 275 237 256 380 219 276 238 257 382 383
92 12 2 51 1 37 56 75 94 5 6 7 8 218 275 47 237 66 256 85 104 25 28 26 27 382 220 277 239 258 278 384
93 12 2 51 2 5 6 7 8 109 128 147 166 25 28 118 26 137 27 156 175 279 336 298 317 278 280 337 299 318 385 386
94 12 2 51 2 109 128 147 166 110 129 148 167 279 336 119 298 138 317 157 176 281 338 300 319 385 282 339 301 320 387 388
95 12 2 51 2 110 129 148 167 111 130 149 168 281 338 120 300 139 319 158 177 283 340 302 321 387 284 341 303 322 389 390
96 12 2 51 2 111 130 149 168 112 131 150 169 283 340 121 302 140 321 159 178 285 342 304 323 389 286 343 305 324 391 392
97 12 2 51 2 112 131 150 169 113 132 151 170 285 342 122 304 141 323 160 179 287 344 306 325 391 288 345 307 326 393 394
98 12 2 51 2 113 132 151 170 114 133 152 171 287 344 123 306 142 325 161 180 289 346 308 327 393 290 347 309 328 395 396
99 12 2 51 2 114 133 152 171 115 134 153 172 289 346 124 308 143 327 162 181 291 348 310 329 395 292 349 311 330 397 398
100 12 2 51 2 115 134 153 172 116 135 154 173 291 348 125 310 144 329 163 182 293 350 312 331 397 294 351 313 332 399 400
101 12 2 51 2 116 135 154 173 117 136 155 174 293 350 126 312 145 331 164 183 295 352 314 333 399 296 353 315 334 401 402
102 12 2 51 2 117 136 155 174 9 10 11 12 295 352 127 314 146 333 165 184 105 108 106 107 401 297 354 316 335 355 403
103 12 2 103 3 2 3 4 1 15 14 13 16 22 23 191 21 190 24 189 192 186 187 185 188 201 357 358 356 359 360 404
104 12 2 104 4 9 10 11 12 17 18 19 20 105 108 197 106 198 107 199 200 193 196 194 195 355 361 364 362 363 365 405
$EndElements
