
Point(1) = {0,1,0};
Point(2) = {0.0380394,0.999924,0};
Point(3) = {0.0760788,0.999694,0};
Point(4) = {0.114118,0.99931,0};
Point(5) = {0.152158,0.998773,0};
Point(6) = {0.190197,0.998082,0};
Point(7) = {0.228236,0.997238,0};
Point(8) = {0.266276,0.996241,0};
Point(9) = {0.304315,0.99509,0};
Point(10) = {0.342354,0.993786,0};
Point(11) = {0.380394,0.992329,0};
Point(12) = {0.418433,0.990719,0};
Point(13) = {0.456473,0.988956,0};
Point(14) = {0.494512,0.987041,0};
Point(15) = {0.532551,0.984974,0};
Point(16) = {0.570591,0.982755,0};
Point(17) = {0.60863,0.980385,0};
Point(18) = {0.64667,0.977864,0};
Point(19) = {0.684709,0.975194,0};
Point(20) = {0.722748,0.972374,0};
Point(21) = {0.760788,0.969407,0};
Point(22) = {0.798827,0.966294,0};
Point(23) = {0.836867,0.963037,0};
Point(24) = {0.874906,0.959638,0};
Point(25) = {0.912945,0.956101,0};
Point(26) = {0.950985,0.952428,0};
Point(27) = {0.989024,0.948625,0};
Point(28) = {1.02706,0.944698,0};
Point(29) = {1.0651,0.940654,0};
Point(30) = {1.10314,0.936503,0};
Point(31) = {1.14118,0.932255,0};
Point(32) = {1.17922,0.927926,0};
Point(33) = {1.21726,0.923534,0};
Point(34) = {1.2553,0.919101,0};
Point(35) = {1.29334,0.914656,0};
Point(36) = {1.33138,0.910235,0};
Point(37) = {1.36942,0.905881,0};
Point(38) = {1.40746,0.901652,0};
Point(39) = {1.4455,0.897617,0};
Point(40) = {1.48354,0.893863,0};
Point(41) = {1.52158,0.890499,0};
Point(42) = {1.55961,0.887664,0};
Point(43) = {1.59765,0.885529,0};
Point(44) = {1.63569,0.884307,0};
Point(45) = {1.67373,0.884269,0};
Point(46) = {1.71177,0.88575,0};
Point(47) = {1.74981,0.889172,0};
Point(48) = {1.78785,0.895062,0};
Point(49) = {1.82589,0.904079,0};
Point(50) = {1.86393,0.91705,0};
Spline(1) = {1,2,3,4,5,6,7,8,9,10,11,12,13,14,15,16,17,18,19,20,21,22,23,24,25,26,27,28,29,30,31,32,33,34,35,36,37,38,39,40,41,42,43,44,45,46,47,48,49,50};
Point(51) = {0,0.423557,0};
Point(52) = {0.0231729,0.423209,0};
Point(53) = {0.0463458,0.422172,0};
Point(54) = {0.0695186,0.420452,0};
Point(55) = {0.0926915,0.418068,0};
Point(56) = {0.115864,0.415039,0};
Point(57) = {0.139037,0.411391,0};
Point(58) = {0.16221,0.407152,0};
Point(59) = {0.185383,0.402355,0};
Point(60) = {0.208556,0.397031,0};
Point(61) = {0.231729,0.391215,0};
Point(62) = {0.254902,0.38494,0};
Point(63) = {0.278075,0.378238,0};
Point(64) = {0.301247,0.371141,0};
Point(65) = {0.32442,0.36368,0};
Point(66) = {0.347593,0.355882,0};
Point(67) = {0.370766,0.347775,0};
Point(68) = {0.393939,0.339384,0};
Point(69) = {0.417112,0.33073,0};
Point(70) = {0.440285,0.321837,0};
Point(71) = {0.463458,0.312723,0};
Point(72) = {0.48663,0.303405,0};
Point(73) = {0.509803,0.293901,0};
Point(74) = {0.532976,0.284225,0};
Point(75) = {0.556149,0.27439,0};
Point(76) = {0.579322,0.26441,0};
Point(77) = {0.602495,0.254295,0};
Point(78) = {0.625668,0.244055,0};
Point(79) = {0.648841,0.233701,0};
Point(80) = {0.672014,0.22324,0};
Point(81) = {0.695186,0.21268,0};
Point(82) = {0.718359,0.202029,0};
Point(83) = {0.741532,0.191292,0};
Point(84) = {0.764705,0.180476,0};
Point(85) = {0.787878,0.169587,0};
Point(86) = {0.811051,0.158629,0};
Point(87) = {0.834224,0.147606,0};
Point(88) = {0.857397,0.136524,0};
Point(89) = {0.880569,0.125385,0};
Point(90) = {0.903742,0.114194,0};
Point(91) = {0.926915,0.102953,0};
Point(92) = {0.950088,0.0916664,0};
Point(93) = {0.973261,0.080336,0};
Point(94) = {0.996434,0.0689647,0};
Point(95) = {1.01961,0.0575549,0};
Point(96) = {1.04278,0.0461088,0};
Point(97) = {1.06595,0.0346284,0};
Point(98) = {1.08913,0.0231156,0};
Point(99) = {1.1123,0.0115723,0};
Point(100) = {1.13547,0,0};
Spline(2) = {51,52,53,54,55,56,57,58,59,60,61,62,63,64,65,66,67,68,69,70,71,72,73,74,75,76,77,78,79,80,81,82,83,84,85,86,87,88,89,90,91,92,93,94,95,96,97,98,99,100};
Point(101) = {1.86393,0,0};
Line(3) = {101,50};
Line(4) = {1,51};
Line(5) = {100,101};
Line Loop(6) = {3,-1,4,2,5};
Plane Surface(1) = {6};
ext1[] = Extrude {{1,0,0},{0.,0.,0.}, 2*Pi/3 }{Surface {1};};
ext2[] = Extrude {{1,0,0},{0.,0.,0.}, 2*Pi/3 }{Surface {ext1[0]};};
ext3[] = Extrude {{1,0,0},{0.,0.,0.}, 2*Pi/3 }{Surface {ext2[0]};};
Physical Surface("Fan") = {ext1[4],ext2[4],ext3[5]};
Physical Surface("Intake") = {ext1[2],ext2[2],ext3[3]};
Physical Surface("Duct") = {ext1[3],ext2[3],ext3[4]};
Physical Surface("Spinner") = {ext1[5],ext2[5],ext3[6]};
Physical Volume("Interior") = {ext1[1],ext2[1],ext3[1]};

Field[1] = Attractor;
Field[1].NodesList = {100};
Field[2] = Threshold;
Field[2].DistMax = 0.3;
Field[2].DistMin = 0;
Field[2].IField = 1;
Field[2].LcMax = 5;  // p=3 -> k*dx=2.5; omega=16*2 (because M=0.5 in neg. dir.), c0=1 -> k=32
Field[2].LcMin = 0.04;
Field[2].Sigmoid = 0;
Field[2].StopAtDistMax = 0;
Background Field = 2;

