$MeshFormat
2.2 0 8
$EndMeshFormat
$Nodes
117
1 0 0 0
2 0.5 0 0
3 1 0 0
4 1 0.1 0
5 0.5 0.1 0
6 0 0.1 0
7 0 0 0.1
8 0.5 0 0.1
9 1 0 0.1
10 1 0.1 0.1
11 0.5 0.1 0.1
12 0 0.1 0.1
13 0.1666666666663036 0 0
14 0.3333333333329494 0 0
15 0.08333333333318992 0 0
16 0.2499999999993952 0 0
17 0.4166666666664747 0 0
18 0.6666666666666666 0 0
19 0.8333333333333333 0 0
20 0.5833333333335754 0 0
21 0.7499999999995836 0 0
22 0.9166666666664354 0 0
23 1 0.04999999999985524 0
24 0.8333333333333334 0.1 0
25 0.6666666666666667 0.1 0
26 0.9166666666664246 0.1 0
27 0.7500000000004164 0.1 0
28 0.5833333333335646 0.1 0
29 0.3333333333336803 0.1 0
30 0.1666666666672449 0.1 0
31 0.4166666666668037 0.1 0
32 0.2500000000007319 0.1 0
33 0.08333333333362247 0.1 0
34 0 0.05000000000015159 0
35 0.5 0.04999999999985524 0
36 0.1666666666663036 0 0.1
37 0.3333333333329494 0 0.1
38 0.08333333333318992 0 0.1
39 0.2499999999993952 0 0.1
40 0.4166666666664747 0 0.1
41 0.6666666666666666 0 0.1
42 0.8333333333333333 0 0.1
43 0.5833333333335754 0 0.1
44 0.7499999999995836 0 0.1
45 0.9166666666664354 0 0.1
46 1 0.04999999999985524 0.1
47 0.8333333333333334 0.1 0.1
48 0.6666666666666667 0.1 0.1
49 0.9166666666664246 0.1 0.1
50 0.7500000000004164 0.1 0.1
51 0.5833333333335646 0.1 0.1
52 0.3333333333336803 0.1 0.1
53 0.1666666666672449 0.1 0.1
54 0.4166666666668037 0.1 0.1
55 0.2500000000007319 0.1 0.1
56 0.08333333333362247 0.1 0.1
57 0 0.05000000000015159 0.1
58 0.5 0.04999999999985524 0.1
59 0 0 0.04999999999985524
60 0.5 0 0.04999999999985524
61 1 0 0.04999999999985524
62 1 0.1 0.04999999999985524
63 0.5 0.1 0.04999999999985524
64 0 0.1 0.04999999999985524
65 0.1666666666667743 0.05 0
66 0.0833333333334062 0.0500000000000758 0
67 0.3333333333333148 0.05 0
68 0.2500000000000635 0.05 0
69 0.4166666666666392 0.04999999999992762 0
70 0.6666666666666667 0.05 0
71 0.5833333333335702 0.04999999999992762 0
72 0.8333333333333333 0.05 0
73 0.75 0.05 0
74 0.91666666666643 0.04999999999992762 0
75 0.1666666666663036 0 0.05
76 0.08333333333318992 0 0.04999999999992762
77 0.3333333333329494 0 0.05
78 0.2499999999993952 0 0.05
79 0.4166666666664747 0 0.04999999999992762
80 0.6666666666666666 0 0.05
81 0.5833333333335755 0 0.04999999999992762
82 0.8333333333333333 0 0.05
83 0.7499999999995837 0 0.05
84 0.9166666666664355 0 0.04999999999992762
85 1 0.04999999999985524 0.04999999999985524
86 0.8333333333333334 0.1 0.05
87 0.9166666666664245 0.1 0.04999999999992762
88 0.6666666666666667 0.1 0.05
89 0.7500000000004163 0.1 0.05
90 0.5833333333335646 0.1 0.04999999999992762
91 0.3333333333336803 0.1 0.05
92 0.4166666666668037 0.1 0.04999999999992762
93 0.1666666666672449 0.1 0.05
94 0.2500000000007319 0.1 0.05
95 0.08333333333362247 0.1 0.04999999999992762
96 0 0.05000000000015159 0.04999999999985524
97 0.5 0.04999999999985524 0.04999999999985524
98 0.1666666666667743 0.05 0.1
99 0.0833333333334062 0.0500000000000758 0.1
100 0.3333333333333148 0.05 0.1
101 0.2500000000000635 0.05 0.1
102 0.4166666666666392 0.04999999999992762 0.1
103 0.6666666666666667 0.05 0.1
104 0.5833333333335702 0.04999999999992762 0.1
105 0.8333333333333333 0.05 0.1
106 0.75 0.05 0.1
107 0.91666666666643 0.04999999999992762 0.1
108 0.1666666666667743 0.05 0.05
109 0.08333333333338713 0.05 0.05
110 0.3333333333333148 0.05 0.05
111 0.2500000000000445 0.05 0.05
112 0.4166666666666574 0.05 0.05
113 0.6666666666666667 0.05 0.05
114 0.5833333333333334 0.05 0.05
115 0.8333333333333334 0.05 0.05
116 0.7499999999999999 0.05 0.05
117 0.9166666666666665 0.05 0.05
$EndNodes
$Elements
9
1 15 2 101 1 1
2 10 4 305 5 1 1 3 4 10 9 23 62 46 61 85
3 10 4 308 8 1 2 6 1 7 12 34 59 57 64 96
4 12 4 99 1 1 2 36 13 1 7 53 30 6 12 75 38 98 15 65 59 34 57 93 56 33 64 76 108 99 66 96 95 109
5 12 4 99 1 1 2 37 14 13 36 52 29 30 53 77 39 100 16 67 75 65 98 91 55 32 93 78 110 101 68 108 94 111
6 12 5 99 1 2 2 -1 8 2 14 37 11 5 29 52 60 40 58 17 35 77 67 100 63 54 31 91 79 97 102 69 110 92 112
7 12 5 99 2 2 1 -2 41 18 2 8 48 25 5 11 80 43 103 20 70 60 35 58 88 51 28 63 81 113 104 71 97 90 114
8 12 4 99 2 1 1 42 19 18 41 47 24 25 48 82 44 105 21 72 80 70 103 86 50 27 88 83 115 106 73 113 89 116
9 12 4 99 2 1 1 9 3 19 42 10 4 24 47 61 45 46 22 23 82 72 105 62 49 26 86 84 85 107 74 115 87 117
$EndElements
