IP = newp;
IL = newl;
IS = news;IF = newf;
Point(IP + 0) = {0, 0, 0};
Point(IP + 1) = {0, 0, 6.371000e+06};
PolarSphere(IS) = {IP + 0, IP + 1};
Point(IP + 2) = {-1.0000915086148732e+00, -1.5304245364515209e-01, 0.};
Point(IP + 3) = {-1.1426318140012126e+00, -2.6368355539982552e-01, 0.};
Point(IP + 4) = {-1.0085192272243839e+00, -1.4971391390403521e-01, 0.};
Point(IP + 5) = {-1.0381551569222296e+00, -1.6904606892486779e-01, 0.};
Point(IP + 6) = {-1.0607801559889594e+00, -2.0875167241158094e-01, 0.};
Point(IP + 7) = {-1.0718080398316565e+00, -2.1875022227373636e-01, 0.};
Point(IP + 8) = {-1.0925339525415603e+00, -2.2340088243878115e-01, 0.};
Point(IP + 9) = {-1.1295119431394038e+00, -2.5981397725396788e-01, 0.};
BSpline(IL + 0) = {IP + 2, IP + 4 : IP + 9, IP + 3};
Point(IP + 10) = {-1.0879007058337367e+00, -2.3666208599180713e-01, 0.};
Point(IP + 11) = {-1.0850056355279620e+00, -2.3856708095923268e-01, 0.};
Point(IP + 12) = {-1.0877532122368292e+00, -2.3663389336713803e-01, 0.};
Point(IP + 13) = {-1.0872899706553649e+00, -2.3659371685261157e-01, 0.};
Point(IP + 14) = {-1.0872271150287796e+00, -2.3666507814047569e-01, 0.};
Point(IP + 15) = {-1.0871820847654166e+00, -2.3672891505524285e-01, 0.};
Point(IP + 16) = {-1.0870413968725905e+00, -2.3681630573036525e-01, 0.};
Point(IP + 17) = {-1.0869112410640811e+00, -2.3693683998389509e-01, 0.};
Point(IP + 18) = {-1.0868115561582705e+00, -2.3711513321850478e-01, 0.};
Point(IP + 19) = {-1.0866631592145490e+00, -2.3731394126011235e-01, 0.};
Point(IP + 20) = {-1.0866505402336837e+00, -2.3735733071132384e-01, 0.};
Point(IP + 21) = {-1.0866259826383893e+00, -2.3738235246707615e-01, 0.};
Point(IP + 22) = {-1.0865872501623342e+00, -2.3739387237172108e-01, 0.};
Point(IP + 23) = {-1.0865621193646597e+00, -2.3740928087143465e-01, 0.};
Point(IP + 24) = {-1.0865396598802690e+00, -2.3744010389106901e-01, 0.};
Point(IP + 25) = {-1.0865098293166915e+00, -2.3746832700097587e-01, 0.};
Point(IP + 26) = {-1.0864639071390823e+00, -2.3749874413739810e-01, 0.};
Point(IP + 27) = {-1.0864841318290808e+00, -2.3752862290999230e-01, 0.};
Point(IP + 28) = {-1.0865335509572698e+00, -2.3753725877736834e-01, 0.};
Point(IP + 29) = {-1.0865796292970360e+00, -2.3753803407588511e-01, 0.};
Point(IP + 30) = {-1.0866954351638054e+00, -2.3747903739251905e-01, 0.};
Point(IP + 31) = {-1.0867995794665337e+00, -2.3747568950659823e-01, 0.};
Point(IP + 32) = {-1.0869197601889791e+00, -2.3748351906437304e-01, 0.};
Point(IP + 33) = {-1.0870291131651650e+00, -2.3744919275743245e-01, 0.};
Point(IP + 34) = {-1.0870792968214287e+00, -2.3740563403096984e-01, 0.};
Point(IP + 35) = {-1.0871800779573451e+00, -2.3739326308868591e-01, 0.};
Point(IP + 36) = {-1.0872154529266793e+00, -2.3741165044200643e-01, 0.};
Point(IP + 37) = {-1.0872987997944603e+00, -2.3738884027397969e-01, 0.};
Point(IP + 38) = {-1.0873987676436445e+00, -2.3736344559724437e-01, 0.};
Point(IP + 39) = {-1.0876855309953284e+00, -2.3747004579237163e-01, 0.};
Point(IP + 40) = {-1.0876358228413709e+00, -2.3754195744281584e-01, 0.};
Point(IP + 41) = {-1.0875145737611525e+00, -2.3758307004974255e-01, 0.};
Point(IP + 42) = {-1.0873661790864102e+00, -2.3751444838652505e-01, 0.};
Point(IP + 43) = {-1.0871978958056427e+00, -2.3765225971526238e-01, 0.};
Point(IP + 44) = {-1.0872156172823637e+00, -2.3792679377274592e-01, 0.};
Point(IP + 45) = {-1.0871952843708068e+00, -2.3809725812731866e-01, 0.};
Point(IP + 46) = {-1.0871281226342751e+00, -2.3822153046638075e-01, 0.};
Point(IP + 47) = {-1.0870277327758937e+00, -2.3832440845583458e-01, 0.};
Point(IP + 48) = {-1.0869342603239371e+00, -2.3848429351338499e-01, 0.};
Point(IP + 49) = {-1.0869153761334209e+00, -2.3863761906206948e-01, 0.};
Point(IP + 50) = {-1.0868273377080337e+00, -2.3873337089995283e-01, 0.};
Point(IP + 51) = {-1.0868984852252417e+00, -2.3883073415609407e-01, 0.};
Point(IP + 52) = {-1.0868278094531276e+00, -2.3891785211315844e-01, 0.};
Point(IP + 53) = {-1.0867146015533002e+00, -2.3904716096146167e-01, 0.};
Point(IP + 54) = {-1.0866669815395440e+00, -2.3924572064336416e-01, 0.};
Point(IP + 55) = {-1.0866172902311588e+00, -2.3940429986214573e-01, 0.};
Point(IP + 56) = {-1.0865167440392294e+00, -2.3944570877668983e-01, 0.};
Point(IP + 57) = {-1.0865309536052508e+00, -2.3963287749047524e-01, 0.};
Point(IP + 58) = {-1.0865353763675367e+00, -2.3980413953573354e-01, 0.};
Point(IP + 59) = {-1.0865879370816525e+00, -2.3995995377269572e-01, 0.};
Point(IP + 60) = {-1.0866939174496217e+00, -2.4003626586991741e-01, 0.};
Point(IP + 61) = {-1.0865496372584260e+00, -2.4008159632279927e-01, 0.};
Point(IP + 62) = {-1.0863728515323068e+00, -2.3994993395149794e-01, 0.};
Point(IP + 63) = {-1.0862779746625759e+00, -2.4011181214337490e-01, 0.};
Point(IP + 64) = {-1.0861448714502737e+00, -2.4048796079199072e-01, 0.};
Point(IP + 65) = {-1.0860847800519040e+00, -2.4063187884850767e-01, 0.};
Point(IP + 66) = {-1.0859440854210161e+00, -2.4079828018123567e-01, 0.};
Point(IP + 67) = {-1.0858082567919214e+00, -2.4090106617554188e-01, 0.};
Point(IP + 68) = {-1.0857876336109824e+00, -2.4110609150099740e-01, 0.};
Point(IP + 69) = {-1.0856333720960623e+00, -2.4121922995517997e-01, 0.};
Point(IP + 70) = {-1.0855227400291247e+00, -2.4138077268660069e-01, 0.};
Point(IP + 71) = {-1.0853365925192926e+00, -2.4168559304342804e-01, 0.};
Point(IP + 72) = {-1.0851534788049657e+00, -2.4197921729169958e-01, 0.};
Point(IP + 73) = {-1.0849011387898446e+00, -2.4228700134549208e-01, 0.};
Point(IP + 74) = {-1.0848574714712780e+00, -2.4246961654580726e-01, 0.};
Point(IP + 75) = {-1.0845181978365175e+00, -2.4274522884461971e-01, 0.};
Point(IP + 76) = {-1.0843595054203365e+00, -2.4293376977723904e-01, 0.};
Point(IP + 77) = {-1.0841741908850502e+00, -2.4356083537574744e-01, 0.};
Point(IP + 78) = {-1.0841176358156306e+00, -2.4387112559657734e-01, 0.};
Point(IP + 79) = {-1.0843017002008515e+00, -2.4434817139239293e-01, 0.};
Point(IP + 80) = {-1.0841704161441599e+00, -2.4458456787948246e-01, 0.};
Point(IP + 81) = {-1.0841616381971035e+00, -2.4526232654936742e-01, 0.};
Point(IP + 82) = {-1.0838314236620927e+00, -2.4577205468790808e-01, 0.};
Point(IP + 83) = {-1.0836137358625895e+00, -2.4636138250748679e-01, 0.};
Point(IP + 84) = {-1.0829959661443924e+00, -2.4722919160409051e-01, 0.};
Point(IP + 85) = {-1.0826059659180653e+00, -2.4764117848866418e-01, 0.};
Point(IP + 86) = {-1.0825361882895059e+00, -2.4776629576081047e-01, 0.};
Point(IP + 87) = {-1.0824766363328613e+00, -2.4815890361624157e-01, 0.};
Point(IP + 88) = {-1.0819043421048633e+00, -2.4850653989008006e-01, 0.};
Point(IP + 89) = {-1.0817612034837356e+00, -2.4869529883491587e-01, 0.};
Point(IP + 90) = {-1.0814410617200452e+00, -2.4883197882071098e-01, 0.};
Point(IP + 91) = {-1.0808065884716564e+00, -2.4874776637874607e-01, 0.};
Point(IP + 92) = {-1.0803482716674802e+00, -2.4923374345381807e-01, 0.};
Point(IP + 93) = {-1.0801610842543852e+00, -2.4962974857411999e-01, 0.};
Point(IP + 94) = {-1.0801366362898066e+00, -2.4992549504853018e-01, 0.};
Point(IP + 95) = {-1.0802647679456763e+00, -2.4997284546129073e-01, 0.};
Point(IP + 96) = {-1.0802070524516159e+00, -2.5019296592256207e-01, 0.};
Point(IP + 97) = {-1.0798717748828968e+00, -2.5064339919356343e-01, 0.};
Point(IP + 98) = {-1.0798731445825223e+00, -2.5090440663278207e-01, 0.};
Point(IP + 99) = {-1.0797578973628559e+00, -2.5121439308401039e-01, 0.};
Point(IP + 100) = {-1.0797822067063629e+00, -2.5136221196351610e-01, 0.};
Point(IP + 101) = {-1.0799403056956218e+00, -2.5162898334639372e-01, 0.};
Point(IP + 102) = {-1.0797239273069235e+00, -2.5181162212094488e-01, 0.};
Point(IP + 103) = {-1.0795906614074315e+00, -2.5203058202773643e-01, 0.};
Point(IP + 104) = {-1.0793721798839180e+00, -2.5220524284349632e-01, 0.};
Point(IP + 105) = {-1.0791022002322801e+00, -2.5249755800564749e-01, 0.};
Point(IP + 106) = {-1.0790774451577554e+00, -2.5262064655586713e-01, 0.};
Point(IP + 107) = {-1.0791067484835906e+00, -2.5266954312613671e-01, 0.};
Point(IP + 108) = {-1.0790221968653759e+00, -2.5268785926513287e-01, 0.};
Point(IP + 109) = {-1.0789788302983587e+00, -2.5287412962013373e-01, 0.};
Point(IP + 110) = {-1.0788259760547365e+00, -2.5305070665872831e-01, 0.};
Point(IP + 111) = {-1.0787374989120377e+00, -2.5331300254430555e-01, 0.};
Point(IP + 112) = {-1.0786694305835718e+00, -2.5344250180254535e-01, 0.};
Point(IP + 113) = {-1.0786559800630267e+00, -2.5369508390380541e-01, 0.};
Point(IP + 114) = {-1.0786213803436124e+00, -2.5397268949973095e-01, 0.};
Point(IP + 115) = {-1.0786045203230763e+00, -2.5415937957880480e-01, 0.};
Point(IP + 116) = {-1.0786706409688929e+00, -2.5437859261953699e-01, 0.};
Point(IP + 117) = {-1.0787239018172128e+00, -2.5472996865143077e-01, 0.};
Point(IP + 118) = {-1.0787176198393185e+00, -2.5494867737908528e-01, 0.};
Point(IP + 119) = {-1.0788397303389641e+00, -2.5493605198955643e-01, 0.};
Point(IP + 120) = {-1.0788834705999373e+00, -2.5523005917817720e-01, 0.};
Point(IP + 121) = {-1.0788493555117640e+00, -2.5546036571349917e-01, 0.};
Point(IP + 122) = {-1.0788085538163950e+00, -2.5561524681496428e-01, 0.};
Point(IP + 123) = {-1.0788987759377215e+00, -2.5581126432146306e-01, 0.};
Point(IP + 124) = {-1.0790073079848801e+00, -2.5588664403551820e-01, 0.};
Point(IP + 125) = {-1.0789021313442739e+00, -2.5596555146011801e-01, 0.};
Point(IP + 126) = {-1.0790207373634515e+00, -2.5617392797018562e-01, 0.};
Point(IP + 127) = {-1.0787618546782094e+00, -2.5635105834912292e-01, 0.};
Point(IP + 128) = {-1.0781086635991668e+00, -2.5655737064019468e-01, 0.};
Point(IP + 129) = {-1.0781345525118611e+00, -2.5675606395146516e-01, 0.};
Point(IP + 130) = {-1.0777952410092444e+00, -2.5731942569537625e-01, 0.};
Point(IP + 131) = {-1.0774808898379180e+00, -2.5733534987919265e-01, 0.};
Point(IP + 132) = {-1.0770268560949918e+00, -2.5722743731719011e-01, 0.};
Point(IP + 133) = {-1.0769369240242714e+00, -2.5729442527061119e-01, 0.};
Point(IP + 134) = {-1.0768828403258481e+00, -2.5744643885056312e-01, 0.};
Point(IP + 135) = {-1.0767492236477549e+00, -2.5761536458843515e-01, 0.};
Point(IP + 136) = {-1.0764901945511738e+00, -2.5770922716757466e-01, 0.};
Point(IP + 137) = {-1.0763899002622763e+00, -2.5784714074813730e-01, 0.};
Point(IP + 138) = {-1.0763638283627779e+00, -2.5808242561896960e-01, 0.};
Point(IP + 139) = {-1.0762845610354530e+00, -2.5828941458006699e-01, 0.};
Point(IP + 140) = {-1.0760602549654885e+00, -2.5830450981441955e-01, 0.};
Point(IP + 141) = {-1.0760419249365092e+00, -2.5853809570618602e-01, 0.};
Point(IP + 142) = {-1.0759496923046168e+00, -2.5868865095277987e-01, 0.};
Point(IP + 143) = {-1.0757718357311843e+00, -2.5865720610222542e-01, 0.};
Point(IP + 144) = {-1.0755381902291727e+00, -2.5857942209756724e-01, 0.};
Point(IP + 145) = {-1.0755314550840143e+00, -2.5847875909066298e-01, 0.};
Point(IP + 146) = {-1.0757338746122853e+00, -2.5855506236182335e-01, 0.};
Point(IP + 147) = {-1.0758746976427318e+00, -2.5851725169715856e-01, 0.};
Point(IP + 148) = {-1.0759642911342293e+00, -2.5841608804104754e-01, 0.};
Point(IP + 149) = {-1.0759463859308187e+00, -2.5829053322756007e-01, 0.};
Point(IP + 150) = {-1.0760358702486090e+00, -2.5818967708301971e-01, 0.};
Point(IP + 151) = {-1.0760884171607601e+00, -2.5811701966016209e-01, 0.};
Point(IP + 152) = {-1.0762307743689528e+00, -2.5806782385104060e-01, 0.};
Point(IP + 153) = {-1.0762253125291612e+00, -2.5792751676387016e-01, 0.};
Point(IP + 154) = {-1.0763730299793413e+00, -2.5758141248185074e-01, 0.};
Point(IP + 155) = {-1.0767041556308246e+00, -2.5747750142532894e-01, 0.};
Point(IP + 156) = {-1.0767732100790419e+00, -2.5730888614389802e-01, 0.};
Point(IP + 157) = {-1.0768543554661636e+00, -2.5726068568966298e-01, 0.};
Point(IP + 158) = {-1.0769077261097337e+00, -2.5717165871984687e-01, 0.};
Point(IP + 159) = {-1.0768544416796242e+00, -2.5707066220634556e-01, 0.};
Point(IP + 160) = {-1.0770346606784902e+00, -2.5686196090588109e-01, 0.};
Point(IP + 161) = {-1.0772070823056978e+00, -2.5695917225773357e-01, 0.};
Point(IP + 162) = {-1.0773065559686965e+00, -2.5716875057223809e-01, 0.};
Point(IP + 163) = {-1.0776398610978390e+00, -2.5724072274103754e-01, 0.};
Point(IP + 164) = {-1.0778775724535690e+00, -2.5682115651797177e-01, 0.};
Point(IP + 165) = {-1.0779070522026861e+00, -2.5644797608980846e-01, 0.};
Point(IP + 166) = {-1.0780304340396318e+00, -2.5620949492948286e-01, 0.};
Point(IP + 167) = {-1.0783025766455168e+00, -2.5618945453784681e-01, 0.};
Point(IP + 168) = {-1.0787498058360341e+00, -2.5619146917937363e-01, 0.};
Point(IP + 169) = {-1.0787684655965899e+00, -2.5604473915466475e-01, 0.};
Point(IP + 170) = {-1.0786724926263189e+00, -2.5577368852692545e-01, 0.};
Point(IP + 171) = {-1.0785603116757154e+00, -2.5563961600054497e-01, 0.};
Point(IP + 172) = {-1.0785943283351160e+00, -2.5553800761854606e-01, 0.};
Point(IP + 173) = {-1.0787058890044121e+00, -2.5548594062495883e-01, 0.};
Point(IP + 174) = {-1.0786496720167156e+00, -2.5534020960426945e-01, 0.};
Point(IP + 175) = {-1.0786617307303816e+00, -2.5517802670070250e-01, 0.};
Point(IP + 176) = {-1.0784284275905442e+00, -2.5469979079874966e-01, 0.};
Point(IP + 177) = {-1.0785028577231950e+00, -2.5445389653919953e-01, 0.};
Point(IP + 178) = {-1.0784284050437880e+00, -2.5406819801381098e-01, 0.};
Point(IP + 179) = {-1.0783984478805466e+00, -2.5378854095746928e-01, 0.};
Point(IP + 180) = {-1.0784773490957364e+00, -2.5371594888989313e-01, 0.};
Point(IP + 181) = {-1.0784656832429249e+00, -2.5335412799712209e-01, 0.};
Point(IP + 182) = {-1.0786867554939072e+00, -2.5302062032689127e-01, 0.};
Point(IP + 183) = {-1.0788526587923524e+00, -2.5278703312573320e-01, 0.};
Point(IP + 184) = {-1.0790088888136899e+00, -2.5244921632757794e-01, 0.};
Point(IP + 185) = {-1.0791350401877211e+00, -2.5220615169028837e-01, 0.};
Point(IP + 186) = {-1.0793314976372248e+00, -2.5196618199847737e-01, 0.};
Point(IP + 187) = {-1.0794615380733161e+00, -2.5190211634466281e-01, 0.};
Point(IP + 188) = {-1.0796157995422520e+00, -2.5176390780189084e-01, 0.};
Point(IP + 189) = {-1.0797044152927704e+00, -2.5162700854404246e-01, 0.};
Point(IP + 190) = {-1.0796844009568523e+00, -2.5145623980893345e-01, 0.};
Point(IP + 191) = {-1.0795107385979181e+00, -2.5126576418821267e-01, 0.};
Point(IP + 192) = {-1.0793679979819695e+00, -2.5116743391999197e-01, 0.};
Point(IP + 193) = {-1.0792294334592090e+00, -2.5101739216444086e-01, 0.};
Point(IP + 194) = {-1.0791535164233270e+00, -2.5084474329926459e-01, 0.};
Point(IP + 195) = {-1.0792285362464995e+00, -2.5061604400792992e-01, 0.};
Point(IP + 196) = {-1.0792406813724953e+00, -2.5037616832397708e-01, 0.};
Point(IP + 197) = {-1.0792787228752536e+00, -2.4992023950259204e-01, 0.};
Point(IP + 198) = {-1.0793530105787525e+00, -2.4976550232165090e-01, 0.};
Point(IP + 199) = {-1.0793763583056790e+00, -2.4927891381891290e-01, 0.};
Point(IP + 200) = {-1.0794925537435038e+00, -2.4916481736057411e-01, 0.};
Point(IP + 201) = {-1.0794871036507987e+00, -2.4881790715027793e-01, 0.};
Point(IP + 202) = {-1.0794296270838897e+00, -2.4859842539719984e-01, 0.};
Point(IP + 203) = {-1.0794467925190065e+00, -2.4833162127432681e-01, 0.};
Point(IP + 204) = {-1.0794861316503674e+00, -2.4803696535817454e-01, 0.};
Point(IP + 205) = {-1.0794365980998226e+00, -2.4769562448595528e-01, 0.};
Point(IP + 206) = {-1.0795486375001442e+00, -2.4717438974891454e-01, 0.};
Point(IP + 207) = {-1.0798399884054297e+00, -2.4705841153095418e-01, 0.};
Point(IP + 208) = {-1.0799137427287848e+00, -2.4676167880883285e-01, 0.};
Point(IP + 209) = {-1.0801605050480660e+00, -2.4642368817266391e-01, 0.};
Point(IP + 210) = {-1.0803328024038927e+00, -2.4627707087640571e-01, 0.};
Point(IP + 211) = {-1.0803764049874429e+00, -2.4600375989886719e-01, 0.};
Point(IP + 212) = {-1.0807779554371577e+00, -2.4559737403339024e-01, 0.};
Point(IP + 213) = {-1.0810072827602639e+00, -2.4553992917378556e-01, 0.};
Point(IP + 214) = {-1.0812939080252733e+00, -2.4522980145416012e-01, 0.};
Point(IP + 215) = {-1.0814566387892903e+00, -2.4496172499634894e-01, 0.};
Point(IP + 216) = {-1.0818001651512925e+00, -2.4479222391260327e-01, 0.};
Point(IP + 217) = {-1.0823226411252480e+00, -2.4451906236024026e-01, 0.};
Point(IP + 218) = {-1.0827325015158458e+00, -2.4463416177737399e-01, 0.};
Point(IP + 219) = {-1.0830030296546185e+00, -2.4459543819798982e-01, 0.};
Point(IP + 220) = {-1.0832674302176701e+00, -2.4432698849341677e-01, 0.};
Point(IP + 221) = {-1.0835555966393924e+00, -2.4394401179433051e-01, 0.};
Point(IP + 222) = {-1.0836474820111202e+00, -2.4341800654063653e-01, 0.};
Point(IP + 223) = {-1.0836942963932557e+00, -2.4292731771338325e-01, 0.};
Point(IP + 224) = {-1.0839802359770423e+00, -2.4254598049887485e-01, 0.};
Point(IP + 225) = {-1.0844875558117948e+00, -2.4184525686864183e-01, 0.};
Point(IP + 226) = {-1.0848388176657144e+00, -2.4113044685008433e-01, 0.};
Point(IP + 227) = {-1.0851433474838337e+00, -2.4052305710642011e-01, 0.};
Point(IP + 228) = {-1.0855185367667766e+00, -2.3982573180550823e-01, 0.};
Point(IP + 229) = {-1.0855918819513717e+00, -2.3952442485141331e-01, 0.};
Point(IP + 230) = {-1.0854227418593434e+00, -2.3936047036900313e-01, 0.};
Point(IP + 231) = {-1.0852469592716687e+00, -2.3935128929768706e-01, 0.};
Point(IP + 232) = {-1.0850820081057577e+00, -2.3958819663416395e-01, 0.};
Point(IP + 233) = {-1.0849720222967445e+00, -2.3975738694803059e-01, 0.};
Point(IP + 234) = {-1.0847041845103167e+00, -2.4003174521041865e-01, 0.};
Point(IP + 235) = {-1.0846453460363825e+00, -2.3988954637792598e-01, 0.};
Point(IP + 236) = {-1.0847434676820336e+00, -2.3965175528055369e-01, 0.};
Point(IP + 237) = {-1.0848776285575206e+00, -2.3944565735679749e-01, 0.};
Point(IP + 238) = {-1.0850065088725829e+00, -2.3921781255924576e-01, 0.};
Point(IP + 239) = {-1.0850439222317205e+00, -2.3902710115149434e-01, 0.};
Point(IP + 240) = {-1.0850027918017431e+00, -2.3894029043460735e-01, 0.};
Point(IP + 241) = {-1.0850555821861354e+00, -2.3888161677298503e-01, 0.};
Point(IP + 242) = {-1.0849440694452086e+00, -2.3876235689394149e-01, 0.};
Point(IP + 243) = {-1.0847432685991822e+00, -2.3870117559870946e-01, 0.};
Point(IP + 244) = {-1.0845762914109527e+00, -2.3882306691892052e-01, 0.};
Point(IP + 245) = {-1.0844311809071501e+00, -2.3898492388086115e-01, 0.};
Point(IP + 246) = {-1.0842738834054122e+00, -2.3929535818442602e-01, 0.};
Point(IP + 247) = {-1.0841333621228577e+00, -2.3951457246396129e-01, 0.};
Point(IP + 248) = {-1.0840955083300943e+00, -2.3978388945835677e-01, 0.};
Point(IP + 249) = {-1.0840470709586225e+00, -2.3997471758069827e-01, 0.};
Point(IP + 250) = {-1.0839562549556143e+00, -2.4018664503008758e-01, 0.};
Point(IP + 251) = {-1.0838776202972875e+00, -2.4005916617525866e-01, 0.};
Point(IP + 252) = {-1.0838068876276756e+00, -2.3995335525255321e-01, 0.};
Point(IP + 253) = {-1.0838476403538924e+00, -2.3982407713185763e-01, 0.};
Point(IP + 254) = {-1.0839572373348243e+00, -2.3966007805202846e-01, 0.};
Point(IP + 255) = {-1.0840677313742586e+00, -2.3942081934551801e-01, 0.};
Point(IP + 256) = {-1.0841480642126691e+00, -2.3920548622938304e-01, 0.};
Point(IP + 257) = {-1.0842152807846268e+00, -2.3902994644483624e-01, 0.};
Point(IP + 258) = {-1.0842360068036916e+00, -2.3885154608289375e-01, 0.};
Point(IP + 259) = {-1.0843749042033195e+00, -2.3867587033674179e-01, 0.};
Point(IP + 260) = {-1.0845113592380775e+00, -2.3854379279476853e-01, 0.};
Point(IP + 261) = {-1.0846971002191244e+00, -2.3851444045633621e-01, 0.};
Point(IP + 262) = {-1.0849240878257234e+00, -2.3860617817931135e-01, 0.};
Point(IP + 263) = {-1.0852030675254118e+00, -2.3870301886105111e-01, 0.};
BSpline(IL + 1) = {IP + 10, IP + 12 : IP + 263, IP + 11};
Point(IP + 264) = {-1.0839382086483833e+00, -2.4431547013299559e-01, 0.};
Point(IP + 265) = {-1.0839484807144293e+00, -2.4430399086214011e-01, 0.};
Point(IP + 266) = {-1.0837293078415535e+00, -2.4451327093017522e-01, 0.};
Point(IP + 267) = {-1.0834875899147036e+00, -2.4464837095294431e-01, 0.};
Point(IP + 268) = {-1.0833544251809866e+00, -2.4496204413787293e-01, 0.};
Point(IP + 269) = {-1.0831148363175722e+00, -2.4532173131797069e-01, 0.};
Point(IP + 270) = {-1.0829246563138692e+00, -2.4559666970826924e-01, 0.};
Point(IP + 271) = {-1.0828244284508475e+00, -2.4597636583301721e-01, 0.};
Point(IP + 272) = {-1.0830981520918277e+00, -2.4587195865313796e-01, 0.};
Point(IP + 273) = {-1.0833047774208429e+00, -2.4569083100918307e-01, 0.};
Point(IP + 274) = {-1.0834199052381670e+00, -2.4553852024907291e-01, 0.};
Point(IP + 275) = {-1.0835818886804622e+00, -2.4516248173284899e-01, 0.};
Point(IP + 276) = {-1.0837251552298262e+00, -2.4487014352038328e-01, 0.};
Point(IP + 277) = {-1.0839448167060981e+00, -2.4465087192817930e-01, 0.};
Point(IP + 278) = {-1.0840114721552843e+00, -2.4444706933664745e-01, 0.};
Point(IP + 279) = {-1.0839382086483833e+00, -2.4431547013299559e-01, 0.};
BSpline(IL + 2) = {IP + 264 : IP + 279, IP + 264};
Point(IP + 280) = {-1.0829435144220643e+00, -2.4486942320574415e-01, 0.};
Point(IP + 281) = {-1.0828464285027994e+00, -2.4505919072428742e-01, 0.};
Point(IP + 282) = {-1.0827649635136749e+00, -2.4533569834068897e-01, 0.};
Point(IP + 283) = {-1.0828231131058765e+00, -2.4554353070560034e-01, 0.};
Point(IP + 284) = {-1.0829357498040111e+00, -2.4543784978321267e-01, 0.};
Point(IP + 285) = {-1.0830523686429754e+00, -2.4525531170257286e-01, 0.};
Point(IP + 286) = {-1.0832392293449222e+00, -2.4504833419364844e-01, 0.};
Point(IP + 287) = {-1.0832102122751501e+00, -2.4477023560968025e-01, 0.};
Point(IP + 288) = {-1.0831005786245547e+00, -2.4471199560144583e-01, 0.};
Point(IP + 289) = {-1.0829435144220643e+00, -2.4486942320574415e-01, 0.};
BSpline(IL + 3) = {IP + 280 : IP + 289, IP + 280};
Point(IP + 290) = {-1.0825399812785303e+00, -2.4470320147374364e-01, 0.};
Point(IP + 291) = {-1.0821764376758398e+00, -2.4475875411906547e-01, 0.};
Point(IP + 292) = {-1.0820392262507830e+00, -2.4493514499231669e-01, 0.};
Point(IP + 293) = {-1.0816548331932205e+00, -2.4507098092456020e-01, 0.};
Point(IP + 294) = {-1.0813729635570870e+00, -2.4547150159795025e-01, 0.};
Point(IP + 295) = {-1.0812736069222357e+00, -2.4562719894617402e-01, 0.};
Point(IP + 296) = {-1.0807822590725242e+00, -2.4576051893292578e-01, 0.};
Point(IP + 297) = {-1.0805664359928293e+00, -2.4591635098294931e-01, 0.};
Point(IP + 298) = {-1.0805464809258918e+00, -2.4620889123472936e-01, 0.};
Point(IP + 299) = {-1.0805235515777902e+00, -2.4651038760036684e-01, 0.};
Point(IP + 300) = {-1.0802675681180327e+00, -2.4677626085809884e-01, 0.};
Point(IP + 301) = {-1.0800381320506218e+00, -2.4683171225446263e-01, 0.};
Point(IP + 302) = {-1.0800133998495334e+00, -2.4708167440872489e-01, 0.};
Point(IP + 303) = {-1.0799508900765447e+00, -2.4730268110719741e-01, 0.};
Point(IP + 304) = {-1.0800296618316665e+00, -2.4761099300907591e-01, 0.};
Point(IP + 305) = {-1.0800143541680050e+00, -2.4815089545228133e-01, 0.};
Point(IP + 306) = {-1.0800083521465214e+00, -2.4850475209896725e-01, 0.};
Point(IP + 307) = {-1.0797904154349882e+00, -2.4878392510373182e-01, 0.};
Point(IP + 308) = {-1.0795846509877356e+00, -2.4899310130441840e-01, 0.};
Point(IP + 309) = {-1.0795660307054611e+00, -2.4933693431441556e-01, 0.};
Point(IP + 310) = {-1.0799237197658906e+00, -2.4908344781965044e-01, 0.};
Point(IP + 311) = {-1.0802688798510547e+00, -2.4891037437852168e-01, 0.};
Point(IP + 312) = {-1.0804505525367611e+00, -2.4863460017435976e-01, 0.};
Point(IP + 313) = {-1.0805678491090824e+00, -2.4828146932828338e-01, 0.};
Point(IP + 314) = {-1.0806585206384338e+00, -2.4792604494862763e-01, 0.};
Point(IP + 315) = {-1.0805848891903578e+00, -2.4764082661150960e-01, 0.};
Point(IP + 316) = {-1.0807438280962183e+00, -2.4722071084346678e-01, 0.};
Point(IP + 317) = {-1.0809243595094298e+00, -2.4694588390602898e-01, 0.};
Point(IP + 318) = {-1.0811958346923458e+00, -2.4660935967354952e-01, 0.};
Point(IP + 319) = {-1.0814837980800207e+00, -2.4647271463622544e-01, 0.};
Point(IP + 320) = {-1.0817967062340486e+00, -2.4641923608281741e-01, 0.};
Point(IP + 321) = {-1.0819934636108353e+00, -2.4630135286236554e-01, 0.};
Point(IP + 322) = {-1.0821061712574969e+00, -2.4611462051459454e-01, 0.};
Point(IP + 323) = {-1.0822413834289923e+00, -2.4598624909943739e-01, 0.};
Point(IP + 324) = {-1.0824377262530278e+00, -2.4578526832103478e-01, 0.};
Point(IP + 325) = {-1.0824538225706846e+00, -2.4527134033008316e-01, 0.};
Point(IP + 326) = {-1.0826277237444673e+00, -2.4473272357918727e-01, 0.};
BSpline(IL + 4) = {IP + 290 : IP + 326, IP + 290};
Point(IP + 327) = {-1.0813902542467080e+00, -2.4702472296707095e-01, 0.};
Point(IP + 328) = {-1.0812733369694036e+00, -2.4744769547029655e-01, 0.};
Point(IP + 329) = {-1.0811640067924184e+00, -2.4789327309504652e-01, 0.};
Point(IP + 330) = {-1.0812439535835958e+00, -2.4816931322179564e-01, 0.};
Point(IP + 331) = {-1.0817279993515019e+00, -2.4803367553107492e-01, 0.};
Point(IP + 332) = {-1.0822011955914055e+00, -2.4779891233182558e-01, 0.};
Point(IP + 333) = {-1.0825213652539059e+00, -2.4726127057276651e-01, 0.};
Point(IP + 334) = {-1.0824839518452494e+00, -2.4691214014056462e-01, 0.};
Point(IP + 335) = {-1.0822487137007275e+00, -2.4650301769960872e-01, 0.};
Point(IP + 336) = {-1.0818370012258427e+00, -2.4663323302573392e-01, 0.};
Point(IP + 337) = {-1.0815960825276265e+00, -2.4671493054618923e-01, 0.};
Point(IP + 338) = {-1.0814052435304147e+00, -2.4695517160071706e-01, 0.};
BSpline(IL + 5) = {IP + 327 : IP + 338, IP + 327};
Point(IP + 339) = {-1.0794551086410915e+00, -2.5057896636762389e-01, 0.};
Point(IP + 340) = {-1.0793992243466299e+00, -2.5018048543598276e-01, 0.};
Point(IP + 341) = {-1.0799328292083965e+00, -2.4960297065693179e-01, 0.};
Point(IP + 342) = {-1.0797540831735226e+00, -2.5019789684505839e-01, 0.};
Point(IP + 343) = {-1.0798111795761161e+00, -2.5041537761120441e-01, 0.};
Point(IP + 344) = {-1.0796689244599604e+00, -2.5068405840814079e-01, 0.};
Point(IP + 345) = {-1.0794551086410915e+00, -2.5057896636762389e-01, 0.};
BSpline(IL + 6) = {IP + 339 : IP + 345, IP + 339};
Point(IP + 346) = {-1.0052036797031458e+00, -1.5648963780094771e-01, 0.};
Point(IP + 347) = {-1.0050102286810665e+00, -1.5839091786027173e-01, 0.};
Point(IP + 348) = {-1.0063888078177383e+00, -1.5825568619217278e-01, 0.};
Point(IP + 349) = {-1.0057755446391781e+00, -1.5675846753023293e-01, 0.};
Point(IP + 350) = {-1.0157785889050659e+00, -1.6514948863357026e-01, 0.};
Point(IP + 351) = {-1.0199129243601148e+00, -1.6636985153489223e-01, 0.};
Point(IP + 352) = {-1.0192978448421255e+00, -1.6733557381224584e-01, 0.};
Point(IP + 353) = {-1.0205847392126632e+00, -1.6743201853297726e-01, 0.};
Point(IP + 354) = {-1.0201913276425763e+00, -1.6662802891968939e-01, 0.};
Point(IP + 355) = {-1.0248034208183960e+00, -1.7237394004986445e-01, 0.};
Point(IP + 356) = {-1.0282778354238347e+00, -1.7428170627517470e-01, 0.};
Point(IP + 357) = {-1.0291912591911083e+00, -1.7629213847183586e-01, 0.};
Point(IP + 358) = {-1.0283721581100065e+00, -1.7675285165586363e-01, 0.};
Point(IP + 359) = {-1.0297749437184924e+00, -1.7756454124985713e-01, 0.};
Point(IP + 360) = {-1.0292392102644321e+00, -1.7587665122947135e-01, 0.};
Point(IP + 361) = {-1.0320483425009870e+00, -1.8080965833282128e-01, 0.};
Point(IP + 362) = {-1.0323878231583496e+00, -1.7988603503878789e-01, 0.};
Point(IP + 363) = {-1.0363913104178868e+00, -1.8843038178210414e-01, 0.};
Point(IP + 364) = {-1.0363532498771635e+00, -1.8751994454824633e-01, 0.};
Point(IP + 365) = {-1.0436070377910343e+00, -1.9776546049514532e-01, 0.};
Point(IP + 366) = {-1.0428402022228687e+00, -1.9644981398014946e-01, 0.};
Point(IP + 367) = {-1.0436921004750253e+00, -1.9622470065427541e-01, 0.};
Point(IP + 368) = {-1.0467381714021162e+00, -2.0260434884956693e-01, 0.};
Point(IP + 369) = {-1.0494337874757358e+00, -2.0423373970408371e-01, 0.};
Point(IP + 370) = {-1.0582996629979200e+00, -2.1970006514038379e-01, 0.};
Point(IP + 371) = {-1.0641487567964509e+00, -2.2272364692205082e-01, 0.};
Point(IP + 372) = {-1.0726303984116567e+00, -2.3146295253186619e-01, 0.};
Point(IP + 373) = {-1.0764223359936800e+00, -2.3337868018105359e-01, 0.};
Point(IP + 374) = {-1.0788095274007730e+00, -2.3217077142157705e-01, 0.};
Point(IP + 375) = {-1.0804844314031810e+00, -2.3297577501682085e-01, 0.};
BSpline(IL + 7) = {IP + 2, IP + 346 : IP + 375, IP + 11};
Point(IP + 376) = {-1.1376810848761421e+00, -2.6546136138483806e-01, 0.};
Point(IP + 377) = {-1.1019190971069182e+00, -2.5093140867001057e-01, 0.};
Point(IP + 378) = {-1.1072170000092068e+00, -2.5264550709441652e-01, 0.};
Point(IP + 379) = {-1.1267767065234999e+00, -2.6827212951257251e-01, 0.};
Point(IP + 380) = {-1.1286742934235012e+00, -2.6773478850284149e-01, 0.};
Point(IP + 381) = {-1.1339368512729409e+00, -2.7015000025385361e-01, 0.};
Point(IP + 382) = {-1.1359057193017690e+00, -2.6686006009546909e-01, 0.};
BSpline(IL + 8) = {IP + 10, IP + 377 : IP + 382, IP + 376};
Line(IL + 9) = {IP + 376, IP + 3};
Physical Line ("coast") = {IL + 0, IL + 1, IL + 2, IL + 3, IL + 4, IL + 5, IL + 6, IL + 7, IL + 8, IL + 9};
Line Loop(11) = {1, -10, -9, 2, -8};
Line Loop(12) = {3};
Line Loop(13) = {4};
Line Loop(14) = {6};
Line Loop(15) = {5};
Line Loop(16) = {7};
Plane Surface(17) = {11, 12, 13, 14, 15, 16};
Physical Surface(18) = {17};
Mesh.CharacteristicLengthExtendFromBoundary = 0;
Mesh.Algorithm = 6;
Field[1] = Attractor;
Field[1].NNodesByEdge = 2000;
Field[1].EdgesList = {2, 3, 4, 5, 6, 7};
Field[2] = Threshold;
Field[2].DistMax = 30000;
Field[2].IField = 1;
Field[2].DistMin = 1000;
Field[2].LcMax = 15000;
Field[2].LcMin = 500;
Field[3] = Structured;
Field[3].FileName = "bath.bin";
Field[4] = LonLat;
Field[4].IField = 3;
Field[5] = Gradient;
Field[5].Delta = 50;
Field[5].IField = 4;
Field[5].Kind = 3;
Field[6] = MathEval;
Field[6].F = "abs(F4/(abs(F5)+0.0001))";
Field[7] = Threshold;
Field[7].IField = 6;
Field[7].DistMin = 2000;
Field[7].DistMax = 10000;
Field[7].LcMax = 10000;
Field[7].LcMin = 1000;
Field[8] = Min;
Field[8].FieldsList = {2, 7};
Field[9] = Attractor;
Field[9].NodesList = {1200};
Field[10] = Threshold;
Field[10].IField = 9;
Field[10].LcMax = 5000;
Field[10].LcMin = 1;
Field[10].DistMax = 200000;
Field[10].DistMin = 100000;
Field[11] = Max;
Field[11].FieldsList = {8, 10};
Background Field = 11;
Background Field = 2;
Background Field = 8;
Field[3].FileName = "bath.dat";
Field[3].FileName = "bath2.dat";
Field[3].FileName = "bath2.bin";
Field[3].FileName = "bath.dat";
Field[3].TextFormat = 1;
Field[3].FileName = "bath2.dat";
Field[3].FileName = "./bath2.dat";
Field[3].FileName = "bath2.dat";
Field[3].FileName = "bath2.bin";
Field[3].TextFormat = 0;
Field[3].FileName = "bath2.dat";
Field[3].TextFormat = 1;
Field[3].FileName = "./bath2.dat";
Field[3].FileName = "bath2.dat";
Field[3].FileName = "/Users/Valentin/Documents/NewMeshGeneration/bath2.dat";
Field[3].FileName = "/Users/Valentin/Documents/NewMeshGeneration/bath.dat";
Field[12] = MathEval;
Field[12].F = "x";
Field[4].IField = 12;
Field[12].F = "y";

Field[4].IField = 3;
Field[4].IField = 12;
Delete Field [12];
Field[4].IField = 3;
Background Field = 11;
Background Field = 8;
Field[9].NodesList = {331};
Field[12] = MathEval;
Field[12].F = "y";
Field[13] = LonLat;
Field[13].IField = 12;
Delete Field [12];
Delete Field [13];
Background Field = 11;
