$MeshFormat
2.2 0 8
$EndMeshFormat
$Nodes
128
1 0 0 0
2 0.0002129436171991437 0 0
3 0.0002129436171991437 0.0001229430547121383 0
4 0 0.0001229430547121383 0
5 0 0 5.323590429978592e-06
6 0.0002129436171991437 0 5.323590429978592e-06
7 0.0002129436171991437 0.0001229430547121383 5.323590429978592e-06
8 0 0.0001229430547121383 5.323590429978592e-06
9 3.042051674263052e-05 0 0
10 6.084103348527564e-05 0 0
11 9.126155022796454e-05 0 0
12 0.000121682066970726 0 0
13 0.0001521025837135601 0 0
14 0.000182523100456358 0 0
15 0.0002129436171991437 1.756329353028644e-05 0
16 0.0002129436171991437 3.512658706057518e-05 0
17 0.0002129436171991437 5.268988059087086e-05 0
18 0.0002129436171991437 7.025317412116652e-05 0
19 0.0002129436171991437 8.781646765146219e-05 0
20 0.0002129436171991437 0.0001053797611817942 0
21 0.0001825231004565299 0.0001229430547121383 0
22 0.000152102583713904 0.0001229430547121383 0
23 0.0001216820669712418 0.0001229430547121383 0
24 9.126155022848276e-05 0.0001229430547121383 0
25 6.084103348562696e-05 0.0001229430547121383 0
26 3.042051674280742e-05 0.0001229430547121383 0
27 0 0.0001053797611818086 0
28 0 8.781646765149102e-05 0
29 0 7.025317412120977e-05 0
30 0 5.26898805909285e-05 0
31 0 3.512658706064725e-05 0
32 0 1.756329353032968e-05 0
33 3.042051674263052e-05 0 5.323590429978592e-06
34 6.084103348527564e-05 0 5.323590429978592e-06
35 9.126155022796454e-05 0 5.323590429978592e-06
36 0.000121682066970726 0 5.323590429978592e-06
37 0.0001521025837135601 0 5.323590429978592e-06
38 0.000182523100456358 0 5.323590429978592e-06
39 0.0002129436171991437 1.756329353028644e-05 5.323590429978592e-06
40 0.0002129436171991437 3.512658706057518e-05 5.323590429978592e-06
41 0.0002129436171991437 5.268988059087086e-05 5.323590429978592e-06
42 0.0002129436171991437 7.025317412116652e-05 5.323590429978592e-06
43 0.0002129436171991437 8.781646765146219e-05 5.323590429978592e-06
44 0.0002129436171991437 0.0001053797611817942 5.323590429978592e-06
45 0.0001825231004565299 0.0001229430547121383 5.323590429978592e-06
46 0.000152102583713904 0.0001229430547121383 5.323590429978592e-06
47 0.0001216820669712418 0.0001229430547121383 5.323590429978592e-06
48 9.126155022848276e-05 0.0001229430547121383 5.323590429978592e-06
49 6.084103348562696e-05 0.0001229430547121383 5.323590429978592e-06
50 3.042051674280742e-05 0.0001229430547121383 5.323590429978592e-06
51 0 0.0001053797611818086 5.323590429978592e-06
52 0 8.781646765149102e-05 5.323590429978592e-06
53 0 7.025317412120977e-05 5.323590429978592e-06
54 0 5.26898805909285e-05 5.323590429978592e-06
55 0 3.512658706064725e-05 5.323590429978592e-06
56 0 1.756329353032968e-05 5.323590429978592e-06
57 3.04205167426558e-05 1.75632935303235e-05 0
58 3.042051674268106e-05 3.512658706063696e-05 0
59 3.042051674270633e-05 5.268988059092027e-05 0
60 3.042051674273161e-05 7.025317412120357e-05 0
61 3.042051674275688e-05 8.781646765148689e-05 0
62 3.042051674278215e-05 0.0001053797611818065 0
63 6.084103348532584e-05 1.756329353031732e-05 0
64 6.084103348537601e-05 3.512658706062666e-05 0
65 6.084103348542621e-05 5.268988059091205e-05 0
66 6.084103348547639e-05 7.025317412119741e-05 0
67 6.084103348552659e-05 8.781646765148278e-05 0
68 6.084103348557677e-05 0.0001053797611818045 0
69 9.126155022803859e-05 1.756329353031114e-05 0
70 9.126155022811263e-05 3.512658706061637e-05 0
71 9.126155022818663e-05 5.268988059090379e-05 0
72 9.126155022826067e-05 7.025317412119125e-05 0
73 9.126155022833469e-05 8.781646765147866e-05 0
74 9.126155022840875e-05 0.0001053797611818024 0
75 0.0001216820669707997 1.756329353030496e-05 0
76 0.0001216820669708734 3.512658706060608e-05 0
77 0.0001216820669709471 5.268988059089555e-05 0
78 0.0001216820669710208 7.025317412118503e-05 0
79 0.0001216820669710944 8.781646765147453e-05 0
80 0.0001216820669711681 0.0001053797611818004 0
81 0.0001521025837136092 1.756329353029879e-05 0
82 0.0001521025837136584 3.512658706059578e-05 0
83 0.0001521025837137075 5.268988059088732e-05 0
84 0.0001521025837137566 7.025317412117888e-05 0
85 0.0001521025837138057 8.781646765147043e-05 0
86 0.0001521025837138548 0.0001053797611817983 0
87 0.0001825231004563825 1.756329353029262e-05 0
88 0.0001825231004564071 3.512658706058548e-05 0
89 0.0001825231004564317 5.268988059087909e-05 0
90 0.0001825231004564562 7.02531741211727e-05 0
91 0.0001825231004564808 8.781646765146631e-05 0
92 0.0001825231004565054 0.0001053797611817962 0
93 3.04205167426558e-05 1.75632935303235e-05 5.323590429978592e-06
94 3.042051674268106e-05 3.512658706063696e-05 5.323590429978592e-06
95 3.042051674270633e-05 5.268988059092027e-05 5.323590429978592e-06
96 3.042051674273161e-05 7.025317412120357e-05 5.323590429978592e-06
97 3.042051674275688e-05 8.781646765148689e-05 5.323590429978592e-06
98 3.042051674278215e-05 0.0001053797611818065 5.323590429978592e-06
99 6.084103348532584e-05 1.756329353031732e-05 5.323590429978592e-06
100 6.084103348537601e-05 3.512658706062666e-05 5.323590429978592e-06
101 6.084103348542621e-05 5.268988059091205e-05 5.323590429978592e-06
102 6.084103348547639e-05 7.025317412119741e-05 5.323590429978592e-06
103 6.084103348552659e-05 8.781646765148278e-05 5.323590429978592e-06
104 6.084103348557677e-05 0.0001053797611818045 5.323590429978592e-06
105 9.126155022803859e-05 1.756329353031114e-05 5.323590429978592e-06
106 9.126155022811263e-05 3.512658706061637e-05 5.323590429978592e-06
107 9.126155022818663e-05 5.268988059090379e-05 5.323590429978592e-06
108 9.126155022826067e-05 7.025317412119125e-05 5.323590429978592e-06
109 9.126155022833469e-05 8.781646765147866e-05 5.323590429978592e-06
110 9.126155022840875e-05 0.0001053797611818024 5.323590429978592e-06
111 0.0001216820669707997 1.756329353030496e-05 5.323590429978592e-06
112 0.0001216820669708734 3.512658706060608e-05 5.323590429978592e-06
113 0.0001216820669709471 5.268988059089555e-05 5.323590429978592e-06
114 0.0001216820669710208 7.025317412118503e-05 5.323590429978592e-06
115 0.0001216820669710944 8.781646765147453e-05 5.323590429978592e-06
116 0.0001216820669711681 0.0001053797611818004 5.323590429978592e-06
117 0.0001521025837136092 1.756329353029879e-05 5.323590429978592e-06
118 0.0001521025837136584 3.512658706059578e-05 5.323590429978592e-06
119 0.0001521025837137075 5.268988059088732e-05 5.323590429978592e-06
120 0.0001521025837137566 7.025317412117888e-05 5.323590429978592e-06
121 0.0001521025837138057 8.781646765147043e-05 5.323590429978592e-06
122 0.0001521025837138548 0.0001053797611817983 5.323590429978592e-06
123 0.0001825231004563825 1.756329353029262e-05 5.323590429978592e-06
124 0.0001825231004564071 3.512658706058548e-05 5.323590429978592e-06
125 0.0001825231004564317 5.268988059087909e-05 5.323590429978592e-06
126 0.0001825231004564562 7.02531741211727e-05 5.323590429978592e-06
127 0.0001825231004564808 8.781646765146631e-05 5.323590429978592e-06
128 0.0001825231004565054 0.0001053797611817962 5.323590429978592e-06
$EndNodes
$Elements
243
1 15 2 1 1 1
2 15 2 2 2 2
3 15 2 3 3 3
4 15 2 4 4 4
5 15 2 5 5 5
6 15 2 6 6 6
7 15 2 7 7 7
8 15 2 8 8 8
9 1 2 12 1 1 9
10 1 2 12 1 9 10
11 1 2 12 1 10 11
12 1 2 12 1 11 12
13 1 2 12 1 12 13
14 1 2 12 1 13 14
15 1 2 12 1 14 2
16 1 2 23 2 2 15
17 1 2 23 2 15 16
18 1 2 23 2 16 17
19 1 2 23 2 17 18
20 1 2 23 2 18 19
21 1 2 23 2 19 20
22 1 2 23 2 20 3
23 1 2 34 3 3 21
24 1 2 34 3 21 22
25 1 2 34 3 22 23
26 1 2 34 3 23 24
27 1 2 34 3 24 25
28 1 2 34 3 25 26
29 1 2 34 3 26 4
30 1 2 41 4 4 27
31 1 2 41 4 27 28
32 1 2 41 4 28 29
33 1 2 41 4 29 30
34 1 2 41 4 30 31
35 1 2 41 4 31 32
36 1 2 41 4 32 1
37 1 2 56 5 5 33
38 1 2 56 5 33 34
39 1 2 56 5 34 35
40 1 2 56 5 35 36
41 1 2 56 5 36 37
42 1 2 56 5 37 38
43 1 2 56 5 38 6
44 1 2 67 6 6 39
45 1 2 67 6 39 40
46 1 2 67 6 40 41
47 1 2 67 6 41 42
48 1 2 67 6 42 43
49 1 2 67 6 43 44
50 1 2 67 6 44 7
51 1 2 78 7 7 45
52 1 2 78 7 45 46
53 1 2 78 7 46 47
54 1 2 78 7 47 48
55 1 2 78 7 48 49
56 1 2 78 7 49 50
57 1 2 78 7 50 8
58 1 2 85 8 8 51
59 1 2 85 8 51 52
60 1 2 85 8 52 53
61 1 2 85 8 53 54
62 1 2 85 8 54 55
63 1 2 85 8 55 56
64 1 2 85 8 56 5
65 1 2 15 9 1 5
66 1 2 26 10 2 6
67 1 2 37 11 3 7
68 1 2 48 12 4 8
69 3 2 1234 1 1 9 57 32
70 3 2 1234 1 32 57 58 31
71 3 2 1234 1 31 58 59 30
72 3 2 1234 1 30 59 60 29
73 3 2 1234 1 29 60 61 28
74 3 2 1234 1 28 61 62 27
75 3 2 1234 1 27 62 26 4
76 3 2 1234 1 9 10 63 57
77 3 2 1234 1 57 63 64 58
78 3 2 1234 1 58 64 65 59
79 3 2 1234 1 59 65 66 60
80 3 2 1234 1 60 66 67 61
81 3 2 1234 1 61 67 68 62
82 3 2 1234 1 62 68 25 26
83 3 2 1234 1 10 11 69 63
84 3 2 1234 1 63 69 70 64
85 3 2 1234 1 64 70 71 65
86 3 2 1234 1 65 71 72 66
87 3 2 1234 1 66 72 73 67
88 3 2 1234 1 67 73 74 68
89 3 2 1234 1 68 74 24 25
90 3 2 1234 1 11 12 75 69
91 3 2 1234 1 69 75 76 70
92 3 2 1234 1 70 76 77 71
93 3 2 1234 1 71 77 78 72
94 3 2 1234 1 72 78 79 73
95 3 2 1234 1 73 79 80 74
96 3 2 1234 1 74 80 23 24
97 3 2 1234 1 12 13 81 75
98 3 2 1234 1 75 81 82 76
99 3 2 1234 1 76 82 83 77
100 3 2 1234 1 77 83 84 78
101 3 2 1234 1 78 84 85 79
102 3 2 1234 1 79 85 86 80
103 3 2 1234 1 80 86 22 23
104 3 2 1234 1 13 14 87 81
105 3 2 1234 1 81 87 88 82
106 3 2 1234 1 82 88 89 83
107 3 2 1234 1 83 89 90 84
108 3 2 1234 1 84 90 91 85
109 3 2 1234 1 85 91 92 86
110 3 2 1234 1 86 92 21 22
111 3 2 1234 1 14 2 15 87
112 3 2 1234 1 87 15 16 88
113 3 2 1234 1 88 16 17 89
114 3 2 1234 1 89 17 18 90
115 3 2 1234 1 90 18 19 91
116 3 2 1234 1 91 19 20 92
117 3 2 1234 1 92 20 3 21
118 3 2 5678 2 5 33 93 56
119 3 2 5678 2 56 93 94 55
120 3 2 5678 2 55 94 95 54
121 3 2 5678 2 54 95 96 53
122 3 2 5678 2 53 96 97 52
123 3 2 5678 2 52 97 98 51
124 3 2 5678 2 51 98 50 8
125 3 2 5678 2 33 34 99 93
126 3 2 5678 2 93 99 100 94
127 3 2 5678 2 94 100 101 95
128 3 2 5678 2 95 101 102 96
129 3 2 5678 2 96 102 103 97
130 3 2 5678 2 97 103 104 98
131 3 2 5678 2 98 104 49 50
132 3 2 5678 2 34 35 105 99
133 3 2 5678 2 99 105 106 100
134 3 2 5678 2 100 106 107 101
135 3 2 5678 2 101 107 108 102
136 3 2 5678 2 102 108 109 103
137 3 2 5678 2 103 109 110 104
138 3 2 5678 2 104 110 48 49
139 3 2 5678 2 35 36 111 105
140 3 2 5678 2 105 111 112 106
141 3 2 5678 2 106 112 113 107
142 3 2 5678 2 107 113 114 108
143 3 2 5678 2 108 114 115 109
144 3 2 5678 2 109 115 116 110
145 3 2 5678 2 110 116 47 48
146 3 2 5678 2 36 37 117 111
147 3 2 5678 2 111 117 118 112
148 3 2 5678 2 112 118 119 113
149 3 2 5678 2 113 119 120 114
150 3 2 5678 2 114 120 121 115
151 3 2 5678 2 115 121 122 116
152 3 2 5678 2 116 122 46 47
153 3 2 5678 2 37 38 123 117
154 3 2 5678 2 117 123 124 118
155 3 2 5678 2 118 124 125 119
156 3 2 5678 2 119 125 126 120
157 3 2 5678 2 120 126 127 121
158 3 2 5678 2 121 127 128 122
159 3 2 5678 2 122 128 45 46
160 3 2 5678 2 38 6 39 123
161 3 2 5678 2 123 39 40 124
162 3 2 5678 2 124 40 41 125
163 3 2 5678 2 125 41 42 126
164 3 2 5678 2 126 42 43 127
165 3 2 5678 2 127 43 44 128
166 3 2 5678 2 128 44 7 45
167 3 2 1265 3 1 9 33 5
168 3 2 1265 3 9 10 34 33
169 3 2 1265 3 10 11 35 34
170 3 2 1265 3 11 12 36 35
171 3 2 1265 3 12 13 37 36
172 3 2 1265 3 13 14 38 37
173 3 2 1265 3 14 2 6 38
174 3 2 2376 4 2 15 39 6
175 3 2 2376 4 15 16 40 39
176 3 2 2376 4 16 17 41 40
177 3 2 2376 4 17 18 42 41
178 3 2 2376 4 18 19 43 42
179 3 2 2376 4 19 20 44 43
180 3 2 2376 4 20 3 7 44
181 3 2 3487 5 3 21 45 7
182 3 2 3487 5 21 22 46 45
183 3 2 3487 5 22 23 47 46
184 3 2 3487 5 23 24 48 47
185 3 2 3487 5 24 25 49 48
186 3 2 3487 5 25 26 50 49
187 3 2 3487 5 26 4 8 50
188 3 2 4158 6 4 27 51 8
189 3 2 4158 6 27 28 52 51
190 3 2 4158 6 28 29 53 52
191 3 2 4158 6 29 30 54 53
192 3 2 4158 6 30 31 55 54
193 3 2 4158 6 31 32 56 55
194 3 2 4158 6 32 1 5 56
195 5 2 123456 1 1 9 57 32 5 33 93 56
196 5 2 123456 1 32 57 58 31 56 93 94 55
197 5 2 123456 1 31 58 59 30 55 94 95 54
198 5 2 123456 1 30 59 60 29 54 95 96 53
199 5 2 123456 1 29 60 61 28 53 96 97 52
200 5 2 123456 1 28 61 62 27 52 97 98 51
201 5 2 123456 1 27 62 26 4 51 98 50 8
202 5 2 123456 1 9 10 63 57 33 34 99 93
203 5 2 123456 1 57 63 64 58 93 99 100 94
204 5 2 123456 1 58 64 65 59 94 100 101 95
205 5 2 123456 1 59 65 66 60 95 101 102 96
206 5 2 123456 1 60 66 67 61 96 102 103 97
207 5 2 123456 1 61 67 68 62 97 103 104 98
208 5 2 123456 1 62 68 25 26 98 104 49 50
209 5 2 123456 1 10 11 69 63 34 35 105 99
210 5 2 123456 1 63 69 70 64 99 105 106 100
211 5 2 123456 1 64 70 71 65 100 106 107 101
212 5 2 123456 1 65 71 72 66 101 107 108 102
213 5 2 123456 1 66 72 73 67 102 108 109 103
214 5 2 123456 1 67 73 74 68 103 109 110 104
215 5 2 123456 1 68 74 24 25 104 110 48 49
216 5 2 123456 1 11 12 75 69 35 36 111 105
217 5 2 123456 1 69 75 76 70 105 111 112 106
218 5 2 123456 1 70 76 77 71 106 112 113 107
219 5 2 123456 1 71 77 78 72 107 113 114 108
220 5 2 123456 1 72 78 79 73 108 114 115 109
221 5 2 123456 1 73 79 80 74 109 115 116 110
222 5 2 123456 1 74 80 23 24 110 116 47 48
223 5 2 123456 1 12 13 81 75 36 37 117 111
224 5 2 123456 1 75 81 82 76 111 117 118 112
225 5 2 123456 1 76 82 83 77 112 118 119 113
226 5 2 123456 1 77 83 84 78 113 119 120 114
227 5 2 123456 1 78 84 85 79 114 120 121 115
228 5 2 123456 1 79 85 86 80 115 121 122 116
229 5 2 123456 1 80 86 22 23 116 122 46 47
230 5 2 123456 1 13 14 87 81 37 38 123 117
231 5 2 123456 1 81 87 88 82 117 123 124 118
232 5 2 123456 1 82 88 89 83 118 124 125 119
233 5 2 123456 1 83 89 90 84 119 125 126 120
234 5 2 123456 1 84 90 91 85 120 126 127 121
235 5 2 123456 1 85 91 92 86 121 127 128 122
236 5 2 123456 1 86 92 21 22 122 128 45 46
237 5 2 123456 1 14 2 15 87 38 6 39 123
238 5 2 123456 1 87 15 16 88 123 39 40 124
239 5 2 123456 1 88 16 17 89 124 40 41 125
240 5 2 123456 1 89 17 18 90 125 41 42 126
241 5 2 123456 1 90 18 19 91 126 42 43 127
242 5 2 123456 1 91 19 20 92 127 43 44 128
243 5 2 123456 1 92 20 3 21 128 44 7 45
$EndElements
