lsca = 0.2;
p1 = newp; Point(p1) =  {1, 0, 2, lsca};
p2 = newp; Point(p2) =  {0, 1, 2, lsca};
p3 = newp; Point(p3) =  {-1, 0, 2, lsca};
p4 = newp; Point(p4) =  {0, -1, 2, lsca};
p5 = newp; Point(p5) =  {2, 0, 1, lsca};
p6 = newp; Point(p6) =  {0, 2, 1, lsca};
p7 = newp; Point(p7) =  {-2, 0, 1, lsca};
p8 = newp; Point(p8) =  {0, -2, 1, lsca};
p9 = newp; Point(p9) =  {2, 1, 0, lsca};
p10 = newp; Point(p10) =  {1, 2, 0, lsca};
p11 = newp; Point(p11) =  {-1, 2, 0, lsca};
p12 = newp; Point(p12) =  {-2, 1, 0, lsca};
p13 = newp; Point(p13) =  {-2, -1, 0, lsca};
p14 = newp; Point(p14) =  {-1, -2, 0,lsca};
p15 = newp; Point(p15) =  {1, -2, 0, lsca};
p16 = newp; Point(p16) =  {2, -1, 0, lsca};
p17 = newp; Point(p17) =  {2, 0, -1, lsca};
p18 = newp; Point(p18) =  {0, 2, -1, lsca};
p19 = newp; Point(p19) =  {-2, 0, -1, lsca};
p20 = newp; Point(p20) =  {0, -2, -1, lsca};
p21 = newp; Point(p21) =  {1, 0, -2, lsca};
p22 = newp; Point(p22) =  {0, 1, -2, lsca};
p23 = newp; Point(p23) =  {-1, 0, -2, lsca};
p24 = newp; Point(p24) =  {0, -1, -2, lsca};
l1 = newl; Line(l1) = {p1, p2};
l2 = newl; Line(l2) = {p1, p4};
l3 = newl; Line(l3) = {p1, p5};
l4 = newl; Line(l4) = {p2, p3};
l5 = newl; Line(l5) = {p2, p6};
l6 = newl; Line(l6) = {p3, p4};
l7 = newl; Line(l7) = {p3, p7};
l8 = newl; Line(l8) = {p4, p8};
l9 = newl; Line(l9) = {p5, p9};
l10 = newl; Line(l10) = {p5, p16};
l11 = newl; Line(l11) = {p6, p10};
l12 = newl; Line(l12) = {p6, p11};
l13 = newl; Line(l13) = {p7, p12};
l14 = newl; Line(l14) = {p7, p13};
l15 = newl; Line(l15) = {p8, p14};
l16 = newl; Line(l16) = {p8, p15};
l17 = newl; Line(l17) = {p9, p10};
l18 = newl; Line(l18) = {p9, p17};
l19 = newl; Line(l19) = {p10, p18};
l20 = newl; Line(l20) = {p11, p12};
l21 = newl; Line(l21) = {p11, p18};
l22 = newl; Line(l22) = {p12, p19};
l23 = newl; Line(l23) = {p13, p14};
l24 = newl; Line(l24) = {p13, p19};
l25 = newl; Line(l25) = {p14, p20};
l26 = newl; Line(l26) = {p15, p16};
l27 = newl; Line(l27) = {p15, p20};
l28 = newl; Line(l28) = {p16, p17};
l29 = newl; Line(l29) = {p17, p21};
l30 = newl; Line(l30) = {p18, p22};
l31 = newl; Line(l31) = {p19, p23};
l32 = newl; Line(l32) = {p20, p24};
l33 = newl; Line(l33) = {p21, p22};
l34 = newl; Line(l34) = {p21, p24};
l35 = newl; Line(l35) = {p22, p23};
l36 = newl; Line(l36) = {p23, p24};

Point(146) = {2, 2, 0, 1.0};
Point(147) = {0, 2, 2, 1.0};
Point(148) = {-2, -2, 0, 1.0};
Point(149) = {-2, 2, 0, 1.0};
Point(150) = {-2, 0, 2, 1.0};
Line(37) = {10, 146};
Line(38) = {146, 9};
Line(39) = {6, 147};
Line(40) = {147, 2};
Line(41) = {11, 149};
Line(42) = {12, 149};
Line(43) = {7, 150};
Line(44) = {150, 3};
Line(45) = {148, 13};
Line(46) = {148, 14};
Point(151) = {0, -2, 2, 1.0};
Point(152) = {0, -2, -2, 1.0};
Point(153) = {0, 2, -2, 1.0};
Line(47) = {4, 151};
Line(48) = {151, 8};
Line(49) = {153, 18};
Line(50) = {153, 22};
Line(51) = {152, 20};
Line(52) = {152, 24};
Point(154) = {2, -2, 0, 1.0};
Line(53) = {154, 16};
Line(54) = {154, 15};
Point(155) = {2, 0, 2, 1.0};
Point(156) = {2, 0, -2, 1.0};
Point(157) = {-2, 0, -2, 1.0};
Line(55) = {1, 155};
Line(56) = {5, 155};
Line(57) = {17, 156};
Line(58) = {21, 156};
Line(59) = {157, 19};
Line(60) = {157, 23};
