$MeshFormat
2.2 0 8
$EndMeshFormat
$Nodes
65
1 -2.2024 -0.5782969999999999 -0.08269849999999999
2 -1.92854 -0.118799 0.870178
3 -1.58809 -0.893398 0.540065
4 -2.22608 0.544304 0.200803
5 -2.11971 0.633804 -0.310406
6 -1.99289 0.846633 -0.00491564
7 -2.1419 0.204062 -0.654802
8 -1.3661 1.07883 0.0370809
9 -0.989829 1.0018 0.290325
10 -1.22148 0.948534 0.552474
11 -1.49371 -0.623126 0.867299
12 -1.3087 -0.0772904 1.08073
13 -0.857782 0.9897550000000001 -0.0854708
14 -1.0148 0.350486 0.993277
15 -1.21501 0.803938 -0.725944
16 -0.827915 0.71587 -0.677557
17 -0.376308 -0.537767 -0.446073
18 2.73283e-06 -0.509646 -0.07371129999999999
19 3.23736e-07 0.502316 0.0652891
20 3.43514e-06 -0.298241 0.385281
21 -1.24137e-07 0.19854 0.470422
22 -0.369594 -0.655718 0.252408
23 2.81795e-06 -0.161058 -0.438108
24 -0.912599 -0.8405049999999999 0.56303
25 -1.37116 -1.06622 0.164631
26 -0.8814149999999999 0.6543949999999999 0.772319
27 -0.685094 -0.8612649999999999 -0.345168
28 -0.386435 -0.752869 -0.127789
29 -1.75546 -0.960989 -0.175168
30 -1.84577 -0.902952 0.225247
31 -2.02486 -0.607021 0.535737
32 -1.29112 0.671253 0.852592
33 -0.765834 0.834817 0.474262
34 -0.36406 0.576231 0.458306
35 -0.49914 0.7914 0.14918
36 -0.352811 -0.104874 0.696529
37 -0.690179 0.0195063 0.942681
38 -0.487539 0.301496 0.781208
39 -0.981473 0.9532890000000001 -0.423627
40 -0.458096 0.71584 -0.305941
41 -1.1741 -1.021 -0.328348
42 -0.749654 -0.939616 0.0557359
43 -1.5277 -0.8161119999999999 -0.670118
44 -1.95585e-06 0.312965 -0.403586
45 -0.43885 0.446909 -0.639398
46 -1.42842 -0.462013 -0.976556
47 -0.898075 -0.619856 -0.805284
48 -1.00288 -0.116426 -1.03204
49 -2.06125 0.363429 0.673353
50 -1.74321 0.822865 0.539503
51 -1.614 0.397955 0.953651
52 -2.35895 -0.169831 -0.114703
53 -2.36302 0.184085 -0.169765
54 -2.30772 -0.07825070000000001 0.356616
55 -1.87005 -0.417516 -0.814814
56 -1.96204 -0.734186 -0.410541
57 -2.21775 -0.252675 -0.489638
58 -2.01193 -0.105392 -0.810177
59 -1.6029 0.957704 -0.413506
60 -0.456823 0.0150744 -0.7579630000000001
61 -0.948022 0.393082 -0.940963
62 -1.64717 0.589137 -0.829877
63 -1.64048 0.0402081 -1.02022
64 -0.37512 -0.439142 0.567146
65 -0.776053 -0.361805 0.903775
$EndNodes
$Elements
122
1 2 2 0 1 54 31 1
2 2 2 0 1 2 31 54
3 2 2 0 1 11 31 2
4 2 2 0 1 3 31 11
5 2 2 0 1 11 24 3
6 2 2 0 1 4 6 50
7 2 2 0 1 4 54 53
8 2 2 0 1 4 5 6
9 2 2 0 1 59 6 5
10 2 2 0 1 6 8 50
11 2 2 0 1 53 7 5
12 2 2 0 1 4 53 5
13 2 2 0 1 12 11 2
14 2 2 0 1 8 9 10
15 2 2 0 1 8 10 50
16 2 2 0 1 37 65 12
17 2 2 0 1 65 11 12
18 2 2 0 1 2 51 12
19 2 2 0 1 13 9 8
20 2 2 0 1 8 6 59
21 2 2 0 1 35 9 13
22 2 2 0 1 13 40 35
23 2 2 0 1 28 17 27
24 2 2 0 1 24 11 65
25 2 2 0 1 12 14 37
26 2 2 0 1 15 61 16
27 2 2 0 1 9 35 33
28 2 2 0 1 3 24 25
29 2 2 0 1 39 13 8
30 2 2 0 1 17 28 18
31 2 2 0 1 18 23 17
32 2 2 0 1 19 35 40
33 2 2 0 1 40 44 19
34 2 2 0 1 36 21 20
35 2 2 0 1 34 35 19
36 2 2 0 1 19 21 34
37 2 2 0 1 18 28 22
38 2 2 0 1 20 18 22
39 2 2 0 1 17 23 60
40 2 2 0 1 24 65 64
41 2 2 0 1 41 29 25
42 2 2 0 1 10 9 33
43 2 2 0 1 10 33 26
44 2 2 0 1 47 27 17
45 2 2 0 1 28 27 42
46 2 2 0 1 28 42 22
47 2 2 0 1 38 34 21
48 2 2 0 1 38 21 36
49 2 2 0 1 51 50 32
50 2 2 0 1 26 14 32
51 2 2 0 1 29 1 30
52 2 2 0 1 3 25 30
53 2 2 0 1 30 25 29
54 2 2 0 1 30 1 31
55 2 2 0 1 3 30 31
56 2 2 0 1 32 50 10
57 2 2 0 1 26 32 10
58 2 2 0 1 20 22 64
59 2 2 0 1 64 36 20
60 2 2 0 1 44 40 45
61 2 2 0 1 26 33 34
62 2 2 0 1 34 33 35
63 2 2 0 1 14 26 38
64 2 2 0 1 34 38 26
65 2 2 0 1 36 37 38
66 2 2 0 1 38 37 14
67 2 2 0 1 43 29 41
68 2 2 0 1 40 39 16
69 2 2 0 1 40 16 45
70 2 2 0 1 39 40 13
71 2 2 0 1 41 25 42
72 2 2 0 1 42 27 41
73 2 2 0 1 27 47 41
74 2 2 0 1 42 25 24
75 2 2 0 1 56 29 43
76 2 2 0 1 43 55 56
77 2 2 0 1 1 29 56
78 2 2 0 1 60 23 44
79 2 2 0 1 44 45 60
80 2 2 0 1 24 64 22
81 2 2 0 1 22 42 24
82 2 2 0 1 45 16 61
83 2 2 0 1 60 45 61
84 2 2 0 1 47 46 43
85 2 2 0 1 43 41 47
86 2 2 0 1 46 47 48
87 2 2 0 1 63 46 48
88 2 2 0 1 15 16 39
89 2 2 0 1 57 7 53
90 2 2 0 1 49 50 51
91 2 2 0 1 4 50 49
92 2 2 0 1 52 54 1
93 2 2 0 1 52 57 53
94 2 2 0 1 53 54 52
95 2 2 0 1 1 57 52
96 2 2 0 1 49 2 54
97 2 2 0 1 54 4 49
98 2 2 0 1 51 2 49
99 2 2 0 1 14 12 51
100 2 2 0 1 51 32 14
101 2 2 0 1 59 15 39
102 2 2 0 1 39 8 59
103 2 2 0 1 55 43 46
104 2 2 0 1 46 63 55
105 2 2 0 1 57 1 56
106 2 2 0 1 55 57 56
107 2 2 0 1 63 7 58
108 2 2 0 1 57 55 58
109 2 2 0 1 58 7 57
110 2 2 0 1 58 55 63
111 2 2 0 1 62 59 5
112 2 2 0 1 5 7 62
113 2 2 0 1 47 17 60
114 2 2 0 1 60 48 47
115 2 2 0 1 61 48 60
116 2 2 0 1 63 48 61
117 2 2 0 1 15 59 62
118 2 2 0 1 63 62 7
119 2 2 0 1 61 15 62
120 2 2 0 1 61 62 63
121 2 2 0 1 65 37 36
122 2 2 0 1 64 65 36
$EndElements
