Mesh.RemeshParametrization=1; //(0) harmonic (1) conformal 
Mesh.RemeshAlgorithm=1; //(0) nosplit (1) automatic (2) split metis

Mesh.CharacteristicLengthFactor=0.1;
Mesh.Algorithm3D = 1; //Frontal (4) Delaunay(1)

Merge "pelvis.stl";

Compound Surface(200)={1}; 

Surface Loop(300)={200};
Volume(301)={300};

Physical Surface (501)={200};
Physical Volume(502)={301};
