$MeshFormat
2.2 0 8
$EndMeshFormat
$PhysicalNames
10
1 2 "vertical_bottom"
1 1 "Seam"
2 5 "Seam"
2 2 "bottom_Top"
2 4 "bottom_Bottom"
2 6 "vertical_bottom"
2 3 "top_Bottom"
2 1 "top_Top"
3 1 "volume_Top"
3 2 "volume_Bottom"
$EndPhysicalNames
$Nodes
488
1 -2902457.168155107 -575244.8255696058 0
2 -2902457.168155107 -575244.8255696058 3333.333333333333
3 -2902457.168155107 -575244.8255696058 6666.666666666667
4 -2902457.168155107 -575244.8255696058 10000
5 -2336891.919931046 -3394823.808449254 0
6 -2336891.919931046 -3394823.808449254 3333.333333333333
7 -2336891.919931046 -3394823.808449254 6666.666666666667
8 -2336891.919931046 -3394823.808449254 10000
9 560076.1893258368 -2890460.2909086 0
10 560076.1893258368 -2890460.2909086 3333.333333333333
11 560076.1893258368 -2890460.2909086 6666.666666666667
12 560076.1893258368 -2890460.2909086 10000
13 4377.185772971538 -31481.67616231334 0
14 4377.185772971538 -31481.67616231334 3333.333333333333
15 4377.185772971538 -31481.67616231334 6666.666666666667
16 4377.185772971538 -31481.67616231334 10000
17 -548989.337120082 2840742.914177064 0
18 -548989.337120082 2840742.914177064 3333.333333333333
19 -548989.337120082 2840742.914177064 6666.666666666667
20 -548989.337120082 2840742.914177064 10000
21 -3411774.08738187 2262348.125495556 0
22 -3411774.08738187 2262348.125495556 3333.333333333333
23 -3411774.08738187 2262348.125495556 6666.666666666667
24 -3411774.08738187 2262348.125495556 10000
25 3413622.533423787 -2316544.958825268 0
26 3413622.533423787 -2316544.958825268 3333.333333333333
27 3413622.533423787 -2316544.958825268 6666.666666666667
28 3413622.533423787 -2316544.958825268 10000
29 2894313.340885021 524332.1652606116 0
30 2894313.340885021 524332.1652606116 3333.333333333333
31 2894313.340885021 524332.1652606116 6666.666666666667
32 2894313.340885021 524332.1652606116 10000
33 2327566.795340281 3352270.599028463 0
34 2327566.795340281 3352270.599028463 3333.333333333333
35 2327566.795340281 3352270.599028463 6666.666666666667
36 2327566.795340281 3352270.599028463 10000
37 -11035292.33466467 -6371228.99998541 0
38 -11035292.33466467 -6371228.99998541 3333.333333333333
39 -11035292.33466467 -6371228.99998541 6666.666666666667
40 -11035292.33466467 -6371228.99998541 10000
41 -8283755.22964874 -4412643.219526113 0
42 -8283755.22964874 -4412643.219526113 3333.333333333333
43 -8283755.22964874 -4412643.219526113 6666.666666666667
44 -8283755.22964874 -4412643.219526113 10000
45 -8977478.479600241 -1939376.110150472 0
46 -8977478.479600241 -1939376.110150472 3333.333333333333
47 -8977478.479600241 -1939376.110150472 6666.666666666667
48 -8977478.479600241 -1939376.110150472 10000
49 -12308269.27260601 -3297990.811810545 0
50 -12308269.27260601 -3297990.811810545 3333.333333333333
51 -12308269.27260601 -3297990.811810545 6666.666666666667
52 -12308269.27260601 -3297990.811810545 10000
53 -6371228.99998541 11035292.33466467 0
54 -6371228.99998541 11035292.33466467 3333.333333333333
55 -6371228.99998541 11035292.33466467 6666.666666666667
56 -6371228.99998541 11035292.33466467 10000
57 -4717968.163975226 8084907.484779945 0
58 -4717968.163975226 8084907.484779945 3333.333333333333
59 -4717968.163975226 8084907.484779945 6666.666666666667
60 -4717968.163975226 8084907.484779945 10000
61 -2042905.748100842 8866153.427540427 0
62 -2042905.748100842 8866153.427540427 3333.333333333333
63 -2042905.748100842 8866153.427540427 6666.666666666667
64 -2042905.748100842 8866153.427540427 10000
65 -3297990.811810545 12308269.27260601 0
66 -3297990.811810545 12308269.27260601 3333.333333333333
67 -3297990.811810545 12308269.27260601 6666.666666666667
68 -3297990.811810545 12308269.27260601 10000
69 6371228.99998541 -11035292.33466467 0
70 6371228.99998541 -11035292.33466467 3333.333333333333
71 6371228.99998541 -11035292.33466467 6666.666666666667
72 6371228.99998541 -11035292.33466467 10000
73 4886247.497895657 -8017233.759113729 0
74 4886247.497895657 -8017233.759113729 3333.333333333333
75 4886247.497895657 -8017233.759113729 6666.666666666667
76 4886247.497895657 -8017233.759113729 10000
77 2107734.640602534 -8842005.837974228 0
78 2107734.640602534 -8842005.837974228 3333.333333333333
79 2107734.640602534 -8842005.837974228 6666.666666666667
80 2107734.640602534 -8842005.837974228 10000
81 3297990.811810545 -12308269.27260601 0
82 3297990.811810545 -12308269.27260601 3333.333333333333
83 3297990.811810545 -12308269.27260601 6666.666666666667
84 3297990.811810545 -12308269.27260601 10000
85 11035292.33466467 6371228.99998541 0
86 11035292.33466467 6371228.99998541 3333.333333333333
87 11035292.33466467 6371228.99998541 6666.666666666667
88 11035292.33466467 6371228.99998541 10000
89 8265847.588679237 4422621.73018292 0
90 8265847.588679237 4422621.73018292 3333.333333333333
91 8265847.588679237 4422621.73018292 6666.666666666667
92 8265847.588679237 4422621.73018292 10000
93 8948229.136956131 1911736.852018364 0
94 8948229.136956131 1911736.852018364 3333.333333333333
95 8948229.136956131 1911736.852018364 6666.666666666667
96 8948229.136956131 1911736.852018364 10000
97 12308269.27260601 3297990.811810545 0
98 12308269.27260601 3297990.811810545 3333.333333333333
99 12308269.27260601 3297990.811810545 6666.666666666667
100 12308269.27260601 3297990.811810545 10000
101 -1625907.853461678 -6255765.332355162 0
102 -1625907.853461678 -6255765.332355162 3333.333333333333
103 -1625907.853461678 -6255765.332355162 6666.666666666667
104 -1625907.853461678 -6255765.332355162 10000
105 1199336.585838248 -5798040.769487076 0
106 1199336.585838248 -5798040.769487076 3333.333333333333
107 1199336.585838248 -5798040.769487076 6666.666666666667
108 1199336.585838248 -5798040.769487076 10000
109 1652331.675184806 6232640.469665986 0
110 1652331.675184806 6232640.469665986 3333.333333333333
111 1652331.675184806 6232640.469665986 6666.666666666667
112 1652331.675184806 6232640.469665986 10000
113 -1177902.074845696 5777328.123031606 0
114 -1177902.074845696 5777328.123031606 3333.333333333333
115 -1177902.074845696 5777328.123031606 6666.666666666667
116 -1177902.074845696 5777328.123031606 10000
117 -6300773.373009798 1604166.34193386 0
118 -6300773.373009798 1604166.34193386 3333.333333333333
119 -6300773.373009798 1604166.34193386 6666.666666666667
120 -6300773.373009798 1604166.34193386 10000
121 -5870848.499944453 -1165001.158167527 0
122 -5870848.499944453 -1165001.158167527 3333.333333333333
123 -5870848.499944453 -1165001.158167527 6666.666666666667
124 -5870848.499944453 -1165001.158167527 10000
125 6275590.143936494 -1672800.068851745 0
126 6275590.143936494 -1672800.068851745 3333.333333333333
127 6275590.143936494 -1672800.068851745 6666.666666666667
128 6275590.143936494 -1672800.068851745 10000
129 5839821.909231595 1121871.154128714 0
130 5839821.909231595 1121871.154128714 3333.333333333333
131 5839821.909231595 1121871.154128714 6666.666666666667
132 5839821.909231595 1121871.154128714 10000
133 -3974319.668301738 5140739.812584183 0
134 -3974319.668301738 5140739.812584183 3333.333333333333
135 -3974319.668301738 5140739.812584183 6666.666666666667
136 -3974319.668301738 5140739.812584183 10000
137 -6639882.769940968 4399902.533750257 0
138 -6639882.769940968 4399902.533750257 3333.333333333333
139 -6639882.769940968 4399902.533750257 6666.666666666667
140 -6639882.769940968 4399902.533750257 10000
141 -5334732.194002043 -3811118.88293905 0
142 -5334732.194002043 -3811118.88293905 3333.333333333333
143 -5334732.194002043 -3811118.88293905 6666.666666666667
144 -5334732.194002043 -3811118.88293905 10000
145 -4464860.973164962 -6608255.925925916 0
146 -4464860.973164962 -6608255.925925916 3333.333333333333
147 -4464860.973164962 -6608255.925925916 6666.666666666667
148 -4464860.973164962 -6608255.925925916 10000
149 5231295.804426263 3829397.777577288 0
150 5231295.804426263 3829397.777577288 3333.333333333333
151 5231295.804426263 3829397.777577288 6666.666666666667
152 5231295.804426263 3829397.777577288 10000
153 4438214.524668125 6589842.626679306 0
154 4438214.524668125 6589842.626679306 3333.333333333333
155 4438214.524668125 6589842.626679306 6666.666666666667
156 4438214.524668125 6589842.626679306 10000
157 3999627.794153898 -5157943.517023244 0
158 3999627.794153898 -5157943.517023244 3333.333333333333
159 3999627.794153898 -5157943.517023244 6666.666666666667
160 3999627.794153898 -5157943.517023244 10000
161 6614672.790245121 -4462340.634843139 0
162 6614672.790245121 -4462340.634843139 3333.333333333333
163 6614672.790245121 -4462340.634843139 6666.666666666667
164 6614672.790245121 -4462340.634843139 10000
165 -844074.8849071853 -9282315.386017296 0
166 -844074.8849071853 -9282315.386017296 3333.333333333333
167 -844074.8849071853 -9282315.386017296 6666.666666666667
168 -844074.8849071853 -9282315.386017296 10000
169 0 -12742458 0
170 0 -12742458 3333.333333333333
171 0 -12742458 6666.666666666667
172 0 -12742458 10000
173 -9316032.152602777 864179.5273743384 0
174 -9316032.152602777 864179.5273743384 3333.333333333333
175 -9316032.152602777 864179.5273743384 6666.666666666667
176 -9316032.152602777 864179.5273743384 10000
177 -12742458 0 0
178 -12742458 0 3333.333333333333
179 -12742458 0 6666.666666666667
180 -12742458 0 10000
181 852517.0392676435 9279261.934413107 0
182 852517.0392676435 9279261.934413107 3333.333333333333
183 852517.0392676435 9279261.934413107 6666.666666666667
184 852517.0392676435 9279261.934413107 10000
185 0 12742458 0
186 0 12742458 3333.333333333333
187 0 12742458 6666.666666666667
188 0 12742458 10000
189 9281615.617928557 -932766.7960584954 0
190 9281615.617928557 -932766.7960584954 3333.333333333333
191 9281615.617928557 -932766.7960584954 6666.666666666667
192 9281615.617928557 -932766.7960584954 10000
193 12742458 0 0
194 12742458 0 3333.333333333333
195 12742458 0 6666.666666666667
196 12742458 0 10000
197 9195266.017417781 -4082965.213199846 0
198 9195266.017417781 -4082965.213199846 3333.333333333333
199 9195266.017417781 -4082965.213199846 6666.666666666667
200 9195266.017417781 -4082965.213199846 10000
201 7025806.083056944 -7204267.398983764 0
202 7025806.083056944 -7204267.398983764 3333.333333333333
203 7025806.083056944 -7204267.398983764 6666.666666666667
204 7025806.083056944 -7204267.398983764 10000
205 9155857.86336139 -5791144.131586586 0
206 9155857.86336139 -5791144.131586586 3333.333333333333
207 9155857.86336139 -5791144.131586586 6666.666666666667
208 9155857.86336139 -5791144.131586586 10000
209 3680985.295827347 9318925.291940304 0
210 3680985.295827347 9318925.291940304 3333.333333333333
211 3680985.295827347 9318925.291940304 6666.666666666667
212 3680985.295827347 9318925.291940304 10000
213 7252832.056692733 7095873.788929369 0
214 7252832.056692733 7095873.788929369 3333.333333333333
215 7252832.056692733 7095873.788929369 6666.666666666667
216 7252832.056692733 7095873.788929369 10000
217 5770168.143127851 9187749.519065047 0
218 5770168.143127851 9187749.519065047 3333.333333333333
219 5770168.143127851 9187749.519065047 6666.666666666667
220 5770168.143127851 9187749.519065047 10000
221 -9318476.111040667 3790624.511341455 0
222 -9318476.111040667 3790624.511341455 3333.333333333333
223 -9318476.111040667 3790624.511341455 6666.666666666667
224 -9318476.111040667 3790624.511341455 10000
225 -7062289.774900258 7214869.574173138 0
226 -7062289.774900258 7214869.574173138 3333.333333333333
227 -7062289.774900258 7214869.574173138 6666.666666666667
228 -7062289.774900258 7214869.574173138 10000
229 -9184263.900026092 5750688.31798352 0
230 -9184263.900026092 5750688.31798352 3333.333333333333
231 -9184263.900026092 5750688.31798352 6666.666666666667
232 -9184263.900026092 5750688.31798352 10000
233 -3683594.924032023 -9329121.082002131 0
234 -3683594.924032023 -9329121.082002131 3333.333333333333
235 -3683594.924032023 -9329121.082002131 6666.666666666667
236 -3683594.924032023 -9329121.082002131 10000
237 -7276200.176675238 -7125140.590043239 0
238 -7276200.176675238 -7125140.590043239 3333.333333333333
239 -7276200.176675238 -7125140.590043239 6666.666666666667
240 -7276200.176675238 -7125140.590043239 10000
241 -5776666.167511347 -9199424.50237341 0
242 -5776666.167511347 -9199424.50237341 3333.333333333333
243 -5776666.167511347 -9199424.50237341 6666.666666666667
244 -5776666.167511347 -9199424.50237341 10000
245 -12308269.27260232 3297990.811824314 0
246 -12308269.27260232 3297990.811824314 3333.333333333333
247 -12308269.27260232 3297990.811824314 6666.666666666667
248 -12308269.27260232 3297990.811824314 10000
249 12308269.27260232 -3297990.811824314 0
250 12308269.27260232 -3297990.811824314 3333.333333333333
251 12308269.27260232 -3297990.811824314 6666.666666666667
252 12308269.27260232 -3297990.811824314 10000
253 -3297990.811824314 -12308269.27260232 0
254 -3297990.811824314 -12308269.27260232 3333.333333333333
255 -3297990.811824314 -12308269.27260232 6666.666666666667
256 -3297990.811824314 -12308269.27260232 10000
257 3297990.811824314 12308269.27260232 0
258 3297990.811824314 12308269.27260232 3333.333333333333
259 3297990.811824314 12308269.27260232 6666.666666666667
260 3297990.811824314 12308269.27260232 10000
261 9010278.46076891 -9010278.460800635 0
262 9010278.46076891 -9010278.460800635 3333.333333333333
263 9010278.46076891 -9010278.460800635 6666.666666666667
264 9010278.46076891 -9010278.460800635 10000
265 9010278.460800635 9010278.46076891 0
266 9010278.460800635 9010278.46076891 3333.333333333333
267 9010278.460800635 9010278.46076891 6666.666666666667
268 9010278.460800635 9010278.46076891 10000
269 -9010278.46076891 9010278.460800635 0
270 -9010278.46076891 9010278.460800635 3333.333333333333
271 -9010278.46076891 9010278.460800635 6666.666666666667
272 -9010278.46076891 9010278.460800635 10000
273 -9010278.460800635 -9010278.46076891 0
274 -9010278.460800635 -9010278.46076891 3333.333333333333
275 -9010278.460800635 -9010278.46076891 6666.666666666667
276 -9010278.460800635 -9010278.46076891 10000
277 -11035292.33464887 6371229.000012784 0
278 -11035292.33464887 6371229.000012784 3333.333333333333
279 -11035292.33464887 6371229.000012784 6666.666666666667
280 -11035292.33464887 6371229.000012784 10000
281 11035292.33464887 -6371229.000012784 0
282 11035292.33464887 -6371229.000012784 3333.333333333333
283 11035292.33464887 -6371229.000012784 6666.666666666667
284 11035292.33464887 -6371229.000012784 10000
285 -6371229.000012784 -11035292.33464887 0
286 -6371229.000012784 -11035292.33464887 3333.333333333333
287 -6371229.000012784 -11035292.33464887 6666.666666666667
288 -6371229.000012784 -11035292.33464887 10000
289 6371229.000012784 11035292.33464887 0
290 6371229.000012784 11035292.33464887 3333.333333333333
291 6371229.000012784 11035292.33464887 6666.666666666667
292 6371229.000012784 11035292.33464887 10000
293 -256046.6801377873 2985332.392495948 0
294 -256046.6801377873 2985332.392495948 3333.333333333333
295 -256046.6801377873 2985332.392495948 6666.666666666667
296 -256046.6801377873 2985332.392495948 10000
297 -3159415.592198947 2659479.260941875 0
298 -3159415.592198947 2659479.260941875 3333.333333333333
299 -3159415.592198947 2659479.260941875 6666.666666666667
300 -3159415.592198947 2659479.260941875 10000
301 -2872831.085168567 -283240.3879725661 0
302 -2872831.085168567 -283240.3879725661 3333.333333333333
303 -2872831.085168567 -283240.3879725661 6666.666666666667
304 -2872831.085168567 -283240.3879725661 10000
305 46296.27385496703 47034.03150474795 0
306 46296.27385496703 47034.03150474795 3333.333333333333
307 46296.27385496703 47034.03150474795 6666.666666666667
308 46296.27385496703 47034.03150474795 10000
309 2942255.946960108 326715.7180378099 0
310 2942255.946960108 326715.7180378099 3333.333333333333
311 2942255.946960108 326715.7180378099 6666.666666666667
312 2942255.946960108 326715.7180378099 10000
313 2581520.091775271 3262413.745733698 0
314 2581520.091775271 3262413.745733698 3333.333333333333
315 2581520.091775271 3262413.745733698 6666.666666666667
316 2581520.091775271 3262413.745733698 10000
317 347386.3501199212 -2911631.125180564 0
318 347386.3501199212 -2911631.125180564 3333.333333333333
319 347386.3501199212 -2911631.125180564 6666.666666666667
320 347386.3501199212 -2911631.125180564 10000
321 -2528696.992695437 -3169356.808839854 0
322 -2528696.992695437 -3169356.808839854 3333.333333333333
323 -2528696.992695437 -3169356.808839854 6666.666666666667
324 -2528696.992695437 -3169356.808839854 10000
325 3217170.343281265 -2591140.53253118 0
326 3217170.343281265 -2591140.53253118 3333.333333333333
327 3217170.343281265 -2591140.53253118 6666.666666666667
328 3217170.343281265 -2591140.53253118 10000
329 -9075327.733254362 -308582.9084681828 0
330 -9075327.733254362 -308582.9084681828 3333.333333333333
331 -9075327.733254362 -308582.9084681828 6666.666666666667
332 -9075327.733254362 -308582.9084681828 10000
333 -9051842.332779953 2484720.892203787 0
334 -9051842.332779953 2484720.892203787 3333.333333333333
335 -9051842.332779953 2484720.892203787 6666.666666666667
336 -9051842.332779953 2484720.892203787 10000
337 9108382.074618999 404326.6085783791 0
338 9108382.074618999 404326.6085783791 3333.333333333333
339 9108382.074618999 404326.6085783791 6666.666666666667
340 9108382.074618999 404326.6085783791 10000
341 9158629.792997956 -2186639.607135551 0
342 9158629.792997956 -2186639.607135551 3333.333333333333
343 9158629.792997956 -2186639.607135551 6666.666666666667
344 9158629.792997956 -2186639.607135551 10000
345 557246.8134327608 -9167223.800482946 0
346 557246.8134327608 -9167223.800482946 3333.333333333333
347 557246.8134327608 -9167223.800482946 6666.666666666667
348 557246.8134327608 -9167223.800482946 10000
349 -2122157.480757792 -9226178.687732978 0
350 -2122157.480757792 -9226178.687732978 3333.333333333333
351 -2122157.480757792 -9226178.687732978 6666.666666666667
352 -2122157.480757792 -9226178.687732978 10000
353 -382824.7608880139 9138721.01374447 0
354 -382824.7608880139 9138721.01374447 3333.333333333333
355 -382824.7608880139 9138721.01374447 6666.666666666667
356 -382824.7608880139 9138721.01374447 10000
357 2425042.884141869 9123499.275019063 0
358 2425042.884141869 9123499.275019063 3333.333333333333
359 2425042.884141869 9123499.275019063 6666.666666666667
360 2425042.884141869 9123499.275019063 10000
361 6113793.261590553 -2344013.287770724 0
362 6113793.261590553 -2344013.287770724 3333.333333333333
363 6113793.261590553 -2344013.287770724 6666.666666666667
364 6113793.261590553 -2344013.287770724 10000
365 5917474.42576405 551190.181322631 0
366 5917474.42576405 551190.181322631 3333.333333333333
367 5917474.42576405 551190.181322631 6666.666666666667
368 5917474.42576405 551190.181322631 10000
369 2408998.425321985 6123472.455556868 0
370 2408998.425321985 6123472.455556868 3333.333333333333
371 2408998.425321985 6123472.455556868 6666.666666666667
372 2408998.425321985 6123472.455556868 10000
373 -447212.7429260664 5978530.563849634 0
374 -447212.7429260664 5978530.563849634 3333.333333333333
375 -447212.7429260664 5978530.563849634 6666.666666666667
376 -447212.7429260664 5978530.563849634 10000
377 -2155918.621129992 -6182678.78988641 0
378 -2155918.621129992 -6182678.78988641 3333.333333333333
379 -2155918.621129992 -6182678.78988641 6666.666666666667
380 -2155918.621129992 -6182678.78988641 10000
381 565406.0517291508 -5946661.632927394 0
382 565406.0517291508 -5946661.632927394 3333.333333333333
383 565406.0517291508 -5946661.632927394 6666.666666666667
384 565406.0517291508 -5946661.632927394 10000
385 -6044454.474124114 2459244.454415947 0
386 -6044454.474124114 2459244.454415947 3333.333333333333
387 -6044454.474124114 2459244.454415947 6666.666666666667
388 -6044454.474124114 2459244.454415947 10000
389 -5867247.945366503 -419517.4644643088 0
390 -5867247.945366503 -419517.4644643088 3333.333333333333
391 -5867247.945366503 -419517.4644643088 6666.666666666667
392 -5867247.945366503 -419517.4644643088 10000
393 -5532064.162044831 -3261491.48998809 0
394 -5532064.162044831 -3261491.48998809 3333.333333333333
395 -5532064.162044831 -3261491.48998809 6666.666666666667
396 -5532064.162044831 -3261491.48998809 10000
397 -5143811.769797102 -6080466.117114058 0
398 -5143811.769797102 -6080466.117114058 3333.333333333333
399 -5143811.769797102 -6080466.117114058 6666.666666666667
400 -5143811.769797102 -6080466.117114058 10000
401 5561523.140046234 3351541.378053446 0
402 5561523.140046234 3351541.378053446 3333.333333333333
403 5561523.140046234 3351541.378053446 6666.666666666667
404 5561523.140046234 3351541.378053446 10000
405 5175459.221967175 6111708.28708231 0
406 5175459.221967175 6111708.28708231 3333.333333333333
407 5175459.221967175 6111708.28708231 6666.666666666667
408 5175459.221967175 6111708.28708231 10000
409 -3305240.464751694 5619587.116871467 0
410 -3305240.464751694 5619587.116871467 3333.333333333333
411 -3305240.464751694 5619587.116871467 6666.666666666667
412 -3305240.464751694 5619587.116871467 10000
413 -6066997.678203861 5213831.00583548 0
414 -6066997.678203861 5213831.00583548 3333.333333333333
415 -6066997.678203861 5213831.00583548 6666.666666666667
416 -6066997.678203861 5213831.00583548 10000
417 3375005.101336305 -5561871.650221641 0
418 3375005.101336305 -5561871.650221641 3333.333333333333
419 3375005.101336305 -5561871.650221641 6666.666666666667
420 3375005.101336305 -5561871.650221641 10000
421 6091062.139172666 -5183402.13605719 0
422 6091062.139172666 -5183402.13605719 3333.333333333333
423 6091062.139172666 -5183402.13605719 6666.666666666667
424 6091062.139172666 -5183402.13605719 10000
425 -8694214.383994685 -3301350.723820578 0
426 -8694214.383994685 -3301350.723820578 3333.333333333333
427 -8694214.383994685 -3301350.723820578 6666.666666666667
428 -8694214.383994685 -3301350.723820578 10000
429 8711017.171247685 3313757.045606218 0
430 8711017.171247685 3313757.045606218 3333.333333333333
431 8711017.171247685 3313757.045606218 6666.666666666667
432 8711017.171247685 3313757.045606218 10000
433 3359701.877744877 -8722896.879175151 0
434 3359701.877744877 -8722896.879175151 3333.333333333333
435 3359701.877744877 -8722896.879175151 6666.666666666667
436 3359701.877744877 -8722896.879175151 10000
437 -3310375.679247936 8743741.262958642 0
438 -3310375.679247936 8743741.262958642 3333.333333333333
439 -3310375.679247936 8743741.262958642 6666.666666666667
440 -3310375.679247936 8743741.262958642 10000
441 4986435.252693995 8847264.8645324 0
442 4986435.252693995 8847264.8645324 3333.333333333333
443 4986435.252693995 8847264.8645324 6666.666666666667
444 4986435.252693995 8847264.8645324 10000
445 7906683.511176031 6200420.956973409 0
446 7906683.511176031 6200420.956973409 3333.333333333333
447 7906683.511176031 6200420.956973409 6666.666666666667
448 7906683.511176031 6200420.956973409 10000
449 7367654.835085068 7969433.595760811 0
450 7367654.835085068 7969433.595760811 3333.333333333333
451 7367654.835085068 7969433.595760811 6666.666666666667
452 7367654.835085068 7969433.595760811 10000
453 -8855863.445005167 4925309.317249297 0
454 -8855863.445005167 4925309.317249297 3333.333333333333
455 -8855863.445005167 4925309.317249297 6666.666666666667
456 -8855863.445005167 4925309.317249297 10000
457 -6131657.111499754 7972345.461773573 0
458 -6131657.111499754 7972345.461773573 3333.333333333333
459 -6131657.111499754 7972345.461773573 6666.666666666667
460 -6131657.111499754 7972345.461773573 10000
461 -7948341.16608987 7375034.896797241 0
462 -7948341.16608987 7375034.896797241 3333.333333333333
463 -7948341.16608987 7375034.896797241 6666.666666666667
464 -7948341.16608987 7375034.896797241 10000
465 -5027473.158331838 -8876653.129862517 0
466 -5027473.158331838 -8876653.129862517 3333.333333333333
467 -5027473.158331838 -8876653.129862517 6666.666666666667
468 -5027473.158331838 -8876653.129862517 10000
469 -7952925.86874423 -6145797.517733427 0
470 -7952925.86874423 -6145797.517733427 3333.333333333333
471 -7952925.86874423 -6145797.517733427 6666.666666666667
472 -7952925.86874423 -6145797.517733427 10000
473 -7377143.179648989 -7965244.907612138 0
474 -7377143.179648989 -7965244.907612138 3333.333333333333
475 -7377143.179648989 -7965244.907612138 6666.666666666667
476 -7377143.179648989 -7965244.907612138 10000
477 8870919.916922092 -5033172.778763697 0
478 8870919.916922092 -5033172.778763697 3333.333333333333
479 8870919.916922092 -5033172.778763697 6666.666666666667
480 8870919.916922092 -5033172.778763697 10000
481 6159817.774358063 -7963286.813877202 0
482 6159817.774358063 -7963286.813877202 3333.333333333333
483 6159817.774358063 -7963286.813877202 6666.666666666667
484 6159817.774358063 -7963286.813877202 10000
485 7968920.226728876 -7383557.764444657 0
486 7968920.226728876 -7383557.764444657 3333.333333333333
487 7968920.226728876 -7383557.764444657 6666.666666666667
488 7968920.226728876 -7383557.764444657 10000
$EndNodes
$Elements
696
2 5 4 1 1 1 2 1 5 9 13 2 6 10 14
3 5 4 1 1 1 2 2 6 10 14 3 7 11 15
4 5 4 1 1 1 2 3 7 11 15 4 8 12 16
7 5 4 1 1 1 2 1 13 17 21 2 14 18 22
8 5 4 1 1 1 2 2 14 18 22 3 15 19 23
9 5 4 1 1 1 2 3 15 19 23 4 16 20 24
12 5 4 1 1 1 2 9 25 29 13 10 26 30 14
13 5 4 1 1 1 2 10 26 30 14 11 27 31 15
14 5 4 1 1 1 2 11 27 31 15 12 28 32 16
17 5 4 1 1 1 2 17 13 29 33 18 14 30 34
18 5 4 1 1 1 2 18 14 30 34 19 15 31 35
19 5 4 1 1 1 2 19 15 31 35 20 16 32 36
22 5 4 1 1 1 2 37 41 45 49 38 42 46 50
23 5 4 1 1 1 2 38 42 46 50 39 43 47 51
24 5 4 1 1 1 2 39 43 47 51 40 44 48 52
27 5 4 1 1 1 2 53 57 61 65 54 58 62 66
28 5 4 1 1 1 2 54 58 62 66 55 59 63 67
29 5 4 1 1 1 2 55 59 63 67 56 60 64 68
32 5 4 1 1 1 2 69 73 77 81 70 74 78 82
33 5 4 1 1 1 2 70 74 78 82 71 75 79 83
34 5 4 1 1 1 2 71 75 79 83 72 76 80 84
37 5 4 1 1 1 2 85 89 93 97 86 90 94 98
38 5 4 1 1 1 2 86 90 94 98 87 91 95 99
39 5 4 1 1 1 2 87 91 95 99 88 92 96 100
42 5 4 1 1 1 2 9 5 101 105 10 6 102 106
43 5 4 1 1 1 2 10 6 102 106 11 7 103 107
44 5 4 1 1 1 2 11 7 103 107 12 8 104 108
47 5 4 1 1 1 2 17 33 109 113 18 34 110 114
48 5 4 1 1 1 2 18 34 110 114 19 35 111 115
49 5 4 1 1 1 2 19 35 111 115 20 36 112 116
52 5 4 1 1 1 2 1 21 117 121 2 22 118 122
53 5 4 1 1 1 2 2 22 118 122 3 23 119 123
54 5 4 1 1 1 2 3 23 119 123 4 24 120 124
57 5 4 1 1 1 2 29 25 125 129 30 26 126 130
58 5 4 1 1 1 2 30 26 126 130 31 27 127 131
59 5 4 1 1 1 2 31 27 127 131 32 28 128 132
62 5 4 1 1 1 2 133 137 117 21 134 138 118 22
63 5 4 1 1 1 2 134 138 118 22 135 139 119 23
64 5 4 1 1 1 2 135 139 119 23 136 140 120 24
67 5 4 1 1 1 2 141 145 101 5 142 146 102 6
68 5 4 1 1 1 2 142 146 102 6 143 147 103 7
69 5 4 1 1 1 2 143 147 103 7 144 148 104 8
72 5 4 1 1 1 2 149 153 109 33 150 154 110 34
73 5 4 1 1 1 2 150 154 110 34 151 155 111 35
74 5 4 1 1 1 2 151 155 111 35 152 156 112 36
77 5 4 1 1 1 2 157 161 125 25 158 162 126 26
78 5 4 1 1 1 2 158 162 126 26 159 163 127 27
79 5 4 1 1 1 2 159 163 127 27 160 164 128 28
82 5 4 1 1 1 2 165 169 81 77 166 170 82 78
83 5 4 1 1 1 2 166 170 82 78 167 171 83 79
84 5 4 1 1 1 2 167 171 83 79 168 172 84 80
87 5 4 1 1 1 2 173 177 49 45 174 178 50 46
88 5 4 1 1 1 2 174 178 50 46 175 179 51 47
89 5 4 1 1 1 2 175 179 51 47 176 180 52 48
92 5 4 1 1 1 2 181 185 65 61 182 186 66 62
93 5 4 1 1 1 2 182 186 66 62 183 187 67 63
94 5 4 1 1 1 2 183 187 67 63 184 188 68 64
97 5 4 1 1 1 2 189 193 97 93 190 194 98 94
98 5 4 1 1 1 2 190 194 98 94 191 195 99 95
99 5 4 1 1 1 2 191 195 99 95 192 196 100 96
102 5 4 1 1 1 2 197 161 201 205 198 162 202 206
103 5 4 1 1 1 2 198 162 202 206 199 163 203 207
104 5 4 1 1 1 2 199 163 203 207 200 164 204 208
107 5 4 1 1 1 2 209 153 213 217 210 154 214 218
108 5 4 1 1 1 2 210 154 214 218 211 155 215 219
109 5 4 1 1 1 2 211 155 215 219 212 156 216 220
112 5 4 1 1 1 2 221 137 225 229 222 138 226 230
113 5 4 1 1 1 2 222 138 226 230 223 139 227 231
114 5 4 1 1 1 2 223 139 227 231 224 140 228 232
117 5 4 1 1 1 2 233 145 237 241 234 146 238 242
118 5 4 1 1 1 2 234 146 238 242 235 147 239 243
119 5 4 1 1 1 2 235 147 239 243 236 148 240 244
122 5 4 1 1 1 2 77 73 157 105 78 74 158 106
123 5 4 1 1 1 2 78 74 158 106 79 75 159 107
124 5 4 1 1 1 2 79 75 159 107 80 76 160 108
127 5 4 1 1 1 2 61 57 133 113 62 58 134 114
128 5 4 1 1 1 2 62 58 134 114 63 59 135 115
129 5 4 1 1 1 2 63 59 135 115 64 60 136 116
132 5 4 1 1 1 2 45 41 141 121 46 42 142 122
133 5 4 1 1 1 2 46 42 142 122 47 43 143 123
134 5 4 1 1 1 2 47 43 143 123 48 44 144 124
137 5 4 1 1 1 2 93 89 149 129 94 90 150 130
138 5 4 1 1 1 2 94 90 150 130 95 91 151 131
139 5 4 1 1 1 2 95 91 151 131 96 92 152 132
142 5 4 1 1 1 2 93 129 125 189 94 130 126 190
143 5 4 1 1 1 2 94 130 126 190 95 131 127 191
144 5 4 1 1 1 2 95 131 127 191 96 132 128 192
147 5 4 1 1 1 2 45 121 117 173 46 122 118 174
148 5 4 1 1 1 2 46 122 118 174 47 123 119 175
149 5 4 1 1 1 2 47 123 119 175 48 124 120 176
152 5 4 1 1 1 2 77 105 101 165 78 106 102 166
153 5 4 1 1 1 2 78 106 102 166 79 107 103 167
154 5 4 1 1 1 2 79 107 103 167 80 108 104 168
157 5 4 1 1 1 2 61 113 109 181 62 114 110 182
158 5 4 1 1 1 2 62 114 110 182 63 115 111 183
159 5 4 1 1 1 2 63 115 111 183 64 116 112 184
162 5 4 1 1 1 2 237 145 141 41 238 146 142 42
163 5 4 1 1 1 2 238 146 142 42 239 147 143 43
164 5 4 1 1 1 2 239 147 143 43 240 148 144 44
167 5 4 1 1 1 2 213 153 149 89 214 154 150 90
168 5 4 1 1 1 2 214 154 150 90 215 155 151 91
169 5 4 1 1 1 2 215 155 151 91 216 156 152 92
172 5 4 1 1 1 2 201 161 157 73 202 162 158 74
173 5 4 1 1 1 2 202 162 158 74 203 163 159 75
174 5 4 1 1 1 2 203 163 159 75 204 164 160 76
177 5 4 1 1 1 2 225 137 133 57 226 138 134 58
178 5 4 1 1 1 2 226 138 134 58 227 139 135 59
179 5 4 1 1 1 2 227 139 135 59 228 140 136 60
182 5 4 1 1 1 2 197 189 125 161 198 190 126 162
183 5 4 1 1 1 2 198 190 126 162 199 191 127 163
184 5 4 1 1 1 2 199 191 127 163 200 192 128 164
187 5 4 1 1 1 2 221 173 117 137 222 174 118 138
188 5 4 1 1 1 2 222 174 118 138 223 175 119 139
189 5 4 1 1 1 2 223 175 119 139 224 176 120 140
192 5 4 1 1 1 2 233 165 101 145 234 166 102 146
193 5 4 1 1 1 2 234 166 102 146 235 167 103 147
194 5 4 1 1 1 2 235 167 103 147 236 168 104 148
197 5 4 1 1 1 2 209 181 109 153 210 182 110 154
198 5 4 1 1 1 2 210 182 110 154 211 183 111 155
199 5 4 1 1 1 2 211 183 111 155 212 184 112 156
202 5 4 1 1 1 2 177 173 221 245 178 174 222 246
203 5 4 1 1 1 2 178 174 222 246 179 175 223 247
204 5 4 1 1 1 2 179 175 223 247 180 176 224 248
207 5 4 1 1 1 2 193 189 197 249 194 190 198 250
208 5 4 1 1 1 2 194 190 198 250 195 191 199 251
209 5 4 1 1 1 2 195 191 199 251 196 192 200 252
212 5 4 1 1 1 2 169 165 233 253 170 166 234 254
213 5 4 1 1 1 2 170 166 234 254 171 167 235 255
214 5 4 1 1 1 2 171 167 235 255 172 168 236 256
217 5 4 1 1 1 2 185 181 209 257 186 182 210 258
218 5 4 1 1 1 2 186 182 210 258 187 183 211 259
219 5 4 1 1 1 2 187 183 211 259 188 184 212 260
222 5 4 1 1 1 2 33 29 129 149 34 30 130 150
223 5 4 1 1 1 2 34 30 130 150 35 31 131 151
224 5 4 1 1 1 2 35 31 131 151 36 32 132 152
227 5 4 1 1 1 2 21 17 113 133 22 18 114 134
228 5 4 1 1 1 2 22 18 114 134 23 19 115 135
229 5 4 1 1 1 2 23 19 115 135 24 20 116 136
232 5 4 1 1 1 2 5 1 121 141 6 2 122 142
233 5 4 1 1 1 2 6 2 122 142 7 3 123 143
234 5 4 1 1 1 2 7 3 123 143 8 4 124 144
237 5 4 1 1 1 2 25 9 105 157 26 10 106 158
238 5 4 1 1 1 2 26 10 106 158 27 11 107 159
239 5 4 1 1 1 2 27 11 107 159 28 12 108 160
242 5 4 1 1 1 2 73 69 261 201 74 70 262 202
243 5 4 1 1 1 2 74 70 262 202 75 71 263 203
244 5 4 1 1 1 2 75 71 263 203 76 72 264 204
247 5 4 1 1 1 2 89 85 265 213 90 86 266 214
248 5 4 1 1 1 2 90 86 266 214 91 87 267 215
249 5 4 1 1 1 2 91 87 267 215 92 88 268 216
252 5 4 1 1 1 2 57 53 269 225 58 54 270 226
253 5 4 1 1 1 2 58 54 270 226 59 55 271 227
254 5 4 1 1 1 2 59 55 271 227 60 56 272 228
257 5 4 1 1 1 2 41 37 273 237 42 38 274 238
258 5 4 1 1 1 2 42 38 274 238 43 39 275 239
259 5 4 1 1 1 2 43 39 275 239 44 40 276 240
262 5 4 1 1 1 2 245 221 229 277 246 222 230 278
263 5 4 1 1 1 2 246 222 230 278 247 223 231 279
264 5 4 1 1 1 2 247 223 231 279 248 224 232 280
267 5 4 1 1 1 2 249 197 205 281 250 198 206 282
268 5 4 1 1 1 2 250 198 206 282 251 199 207 283
269 5 4 1 1 1 2 251 199 207 283 252 200 208 284
272 5 4 1 1 1 2 253 233 241 285 254 234 242 286
273 5 4 1 1 1 2 254 234 242 286 255 235 243 287
274 5 4 1 1 1 2 255 235 243 287 256 236 244 288
277 5 4 1 1 1 2 257 209 217 289 258 210 218 290
278 5 4 1 1 1 2 258 210 218 290 259 211 219 291
279 5 4 1 1 1 2 259 211 219 291 260 212 220 292
282 5 4 1 1 1 2 281 205 201 261 282 206 202 262
283 5 4 1 1 1 2 282 206 202 262 283 207 203 263
284 5 4 1 1 1 2 283 207 203 263 284 208 204 264
287 5 4 1 1 1 2 277 229 225 269 278 230 226 270
288 5 4 1 1 1 2 278 230 226 270 279 231 227 271
289 5 4 1 1 1 2 279 231 227 271 280 232 228 272
292 5 4 1 1 1 2 289 217 213 265 290 218 214 266
293 5 4 1 1 1 2 290 218 214 266 291 219 215 267
294 5 4 1 1 1 2 291 219 215 267 292 220 216 268
297 5 4 1 1 1 2 285 241 237 273 286 242 238 274
298 5 4 1 1 1 2 286 242 238 274 287 243 239 275
299 5 4 1 1 1 2 287 243 239 275 288 244 240 276
1 3 4 1 2 1 2 1 5 9 13
6 3 4 1 2 1 2 1 13 17 21
11 3 4 1 2 1 2 9 25 29 13
16 3 4 1 2 1 2 17 13 29 33
21 3 4 1 2 1 2 37 41 45 49
26 3 4 1 2 1 2 53 57 61 65
31 3 4 1 2 1 2 69 73 77 81
36 3 4 1 2 1 2 85 89 93 97
41 3 4 1 2 1 2 9 5 101 105
46 3 4 1 2 1 2 17 33 109 113
51 3 4 1 2 1 2 1 21 117 121
56 3 4 1 2 1 2 29 25 125 129
61 3 4 1 2 1 2 133 137 117 21
66 3 4 1 2 1 2 141 145 101 5
71 3 4 1 2 1 2 149 153 109 33
76 3 4 1 2 1 2 157 161 125 25
81 3 4 1 2 1 2 165 169 81 77
86 3 4 1 2 1 2 173 177 49 45
91 3 4 1 2 1 2 181 185 65 61
96 3 4 1 2 1 2 189 193 97 93
101 3 4 1 2 1 2 197 161 201 205
106 3 4 1 2 1 2 209 153 213 217
111 3 4 1 2 1 2 221 137 225 229
116 3 4 1 2 1 2 233 145 237 241
121 3 4 1 2 1 2 77 73 157 105
126 3 4 1 2 1 2 61 57 133 113
131 3 4 1 2 1 2 45 41 141 121
136 3 4 1 2 1 2 93 89 149 129
141 3 4 1 2 1 2 93 129 125 189
146 3 4 1 2 1 2 45 121 117 173
151 3 4 1 2 1 2 77 105 101 165
156 3 4 1 2 1 2 61 113 109 181
161 3 4 1 2 1 2 237 145 141 41
166 3 4 1 2 1 2 213 153 149 89
171 3 4 1 2 1 2 201 161 157 73
176 3 4 1 2 1 2 225 137 133 57
181 3 4 1 2 1 2 197 189 125 161
186 3 4 1 2 1 2 221 173 117 137
191 3 4 1 2 1 2 233 165 101 145
196 3 4 1 2 1 2 209 181 109 153
201 3 4 1 2 1 2 177 173 221 245
206 3 4 1 2 1 2 193 189 197 249
211 3 4 1 2 1 2 169 165 233 253
216 3 4 1 2 1 2 185 181 209 257
221 3 4 1 2 1 2 33 29 129 149
226 3 4 1 2 1 2 21 17 113 133
231 3 4 1 2 1 2 5 1 121 141
236 3 4 1 2 1 2 25 9 105 157
241 3 4 1 2 1 2 73 69 261 201
246 3 4 1 2 1 2 89 85 265 213
251 3 4 1 2 1 2 57 53 269 225
256 3 4 1 2 1 2 41 37 273 237
261 3 4 1 2 1 2 245 221 229 277
266 3 4 1 2 1 2 249 197 205 281
271 3 4 1 2 1 2 253 233 241 285
276 3 4 1 2 1 2 257 209 217 289
281 3 4 1 2 1 2 281 205 201 261
286 3 4 1 2 1 2 277 229 225 269
291 3 4 1 2 1 2 289 217 213 265
296 3 4 1 2 1 2 285 241 237 273
5 3 4 2 3 1 2 4 8 12 16
10 3 4 2 3 1 2 4 16 20 24
15 3 4 2 3 1 2 12 28 32 16
20 3 4 2 3 1 2 20 16 32 36
25 3 4 2 3 1 2 40 44 48 52
30 3 4 2 3 1 2 56 60 64 68
35 3 4 2 3 1 2 72 76 80 84
40 3 4 2 3 1 2 88 92 96 100
45 3 4 2 3 1 2 12 8 104 108
50 3 4 2 3 1 2 20 36 112 116
55 3 4 2 3 1 2 4 24 120 124
60 3 4 2 3 1 2 32 28 128 132
65 3 4 2 3 1 2 136 140 120 24
70 3 4 2 3 1 2 144 148 104 8
75 3 4 2 3 1 2 152 156 112 36
80 3 4 2 3 1 2 160 164 128 28
85 3 4 2 3 1 2 168 172 84 80
90 3 4 2 3 1 2 176 180 52 48
95 3 4 2 3 1 2 184 188 68 64
100 3 4 2 3 1 2 192 196 100 96
105 3 4 2 3 1 2 200 164 204 208
110 3 4 2 3 1 2 212 156 216 220
115 3 4 2 3 1 2 224 140 228 232
120 3 4 2 3 1 2 236 148 240 244
125 3 4 2 3 1 2 80 76 160 108
130 3 4 2 3 1 2 64 60 136 116
135 3 4 2 3 1 2 48 44 144 124
140 3 4 2 3 1 2 96 92 152 132
145 3 4 2 3 1 2 96 132 128 192
150 3 4 2 3 1 2 48 124 120 176
155 3 4 2 3 1 2 80 108 104 168
160 3 4 2 3 1 2 64 116 112 184
165 3 4 2 3 1 2 240 148 144 44
170 3 4 2 3 1 2 216 156 152 92
175 3 4 2 3 1 2 204 164 160 76
180 3 4 2 3 1 2 228 140 136 60
185 3 4 2 3 1 2 200 192 128 164
190 3 4 2 3 1 2 224 176 120 140
195 3 4 2 3 1 2 236 168 104 148
200 3 4 2 3 1 2 212 184 112 156
205 3 4 2 3 1 2 180 176 224 248
210 3 4 2 3 1 2 196 192 200 252
215 3 4 2 3 1 2 172 168 236 256
220 3 4 2 3 1 2 188 184 212 260
225 3 4 2 3 1 2 36 32 132 152
230 3 4 2 3 1 2 24 20 116 136
235 3 4 2 3 1 2 8 4 124 144
240 3 4 2 3 1 2 28 12 108 160
245 3 4 2 3 1 2 76 72 264 204
250 3 4 2 3 1 2 92 88 268 216
255 3 4 2 3 1 2 60 56 272 228
260 3 4 2 3 1 2 44 40 276 240
265 3 4 2 3 1 2 248 224 232 280
270 3 4 2 3 1 2 252 200 208 284
275 3 4 2 3 1 2 256 236 244 288
280 3 4 2 3 1 2 260 212 220 292
285 3 4 2 3 1 2 284 208 204 264
290 3 4 2 3 1 2 280 232 228 272
295 3 4 2 3 1 2 292 220 216 268
300 3 4 2 3 1 2 288 244 240 276
302 5 4 2 4 1 2 293 297 301 305 294 298 302 306
303 5 4 2 4 1 2 294 298 302 306 295 299 303 307
304 5 4 2 4 1 2 295 299 303 307 296 300 304 308
307 5 4 2 4 1 2 293 305 309 313 294 306 310 314
308 5 4 2 4 1 2 294 306 310 314 295 307 311 315
309 5 4 2 4 1 2 295 307 311 315 296 308 312 316
312 5 4 2 4 1 2 317 305 301 321 318 306 302 322
313 5 4 2 4 1 2 318 306 302 322 319 307 303 323
314 5 4 2 4 1 2 319 307 303 323 320 308 304 324
317 5 4 2 4 1 2 317 325 309 305 318 326 310 306
318 5 4 2 4 1 2 318 326 310 306 319 327 311 307
319 5 4 2 4 1 2 319 327 311 307 320 328 312 308
322 5 4 2 4 1 2 245 177 329 333 246 178 330 334
323 5 4 2 4 1 2 246 178 330 334 247 179 331 335
324 5 4 2 4 1 2 247 179 331 335 248 180 332 336
327 5 4 2 4 1 2 249 193 337 341 250 194 338 342
328 5 4 2 4 1 2 250 194 338 342 251 195 339 343
329 5 4 2 4 1 2 251 195 339 343 252 196 340 344
332 5 4 2 4 1 2 253 169 345 349 254 170 346 350
333 5 4 2 4 1 2 254 170 346 350 255 171 347 351
334 5 4 2 4 1 2 255 171 347 351 256 172 348 352
337 5 4 2 4 1 2 257 185 353 357 258 186 354 358
338 5 4 2 4 1 2 258 186 354 358 259 187 355 359
339 5 4 2 4 1 2 259 187 355 359 260 188 356 360
342 5 4 2 4 1 2 309 325 361 365 310 326 362 366
343 5 4 2 4 1 2 310 326 362 366 311 327 363 367
344 5 4 2 4 1 2 311 327 363 367 312 328 364 368
347 5 4 2 4 1 2 293 313 369 373 294 314 370 374
348 5 4 2 4 1 2 294 314 370 374 295 315 371 375
349 5 4 2 4 1 2 295 315 371 375 296 316 372 376
352 5 4 2 4 1 2 317 321 377 381 318 322 378 382
353 5 4 2 4 1 2 318 322 378 382 319 323 379 383
354 5 4 2 4 1 2 319 323 379 383 320 324 380 384
357 5 4 2 4 1 2 301 297 385 389 302 298 386 390
358 5 4 2 4 1 2 302 298 386 390 303 299 387 391
359 5 4 2 4 1 2 303 299 387 391 304 300 388 392
362 5 4 2 4 1 2 393 397 377 321 394 398 378 322
363 5 4 2 4 1 2 394 398 378 322 395 399 379 323
364 5 4 2 4 1 2 395 399 379 323 396 400 380 324
367 5 4 2 4 1 2 401 405 369 313 402 406 370 314
368 5 4 2 4 1 2 402 406 370 314 403 407 371 315
369 5 4 2 4 1 2 403 407 371 315 404 408 372 316
372 5 4 2 4 1 2 409 413 385 297 410 414 386 298
373 5 4 2 4 1 2 410 414 386 298 411 415 387 299
374 5 4 2 4 1 2 411 415 387 299 412 416 388 300
377 5 4 2 4 1 2 417 421 361 325 418 422 362 326
378 5 4 2 4 1 2 418 422 362 326 419 423 363 327
379 5 4 2 4 1 2 419 423 363 327 420 424 364 328
382 5 4 2 4 1 2 425 329 177 49 426 330 178 50
383 5 4 2 4 1 2 426 330 178 50 427 331 179 51
384 5 4 2 4 1 2 427 331 179 51 428 332 180 52
387 5 4 2 4 1 2 429 337 193 97 430 338 194 98
388 5 4 2 4 1 2 430 338 194 98 431 339 195 99
389 5 4 2 4 1 2 431 339 195 99 432 340 196 100
392 5 4 2 4 1 2 433 345 169 81 434 346 170 82
393 5 4 2 4 1 2 434 346 170 82 435 347 171 83
394 5 4 2 4 1 2 435 347 171 83 436 348 172 84
397 5 4 2 4 1 2 437 353 185 65 438 354 186 66
398 5 4 2 4 1 2 438 354 186 66 439 355 187 67
399 5 4 2 4 1 2 439 355 187 67 440 356 188 68
402 5 4 2 4 1 2 441 405 445 449 442 406 446 450
403 5 4 2 4 1 2 442 406 446 450 443 407 447 451
404 5 4 2 4 1 2 443 407 447 451 444 408 448 452
407 5 4 2 4 1 2 453 413 457 461 454 414 458 462
408 5 4 2 4 1 2 454 414 458 462 455 415 459 463
409 5 4 2 4 1 2 455 415 459 463 456 416 460 464
412 5 4 2 4 1 2 465 397 469 473 466 398 470 474
413 5 4 2 4 1 2 466 398 470 474 467 399 471 475
414 5 4 2 4 1 2 467 399 471 475 468 400 472 476
417 5 4 2 4 1 2 477 421 481 485 478 422 482 486
418 5 4 2 4 1 2 478 422 482 486 479 423 483 487
419 5 4 2 4 1 2 479 423 483 487 480 424 484 488
422 5 4 2 4 1 2 337 429 401 365 338 430 402 366
423 5 4 2 4 1 2 338 430 402 366 339 431 403 367
424 5 4 2 4 1 2 339 431 403 367 340 432 404 368
427 5 4 2 4 1 2 345 433 417 381 346 434 418 382
428 5 4 2 4 1 2 346 434 418 382 347 435 419 383
429 5 4 2 4 1 2 347 435 419 383 348 436 420 384
432 5 4 2 4 1 2 329 425 393 389 330 426 394 390
433 5 4 2 4 1 2 330 426 394 390 331 427 395 391
434 5 4 2 4 1 2 331 427 395 391 332 428 396 392
437 5 4 2 4 1 2 353 437 409 373 354 438 410 374
438 5 4 2 4 1 2 354 438 410 374 355 439 411 375
439 5 4 2 4 1 2 355 439 411 375 356 440 412 376
442 5 4 2 4 1 2 337 365 361 341 338 366 362 342
443 5 4 2 4 1 2 338 366 362 342 339 367 363 343
444 5 4 2 4 1 2 339 367 363 343 340 368 364 344
447 5 4 2 4 1 2 329 389 385 333 330 390 386 334
448 5 4 2 4 1 2 330 390 386 334 331 391 387 335
449 5 4 2 4 1 2 331 391 387 335 332 392 388 336
452 5 4 2 4 1 2 345 381 377 349 346 382 378 350
453 5 4 2 4 1 2 346 382 378 350 347 383 379 351
454 5 4 2 4 1 2 347 383 379 351 348 384 380 352
457 5 4 2 4 1 2 353 373 369 357 354 374 370 358
458 5 4 2 4 1 2 354 374 370 358 355 375 371 359
459 5 4 2 4 1 2 355 375 371 359 356 376 372 360
462 5 4 2 4 1 2 457 413 409 437 458 414 410 438
463 5 4 2 4 1 2 458 414 410 438 459 415 411 439
464 5 4 2 4 1 2 459 415 411 439 460 416 412 440
467 5 4 2 4 1 2 445 405 401 429 446 406 402 430
468 5 4 2 4 1 2 446 406 402 430 447 407 403 431
469 5 4 2 4 1 2 447 407 403 431 448 408 404 432
472 5 4 2 4 1 2 481 421 417 433 482 422 418 434
473 5 4 2 4 1 2 482 422 418 434 483 423 419 435
474 5 4 2 4 1 2 483 423 419 435 484 424 420 436
477 5 4 2 4 1 2 469 397 393 425 470 398 394 426
478 5 4 2 4 1 2 470 398 394 426 471 399 395 427
479 5 4 2 4 1 2 471 399 395 427 472 400 396 428
482 5 4 2 4 1 2 477 341 361 421 478 342 362 422
483 5 4 2 4 1 2 478 342 362 422 479 343 363 423
484 5 4 2 4 1 2 479 343 363 423 480 344 364 424
487 5 4 2 4 1 2 441 357 369 405 442 358 370 406
488 5 4 2 4 1 2 442 358 370 406 443 359 371 407
489 5 4 2 4 1 2 443 359 371 407 444 360 372 408
492 5 4 2 4 1 2 453 333 385 413 454 334 386 414
493 5 4 2 4 1 2 454 334 386 414 455 335 387 415
494 5 4 2 4 1 2 455 335 387 415 456 336 388 416
497 5 4 2 4 1 2 465 349 377 397 466 350 378 398
498 5 4 2 4 1 2 466 350 378 398 467 351 379 399
499 5 4 2 4 1 2 467 351 379 399 468 352 380 400
502 5 4 2 4 1 2 49 37 469 425 50 38 470 426
503 5 4 2 4 1 2 50 38 470 426 51 39 471 427
504 5 4 2 4 1 2 51 39 471 427 52 40 472 428
507 5 4 2 4 1 2 65 53 457 437 66 54 458 438
508 5 4 2 4 1 2 66 54 458 438 67 55 459 439
509 5 4 2 4 1 2 67 55 459 439 68 56 460 440
512 5 4 2 4 1 2 97 85 445 429 98 86 446 430
513 5 4 2 4 1 2 98 86 446 430 99 87 447 431
514 5 4 2 4 1 2 99 87 447 431 100 88 448 432
517 5 4 2 4 1 2 81 69 481 433 82 70 482 434
518 5 4 2 4 1 2 82 70 482 434 83 71 483 435
519 5 4 2 4 1 2 83 71 483 435 84 72 484 436
522 5 4 2 4 1 2 325 317 381 417 326 318 382 418
523 5 4 2 4 1 2 326 318 382 418 327 319 383 419
524 5 4 2 4 1 2 327 319 383 419 328 320 384 420
527 5 4 2 4 1 2 313 309 365 401 314 310 366 402
528 5 4 2 4 1 2 314 310 366 402 315 311 367 403
529 5 4 2 4 1 2 315 311 367 403 316 312 368 404
532 5 4 2 4 1 2 321 301 389 393 322 302 390 394
533 5 4 2 4 1 2 322 302 390 394 323 303 391 395
534 5 4 2 4 1 2 323 303 391 395 324 304 392 396
537 5 4 2 4 1 2 297 293 373 409 298 294 374 410
538 5 4 2 4 1 2 298 294 374 410 299 295 375 411
539 5 4 2 4 1 2 299 295 375 411 300 296 376 412
542 5 4 2 4 1 2 341 477 281 249 342 478 282 250
543 5 4 2 4 1 2 342 478 282 250 343 479 283 251
544 5 4 2 4 1 2 343 479 283 251 344 480 284 252
547 5 4 2 4 1 2 349 465 285 253 350 466 286 254
548 5 4 2 4 1 2 350 466 286 254 351 467 287 255
549 5 4 2 4 1 2 351 467 287 255 352 468 288 256
552 5 4 2 4 1 2 357 441 289 257 358 442 290 258
553 5 4 2 4 1 2 358 442 290 258 359 443 291 259
554 5 4 2 4 1 2 359 443 291 259 360 444 292 260
557 5 4 2 4 1 2 333 453 277 245 334 454 278 246
558 5 4 2 4 1 2 334 454 278 246 335 455 279 247
559 5 4 2 4 1 2 335 455 279 247 336 456 280 248
562 5 4 2 4 1 2 265 289 441 449 266 290 442 450
563 5 4 2 4 1 2 266 290 442 450 267 291 443 451
564 5 4 2 4 1 2 267 291 443 451 268 292 444 452
567 5 4 2 4 1 2 269 277 453 461 270 278 454 462
568 5 4 2 4 1 2 270 278 454 462 271 279 455 463
569 5 4 2 4 1 2 271 279 455 463 272 280 456 464
572 5 4 2 4 1 2 261 281 477 485 262 282 478 486
573 5 4 2 4 1 2 262 282 478 486 263 283 479 487
574 5 4 2 4 1 2 263 283 479 487 264 284 480 488
577 5 4 2 4 1 2 273 285 465 473 274 286 466 474
578 5 4 2 4 1 2 274 286 466 474 275 287 467 475
579 5 4 2 4 1 2 275 287 467 475 276 288 468 476
582 5 4 2 4 1 2 85 265 449 445 86 266 450 446
583 5 4 2 4 1 2 86 266 450 446 87 267 451 447
584 5 4 2 4 1 2 87 267 451 447 88 268 452 448
587 5 4 2 4 1 2 37 273 473 469 38 274 474 470
588 5 4 2 4 1 2 38 274 474 470 39 275 475 471
589 5 4 2 4 1 2 39 275 475 471 40 276 476 472
592 5 4 2 4 1 2 69 261 485 481 70 262 486 482
593 5 4 2 4 1 2 70 262 486 482 71 263 487 483
594 5 4 2 4 1 2 71 263 487 483 72 264 488 484
597 5 4 2 4 1 2 53 269 461 457 54 270 462 458
598 5 4 2 4 1 2 54 270 462 458 55 271 463 459
599 5 4 2 4 1 2 55 271 463 459 56 272 464 460
301 3 4 3 5 1 2 293 297 301 305
306 3 4 3 5 1 2 293 305 309 313
311 3 4 3 5 1 2 317 305 301 321
316 3 4 3 5 1 2 317 325 309 305
321 3 4 3 5 1 2 245 177 329 333
326 3 4 3 5 1 2 249 193 337 341
331 3 4 3 5 1 2 253 169 345 349
336 3 4 3 5 1 2 257 185 353 357
341 3 4 3 5 1 2 309 325 361 365
346 3 4 3 5 1 2 293 313 369 373
351 3 4 3 5 1 2 317 321 377 381
356 3 4 3 5 1 2 301 297 385 389
361 3 4 3 5 1 2 393 397 377 321
366 3 4 3 5 1 2 401 405 369 313
371 3 4 3 5 1 2 409 413 385 297
376 3 4 3 5 1 2 417 421 361 325
381 3 4 3 5 1 2 425 329 177 49
386 3 4 3 5 1 2 429 337 193 97
391 3 4 3 5 1 2 433 345 169 81
396 3 4 3 5 1 2 437 353 185 65
401 3 4 3 5 1 2 441 405 445 449
406 3 4 3 5 1 2 453 413 457 461
411 3 4 3 5 1 2 465 397 469 473
416 3 4 3 5 1 2 477 421 481 485
421 3 4 3 5 1 2 337 429 401 365
426 3 4 3 5 1 2 345 433 417 381
431 3 4 3 5 1 2 329 425 393 389
436 3 4 3 5 1 2 353 437 409 373
441 3 4 3 5 1 2 337 365 361 341
446 3 4 3 5 1 2 329 389 385 333
451 3 4 3 5 1 2 345 381 377 349
456 3 4 3 5 1 2 353 373 369 357
461 3 4 3 5 1 2 457 413 409 437
466 3 4 3 5 1 2 445 405 401 429
471 3 4 3 5 1 2 481 421 417 433
476 3 4 3 5 1 2 469 397 393 425
481 3 4 3 5 1 2 477 341 361 421
486 3 4 3 5 1 2 441 357 369 405
491 3 4 3 5 1 2 453 333 385 413
496 3 4 3 5 1 2 465 349 377 397
501 3 4 3 5 1 2 49 37 469 425
506 3 4 3 5 1 2 65 53 457 437
511 3 4 3 5 1 2 97 85 445 429
516 3 4 3 5 1 2 81 69 481 433
521 3 4 3 5 1 2 325 317 381 417
526 3 4 3 5 1 2 313 309 365 401
531 3 4 3 5 1 2 321 301 389 393
536 3 4 3 5 1 2 297 293 373 409
541 3 4 3 5 1 2 341 477 281 249
546 3 4 3 5 1 2 349 465 285 253
551 3 4 3 5 1 2 357 441 289 257
556 3 4 3 5 1 2 333 453 277 245
561 3 4 3 5 1 2 265 289 441 449
566 3 4 3 5 1 2 269 277 453 461
571 3 4 3 5 1 2 261 281 477 485
576 3 4 3 5 1 2 273 285 465 473
581 3 4 3 5 1 2 85 265 449 445
586 3 4 3 5 1 2 37 273 473 469
591 3 4 3 5 1 2 69 261 485 481
596 3 4 3 5 1 2 53 269 461 457
305 3 4 4 6 1 2 296 300 304 308
310 3 4 4 6 1 2 296 308 312 316
315 3 4 4 6 1 2 320 308 304 324
320 3 4 4 6 1 2 320 328 312 308
325 3 4 4 6 1 2 248 180 332 336
330 3 4 4 6 1 2 252 196 340 344
335 3 4 4 6 1 2 256 172 348 352
340 3 4 4 6 1 2 260 188 356 360
345 3 4 4 6 1 2 312 328 364 368
350 3 4 4 6 1 2 296 316 372 376
355 3 4 4 6 1 2 320 324 380 384
360 3 4 4 6 1 2 304 300 388 392
365 3 4 4 6 1 2 396 400 380 324
370 3 4 4 6 1 2 404 408 372 316
375 3 4 4 6 1 2 412 416 388 300
380 3 4 4 6 1 2 420 424 364 328
385 3 4 4 6 1 2 428 332 180 52
390 3 4 4 6 1 2 432 340 196 100
395 3 4 4 6 1 2 436 348 172 84
400 3 4 4 6 1 2 440 356 188 68
405 3 4 4 6 1 2 444 408 448 452
410 3 4 4 6 1 2 456 416 460 464
415 3 4 4 6 1 2 468 400 472 476
420 3 4 4 6 1 2 480 424 484 488
425 3 4 4 6 1 2 340 432 404 368
430 3 4 4 6 1 2 348 436 420 384
435 3 4 4 6 1 2 332 428 396 392
440 3 4 4 6 1 2 356 440 412 376
445 3 4 4 6 1 2 340 368 364 344
450 3 4 4 6 1 2 332 392 388 336
455 3 4 4 6 1 2 348 384 380 352
460 3 4 4 6 1 2 356 376 372 360
465 3 4 4 6 1 2 460 416 412 440
470 3 4 4 6 1 2 448 408 404 432
475 3 4 4 6 1 2 484 424 420 436
480 3 4 4 6 1 2 472 400 396 428
485 3 4 4 6 1 2 480 344 364 424
490 3 4 4 6 1 2 444 360 372 408
495 3 4 4 6 1 2 456 336 388 416
500 3 4 4 6 1 2 468 352 380 400
505 3 4 4 6 1 2 52 40 472 428
510 3 4 4 6 1 2 68 56 460 440
515 3 4 4 6 1 2 100 88 448 432
520 3 4 4 6 1 2 84 72 484 436
525 3 4 4 6 1 2 328 320 384 420
530 3 4 4 6 1 2 316 312 368 404
535 3 4 4 6 1 2 324 304 392 396
540 3 4 4 6 1 2 300 296 376 412
545 3 4 4 6 1 2 344 480 284 252
550 3 4 4 6 1 2 352 468 288 256
555 3 4 4 6 1 2 360 444 292 260
560 3 4 4 6 1 2 336 456 280 248
565 3 4 4 6 1 2 268 292 444 452
570 3 4 4 6 1 2 272 280 456 464
575 3 4 4 6 1 2 264 284 480 488
580 3 4 4 6 1 2 276 288 468 476
585 3 4 4 6 1 2 88 268 452 448
590 3 4 4 6 1 2 40 276 476 472
595 3 4 4 6 1 2 72 264 488 484
600 3 4 4 6 1 2 56 272 464 460
602 3 2 5 7  193 97 98 194
603 3 2 5 7  194 98 99 195
604 3 2 5 7  195 99 100 196
606 3 2 5 7  97 85 86 98
607 3 2 5 7  98 86 87 99
608 3 2 5 7  99 87 88 100
610 3 2 5 7  85 265 266 86
611 3 2 5 7  86 266 267 87
612 3 2 5 7  87 267 268 88
614 3 2 5 7  265 289 290 266
615 3 2 5 7  266 290 291 267
616 3 2 5 7  267 291 292 268
618 3 2 5 7  289 257 258 290
619 3 2 5 7  290 258 259 291
620 3 2 5 7  291 259 260 292
622 3 2 5 7  257 185 186 258
623 3 2 5 7  258 186 187 259
624 3 2 5 7  259 187 188 260
601 1 2 1 8  193 97
605 1 2 1 8  97 85
609 1 2 1 8  85 265
613 1 2 1 8  265 289
617 1 2 1 8  289 257
621 1 2 1 8  257 185
626 3 2 5 9  185 65 66 186
627 3 2 5 9  186 66 67 187
628 3 2 5 9  187 67 68 188
630 3 2 5 9  65 53 54 66
631 3 2 5 9  66 54 55 67
632 3 2 5 9  67 55 56 68
634 3 2 5 9  53 269 270 54
635 3 2 5 9  54 270 271 55
636 3 2 5 9  55 271 272 56
638 3 2 5 9  269 277 278 270
639 3 2 5 9  270 278 279 271
640 3 2 5 9  271 279 280 272
642 3 2 5 9  277 245 246 278
643 3 2 5 9  278 246 247 279
644 3 2 5 9  279 247 248 280
646 3 2 5 9  245 177 178 246
647 3 2 5 9  246 178 179 247
648 3 2 5 9  247 179 180 248
625 1 2 1 10  185 65
629 1 2 1 10  65 53
633 1 2 1 10  53 269
637 1 2 1 10  269 277
641 1 2 1 10  277 245
645 1 2 1 10  245 177
650 3 2 5 11  177 49 50 178
651 3 2 5 11  178 50 51 179
652 3 2 5 11  179 51 52 180
654 3 2 5 11  49 37 38 50
655 3 2 5 11  50 38 39 51
656 3 2 5 11  51 39 40 52
658 3 2 5 11  37 273 274 38
659 3 2 5 11  38 274 275 39
660 3 2 5 11  39 275 276 40
662 3 2 5 11  273 285 286 274
663 3 2 5 11  274 286 287 275
664 3 2 5 11  275 287 288 276
666 3 2 5 11  285 253 254 286
667 3 2 5 11  286 254 255 287
668 3 2 5 11  287 255 256 288
670 3 2 5 11  253 169 170 254
671 3 2 5 11  254 170 171 255
672 3 2 5 11  255 171 172 256
649 1 2 1 12  177 49
653 1 2 1 12  49 37
657 1 2 1 12  37 273
661 1 2 1 12  273 285
665 1 2 1 12  285 253
669 1 2 1 12  253 169
674 3 2 5 13  169 81 82 170
675 3 2 5 13  170 82 83 171
676 3 2 5 13  171 83 84 172
678 3 2 5 13  81 69 70 82
679 3 2 5 13  82 70 71 83
680 3 2 5 13  83 71 72 84
682 3 2 5 13  69 261 262 70
683 3 2 5 13  70 262 263 71
684 3 2 5 13  71 263 264 72
686 3 2 5 13  261 281 282 262
687 3 2 5 13  262 282 283 263
688 3 2 5 13  263 283 284 264
690 3 2 5 13  281 249 250 282
691 3 2 5 13  282 250 251 283
692 3 2 5 13  283 251 252 284
694 3 2 5 13  249 193 194 250
695 3 2 5 13  250 194 195 251
696 3 2 5 13  251 195 196 252
673 1 2 1 14  169 81
677 1 2 1 14  81 69
681 1 2 1 14  69 261
685 1 2 1 14  261 281
689 1 2 1 14  281 249
693 1 2 1 14  249 193
$EndElements
