$MeshFormat
2.2 0 8
$EndMeshFormat
$Nodes
297
1 0 0 0
2 0.1 0 0
3 0.1 0 0.1
4 0 0 0.1
5 0 1 0.1
6 0.1 1 0.1
7 0.1 1 0
8 0 1 0
9 0 1.1 0.1
10 0.1 1.1 0.1
11 0.1 1.1 0
12 0 1.1 0
13 0 -0.1 0.1
14 0.1 -0.1 0.1
15 0.1 -0.1 0
16 0 -0.1 0
17 0.04999999999985524 0 0.1
18 0.1 0 0.05000000000015159
19 0.05000000000015159 0 0
20 0 0 0.04999999999985524
21 0.04999999999985524 1 0.1
22 0.1 1 0.05000000000015159
23 0.05000000000015159 1 0
24 0 1 0.04999999999985524
25 0 0.07142857142842932 0.1
26 0 0.1428571428568666 0.1
27 0 0.2142857142852295 0.1
28 0 0.2857142857135924 0.1
29 0 0.3571428571419553 0.1
30 0 0.4285714285703183 0.1
31 0 0.4999999999986921 0.1
32 0 0.5714285714274411 0.1
33 0 0.6428571428562009 0.1
34 0 0.7142857142849607 0.1
35 0 0.7857142857137205 0.1
36 0 0.8571428571424804 0.1
37 0 0.9285714285712401 0.1
38 0 0.03571428571421741 0.1
39 0 0.1071428571426603 0.1
40 0 0.178571428571048 0.1
41 0 0.249999999999411 0.1
42 0 0.3214285714277739 0.1
43 0 0.3928571428561368 0.1
44 0 0.4642857142845052 0.1
45 0 0.5357142857130666 0.1
46 0 0.607142857141821 0.1
47 0 0.6785714285705808 0.1
48 0 0.7499999999993406 0.1
49 0 0.8214285714281004 0.1
50 0 0.8928571428568602 0.1
51 0 0.96428571428562 0.1
52 0.1 0.07142857142842932 0.1
53 0.1 0.1428571428568666 0.1
54 0.1 0.2142857142852295 0.1
55 0.1 0.2857142857135924 0.1
56 0.1 0.3571428571419553 0.1
57 0.1 0.4285714285703183 0.1
58 0.1 0.4999999999986921 0.1
59 0.1 0.5714285714274411 0.1
60 0.1 0.6428571428562009 0.1
61 0.1 0.7142857142849607 0.1
62 0.1 0.7857142857137205 0.1
63 0.1 0.8571428571424804 0.1
64 0.1 0.9285714285712401 0.1
65 0.1 0.03571428571421741 0.1
66 0.1 0.1071428571426603 0.1
67 0.1 0.178571428571048 0.1
68 0.1 0.249999999999411 0.1
69 0.1 0.3214285714277739 0.1
70 0.1 0.3928571428561368 0.1
71 0.1 0.4642857142845052 0.1
72 0.1 0.5357142857130666 0.1
73 0.1 0.607142857141821 0.1
74 0.1 0.6785714285705808 0.1
75 0.1 0.7499999999993406 0.1
76 0.1 0.8214285714281004 0.1
77 0.1 0.8928571428568602 0.1
78 0.1 0.96428571428562 0.1
79 0.1 0.07142857142842932 0
80 0.1 0.1428571428568666 0
81 0.1 0.2142857142852295 0
82 0.1 0.2857142857135924 0
83 0.1 0.3571428571419553 0
84 0.1 0.4285714285703183 0
85 0.1 0.4999999999986921 0
86 0.1 0.5714285714274411 0
87 0.1 0.6428571428562009 0
88 0.1 0.7142857142849607 0
89 0.1 0.7857142857137205 0
90 0.1 0.8571428571424804 0
91 0.1 0.9285714285712401 0
92 0.1 0.03571428571421741 0
93 0.1 0.1071428571426603 0
94 0.1 0.178571428571048 0
95 0.1 0.249999999999411 0
96 0.1 0.3214285714277739 0
97 0.1 0.3928571428561368 0
98 0.1 0.4642857142845052 0
99 0.1 0.5357142857130666 0
100 0.1 0.607142857141821 0
101 0.1 0.6785714285705808 0
102 0.1 0.7499999999993406 0
103 0.1 0.8214285714281004 0
104 0.1 0.8928571428568602 0
105 0.1 0.96428571428562 0
106 0 0.07142857142842932 0
107 0 0.1428571428568666 0
108 0 0.2142857142852295 0
109 0 0.2857142857135924 0
110 0 0.3571428571419553 0
111 0 0.4285714285703183 0
112 0 0.4999999999986921 0
113 0 0.5714285714274411 0
114 0 0.6428571428562009 0
115 0 0.7142857142849607 0
116 0 0.7857142857137205 0
117 0 0.8571428571424804 0
118 0 0.9285714285712401 0
119 0 0.03571428571421741 0
120 0 0.1071428571426603 0
121 0 0.178571428571048 0
122 0 0.249999999999411 0
123 0 0.3214285714277739 0
124 0 0.3928571428561368 0
125 0 0.4642857142845052 0
126 0 0.5357142857130666 0
127 0 0.607142857141821 0
128 0 0.6785714285705808 0
129 0 0.7499999999993406 0
130 0 0.8214285714281004 0
131 0 0.8928571428568602 0
132 0 0.96428571428562 0
133 0.04999999999985524 1.1 0.1
134 0.1 1.1 0.05000000000015159
135 0.05000000000015159 1.1 0
136 0 1.1 0.04999999999985524
137 0 1.05 0.1
138 0.1 1.05 0.1
139 0.1 1.05 0
140 0 1.05 0
141 0.04999999999985524 -0.1 0.1
142 0.1 -0.1 0.05000000000015159
143 0.05000000000015159 -0.1 0
144 0 -0.1 0.04999999999985524
145 0 -0.04999999999985524 0.1
146 0.1 -0.04999999999985524 0.1
147 0.1 -0.04999999999985524 0
148 0 -0.04999999999985524 0
149 0.05000000000000342 0 0.05000000000000341
150 0.05 0.0714285714284293 0.1
151 0.04999999999999928 0.0357142857142174 0.1
152 0.05 0.1428571428568666 0.1
153 0.05 0.1071428571426603 0.1
154 0.05 0.2142857142852295 0.1
155 0.05 0.178571428571048 0.1
156 0.05 0.2857142857135924 0.1
157 0.05 0.2499999999994109 0.1
158 0.05 0.3571428571419553 0.1
159 0.05 0.3214285714277738 0.1
160 0.05 0.4285714285703184 0.1
161 0.05 0.3928571428561368 0.1
162 0.05 0.4999999999986922 0.1
163 0.05 0.4642857142845053 0.1
164 0.05 0.5714285714274411 0.1
165 0.05 0.5357142857130666 0.1
166 0.05 0.6428571428562009 0.1
167 0.05 0.6071428571418211 0.1
168 0.05 0.7142857142849607 0.1
169 0.05 0.6785714285705808 0.1
170 0.05 0.7857142857137205 0.1
171 0.05 0.7499999999993407 0.1
172 0.05 0.8571428571424804 0.1
173 0.05 0.8214285714281004 0.1
174 0.05 0.9285714285712401 0.1
175 0.05 0.8928571428568602 0.1
176 0.04999999999999857 0.96428571428562 0.1
177 0.1 0.0714285714284293 0.05
178 0.1 0.0357142857142174 0.05000000000000077
179 0.1 0.1428571428568666 0.05
180 0.1 0.1071428571426603 0.05
181 0.1 0.2142857142852295 0.05
182 0.1 0.178571428571048 0.05
183 0.1 0.2857142857135924 0.05
184 0.1 0.2499999999994109 0.05
185 0.1 0.3571428571419553 0.05
186 0.1 0.3214285714277738 0.05
187 0.1 0.4285714285703184 0.05
188 0.1 0.3928571428561368 0.05
189 0.1 0.4999999999986922 0.05
190 0.1 0.4642857142845053 0.05
191 0.1 0.5714285714274411 0.05
192 0.1 0.5357142857130666 0.05
193 0.1 0.6428571428562009 0.05
194 0.1 0.6071428571418211 0.05
195 0.1 0.7142857142849607 0.05
196 0.1 0.6785714285705808 0.05
197 0.1 0.7857142857137205 0.05
198 0.1 0.7499999999993407 0.05
199 0.1 0.8571428571424804 0.05
200 0.1 0.8214285714281004 0.05
201 0.1 0.9285714285712401 0.05
202 0.1 0.8928571428568602 0.05
203 0.1 0.96428571428562 0.05000000000000152
204 0.05 0.0714285714284293 0
205 0.05000000000000077 0.0357142857142174 0
206 0.05 0.1428571428568666 0
207 0.05 0.1071428571426603 0
208 0.05 0.2142857142852295 0
209 0.05 0.178571428571048 0
210 0.05 0.2857142857135924 0
211 0.05 0.2499999999994109 0
212 0.05 0.3571428571419553 0
213 0.05 0.3214285714277738 0
214 0.05 0.4285714285703184 0
215 0.05 0.3928571428561368 0
216 0.05 0.4999999999986922 0
217 0.05 0.4642857142845053 0
218 0.05 0.5714285714274411 0
219 0.05 0.5357142857130666 0
220 0.05 0.6428571428562009 0
221 0.05 0.6071428571418211 0
222 0.05 0.7142857142849607 0
223 0.05 0.6785714285705808 0
224 0.05 0.7857142857137205 0
225 0.05 0.7499999999993407 0
226 0.05 0.8571428571424804 0
227 0.05 0.8214285714281004 0
228 0.05 0.9285714285712401 0
229 0.05 0.8928571428568602 0
230 0.05000000000000152 0.96428571428562 0
231 0 0.0714285714284293 0.05
232 0 0.0357142857142174 0.04999999999999928
233 0 0.1428571428568666 0.05
234 0 0.1071428571426603 0.05
235 0 0.2142857142852295 0.05
236 0 0.178571428571048 0.05
237 0 0.2857142857135924 0.05
238 0 0.2499999999994109 0.05
239 0 0.3571428571419553 0.05
240 0 0.3214285714277738 0.05
241 0 0.4285714285703184 0.05
242 0 0.3928571428561368 0.05
243 0 0.4999999999986922 0.05
244 0 0.4642857142845053 0.05
245 0 0.5714285714274411 0.05
246 0 0.5357142857130666 0.05
247 0 0.6428571428562009 0.05
248 0 0.6071428571418211 0.05
249 0 0.7142857142849607 0.05
250 0 0.6785714285705808 0.05
251 0 0.7857142857137205 0.05
252 0 0.7499999999993407 0.05
253 0 0.8571428571424804 0.05
254 0 0.8214285714281004 0.05
255 0 0.9285714285712401 0.05
256 0 0.8928571428568602 0.05
257 0 0.96428571428562 0.04999999999999857
258 0.05000000000000342 1 0.05000000000000341
259 0.05 1.05 0.1
260 0.1 1.05 0.05
261 0.05 1.05 0
262 0 1.05 0.05
263 0.05000000000000342 1.1 0.05000000000000341
264 0.05 -0.05 0.1
265 0.1 -0.05 0.05
266 0.05 -0.05 0
267 0 -0.05 0.05
268 0.05000000000000342 -0.1 0.05000000000000341
269 0.05 0.07142857142842932 0.05
270 0.05 0.03571428571421466 0.05
271 0.05 0.1428571428568666 0.05
272 0.05 0.1071428571426479 0.05
273 0.05 0.2142857142852295 0.05
274 0.05 0.178571428571048 0.05
275 0.05 0.2857142857135924 0.05
276 0.05 0.2499999999994109 0.05
277 0.05 0.3571428571419553 0.05
278 0.05 0.3214285714277739 0.05
279 0.05 0.4285714285703183 0.05
280 0.05 0.3928571428561368 0.05
281 0.05 0.4999999999986921 0.05
282 0.05 0.4642857142845052 0.05
283 0.05 0.5714285714274411 0.05
284 0.05 0.5357142857130666 0.05
285 0.05 0.6428571428562009 0.05
286 0.05 0.6071428571418209 0.05
287 0.05 0.7142857142849607 0.05
288 0.05 0.6785714285705807 0.05
289 0.05 0.7857142857137205 0.05
290 0.05 0.7499999999993406 0.05
291 0.05 0.8571428571424804 0.05
292 0.05 0.8214285714281003 0.05
293 0.05 0.9285714285712401 0.05
294 0.05 0.8928571428568604 0.05
295 0.05 0.96428571428562 0.05
296 0.05 1.05 0.05
297 0.05 -0.05 0.05
$EndNodes
$Elements
58
1 8 2 75 18 2 79 92
2 8 2 75 18 79 80 93
3 8 2 75 18 80 81 94
4 8 2 75 18 81 82 95
5 8 2 75 18 82 83 96
6 8 2 75 18 83 84 97
7 8 2 75 18 84 85 98
8 8 2 75 18 85 86 99
9 8 2 75 18 86 87 100
10 8 2 75 18 87 88 101
11 8 2 75 18 88 89 102
12 8 2 75 18 89 90 103
13 8 2 75 18 90 91 104
14 8 2 75 18 91 7 105
15 10 4 73 19 1 3 3 2 79 52 18 92 177 65 178
16 10 4 73 19 1 3 52 79 80 53 177 93 179 66 180
17 10 4 73 19 1 3 53 80 81 54 179 94 181 67 182
18 10 4 73 19 1 3 54 81 82 55 181 95 183 68 184
19 10 4 73 19 1 3 55 82 83 56 183 96 185 69 186
20 10 4 73 19 1 2 56 83 84 57 185 97 187 70 188
21 10 4 73 19 1 2 57 84 85 58 187 98 189 71 190
22 10 4 73 19 1 2 58 85 86 59 189 99 191 72 192
23 10 4 73 19 1 2 59 86 87 60 191 100 193 73 194
24 10 4 73 19 1 2 60 87 88 61 193 101 195 74 196
25 10 4 73 19 1 1 61 88 89 62 195 102 197 75 198
26 10 4 73 19 1 1 62 89 90 63 197 103 199 76 200
27 10 4 73 19 1 1 63 90 91 64 199 104 201 77 202
28 10 4 73 19 1 1 64 91 7 6 201 105 22 78 203
29 10 4 74 27 1 3 1 4 25 106 20 38 231 119 232
30 10 4 74 27 1 3 106 25 26 107 231 39 233 120 234
31 10 4 74 27 1 3 107 26 27 108 233 40 235 121 236
32 10 4 74 27 1 3 108 27 28 109 235 41 237 122 238
33 10 4 74 27 1 3 109 28 29 110 237 42 239 123 240
34 10 4 74 27 1 2 110 29 30 111 239 43 241 124 242
35 10 4 74 27 1 2 111 30 31 112 241 44 243 125 244
36 10 4 74 27 1 2 112 31 32 113 243 45 245 126 246
37 10 4 74 27 1 2 113 32 33 114 245 46 247 127 248
38 10 4 74 27 1 2 114 33 34 115 247 47 249 128 250
39 10 4 74 27 1 1 115 34 35 116 249 48 251 129 252
40 10 4 74 27 1 1 116 35 36 117 251 49 253 130 254
41 10 4 74 27 1 1 117 36 37 118 253 50 255 131 256
42 10 4 74 27 1 1 118 37 5 8 255 51 24 132 257
43 12 4 1 1 1 3 4 3 2 1 25 52 79 106 17 20 38 18 65 19 92 119 150 231 177 204 149 151 232 178 205 269 270
44 12 4 1 1 1 3 25 52 79 106 26 53 80 107 150 231 39 177 66 204 93 120 152 233 179 206 269 153 234 180 207 271 272
45 12 4 1 1 1 3 26 53 80 107 27 54 81 108 152 233 40 179 67 206 94 121 154 235 181 208 271 155 236 182 209 273 274
46 12 4 1 1 1 3 27 54 81 108 28 55 82 109 154 235 41 181 68 208 95 122 156 237 183 210 273 157 238 184 211 275 276
47 12 5 1 1 2 3 -2 28 55 82 109 29 56 83 110 156 237 42 183 69 210 96 123 158 239 185 212 275 159 240 186 213 277 278
48 12 5 1 1 2 2 -3 29 56 83 110 30 57 84 111 158 239 43 185 70 212 97 124 160 241 187 214 277 161 242 188 215 279 280
49 12 4 1 1 1 2 30 57 84 111 31 58 85 112 160 241 44 187 71 214 98 125 162 243 189 216 279 163 244 190 217 281 282
50 12 4 1 1 1 2 31 58 85 112 32 59 86 113 162 243 45 189 72 216 99 126 164 245 191 218 281 165 246 192 219 283 284
51 12 4 1 1 1 2 32 59 86 113 33 60 87 114 164 245 46 191 73 218 100 127 166 247 193 220 283 167 248 194 221 285 286
52 12 5 1 1 2 2 -1 33 60 87 114 34 61 88 115 166 247 47 193 74 220 101 128 168 249 195 222 285 169 250 196 223 287 288
53 12 5 1 1 2 1 -2 34 61 88 115 35 62 89 116 168 249 48 195 75 222 102 129 170 251 197 224 287 171 252 198 225 289 290
54 12 4 1 1 1 1 35 62 89 116 36 63 90 117 170 251 49 197 76 224 103 130 172 253 199 226 289 173 254 200 227 291 292
55 12 4 1 1 1 1 36 63 90 117 37 64 91 118 172 253 50 199 77 226 104 131 174 255 201 228 291 175 256 202 229 293 294
56 12 4 1 1 1 1 37 64 91 118 5 6 7 8 174 255 51 201 78 228 105 132 21 24 22 23 293 176 257 203 230 258 295
57 12 4 2 2 1 1 5 6 7 8 9 10 11 12 21 24 137 22 138 23 139 140 133 136 134 135 258 259 262 260 261 263 296
58 12 4 3 3 1 3 2 3 4 1 15 14 13 16 18 19 147 17 146 20 145 148 142 143 141 144 149 265 266 264 267 268 297
$EndElements
