$MeshFormat
2.2 0 8
$EndMeshFormat
$Nodes
315
1 0 0 0
2 0.1 0 0
3 0.1 0 0.1
4 0 0 0.1
5 0 1 0.1
6 0.1 1 0.1
7 0.1 1 0
8 0 1 0
9 0 1.1 0.1
10 0.1 1.1 0.1
11 0.1 1.1 0
12 0 1.1 0
13 0 -0.1 0.1
14 0.1 -0.1 0.1
15 0.1 -0.1 0
16 0 -0.1 0
17 0.04999999999985524 0 0.1
18 0.1 0 0.05000000000015159
19 0.05000000000015159 0 0
20 0 0 0.04999999999985524
21 0.04999999999985524 1 0.1
22 0.1 1 0.05000000000015159
23 0.05000000000015159 1 0
24 0 1 0.04999999999985524
25 0 0.0666666666665325 0.1
26 0 0.1333333333330848 0.1
27 0 0.1999999999995569 0.1
28 0 0.266666666666029 0.1
29 0 0.3333333333325011 0.1
30 0 0.3999999999989731 0.1
31 0 0.4666666666654452 0.1
32 0 0.5333333333321025 0.1
33 0 0.599999999998945 0.1
34 0 0.6666666666657876 0.1
35 0 0.73333333333263 0.1
36 0 0.7999999999994725 0.1
37 0 0.8666666666663151 0.1
38 0 0.9333333333331575 0.1
39 0 0.03333333333327052 0.1
40 0 0.0999999999998137 0.1
41 0 0.1666666666663209 0.1
42 0 0.2333333333327929 0.1
43 0 0.299999999999265 0.1
44 0 0.3666666666657371 0.1
45 0 0.4333333333322091 0.1
46 0 0.4999999999986813 0.1
47 0 0.5666666666655238 0.1
48 0 0.6333333333323663 0.1
49 0 0.6999999999992087 0.1
50 0 0.7666666666660512 0.1
51 0 0.8333333333328938 0.1
52 0 0.8999999999997362 0.1
53 0 0.9666666666665787 0.1
54 0.1 0.0666666666665325 0.1
55 0.1 0.1333333333330848 0.1
56 0.1 0.1999999999995569 0.1
57 0.1 0.266666666666029 0.1
58 0.1 0.3333333333325011 0.1
59 0.1 0.3999999999989731 0.1
60 0.1 0.4666666666654452 0.1
61 0.1 0.5333333333321025 0.1
62 0.1 0.599999999998945 0.1
63 0.1 0.6666666666657876 0.1
64 0.1 0.73333333333263 0.1
65 0.1 0.7999999999994725 0.1
66 0.1 0.8666666666663151 0.1
67 0.1 0.9333333333331575 0.1
68 0.1 0.03333333333327052 0.1
69 0.1 0.0999999999998137 0.1
70 0.1 0.1666666666663209 0.1
71 0.1 0.2333333333327929 0.1
72 0.1 0.299999999999265 0.1
73 0.1 0.3666666666657371 0.1
74 0.1 0.4333333333322091 0.1
75 0.1 0.4999999999986813 0.1
76 0.1 0.5666666666655238 0.1
77 0.1 0.6333333333323663 0.1
78 0.1 0.6999999999992087 0.1
79 0.1 0.7666666666660512 0.1
80 0.1 0.8333333333328938 0.1
81 0.1 0.8999999999997362 0.1
82 0.1 0.9666666666665787 0.1
83 0.1 0.0666666666665325 0
84 0.1 0.1333333333330848 0
85 0.1 0.1999999999995569 0
86 0.1 0.266666666666029 0
87 0.1 0.3333333333325011 0
88 0.1 0.3999999999989731 0
89 0.1 0.4666666666654452 0
90 0.1 0.5333333333321025 0
91 0.1 0.599999999998945 0
92 0.1 0.6666666666657876 0
93 0.1 0.73333333333263 0
94 0.1 0.7999999999994725 0
95 0.1 0.8666666666663151 0
96 0.1 0.9333333333331575 0
97 0.1 0.03333333333327052 0
98 0.1 0.0999999999998137 0
99 0.1 0.1666666666663209 0
100 0.1 0.2333333333327929 0
101 0.1 0.299999999999265 0
102 0.1 0.3666666666657371 0
103 0.1 0.4333333333322091 0
104 0.1 0.4999999999986813 0
105 0.1 0.5666666666655238 0
106 0.1 0.6333333333323663 0
107 0.1 0.6999999999992087 0
108 0.1 0.7666666666660512 0
109 0.1 0.8333333333328938 0
110 0.1 0.8999999999997362 0
111 0.1 0.9666666666665787 0
112 0 0.0666666666665325 0
113 0 0.1333333333330848 0
114 0 0.1999999999995569 0
115 0 0.266666666666029 0
116 0 0.3333333333325011 0
117 0 0.3999999999989731 0
118 0 0.4666666666654452 0
119 0 0.5333333333321025 0
120 0 0.599999999998945 0
121 0 0.6666666666657876 0
122 0 0.73333333333263 0
123 0 0.7999999999994725 0
124 0 0.8666666666663151 0
125 0 0.9333333333331575 0
126 0 0.03333333333327052 0
127 0 0.0999999999998137 0
128 0 0.1666666666663209 0
129 0 0.2333333333327929 0
130 0 0.299999999999265 0
131 0 0.3666666666657371 0
132 0 0.4333333333322091 0
133 0 0.4999999999986813 0
134 0 0.5666666666655238 0
135 0 0.6333333333323663 0
136 0 0.6999999999992087 0
137 0 0.7666666666660512 0
138 0 0.8333333333328938 0
139 0 0.8999999999997362 0
140 0 0.9666666666665787 0
141 0.04999999999985524 1.1 0.1
142 0.1 1.1 0.05000000000015159
143 0.05000000000015159 1.1 0
144 0 1.1 0.04999999999985524
145 0 1.05 0.1
146 0.1 1.05 0.1
147 0.1 1.05 0
148 0 1.05 0
149 0.04999999999985524 -0.1 0.1
150 0.1 -0.1 0.05000000000015159
151 0.05000000000015159 -0.1 0
152 0 -0.1 0.04999999999985524
153 0 -0.04999999999985524 0.1
154 0.1 -0.04999999999985524 0.1
155 0.1 -0.04999999999985524 0
156 0 -0.04999999999985524 0
157 0.05000000000000342 0 0.05000000000000341
158 0.05 0.06666666666653251 0.1
159 0.04999999999999928 0.03333333333327052 0.1
160 0.05 0.1333333333330848 0.1
161 0.05 0.1 0.1
162 0.05 0.1999999999995569 0.1
163 0.05 0.1666666666663209 0.1
164 0.05 0.2666666666660289 0.1
165 0.05 0.2333333333327929 0.1
166 0.05 0.333333333332501 0.1
167 0.05 0.3 0.1
168 0.05 0.3999999999989732 0.1
169 0.05 0.3666666666657371 0.1
170 0.05 0.4666666666654451 0.1
171 0.05 0.4333333333322091 0.1
172 0.05 0.5333333333321025 0.1
173 0.05 0.4999999999986813 0.1
174 0.05 0.599999999998945 0.1
175 0.05 0.5666666666655238 0.1
176 0.05 0.6666666666657876 0.1
177 0.05 0.6333333333323663 0.1
178 0.05 0.73333333333263 0.1
179 0.05 0.7 0.1
180 0.05 0.7999999999994725 0.1
181 0.05 0.7666666666660513 0.1
182 0.05 0.8666666666663151 0.1
183 0.05 0.8333333333328938 0.1
184 0.05 0.9333333333331575 0.1
185 0.05 0.8999999999999999 0.1
186 0.04999999999999857 0.9666666666665787 0.1
187 0.1 0.06666666666653251 0.05
188 0.1 0.03333333333327052 0.05000000000000077
189 0.1 0.1333333333330848 0.05
190 0.1 0.1 0.05
191 0.1 0.1999999999995569 0.05
192 0.1 0.1666666666663209 0.05
193 0.1 0.2666666666660289 0.05
194 0.1 0.2333333333327929 0.05
195 0.1 0.333333333332501 0.05
196 0.1 0.3 0.05
197 0.1 0.3999999999989732 0.05
198 0.1 0.3666666666657371 0.05
199 0.1 0.4666666666654451 0.05
200 0.1 0.4333333333322091 0.05
201 0.1 0.5333333333321025 0.05
202 0.1 0.4999999999986813 0.05
203 0.1 0.599999999998945 0.05
204 0.1 0.5666666666655238 0.05
205 0.1 0.6666666666657876 0.05
206 0.1 0.6333333333323663 0.05
207 0.1 0.73333333333263 0.05
208 0.1 0.7 0.05
209 0.1 0.7999999999994725 0.05
210 0.1 0.7666666666660513 0.05
211 0.1 0.8666666666663151 0.05
212 0.1 0.8333333333328938 0.05
213 0.1 0.9333333333331575 0.05
214 0.1 0.8999999999999999 0.05
215 0.1 0.9666666666665787 0.05000000000000152
216 0.05 0.06666666666653251 0
217 0.05000000000000077 0.03333333333327052 0
218 0.05 0.1333333333330848 0
219 0.05 0.1 0
220 0.05 0.1999999999995569 0
221 0.05 0.1666666666663209 0
222 0.05 0.2666666666660289 0
223 0.05 0.2333333333327929 0
224 0.05 0.333333333332501 0
225 0.05 0.3 0
226 0.05 0.3999999999989732 0
227 0.05 0.3666666666657371 0
228 0.05 0.4666666666654451 0
229 0.05 0.4333333333322091 0
230 0.05 0.5333333333321025 0
231 0.05 0.4999999999986813 0
232 0.05 0.599999999998945 0
233 0.05 0.5666666666655238 0
234 0.05 0.6666666666657876 0
235 0.05 0.6333333333323663 0
236 0.05 0.73333333333263 0
237 0.05 0.7 0
238 0.05 0.7999999999994725 0
239 0.05 0.7666666666660513 0
240 0.05 0.8666666666663151 0
241 0.05 0.8333333333328938 0
242 0.05 0.9333333333331575 0
243 0.05 0.8999999999999999 0
244 0.05000000000000152 0.9666666666665787 0
245 0 0.06666666666653251 0.05
246 0 0.03333333333327052 0.04999999999999928
247 0 0.1333333333330848 0.05
248 0 0.1 0.05
249 0 0.1999999999995569 0.05
250 0 0.1666666666663209 0.05
251 0 0.2666666666660289 0.05
252 0 0.2333333333327929 0.05
253 0 0.333333333332501 0.05
254 0 0.3 0.05
255 0 0.3999999999989732 0.05
256 0 0.3666666666657371 0.05
257 0 0.4666666666654451 0.05
258 0 0.4333333333322091 0.05
259 0 0.5333333333321025 0.05
260 0 0.4999999999986813 0.05
261 0 0.599999999998945 0.05
262 0 0.5666666666655238 0.05
263 0 0.6666666666657876 0.05
264 0 0.6333333333323663 0.05
265 0 0.73333333333263 0.05
266 0 0.7 0.05
267 0 0.7999999999994725 0.05
268 0 0.7666666666660513 0.05
269 0 0.8666666666663151 0.05
270 0 0.8333333333328938 0.05
271 0 0.9333333333331575 0.05
272 0 0.8999999999999999 0.05
273 0 0.9666666666665787 0.04999999999999857
274 0.05000000000000342 1 0.05000000000000341
275 0.05 1.05 0.1
276 0.1 1.05 0.05
277 0.05 1.05 0
278 0 1.05 0.05
279 0.05000000000000342 1.1 0.05000000000000341
280 0.05 -0.05 0.1
281 0.1 -0.05 0.05
282 0.05 -0.05 0
283 0 -0.05 0.05
284 0.05000000000000342 -0.1 0.05000000000000341
285 0.05 0.0666666666665325 0.05
286 0.05 0.03333333333326625 0.05
287 0.05 0.1333333333330848 0.05
288 0.05 0.09999999999980866 0.05
289 0.05 0.1999999999995569 0.05
290 0.05 0.1666666666663209 0.05
291 0.05 0.266666666666029 0.05
292 0.05 0.2333333333327929 0.05
293 0.05 0.3333333333325011 0.05
294 0.05 0.299999999999265 0.05
295 0.05 0.3999999999989731 0.05
296 0.05 0.3666666666657371 0.05
297 0.05 0.4666666666654452 0.05
298 0.05 0.4333333333322091 0.05
299 0.05 0.5333333333321025 0.05
300 0.05 0.4999999999987739 0.05
301 0.05 0.599999999998945 0.05
302 0.05 0.5666666666655238 0.05
303 0.05 0.6666666666657876 0.05
304 0.05 0.6333333333323663 0.05
305 0.05 0.73333333333263 0.05
306 0.05 0.6999999999992088 0.05
307 0.05 0.7999999999994725 0.05
308 0.05 0.7666666666660511 0.05
309 0.05 0.8666666666663151 0.05
310 0.05 0.8333333333328939 0.05
311 0.05 0.9333333333331575 0.05
312 0.05 0.8999999999997363 0.05
313 0.05 0.9666666666665787 0.05
314 0.05 1.05 0.05
315 0.05 -0.05 0.05
$EndNodes
$Elements
62
1 8 2 75 18 2 83 97
2 8 2 75 18 83 84 98
3 8 2 75 18 84 85 99
4 8 2 75 18 85 86 100
5 8 2 75 18 86 87 101
6 8 2 75 18 87 88 102
7 8 2 75 18 88 89 103
8 8 2 75 18 89 90 104
9 8 2 75 18 90 91 105
10 8 2 75 18 91 92 106
11 8 2 75 18 92 93 107
12 8 2 75 18 93 94 108
13 8 2 75 18 94 95 109
14 8 2 75 18 95 96 110
15 8 2 75 18 96 7 111
16 10 2 73 19 3 2 83 54 18 97 187 68 188
17 10 2 73 19 54 83 84 55 187 98 189 69 190
18 10 2 73 19 55 84 85 56 189 99 191 70 192
19 10 2 73 19 56 85 86 57 191 100 193 71 194
20 10 2 73 19 57 86 87 58 193 101 195 72 196
21 10 2 73 19 58 87 88 59 195 102 197 73 198
22 10 2 73 19 59 88 89 60 197 103 199 74 200
23 10 2 73 19 60 89 90 61 199 104 201 75 202
24 10 2 73 19 61 90 91 62 201 105 203 76 204
25 10 2 73 19 62 91 92 63 203 106 205 77 206
26 10 2 73 19 63 92 93 64 205 107 207 78 208
27 10 2 73 19 64 93 94 65 207 108 209 79 210
28 10 2 73 19 65 94 95 66 209 109 211 80 212
29 10 2 73 19 66 95 96 67 211 110 213 81 214
30 10 2 73 19 67 96 7 6 213 111 22 82 215
31 10 2 74 27 1 4 25 112 20 39 245 126 246
32 10 2 74 27 112 25 26 113 245 40 247 127 248
33 10 2 74 27 113 26 27 114 247 41 249 128 250
34 10 2 74 27 114 27 28 115 249 42 251 129 252
35 10 2 74 27 115 28 29 116 251 43 253 130 254
36 10 2 74 27 116 29 30 117 253 44 255 131 256
37 10 2 74 27 117 30 31 118 255 45 257 132 258
38 10 2 74 27 118 31 32 119 257 46 259 133 260
39 10 2 74 27 119 32 33 120 259 47 261 134 262
40 10 2 74 27 120 33 34 121 261 48 263 135 264
41 10 2 74 27 121 34 35 122 263 49 265 136 266
42 10 2 74 27 122 35 36 123 265 50 267 137 268
43 10 2 74 27 123 36 37 124 267 51 269 138 270
44 10 2 74 27 124 37 38 125 269 52 271 139 272
45 10 2 74 27 125 38 5 8 271 53 24 140 273
46 12 2 1 1 4 3 2 1 25 54 83 112 17 20 39 18 68 19 97 126 158 245 187 216 157 159 246 188 217 285 286
47 12 2 1 1 25 54 83 112 26 55 84 113 158 245 40 187 69 216 98 127 160 247 189 218 285 161 248 190 219 287 288
48 12 2 1 1 26 55 84 113 27 56 85 114 160 247 41 189 70 218 99 128 162 249 191 220 287 163 250 192 221 289 290
49 12 2 1 1 27 56 85 114 28 57 86 115 162 249 42 191 71 220 100 129 164 251 193 222 289 165 252 194 223 291 292
50 12 2 1 1 28 57 86 115 29 58 87 116 164 251 43 193 72 222 101 130 166 253 195 224 291 167 254 196 225 293 294
51 12 2 1 1 29 58 87 116 30 59 88 117 166 253 44 195 73 224 102 131 168 255 197 226 293 169 256 198 227 295 296
52 12 2 1 1 30 59 88 117 31 60 89 118 168 255 45 197 74 226 103 132 170 257 199 228 295 171 258 200 229 297 298
53 12 2 1 1 31 60 89 118 32 61 90 119 170 257 46 199 75 228 104 133 172 259 201 230 297 173 260 202 231 299 300
54 12 2 1 1 32 61 90 119 33 62 91 120 172 259 47 201 76 230 105 134 174 261 203 232 299 175 262 204 233 301 302
55 12 2 1 1 33 62 91 120 34 63 92 121 174 261 48 203 77 232 106 135 176 263 205 234 301 177 264 206 235 303 304
56 12 2 1 1 34 63 92 121 35 64 93 122 176 263 49 205 78 234 107 136 178 265 207 236 303 179 266 208 237 305 306
57 12 2 1 1 35 64 93 122 36 65 94 123 178 265 50 207 79 236 108 137 180 267 209 238 305 181 268 210 239 307 308
58 12 2 1 1 36 65 94 123 37 66 95 124 180 267 51 209 80 238 109 138 182 269 211 240 307 183 270 212 241 309 310
59 12 2 1 1 37 66 95 124 38 67 96 125 182 269 52 211 81 240 110 139 184 271 213 242 309 185 272 214 243 311 312
60 12 2 1 1 38 67 96 125 5 6 7 8 184 271 53 213 82 242 111 140 21 24 22 23 311 186 273 215 244 274 313
61 12 2 2 2 5 6 7 8 9 10 11 12 21 24 145 22 146 23 147 148 141 144 142 143 274 275 278 276 277 279 314
62 12 2 3 3 2 3 4 1 15 14 13 16 18 19 155 17 154 20 153 156 150 151 149 152 157 281 282 280 283 284 315
$EndElements
