// Gmsh project created on Wed Sep  5 12:12:02 2012
Point(1) = {-16.5, -7.5, 0, 1.0};
Point(2) = {-16.5, 7.5, 0, 1.0};
Point(3) = {16.5, 7.5, 0, 1.0};
Point(4) = {16.5, -7.5, 0, 1.0};
//Point(5) = {0, 0, 0, 1.0};
//Point(6) = {0, 0.5, 0, 1.0};
//Point(7) = {0.5, 0, 0, 1.0};
//Point(8) = {0, -0.5, 0, 1.0};
//Point(9) = {-0.5, 0, 0, 1.0};
Line(1) = {2, 1};
Line(2) = {1, 4};
Line(3) = {4, 3};
Line(4) = {3, 2};
//Circle(5) = {6, 5, 7};
//Circle(6) = {7, 5, 8};
//Circle(7) = {8, 5, 9};
//Circle(8) = {9, 5, 6};
Physical Line("inlet") = {1};
Physical Line("top") = {4};
Physical Line("outlet") = {3};
Physical Line("bottom") = {2};
//Physical Line("cylinder") = {5, 6, 7, 8};
//Line Loop(14) = {5, 6, 7, 8};
Line Loop(15) = {1, 2, 3, 4};
//Plane Surface(16) = {14, 15};
Plane Surface(16) = {15};
Physical Surface("domain") = {16};
