//load points and islands (BSpline + Line Loop)
Include "islands.geo";
//load the point and the BSpline describing the shelf break
Include "shelf.geo";
Euclidian Coordinates;
//load points located on reefs (not used to describe boundary but to specify refinement over reefs areas)
Include "reefs.geo";

//now we define the refinement rules
//Islands
Field[5] = Threshold;
Field[5].DistMax = 30000;
Field[5].DistMin = 2000;
Field[5].IField = 1;
Field[5].LcMax = 20000;
Field[5].LcMin = 2000;
Field[6] = Structured;
//bath
Field[6].FileName = "full.bin";
Field[7] = LonLat;
Field[7].IField = 6;
Field[8] = Threshold;
Field[8].DistMax = -10;
Field[8].DistMin = -200;
Field[8].IField = 7;
Field[8].LcMax = 0;
Field[8].LcMin = 1;
Field[9] = MathEval;
Field[9].F = "2000+8000*Sqrt(F8)";
//reef
Field[10] = Threshold;
Field[10].DistMax = 20000;
Field[10].DistMin = 3000;
Field[10].IField = 3;
Field[10].LcMax = 20000;
Field[10].LcMin = 5000;
//shelf
/*Field[11]=Threshold;
Field[11].DistMax = 10000;
Field[11].DistMin = 2000;
Field[11].IField = 2;
Field[11].LcMin = 5000;
Field[11].LcMax = 20000;*/
Field[100] = Min;
Field[100].FieldsList = {5, 10, 9};

Background Field = 100;
Split Line(613) {25341};
Split Line(6) {14950, 15001};
Split Line(618) {15158};
Split Line(1) {863};
Delete {
  Line{620, 621, 615};
}
Line(623) = {25341, 14950};
Line(624) = {15158, 863};
Line(625) = {25449, 13761};
Split Line(616) {25404, 25422};
Line Loop(626) = {626, 627, 628, 625, -622, -624, -619, -617, -623};
Plane Surface(627) = {3, 5, 6, 7, 9, 10, 11, 12, 14, 15, 16, 17, 18, 21, 22, 23, 24, 25, 26, 27, 32, 34, 35, 36, 37, 38, 40, 41, 42, 43, 44, 45, 46, 47, 48, 49, 50, 51, 52, 55, 56, 59, 61, 63, 64, 65, 66, 67, 68, 69, 70, 72, 73, 75, 76, 77, 78, 79, 83, 84, 86, 87, 88, 90, 91, 94, 96, 97, 99, 100, 101, 104, 105, 107, 108, 110, 111, 112, 113, 114, 115, 116, 118, 120, 121, 122, 123, 124, 125, 126, 128, 132, 133, 134, 135, 136, 137, 138, 139, 140, 141, 143, 144, 145, 149, 153, 154, 155, 157, 158, 159, 162, 164, 165, 166, 169, 170, 173, 174, 176, 178, 182, 184, 185, 189, 190, 191, 194, 195, 196, 197, 198, 199, 200, 202, 204, 205, 206, 207, 208, 210, 211, 212, 215, 217, 218, 219, 220, 221, 223, 224, 225, 226, 227, 228, 230, 233, 234, 235, 236, 237, 239, 240, 241, 244, 246, 247, 248, 249, 251, 253, 254, 255, 257, 259, 260, 262, 263, 264, 265, 266, 267, 268, 270, 271, 272, 273, 274, 275, 276, 277, 279, 280, 282, 283, 284, 285, 286, 287, 288, 290, 291, 293, 294, 295, 296, 298, 299, 301, 302, 303, 305, 306, 309, 310, 312, 313, 315, 316, 322, 324, 325, 326, 327, 328, 329, 330, 331, 332, 333, 334, 336, 338, 340, 341, 342, 343, 345, 346, 348, 350, 351, 352, 353, 354, 355, 357, 359, 360, 361, 362, 364, 365, 366, 367, 368, 369, 371, 372, 373, 374, 378, 380, 381, 383, 384, 385, 386, 388, 389, 391, 392, 395, 396, 397, 398, 399, 401, 403, 405, 407, 408, 409, 411, 412, 413, 414, 415, 416, 417, 418, 419, 420, 421, 422, 424, 425, 426, 427, 428, 429, 430, 432, 433, 435, 436, 437, 438, 439, 440, 442, 443, 444, 445, 448, 449, 452, 453, 454, 455, 456, 457, 458, 460, 462, 463, 464, 465, 467, 468, 469, 470, 471, 472, 473, 476, 477, 478, 479, 480, 481, 482, 483, 487, 488, 489, 490, 491, 493, 496, 497, 503, 504, 505, 506, 507, 508, 509, 510, 511, 512, 516, 517, 518, 521, 522, 523, 524, 525, 526, 527, 528, 529, 530, 531, 532, 533, 534, 535, 536, 537, 539, 540, 541, 545, 546, 548, 549, 550, 551, 552, 553, 554, 555, 556, 560, 561, 562, 563, 564, 565, 566, 567, 570, 573, 574, 575, 576, 577, 578, 579, 580, 581, 584, 586, 587, 588, 589, 590, 591, 592, 593, 594, 595, 596, 597, 598, 599, 601, 602, 603, 604, 605, 606, 607, 626};
Mesh.Algorithm=5;
Mesh.LcIntegrationPrecision=1e-3;
Mesh.CharacteristicLengthExtendFromBoundary=0;
Mesh.CharacteristicLengthFromPoints=0;
Physical Line("Open Sea North") = {625, 628};
Physical Line("Open Sea Central") = {627};
Physical Line("Open Sea South") = {626, 623};
Physical Line("Coast") = {622, 624, 619, 617};
Physical Line("Islands") = {302, 572, 280, 151, 491,  520, 107, 45, 168, 612, 405, 98, 219, 97, 340, 587, 605, 153, 108, 184, 36, 380, 325, 122, 111, 86, 286, 439, 197, 518, 241, 611, 301, 453, 486, 346, 308, 336, 351, 339, 495, 454, 388, 304, 538, 332, 557, 602, 338, 258, 492, 118, 289, 140, 442, 402, 19, 71, 169, 331, 542, 187, 365, 441, 472, 571, 404, 329, 386, 295, 371, 603, 204, 416, 117, 345, 194, 267, 515, 356, 149, 334, 414, 183, 254, 586, 498, 401, 440, 26, 222, 287, 228, 421, 366, 99, 567, 393, 51, 476, 74, 536, 205, 607, 523, 540, 400, 583, 501, 412, 419, 609, 279, 317, 528, 450, 475, 598, 448, 251, 541, 171, 84, 391, 517, 260, 509, 159, 245, 360, 12, 373, 211, 29, 514, 244, 597, 432, 378, 511, 600, 273, 256, 606, 125, 72, 88, 174, 195, 535, 281, 75, 238, 28, 558, 22, 109, 417, 92, 264, 47, 110, 482, 95, 485, 246, 608, 113, 461, 230, 126, 277, 362, 224, 115, 423, 300, 20, 210, 330, 445, 582, 11, 468, 337, 477, 488, 54, 589, 469, 311, 537, 268, 162, 137, 131, 512, 278, 458, 139, 141, 220, 240, 216, 341, 569, 296, 559, 17, 119, 290, 123, 390, 410, 350, 196, 150, 463, 560, 253, 556, 56, 129, 81, 487, 202, 516, 120, 565, 127, 413, 213, 431, 201, 96, 116, 539, 142, 532, 370, 91, 465, 53, 61, 561, 143, 420, 269, 102, 271, 30, 429, 170, 462, 32, 83, 164, 449, 46, 533, 555, 592, 89, 276, 282, 48, 544, 49, 447, 568, 531, 610, 239, 133, 315, 77, 408, 321, 580, 434, 57, 333, 585, 474, 604, 249, 104, 376, 78, 179, 288, 385, 496, 418, 435, 163, 430, 252, 82, 158, 534, 128, 594, 457, 130, 389, 23, 513, 270, 37, 426, 200, 42, 232, 199, 374, 112, 508, 483, 406, 358, 55, 357, 229, 584, 69, 579, 359, 481, 553, 39, 175, 154, 60, 307, 209, 10, 146, 70, 570, 427, 320, 31, 460, 394, 14, 52, 459, 397, 581, 347, 68, 275, 298, 73, 284, 367, 433, 138, 106, 207, 318, 225, 521, 167, 306, 494, 554, 21, 259, 293, 510, 105, 217, 148, 291, 265, 335, 591, 314, 348, 292, 272, 599, 383, 601, 16, 145, 223, 93, 522, 233, 101, 355, 527, 15, 178, 595, 242, 212, 50, 41, 27, 66, 403, 529, 396, 189, 526, 530, 343, 40, 425, 235, 262, 575, 8, 121, 364, 484, 578, 43, 550, 303, 327, 443, 593, 438, 160, 64, 353, 444, 437, 372, 422, 226, 596, 424, 493, 566, 144, 467, 551, 473, 382, 312, 261, 208, 499, 192, 352, 206, 266, 198, 34, 480, 166, 305, 342, 247, 177, 193, 59, 524, 525, 250, 326, 455, 407, 452, 381, 490, 398, 155, 257, 507, 65, 428, 392, 344, 349, 76, 62, 361, 25, 85, 35, 243, 328, 236, 547, 506, 227, 147, 466, 136, 234, 384, 576, 176, 564, 497, 191, 132, 283, 185, 543, 316, 186, 503, 574, 409, 319, 152, 124, 182, 489, 218, 263, 562, 87, 500, 479, 173, 464, 548, 549, 399, 411, 577, 297, 590, 354, 519, 552, 504, 505, 451, 588, 309, 573, 2, 5, 4, 3};
Physical Surface ("Sea") = {627};
