nbx=1;
nby=1;
L=500000;
Point(1) = {-L/2, -L/2, 0, L/nbx};
Point(2) = {L/2, -L/2, 0, L/nbx};
Point(3) = {L/2, L/2, 0, L/nbx};
Point(4) = {-L/2, L/2, 0, L/nbx};
Line(1) = {1, 2};
Line(2) = {2, 3};
Line(3) = {3, 4};
Line(4) = {4, 1};
Line Loop(5) = {1, 2, 3, 4};
Plane Surface(6) = {5};
Transfinite Line {1,3} = nbx+1;
Transfinite Line {2,4} = nby+1;
Transfinite Surface "*";
Recombine Surface "*";
Physical Line("left") = {4};
Physical Line("right") = {2};
Physical Line("bottom") = {1};
Physical Line("top") = {3};
Physical Surface("surf") = {6};

