nbx=300;
nby=100;
Point(1) = {-150000, 00000, 0, 1000};
Point(2) = {150000, 00000, 0, 1000};
Point(3) = {150000, 10000, 0, 1000};
Point(4) = {-150000, 10000, 0, 1000};
Line(1) = {1, 2};
Line(2) = {2, 3};
Line(3) = {3, 4};
Line(4) = {4, 1};
Line Loop(5) = {1, 2, 3, 4};
Plane Surface(6) = {5};
Transfinite Line {1,3} = nbx+1;
Transfinite Line {2,4} = nby+1;
Transfinite Surface "*";
Recombine Surface "*";
Physical Line("left") = {4};
Physical Line("right") = {2};
Physical Line("bottom") = {1};
Physical Line("top") = {3};
Physical Surface("surf") = {6};

