$MeshFormat
2.2 0 8
$EndMeshFormat
$Nodes
691
1 -0.43695 1.00429 0
2 0.436921 0.5012180000000001 0
3 0.435789 -0.500787 0
4 -0.435681 -0.998478 0
5 -0.432515 -2.00091 0
6 -0.434005 2.00377 0
7 0.434545 2.50127 0
8 0.437147 -2.50245 0
9 0.387104 -2.53131 0
10 -0.432429 -2.05868 0
11 0.487104 -2.53126 0
12 -0.48559 -1.02735 0
13 -0.482606 -1.97218 0
14 0.435668 -0.558435 0
15 -0.385589 -1.02745 0
16 -0.382606 -1.97197 0
17 0.437063 -2.44468 0
18 -0.435506 -0.9407990000000001 0
19 -0.436731 0.94647 0
20 0.386888 0.472328 0
21 0.385822 -0.471744 0
22 0.486888 0.472381 0
23 0.485822 -0.471921 0
24 -0.48409 1.975 0
25 -0.486866 1.033 0
26 0.434436 2.44359 0
27 0.436842 0.558957 0
28 -0.386865 1.03315 0
29 -0.38409 1.97474 0
30 -0.433867 2.06147 0
31 0.384612 2.53029 0
32 0.484612 2.53009 0
33 -0.866025 -2.25265 0
34 0.436406 -3 0
35 -0.866025 -2.31047 0
36 0.386406 -3 0
37 0.866025 -2.25344 0
38 0.866025 -2.31126 0
39 0.486406 -3 0
40 -0.866025 -0.749228 0
41 -0.866025 -0.807009 0
42 -0.866025 -2.19483 0
43 0.866025 -0.748891 0
44 0.866025 -0.806609 0
45 0.866025 -2.19562 0
46 -0.866025 0.752924 0
47 -0.866025 -0.691447 0
48 -0.866025 0.694976 0
49 0.866025 0.749807 0
50 0.866025 0.6920230000000001 0
51 0.866025 -0.691173 0
52 -0.866025 2.25397 0
53 -0.866025 0.810872 0
54 -0.866025 2.19619 0
55 0.866025 2.25195 0
56 0.866025 2.19421 0
57 0.866025 0.807592 0
58 0.435699 3 0
59 -0.866025 2.31175 0
60 0.385699 3 0
61 0.866025 2.3097 0
62 0.485699 3 0
63 0.2922033333337328 -2.41886000000023 0
64 0.1472596666672698 -2.335270000000348 0
65 0.002316000000672835 -2.251680000000388 0
66 -0.1426276666664097 -2.168090000000148 0
67 -0.2875713333332322 -2.084500000000058 0
68 0.3646751666668099 -2.460655000000083 0
69 0.2197315000005529 -2.377065000000319 0
70 0.0747878333339414 -2.293475000000351 0
71 -0.07015583333282976 -2.20988500000029 0
72 -0.2150994999998774 -2.126295000000071 0
73 -0.3600431666665817 -2.042705000000049 0
74 0.2231974000000736 -2.436784000000042 0
75 0.0592908000006071 -2.34225800000035 0
76 -0.1046157999991452 -2.247732000000493 0
77 -0.2685223999994255 -2.153206000000331 0
78 0.3051506999999208 -2.484046999999954 0
79 0.1412441000002739 -2.389521000000158 0
80 -0.02266249999902281 -2.294995000000563 0
81 -0.1865690999993169 -2.200469000000394 0
82 -0.3504756999996418 -2.105943000000206 0
83 -0.4351533333333348 -1.165549999999516 0
84 -0.4346256666666693 -1.332621999999161 0
85 -0.4340980000000043 -1.499693999998634 0
86 -0.4335703333333361 -1.666765999999118 0
87 -0.433042666666668 -1.833837999999573 0
88 -0.4354171666666671 -1.082013999999839 0
89 -0.4348895000000022 -1.249085999999302 0
90 -0.434361833333337 -1.416157999998841 0
91 -0.4338341666666704 -1.583229999998807 0
92 -0.4333065000000016 -1.750301999999482 0
93 -0.4327788333333338 -1.917373999999861 0
94 -0.4849932000000015 -1.216315999999523 0
95 -0.484396400000003 -1.405281999999054 0
96 -0.4837996000000033 -1.59424799999895 0
97 -0.4832028000000021 -1.78321399999934 0
98 -0.4852916000000005 -1.121832999999833 0
99 -0.4846948000000016 -1.310798999999479 0
100 -0.4840980000000044 -1.499764999998609 0
101 -0.4835012000000024 -1.688730999999243 0
102 -0.4829044000000007 -1.877696999999767 0
103 0.2905440000003174 -0.5837354999998187 0
104 0.1452990000007465 -0.6666839999995737 0
105 5.4000001154908e-05 -0.7496324999993405 0
106 -0.1451909999992702 -0.8325809999995832 0
107 -0.2904359999996073 -0.9155294999997757 0
108 0.3631665000001495 -0.5422612499999147 0
109 0.2179215000005297 -0.6252097499996975 0
110 0.07267650000098935 -0.708158249999435 0
111 -0.07256849999910964 -0.7911067499994915 0
112 -0.2178134999994633 -0.8740552499996934 0
113 -0.3630584999998365 -0.9570037499999067 0
114 0.2714166000003687 -0.6522379999997895 0
115 0.1071652000008281 -0.7460409999995271 0
116 -0.05708619999916381 -0.8398439999995224 0
117 -0.2213375999995478 -0.9336469999997417 0
118 0.3535423000001511 -0.6053364999999137 0
119 0.1892909000006001 -0.6991394999996573 0
120 0.02503950000107041 -0.7929424999993887 0
121 -0.1392118999993463 -0.8867454999996267 0
122 -0.3034632999998104 -0.9805484999998917 0
123 -0.3849924000000006 -1.216353999999801 0
124 -0.3843958000000013 -1.405257999999593 0
125 -0.3837992000000015 -1.594161999999532 0
126 -0.3832026000000008 -1.783065999999749 0
127 -0.3852906999999999 -1.12190200000005 0
128 -0.3846941000000013 -1.31080599999961 0
129 -0.384097500000002 -1.499709999999367 0
130 -0.3835009000000015 -1.68861399999953 0
131 -0.3829043000000007 -1.877517999999786 0
132 -0.2186722000004128 -2.066511999999762 0
133 -0.05473840000088087 -2.161053999999492 0
134 0.1091953999991482 -2.255595999999509 0
135 0.2731291999995721 -2.350137999999753 0
136 -0.3006390999999534 -2.019241000000027 0
137 -0.1367053000006409 -2.11378299999963 0
138 0.02722849999907662 -2.208324999999467 0
139 0.1911622999994145 -2.302866999999662 0
140 0.3550960999997533 -2.397408999999858 0
141 -0.2913048333335841 0.9204446666668109 0
142 -0.1456596666673541 0.836599333333729 0
143 -1.450000110608807e-05 0.7527540000006367 0
144 0.1456306666659142 0.6689086666670998 0
145 0.2912758333329716 0.5850633333335415 0
146 -0.3641274166667635 0.962367333333389 0
147 -0.2184822500004729 0.8785220000002721 0
148 -0.07283708333417888 0.7946766666671534 0
149 0.07280808333241867 0.7108313333338598 0
150 0.2184532499993777 0.6269860000003583 0
151 0.3640984166664989 0.5431406666667633 0
152 0.4367323333333337 0.3342171666669991 0
153 0.4365436666666676 0.16721633333415 0
154 0.4363550000000014 0.0002155000013011055 0
155 0.4361663333333343 -0.166785333332452 0
156 0.4359776666666672 -0.3337861666662267 0
157 0.4368266666666669 0.4177175833334879 0
158 0.4366380000000006 0.2507167500005323 0
159 0.4364493333333345 0.0837159166677256 0
160 0.4362606666666679 -0.08328491666557547 0
161 0.4360720000000007 -0.2502857499993394 0
162 0.4358833333333336 -0.4172865833330484 0
163 -0.2720072000003725 0.8516416000002145 0
164 -0.107283400000772 0.7568132000004445 0
165 0.05744039999907496 0.6619848000005326 0
166 0.2221641999996909 0.5671564000001779 0
167 -0.3543691000001486 0.8990558000000856 0
168 -0.1896453000005037 0.80422740000029 0
169 -0.02492150000109311 0.7093990000006294 0
170 0.1398022999993562 0.6145706000003706 0
171 0.3045260999998003 0.5197422000001151 0
172 0.3866748000000005 0.2835136000004251 0
173 0.3864616000000011 0.0946992000009777 0
174 0.3862484000000011 -0.09411519999901147 0
175 0.3860352000000006 -0.282929599999484 0
176 0.3867814000000002 0.3779208000001685 0
177 0.3865682000000009 0.189106400000749 0
178 0.3863550000000014 0.000292000001229864 0
179 0.3861418000000008 -0.1885223999993099 0
180 0.3859286000000003 -0.377336799999749 0
181 0.2215564000003393 -0.5655549999998062 0
182 0.057290800000799 -0.6593659999995437 0
183 -0.1069747999991517 -0.7531769999995155 0
184 -0.2712403999995817 -0.8469879999997612 0
185 0.3036892000001258 -0.5186494999999282 0
186 0.1394236000006217 -0.612460499999645 0
187 -0.02484199999896824 -0.7062714999994107 0
188 -0.1891075999994136 -0.8000824999996652 0
189 -0.3533731999998417 -0.8938934999999096 0
190 0.4866748000000005 0.2835206000004511 0
191 0.4864616000000011 0.09466020000098885 0
192 0.486248400000001 -0.09420019999907209 0
193 0.4860352000000006 -0.2830605999994926 0
194 0.4867814000000003 0.3779508000002209 0
195 0.4865682000000008 0.1890904000007421 0
196 0.4863550000000013 0.0002300000011998815 0
197 0.4861418000000008 -0.1886303999992809 0
198 0.4859286000000003 -0.3774907999996845 0
199 -0.4345939999999986 1.803874000000468 0
200 -0.4351829999999967 1.60397800000111 0
201 -0.4357719999999968 1.404082000001093 0
202 -0.4363609999999983 1.204186000000572 0
203 -0.4342994999999998 1.903822000000061 0
204 -0.4348884999999974 1.70392600000088 0
205 -0.4354774999999952 1.504030000001638 0
206 -0.4360664999999977 1.304134000000779 0
207 -0.4366554999999996 1.104238000000142 0
208 -0.4846451999999979 1.786600000000703 0
209 -0.4852003999999971 1.598200000000972 0
210 -0.4857555999999977 1.409800000000781 0
211 -0.486310799999999 1.221400000000339 0
212 -0.4843675999999983 1.880800000000592 0
213 -0.4849227999999978 1.692400000000755 0
214 -0.4854779999999965 1.504000000001191 0
215 -0.4860331999999984 1.31560000000056 0
216 -0.4865883999999993 1.127200000000243 0
217 -0.2602950000003125 2.103269999999821 0
218 -0.08658500000088076 2.202769999999495 0
219 0.0871249999991105 2.30226999999949 0
220 0.2608349999995047 2.401769999999716 0
221 -0.3471500000000688 2.05351999999996 0
222 -0.1734400000005964 2.153019999999658 0
223 0.0002699999990317115 2.252519999999445 0
224 0.173979999999297 2.352019999999597 0
225 0.3476899999997939 2.451519999999882 0
226 0.2721006000004129 0.6537955999997623 0
227 0.1073592000008722 0.748634199999498 0
228 -0.05738219999913236 0.8434727999995005 0
229 -0.2221235999995965 0.9383113999997676 0
230 0.3544713000001664 0.6063762999999043 0
231 0.1897299000006724 0.701214899999613 0
232 0.0249885000010604 0.7960534999993896 0
233 -0.1397528999993983 0.8908920999996537 0
234 -0.3044942999998034 0.9857306999998869 0
235 -0.3863100000000006 1.2214679999998 0
236 -0.3857550000000022 1.409785999999245 0
237 -0.3852000000000032 1.598103999998933 0
238 -0.3846450000000015 1.78642199999948 0
239 -0.3865875000000003 1.127308999999909 0
240 -0.3860325000000016 1.315626999999462 0
241 -0.3854775000000033 1.503944999998873 0
242 -0.3849225000000021 1.692262999999286 0
243 -0.3843675000000014 1.88058099999953 0
244 -0.2203848000002881 2.068509999999835 0
245 -0.05667960000075151 2.16227999999957 0
246 0.107025599999217 2.256049999999552 0
247 0.2707307999995532 2.349819999999744 0
248 -0.3022374000001575 2.02162499999991 0
249 -0.1385322000005193 2.115394999999702 0
250 0.02517299999887962 2.209164999999358 0
251 0.1888781999992771 2.302934999999586 0
252 0.352583399999794 2.396704999999882 0
253 -0.2701712000002118 2.155233999999878 0
254 -0.1064754000007315 2.248997999999581 0
255 0.05722039999897732 2.342761999999414 0
256 0.2209161999994651 2.436525999999693 0
257 -0.3520191000000238 2.108351999999986 0
258 -0.188323300000439 2.202115999999748 0
259 -0.02462750000109931 2.29587999999937 0
260 0.1390682999993412 2.389643999999623 0
261 0.3027640999997244 2.483407999999842 0
262 -0.5770183333330384 -2.084823333333162 0
263 -0.7215216666663301 -2.168736666666471 0
264 -0.5047666666664048 -2.042866666666515 0
265 -0.6492699999996584 -2.126779999999802 0
266 -0.7937733333330628 -2.210693333333176 0
267 0.4366529999999991 -2.834150000000578 0
268 0.4368999999999991 -2.668300000000636 0
269 0.4365294999999996 -2.917075000000289 0
270 0.4367764999999987 -2.751225000000856 0
271 0.4370234999999993 -2.585375000000457 0
272 -0.5769609999994735 -2.142609999999694 0
273 -0.7214929999998809 -2.226539999999931 0
274 -0.504694999999915 -2.10064499999995 0
275 -0.6492269999996712 -2.184574999999809 0
276 -0.7937590000001622 -2.268505000000094 0
277 0.386638666666666 -2.843770000000462 0
278 0.386871333333332 -2.687540000000925 0
279 0.3865223333333327 -2.921885000000459 0
280 0.3867549999999991 -2.765655000000604 0
281 0.3869876666666658 -2.609425000000595 0
282 -0.866025 -2.28156 0
283 0.411406 -3 0
284 0.7230656666668528 -2.336443333333225 0
285 0.5801063333336609 -2.419446666666476 0
286 0.7945453333331237 -2.294941666666788 0
287 0.6515860000003588 -2.377944999999792 0
288 0.5086266666668959 -2.4609483333332 0
289 0.7397180000003005 -2.384593333333159 0
290 0.6134110000002985 -2.457926666666493 0
291 0.8028715000003441 -2.347926666666467 0
292 0.6765645000006746 -2.421259999999609 0
293 0.5502575000001585 -2.494593333333242 0
294 0.4868713333333334 -2.68750666666658 0
295 0.4866386666666667 -2.843753333333304 0
296 0.486987666666667 -2.609383333333087 0
297 0.4867550000000002 -2.765629999999895 0
298 0.4865223333333344 -2.921876666665918 0
299 0.461406 -3 0
300 0.866025 -2.28235 0
301 -0.7225770000003021 -0.8323113333331584 0
302 -0.5791290000004334 -0.9153946666664157 0
303 -0.7943010000000158 -0.7907696666666576 0
304 -0.6508530000003717 -0.8738529999997847 0
305 -0.5074050000003365 -0.9569363333331384 0
306 -0.7392133333338288 -0.880455999999713 0
307 -0.6124016666671758 -0.9539029999997051 0
308 -0.8026191666667457 -0.8437324999999543 0
309 -0.6758075000006452 -0.9171794999996263 0
310 -0.5489958333335732 -0.9906264999998611 0
311 -0.6104123333329877 -2.046396666666466 0
312 -0.7382186666663391 -2.120613333333143 0
313 -0.5465091666665153 -2.009288333333246 0
314 -0.6743154999994383 -2.083504999999674 0
315 -0.8021218333332262 -2.157721666666605 0
316 -0.866025 -2.22374 0
317 -0.866025 -0.7781185000001037 0
318 0.7226130000003542 -0.6661896666668708 0
319 0.5792010000003955 -0.5834883333335614 0
320 0.7943190000001448 -0.7075403333334168 0
321 0.6509070000006032 -0.6248390000003479 0
322 0.5074950000002378 -0.5421376666668039 0
323 0.7225726666670695 -0.7238843333335656 0
324 0.5791203333337269 -0.6411596666668936 0
325 0.7942988333336238 -0.7652466666668342 0
326 0.6508465000007762 -0.6825220000004476 0
327 0.5073941666668484 -0.5997973333334381 0
328 0.580050333333054 -2.361660000000162 0
329 0.7230376666663569 -2.27864000000018 0
330 0.5085566666664197 -2.403170000000143 0
331 0.6515439999995565 -2.320150000000258 0
332 0.7945313333329296 -2.237130000000235 0
333 0.866025 -2.22453 0
334 0.866025 -0.7777500000002051 0
335 -0.7230000000003453 0.8367126666664644 0
336 -0.5799750000002444 0.9205013333331902 0
337 -0.7945125000000817 0.7948183333332856 0
338 -0.6514875000004231 0.8786069999997521 0
339 -0.5084625000001319 0.9623956666665894 0
340 -0.5790123333329877 -0.857681666666867 0
341 -0.7225186666662567 -0.7745643333335708 0
342 -0.5072591666665409 -0.8992403333334062 0
343 -0.6507654999995982 -0.8161230000002327 0
344 -0.7942718333332788 -0.7330056666666983 0
345 -0.7229270000003261 0.7788073333331424 0
346 -0.5798290000003927 0.8626386666664366 0
347 -0.7944760000002955 0.7368916666664935 0
348 -0.6513780000006705 0.8207229999996073 0
349 -0.5082800000001744 0.9045543333332312 0
350 -0.866025 -0.7203375000001038 0
351 -0.866025 0.7239499999998132 0
352 0.7229903333336155 0.6669440000001635 0
353 0.5799556666669703 0.5840810000001759 0
354 0.7945076666668296 0.7083755000000944 0
355 0.6514730000004115 0.6255125000002384 0
356 0.5084383333333493 0.5426495000000092 0
357 0.7396459999999307 0.6188089999999599 0
358 0.6132669999996749 0.5455949999998118 0
359 0.8028355000000011 0.6554160000000007 0
360 0.6764565000000284 0.5822020000000165 0
361 0.5500774999998328 0.5089879999999032 0
362 0.6125563333330328 -0.5450049999998268 0
363 0.7392906666662937 -0.6180889999997849 0
364 0.5491891666666346 -0.5084629999999816 0
365 0.6759234999995372 -0.5815469999997331 0
366 0.8026578333330403 -0.654630999999831 0
367 0.866025 -0.720032 0
368 0.866025 0.7209149999997119 0
369 -0.7220183333336684 2.170570000000194 0
370 -0.5780116666670557 2.087170000000225 0
371 -0.7940216666670517 2.212270000000223 0
372 -0.6500150000009624 2.128870000000557 0
373 -0.5060083333337535 2.045470000000243 0
374 -0.6132523333330555 0.9589573333334961 0
375 -0.7396386666663273 0.8849146666668656 0
376 -0.550059166666453 0.9959786666667918 0
377 -0.6764454999994692 0.921936000000311 0
378 -0.8028318333330879 0.8478933333334771 0
379 -0.7387133333338206 2.122460000000282 0
380 -0.6114016666670912 2.048730000000246 0
381 -0.8023691666668943 2.159325000000132 0
382 -0.6750575000006618 2.085595000000383 0
383 -0.5477458333335887 2.011865000000148 0
384 -0.866025 0.781898 0
385 -0.866025 2.225079999999179 0
386 0.5783716666663113 2.418163333333538 0
387 0.7221983333330013 2.335056666666858 0
388 0.5064583333330596 2.459716666666825 0
389 0.6502849999997248 2.376610000000159 0
390 0.7941116666665015 2.293503333333429 0
391 0.5782989999997795 2.360463333333461 0
392 0.7221619999996887 2.277336666666847 0
393 0.5063675000000852 2.402026666666617 0
394 0.6502304999997504 2.318900000000144 0
395 0.7940934999997545 2.235773333333475 0
396 0.7229640000004025 0.7247136666668998 0
397 0.5799030000003482 0.641835333333535 0
398 0.794494500000094 0.7661528333333878 0
399 0.6514335000004993 0.6832745000002892 0
400 0.5083725000002195 0.6003961666667939 0
401 0.866025 2.22308 0
402 0.866025 0.7786995000000463 0
403 0.4349296666666653 2.667513333332755 0
404 0.4353143333333315 2.833756666665857 0
405 0.4347373333333354 2.584391666667546 0
406 0.4351219999999987 2.750634999999447 0
407 0.4355066666666657 2.916878333332928 0
408 -0.7219723333336484 2.228323333333516 0
409 -0.5779196666669137 2.14489666666681 0
410 -0.7939986666665275 2.270036666666586 0
411 -0.6499460000003638 2.18661000000021 0
412 -0.5058933333334463 2.103183333333399 0
413 0.3849743333333327 2.686859999999711 0
414 0.3853366666666657 2.843429999999596 0
415 0.3847931666666664 2.608574999999874 0
416 0.3851554999999985 2.765144999999333 0
417 0.3855178333333337 2.921715000000139 0
418 0.410699 3 0
419 -0.866025 2.28286 0
420 0.738887333333663 2.383163333333143 0
421 0.6117496666670286 2.456626666666458 0
422 0.8024561666669536 2.346431666666501 0
423 0.6753185000010804 2.419894999999376 0
424 0.548180833333443 2.49335833333327 0
425 0.4849743333333317 2.686726666665973 0
426 0.4853366666666652 2.843363333332697 0
427 0.4847931666666662 2.608408333333125 0
428 0.485155499999998 2.765044999999135 0
429 0.4855178333333335 2.921681666666757 0
430 0.460699 3 0
431 0.866025 2.280825 0
432 -0.7937589999999405 -2.239594999999965 0
433 -0.7215073333331055 -2.197638333333201 0
434 0.03080340000063997 -2.296969000000369 0
435 -0.05114989999923619 -2.24970600000044 0
436 -0.5047236666665192 -2.071751666666581 0
437 -0.432472 -2.029795 0
438 0.4118856666666655 -2.677920000000781 0
439 0.4117621666666655 -2.760845000000752 0
440 0.1032752333339385 -2.338764000000349 0
441 0.4121255 -2.51688 0
442 0.4120019999999995 -2.599805000000318 0
443 -0.2780468666663288 -2.118853000000195 0
444 -0.2055750333329176 -2.16064800000024 0
445 -0.1236217333327775 -2.207911000000321 0
446 0.3396536666668664 -2.475085000000115 0
447 0.411522333333333 -2.921885000000231 0
448 -0.576989666666256 -2.113716666666428 0
449 0.1852285333336717 -2.386027000000195 0
450 0.4116458333333326 -2.83896000000052 0
451 0.2577003666669032 -2.427822000000137 0
452 -0.3600001666666161 -2.071590000000029 0
453 -0.6492413333329018 -2.155673333333083 0
454 0.7945453333334265 -2.323851666666612 0
455 0.7313918333335767 -2.360518333333192 0
456 0.4615223333333334 -2.921876666666652 0
457 0.4616458333333329 -2.838951666666941 0
458 0.6599121666669807 -2.402019999999818 0
459 0.5967586666669797 -2.438686666666485 0
460 0.4617621666666663 -2.760828333333579 0
461 0.4620019999999995 -2.599780000000318 0
462 0.4621255 -2.516855 0
463 0.5336051666668304 -2.475353333333238 0
464 0.4618856666666663 -2.677903333333608 0
465 -0.5323595000002167 -0.9713723333332078 0
466 -0.4606355 -1.012914 0
467 -0.7943010000001511 -0.8196601666665793 0
468 -0.7308951666670654 -0.8563836666664357 0
469 -0.6591711666671312 -0.8979253333330643 0
470 -0.5957653333338047 -0.9346488333330604 0
471 -0.4603716666666674 -1.096449999999758 0
472 -0.4598094333333354 -1.274468999999342 0
473 -0.4600732666666681 -1.190932999999519 0
474 -0.4586849666666697 -1.630506999999034 0
475 -0.4583865666666691 -1.724989999999229 0
476 -0.4589488000000038 -1.546970999998792 0
477 -0.4592472000000036 -1.452487999998844 0
478 -0.4581227333333351 -1.808525999999457 0
479 -0.4595110333333361 -1.368951999999108 0
480 -0.457824333333334 -1.903008999999787 0
481 -0.5937153333330131 -2.065609999999814 0
482 -0.6576184999996888 -2.102718333333153 0
483 -0.7298701666663345 -2.144674999999807 0
484 -0.5298121666665192 -2.028501666666581 0
485 -0.4575605 -1.986545 0
486 -0.7937733333331651 -2.181783333333236 0
487 -0.4075605 -1.98644 0
488 -0.407824333333334 -1.902903999999787 0
489 0.2826662666666525 -2.384498999999992 0
490 0.2101944333334209 -2.342704000000051 0
491 -0.4086847666666688 -1.630463999999325 0
492 -0.4089486000000029 -1.546927999999083 0
493 0.6515579999999535 -2.349051666666694 0
494 0.5800783333333575 -2.390553333333319 0
495 -0.02851609999900445 -0.7947382499994314 0
496 -0.101138599999217 -0.8362124999995528 0
497 0.437105 -2.473565 0
498 0.3646331666668664 -2.431770000000115 0
499 0.5085846666668304 -2.432063333333238 0
500 -0.409809033333335 -1.274487999999481 0
501 -0.4095107333333353 -1.368939999999377 0
502 -0.183264299999409 -0.8831139999996624 0
503 -0.2558867999995775 -0.9245882499997586 0
504 0.05360960000099149 -0.7478367499994338 0
505 -0.3380124999998037 -0.9714897499998878 0
506 -0.410635 -1.012964 0
507 0.7225928333337119 -0.6950370000002182 0
508 0.6508666666670406 -0.6536746666668822 0
509 -0.4081226333333344 -1.808451999999661 0
510 -0.4083864666666684 -1.724915999999434 0
511 0.128227533333209 -2.295432999999928 0
512 -0.4103711666666674 -1.096499999999758 0
513 -0.4100728666666678 -1.190951999999658 0
514 -0.2531217666668225 -2.07550599999991 0
515 -0.3350886666666161 -2.028235000000029 0
516 0.1262321000007873 -0.7063624999995504 0
517 0.7942988333335348 -0.7363876666667828 0
518 0.3631060000001587 -0.5710852499999093 0
519 0.4357285 -0.5296110000000001 0
520 0.2809803000003431 -0.6179867499998041 0
521 -0.1806499333334113 -2.117300999999955 0
522 -0.4092469000000028 -1.452475999999113 0
523 0.7945313333331785 -2.26604000000009 0
524 0.5074345000001977 -0.5709616666667807 0
525 0.5791606666670612 -0.6123240000002275 0
526 -0.09868303333364531 -2.16457199999982 0
527 0.2083578000005576 -0.6594609999996817 0
528 0.7230516666666049 -2.307541666666702 0
529 0.05575569999991051 -2.253637999999948 0
530 -0.02621120000010402 -2.20636699999994 0
531 -0.6507946666666449 -0.8449965000000127 0
532 -0.7225478333332794 -0.8034378333333646 0
533 0.4112073666666677 -0.1304502666657318 0
534 0.4113017000000013 -0.04694984999885518 0
535 0.4114083000000013 0.0474573500011394 0
536 0.2560502000003284 -0.5746452499998125 0
537 0.3381830000001587 -0.5277397499999094 0
538 -0.2808381999995945 -0.8812587499997684 0
539 -0.208215699999426 -0.8397844999996722 0
540 -0.3629709999998036 -0.9281642499998879 0
541 0.4118101666666669 0.4032725833334996 0
542 0.4117035666666671 0.3088653833337121 0
543 -0.05364895000093906 0.7547836000005406 0
544 0.02871294999898444 0.7073694000005847 0
545 0.1834277000005429 -0.61611949999969 0
546 -0.7229635000003356 0.8077599999998034 0
547 -0.651414500000369 0.8496756666664504 0
548 0.4110064333333339 -0.3083578833328554 0
549 0.4111007666666674 -0.224857466665968 0
550 0.1015355333324946 0.6654467333338162 0
551 0.4108998333333336 -0.4027650833331133 0
552 0.411609233333334 0.2253649666672875 0
553 0.4115026333333344 0.1309577666675638 0
554 -0.7944760000001631 0.7658656666665713 0
555 0.3390819166664858 0.5286956666667708 0
556 0.4119045 0.486773 0
557 -0.2088334333338633 0.8441204666669717 0
558 -0.1264715333340631 0.7967062666670868 0
559 0.1838974333328026 0.6180325333336388 0
560 0.2567200166663313 0.5761098666668597 0
561 0.1012949000007727 -0.6630249999995588 0
562 0.4108055 -0.4862655 0
563 -0.7942718333331285 -0.7618961666667854 0
564 0.02867240000097696 -0.704499249999442 0
565 -0.0534603999989984 -0.751404749999428 0
566 -0.5790706666667106 -0.8865381666666413 0
567 -0.3640179166667921 0.9334573333334055 0
568 -0.2816560166669784 0.8860431333335127 0
569 -0.5799020000003186 0.8915699999998135 0
570 -0.5083530000001222 0.9334856666665952 0
571 -0.4368405 0.9753799999999999 0
572 -0.126082899999211 -0.7928789999995494 0
573 -0.5073175000002167 -0.9280968333332078 0
574 -0.4355935 -0.9696385000000001 0
575 0.461609233333334 0.2253684666673005 0
576 0.4617035666666671 0.3088688833337251 0
577 0.5966113333333226 0.5648379999999938 0
578 0.5334218333334851 0.5282310000000879 0
579 0.6598008333334505 0.601445000000068 0
580 0.7945076666668078 0.6794835000000818 0
581 0.7313181666667732 0.6428765000000617 0
582 0.4614083000000013 0.04743785000114498 0
583 0.4615026333333344 0.1309382666675694 0
584 0.4612073666666677 -0.1304927666657621 0
585 0.4611007666666674 -0.2249229666659723 0
586 0.4618101666666669 0.4032990833334995 0
587 0.4613017000000013 -0.04699234999888549 0
588 0.4619045 0.4867995000000001 0
589 0.730951833333324 -0.6421393333333278 0
590 0.6675846666666936 -0.6055973333333489 0
591 0.5958786666667142 -0.5642466666666941 0
592 0.4610064333333339 -0.3084233833328597 0
593 0.4608998333333336 -0.4028535833331134 0
594 0.7943190000001772 -0.6786813333334354 0
595 0.5325115000001978 -0.5277046666667807 0
596 0.4608055 -0.486354 0
597 -0.6583625000004382 2.104815000000253 0
598 -0.7303658333337445 2.146515000000238 0
599 -0.5334205000001222 0.976750666666595 0
600 -0.461908 1.018645 0
601 -0.4616134999999992 1.118593000000286 0
602 -0.5947066666670735 2.067950000000236 0
603 -0.5310508333335279 2.031085000000113 0
604 -0.460486199999997 1.501141000001032 0
605 -0.4601916999999969 1.601089000001041 0
606 -0.7940216666668343 2.183380000000097 0
607 -0.4613358999999987 1.212793000000456 0
608 -0.4610413999999979 1.312741000000716 0
609 -0.4593419999999993 1.889437000000234 0
610 -0.4596195999999982 1.795237000000586 0
611 -0.4607637999999973 1.406941000000937 0
612 -0.7945125000001727 0.8237923333332322 0
613 -0.4599140999999973 1.695289000000906 0
614 -0.7313193333333363 0.860813666666665 0
615 -0.6598068333332858 0.9027080000000278 0
616 -0.5966136666666499 0.9397293333333432 0
617 -0.4590475 1.989385 0
618 -0.4090475 1.989255 0
619 -0.4093419999999993 1.889307000000234 0
620 0.5799293333336593 0.6129581666668555 0
621 0.6514466666669818 0.6543896666668493 0
622 0.5083988333334851 0.571519000000088 0
623 -0.4110409999999987 1.312775000000447 0
624 -0.4107634999999995 1.406934000000169 0
625 -0.07163230000081613 2.182524999999532 0
626 0.0152226999991795 2.23227499999953 0
627 -0.3390849166667921 0.9767973333334055 0
628 -0.2567142166665903 0.9293780333332893 0
629 -0.1838916333334753 0.8874553666667484 0
630 -0.3221925000001562 2.03900499999991 0
631 -0.2403399000003003 2.085889999999828 0
632 0.7940934999998444 2.264643333333423 0
633 0.722180166666345 2.306196666666852 0
634 0.09707529999916376 2.279159999999521 0
635 0.1789278999993319 2.326044999999617 0
636 -0.4096195 1.795147999999974 0
637 -0.1534849000005844 2.135639999999665 0
638 -0.1015209333332432 0.8400360666666148 0
639 -0.4101914999999999 1.601041000000022 0
640 -0.4099139999999991 1.695200000000295 0
641 -0.4116129999999992 1.118668000000286 0
642 -0.4113354999999995 1.212827000000186 0
643 0.5064038333331556 2.430876666666769 0
644 0.4344905 2.47243 0
645 0.5783353333330454 2.389313333333499 0
646 0.265782899999529 2.37579499999973 0
647 0.3476354999997523 2.422679999999858 0
648 0.05367234999988305 0.7506941000000673 0
649 0.1264949333333932 0.7087714333332988 0
650 -0.02869835000011922 0.7981134000000687 0
651 -0.4104689999999995 1.506882000000178 0
652 0.2088656333331635 0.6613521333334311 0
653 0.2816882166666922 0.619429466666652 0
654 -0.4119075 1.01872 0
655 0.7229771666670091 0.6958288333335316 0
656 0.4368815 0.5300875 0
657 0.7944945000002013 0.73726033333345 0
658 0.6502486666663905 2.347760000000159 0
659 0.3640589166664858 0.5720101666667707 0
660 0.4101443333333321 2.760308333332784 0
661 0.4103254999999986 2.838593333332726 0
662 0.07217269999904391 2.322515999999452 0
663 -0.01468230000095172 2.272765999999455 0
664 -0.7219953333336584 2.199446666666855 0
665 -0.6499690000002911 2.157733333333502 0
666 -0.433936 2.03262 0
667 -0.5059393333335278 2.074320000000113 0
668 0.2408755999994849 2.419147999999705 0
669 0.1540205999992878 2.369397999999592 0
670 0.3227234999997524 2.466029999999858 0
671 -0.7939986666668242 2.241146666666758 0
672 -0.5779656666669848 2.116033333333518 0
673 0.4105178333333329 2.921714999999798 0
674 0.4097708333333326 2.598901666666377 0
675 0.4095785 2.51578 0
676 0.409951999999999 2.677186666666233 0
677 -0.1783781000005463 2.179001999999687 0
678 -0.2652331000002621 2.12925199999985 0
679 -0.09653020000080614 2.225883999999538 0
680 -0.3470810000001562 2.08236999999991 0
681 0.4601443333333316 2.760241666665915 0
682 0.4603254999999983 2.838559999999277 0
683 0.4599519999999985 2.677119999999364 0
684 0.6669740000000149 2.395841666666658 0
685 0.7305428333333321 2.359110000000001 0
686 0.5314918333331556 2.474126666666769 0
687 0.59506066666667 2.437394999999998 0
688 0.7941116666665007 2.322378333333429 0
689 0.4605178333333326 2.921681666666348 0
690 0.4597708333333327 2.598801666666377 0
691 0.4595785 2.51568 0
$EndNodes
$Elements
294
1 15 2 1 424947 33
2 15 2 2 427959 36
3 15 2 3 430970 38
4 15 2 4 458071 58
5 8 2 4 7784 33 35 282
6 8 2 1 7785 36 34 283
7 8 2 1 7789 34 39 299
8 8 2 2 7790 38 37 300
9 8 2 4 7794 33 42 316
10 8 2 4 7795 41 40 317
11 8 2 2 7799 37 45 333
12 8 2 2 7800 44 43 334
13 8 2 4 7804 40 47 350
14 8 2 4 7805 48 46 351
15 8 2 2 7809 43 51 367
16 8 2 2 7810 50 49 368
17 8 2 4 7814 46 53 384
18 8 2 4 7815 54 52 385
19 8 2 2 7819 55 56 401
20 8 2 2 7820 57 49 402
21 8 2 3 7824 58 60 418
22 8 2 4 7825 59 52 419
23 8 2 3 7828 58 62 430
24 8 2 2 7829 61 55 431
25 9 2 11 900 33 273 263 432 433 266
26 9 2 11 900 75 65 76 434 435 80
27 9 2 11 900 262 10 5 436 437 264
28 9 2 11 900 267 268 278 270 438 439
29 9 2 11 900 75 64 65 440 70 434
30 9 2 11 900 268 8 9 271 441 442
31 9 2 11 900 66 67 77 72 443 444
32 9 2 11 900 35 273 33 276 432 282
33 9 2 11 900 278 268 9 438 442 281
34 9 2 11 900 65 66 76 71 445 435
35 9 2 11 900 9 8 63 441 68 446
36 9 2 11 900 76 66 77 445 444 81
37 9 2 11 900 34 277 36 447 279 283
38 9 2 11 900 272 10 262 274 436 448
39 9 2 11 900 74 64 75 449 440 79
40 9 2 11 900 34 267 277 269 450 447
41 9 2 11 900 9 63 74 446 451 78
42 9 2 11 900 277 267 278 450 439 280
43 9 2 11 900 74 63 64 451 69 449
44 9 2 11 900 77 67 10 443 452 82
45 9 2 11 900 263 272 262 453 448 265
46 9 2 11 900 273 272 263 275 453 433
47 9 2 11 900 67 5 10 73 437 452
48 9 2 11 901 289 38 284 291 454 455
49 9 2 11 901 34 295 267 456 457 269
50 9 2 11 901 290 289 285 292 458 459
51 9 2 11 901 285 289 284 458 455 287
52 9 2 11 901 295 294 267 297 460 457
53 9 2 11 901 268 11 8 461 462 271
54 9 2 11 901 11 285 8 463 288 462
55 9 2 11 901 39 295 34 298 456 299
56 9 2 11 901 294 11 268 296 461 464
57 9 2 11 901 267 294 268 460 464 270
58 9 2 11 901 284 38 37 454 300 286
59 9 2 11 901 11 290 285 293 459 463
60 9 2 11 902 12 302 4 465 305 466
61 9 2 11 902 306 41 301 308 467 468
62 9 2 11 902 307 306 302 309 469 470
63 9 2 11 902 83 12 4 471 466 88
64 9 2 11 902 84 94 83 472 473 89
65 9 2 11 902 97 96 86 101 474 475
66 9 2 11 902 302 306 301 469 468 304
67 9 2 11 902 301 41 40 467 317 303
68 9 2 11 902 94 12 83 98 471 473
69 9 2 11 902 86 96 85 474 476 91
70 9 2 11 902 96 95 85 100 477 476
71 9 2 11 902 87 97 86 478 475 92
72 9 2 11 902 95 94 84 99 472 479
73 9 2 11 902 12 307 302 310 470 465
74 9 2 11 902 13 97 87 102 478 480
75 9 2 11 902 312 311 262 314 481 482
76 9 2 11 902 263 312 262 483 482 265
77 9 2 11 902 85 95 84 477 479 90
78 9 2 11 902 262 13 5 484 485 264
79 9 2 11 902 5 13 87 485 480 93
80 9 2 11 902 42 312 263 315 483 486
81 9 2 11 902 33 42 263 316 486 266
82 9 2 11 902 262 311 13 481 313 484
83 9 2 11 903 5 16 87 487 488 93
84 9 2 11 903 63 135 64 489 490 69
85 9 2 11 903 86 125 85 491 492 91
86 9 2 11 903 285 284 328 287 493 494
87 9 2 11 903 116 105 106 495 111 496
88 9 2 11 903 8 17 63 497 498 68
89 9 2 11 903 17 285 328 499 494 330
90 9 2 11 903 124 123 84 128 500 501
91 9 2 11 903 117 106 107 502 112 503
92 9 2 11 903 116 115 105 120 504 495
93 9 2 11 903 15 107 4 505 113 506
94 9 2 11 903 323 318 324 507 508 326
95 9 2 11 903 87 126 86 509 510 92
96 9 2 11 903 15 117 107 122 503 505
97 9 2 11 903 135 134 64 139 511 490
98 9 2 11 903 123 15 83 127 512 513
99 9 2 11 903 67 132 16 514 136 515
100 9 2 11 903 105 115 104 504 516 110
101 9 2 11 903 44 43 323 334 517 325
102 9 2 11 903 103 14 3 518 519 108
103 9 2 11 903 114 14 103 118 518 520
104 9 2 11 903 66 132 67 521 514 72
105 9 2 11 903 126 125 86 130 491 510
106 9 2 11 903 85 124 84 522 501 90
107 9 2 11 903 329 37 45 523 333 332
108 9 2 11 903 16 126 87 131 509 488
109 9 2 11 903 84 123 83 500 513 89
110 9 2 11 903 83 15 4 512 506 88
111 9 2 11 903 117 116 106 121 496 502
112 9 2 11 903 319 3 14 322 519 524
113 9 2 11 903 324 319 14 525 524 327
114 9 2 11 903 66 133 132 526 137 521
115 9 2 11 903 67 16 5 515 487 73
116 9 2 11 903 104 114 103 527 520 109
117 9 2 11 903 318 319 324 321 525 508
118 9 2 11 903 125 124 85 129 522 492
119 9 2 11 903 115 114 104 119 527 516
120 9 2 11 903 284 37 329 286 523 528
121 9 2 11 903 43 318 323 320 507 517
122 9 2 11 903 64 134 65 511 529 70
123 9 2 11 903 8 285 17 288 499 497
124 9 2 11 903 328 284 329 493 528 331
125 9 2 11 903 65 133 66 530 526 71
126 9 2 11 903 17 135 63 140 489 498
127 9 2 11 903 134 133 65 138 530 529
128 9 2 11 904 340 301 341 531 532 343
129 9 2 11 904 155 174 154 533 534 160
130 9 2 11 904 174 173 154 178 535 534
131 9 2 11 904 103 181 21 536 185 537
132 9 2 11 904 107 184 106 538 539 112
133 9 2 11 904 18 184 107 189 538 540
134 9 2 11 904 172 20 152 176 541 542
135 9 2 11 904 165 164 143 169 543 544
136 9 2 11 904 104 181 103 545 536 109
137 9 2 11 904 345 335 346 546 547 348
138 9 2 11 904 156 175 155 548 549 161
139 9 2 11 904 165 143 144 544 149 550
140 9 2 11 904 21 175 156 180 548 551
141 9 2 11 904 173 172 153 177 552 553
142 9 2 11 904 46 335 345 337 546 554
143 9 2 11 904 20 145 2 555 151 556
144 9 2 11 904 164 163 142 168 557 558
145 9 2 11 904 166 144 145 559 150 560
146 9 2 11 904 104 182 181 561 186 545
147 9 2 11 904 152 20 2 541 556 157
148 9 2 11 904 3 21 156 562 551 162
149 9 2 11 904 153 172 152 552 542 158
150 9 2 11 904 175 174 155 179 533 549
151 9 2 11 904 301 40 341 303 563 532
152 9 2 11 904 183 182 105 187 564 565
153 9 2 11 904 302 301 340 304 531 566
154 9 2 11 904 103 21 3 537 562 108
155 9 2 11 904 154 173 153 535 553 159
156 9 2 11 904 166 165 144 170 550 559
157 9 2 11 904 48 46 345 351 554 347
158 9 2 11 904 143 164 142 543 558 148
159 9 2 11 904 163 19 141 167 567 568
160 9 2 11 904 346 336 19 569 570 349
161 9 2 11 904 336 1 19 339 571 570
162 9 2 11 904 341 40 47 563 350 344
163 9 2 11 904 106 183 105 572 565 111
164 9 2 11 904 141 19 1 567 571 146
165 9 2 11 904 142 163 141 557 568 147
166 9 2 11 904 335 336 346 338 569 547
167 9 2 11 904 105 182 104 564 561 110
168 9 2 11 904 18 302 340 573 566 342
169 9 2 11 904 4 18 107 574 540 113
170 9 2 11 904 20 166 145 171 560 555
171 9 2 11 904 4 302 18 305 573 574
172 9 2 11 904 184 183 106 188 572 539
173 9 2 11 905 153 190 152 575 576 158
174 9 2 11 905 22 358 353 361 577 578
175 9 2 11 905 358 357 353 360 579 577
176 9 2 11 905 352 50 49 580 368 354
177 9 2 11 905 357 50 352 359 580 581
178 9 2 11 905 353 357 352 579 581 355
179 9 2 11 905 154 191 153 582 583 159
180 9 2 11 905 193 192 155 197 584 585
181 9 2 11 905 190 22 152 194 586 576
182 9 2 11 905 191 190 153 195 575 583
183 9 2 11 905 155 192 154 584 587 160
184 9 2 11 905 22 353 2 578 356 588
185 9 2 11 905 152 22 2 586 588 157
186 9 2 11 905 318 363 362 589 365 590
187 9 2 11 905 192 191 154 196 582 587
188 9 2 11 905 318 362 319 590 591 321
189 9 2 11 905 23 193 156 198 592 593
190 9 2 11 905 156 193 155 592 585 161
191 9 2 11 905 43 51 318 367 594 320
192 9 2 11 905 51 363 318 366 589 594
193 9 2 11 905 319 362 23 591 364 595
194 9 2 11 905 3 23 156 596 593 162
195 9 2 11 905 319 23 3 595 596 322
196 9 2 11 906 370 379 369 597 598 372
197 9 2 11 906 336 25 1 599 600 339
198 9 2 11 906 1 25 202 600 601 207
199 9 2 11 906 24 380 370 383 602 603
200 9 2 11 906 201 209 200 604 605 205
201 9 2 11 906 379 54 369 381 606 598
202 9 2 11 906 202 211 201 607 608 206
203 9 2 11 906 208 24 199 212 609 610
204 9 2 11 906 211 210 201 215 611 608
205 9 2 11 906 46 53 335 384 612 337
206 9 2 11 906 200 208 199 613 610 204
207 9 2 11 906 53 375 335 378 614 612
208 9 2 11 906 369 54 52 606 385 371
209 9 2 11 906 335 375 336 614 615 338
210 9 2 11 906 375 374 336 377 616 615
211 9 2 11 906 199 24 6 609 617 203
212 9 2 11 906 209 208 200 213 613 605
213 9 2 11 906 201 210 209 611 214 604
214 9 2 11 906 380 379 370 382 597 602
215 9 2 11 906 24 370 6 603 373 617
216 9 2 11 906 336 374 25 616 376 599
217 9 2 11 906 25 211 202 216 607 601
218 9 2 11 907 199 6 29 203 618 619
219 9 2 11 907 353 397 352 620 621 355
220 9 2 11 907 27 397 353 400 620 622
221 9 2 11 907 235 201 236 623 624 240
222 9 2 11 907 245 218 219 625 223 626
223 9 2 11 907 141 28 229 627 234 628
224 9 2 11 907 142 141 229 147 628 629
225 9 2 11 907 29 217 244 630 631 248
226 9 2 11 907 55 392 387 632 633 390
227 9 2 11 907 246 219 247 634 635 251
228 9 2 11 907 238 199 29 636 619 243
229 9 2 11 907 245 219 246 626 634 250
230 9 2 11 907 244 217 218 631 222 637
231 9 2 11 907 29 6 217 618 221 630
232 9 2 11 907 142 229 228 629 233 638
233 9 2 11 907 237 200 238 639 640 242
234 9 2 11 907 28 202 235 641 642 239
235 9 2 11 907 386 26 7 643 644 388
236 9 2 11 907 391 26 386 393 643 645
237 9 2 11 907 247 220 26 646 647 252
238 9 2 11 907 144 143 227 149 648 649
239 9 2 11 907 143 142 228 148 638 650
240 9 2 11 907 201 200 236 205 651 624
241 9 2 11 907 226 144 227 652 649 231
242 9 2 11 907 145 144 226 150 652 653
243 9 2 11 907 141 1 28 146 654 627
244 9 2 11 907 397 396 352 399 655 621
245 9 2 11 907 2 27 353 656 622 356
246 9 2 11 907 202 201 235 206 623 642
247 9 2 11 907 236 200 237 651 639 241
248 9 2 11 907 220 7 26 225 644 647
249 9 2 11 907 352 396 49 655 657 354
250 9 2 11 907 227 143 228 648 650 232
251 9 2 11 907 219 220 247 224 646 635
252 9 2 11 907 387 391 386 658 645 389
253 9 2 11 907 244 218 245 637 625 249
254 9 2 11 907 392 391 387 394 658 633
255 9 2 11 907 1 202 28 207 641 654
256 9 2 11 907 2 145 27 151 659 656
257 9 2 11 907 200 199 238 204 636 640
258 9 2 11 907 27 145 226 659 653 230
259 9 2 11 907 396 57 49 398 402 657
260 9 2 11 907 56 392 55 395 632 401
261 9 2 11 908 413 404 414 660 661 416
262 9 2 11 908 218 219 255 223 662 663
263 9 2 11 908 409 408 369 411 664 665
264 9 2 11 908 6 30 370 666 667 373
265 9 2 11 908 219 220 256 224 668 669
266 9 2 11 908 220 31 256 670 261 668
267 9 2 11 908 369 408 52 664 671 371
268 9 2 11 908 30 409 370 412 672 667
269 9 2 11 908 370 409 369 672 665 372
270 9 2 11 908 404 58 414 407 673 661
271 9 2 11 908 7 403 31 405 674 675
272 9 2 11 908 31 403 413 674 676 415
273 9 2 11 908 414 58 60 673 418 417
274 9 2 11 908 217 218 253 222 677 678
275 9 2 11 908 253 218 254 677 679 258
276 9 2 11 908 403 404 413 406 660 676
277 9 2 11 908 408 59 52 410 419 671
278 9 2 11 908 6 217 30 221 680 666
279 9 2 11 908 30 217 253 680 678 257
280 9 2 11 908 219 256 255 669 260 662
281 9 2 11 908 218 255 254 663 259 679
282 9 2 11 908 220 7 31 225 675 670
283 9 2 11 909 425 404 426 681 682 428
284 9 2 11 909 403 404 425 406 681 683
285 9 2 11 909 387 421 420 684 423 685
286 9 2 11 909 386 32 421 686 424 687
287 9 2 11 909 55 387 61 390 688 431
288 9 2 11 909 61 387 420 688 685 422
289 9 2 11 909 426 58 62 689 430 429
290 9 2 11 909 404 58 426 407 689 682
291 9 2 11 909 32 403 425 690 683 427
292 9 2 11 909 7 403 32 405 690 691
293 9 2 11 909 387 386 421 389 687 684
294 9 2 11 909 386 7 32 388 691 686
$EndElements
