$MeshFormat
2.2 0 8
$EndMeshFormat
$Nodes
683
1 -0.431851 1.00523 0
2 0.432468 -2.49999 0
3 0.436922 0.498953 0
4 0.436981 -0.4976 0
5 -0.438961 -1.99709 0
6 -0.438669 -0.999776 0
7 -0.429041 1.99682 0
8 0.431828 2.49514 0
9 0.38245 -2.52885 0
10 -0.438824 -2.0549 0
11 0.48245 -2.52882 0
12 -0.488677 -1.02851 0
13 -0.488953 -1.96837 0
14 0.436791 -0.555348 0
15 -0.388677 -1.02875 0
16 -0.388953 -1.96822 0
17 0.432423 -2.44224 0
18 -0.43194 0.947411 0
19 0.386924 0.470219 0
20 0.386979 -0.468637 0
21 -0.438471 -0.942024 0
22 0.486979 -0.468854 0
23 0.486924 0.470125 0
24 -0.479122 1.96818 0
25 -0.481769 1.03411 0
26 0.432087 2.43752 0
27 0.437005 0.556775 0
28 -0.38177 1.03392 0
29 -0.379123 1.96794 0
30 0.381802 2.52395 0
31 -0.428917 2.05466 0
32 0.481801 2.52429 0
33 0.432159 -3 0
34 -0.866025 -2.24625 0
35 0.382159 -3 0
36 -0.866025 -2.30413 0
37 0.866025 -2.24889 0
38 0.866025 -2.30667 0
39 0.482159 -3 0
40 -0.866025 -0.7507779999999999 0
41 -0.866025 -0.808646 0
42 -0.866025 -2.18836 0
43 0.866025 -0.747426 0
44 0.866025 -0.805285 0
45 0.866025 -2.19111 0
46 -0.866025 0.753993 0
47 -0.866025 0.696225 0
48 -0.866025 -0.69291 0
49 0.866025 0.747359 0
50 0.866025 -0.689567 0
51 0.866025 0.689586 0
52 -0.866025 2.25227 0
53 -0.866025 0.811761 0
54 -0.866025 2.19435 0
55 0.866025 2.24898 0
56 0.866025 2.19151 0
57 0.866025 0.805133 0
58 0.431367 3 0
59 0.381367 3 0
60 -0.866025 2.31019 0
61 0.866025 2.30646 0
62 0.481367 3 0
63 0.2872298333336298 -2.416173333333504 0
64 0.141991666667464 -2.332356666667127 0
65 -0.003246499998779573 -2.248540000000705 0
66 -0.1484846666657779 -2.164723333333846 0
67 -0.2937228333327681 -2.080906666666993 0
68 0.3598489166668143 -2.458081666666752 0
69 0.2146107500005442 -2.374265000000314 0
70 0.06937258333429186 -2.290448333333886 0
71 -0.07586558333225596 -2.206631666667288 0
72 -0.2211037499992615 -2.122815000000426 0
73 -0.3663419166663279 -2.038998333333529 0
74 0.2181952000003234 -2.434060000000187 0
75 0.05394040000080957 -2.339270000000467 0
76 -0.1103143999991792 -2.244480000000474 0
77 -0.2745691999996372 -2.149690000000209 0
78 0.3003226000000795 -2.481455000000046 0
79 0.1360678000005746 -2.386665000000332 0
80 -0.02818699999903213 -2.291875000000558 0
81 -0.1924417999992997 -2.197085000000404 0
82 -0.3566965999997283 -2.102295000000157 0
83 -0.4387273999999998 -1.199238799999523 0
84 -0.4387857999999997 -1.398701599999037 0
85 -0.4388441999999996 -1.598164399998864 0
86 -0.4389025999999998 -1.797627199999341 0
87 -0.4386982 -1.099507399999941 0
88 -0.4387565999999998 -1.298970199999434 0
89 -0.4388149999999996 -1.498432999998571 0
90 -0.4388733999999997 -1.697895799999046 0
91 -0.4389317999999999 -1.897358599999793 0
92 -0.4887321999999998 -1.216481999999584 0
93 -0.4887873999999997 -1.404453999998959 0
94 -0.4888425999999997 -1.592425999998959 0
95 -0.4888977999999999 -1.780397999999462 0
96 -0.4887045999999999 -1.122495999999811 0
97 -0.4887597999999997 -1.310467999999198 0
98 -0.4888149999999997 -1.498439999998775 0
99 -0.4888701999999998 -1.686411999999113 0
100 -0.4889254 -1.874383999999732 0
101 0.2910393333336008 -0.5812959999998466 0
102 0.1450976666673919 -0.664991999999584 0
103 -0.0008439999988589242 -0.7486879999993455 0
104 -0.1467856666658678 -0.8323839999995418 0
105 -0.2927273333329647 -0.9160799999997885 0
106 0.3640101666667672 -0.5394479999999423 0
107 0.2180685000004602 -0.6231439999997361 0
108 0.0721268333342851 -0.7068399999994541 0
109 -0.07381483333238931 -0.7905359999994586 0
110 -0.2197564999994387 -0.8742319999996782 0
111 -0.3656981666665393 -0.9579279999999268 0
112 0.271697400000411 -0.6500283999997643 0
113 0.1066038000010241 -0.7447087999994126 0
114 -0.05848979999887138 -0.8393891999993528 0
115 -0.223583399999511 -0.9340695999997196 0
116 0.3542442000001396 -0.6026881999999198 0
117 0.1891506000007242 -0.6973685999995847 0
118 0.0240570000013029 -0.7920489999992528 0
119 -0.1410365999993128 -0.886729399999606 0
120 -0.3061301999998503 -0.9814097999999142 0
121 -0.3887322 -1.216644 0
122 -0.3887874 -1.404538000000001 0
123 -0.3888426 -1.592432000000001 0
124 -0.3888978 -1.780326000000001 0
125 -0.3887046 -1.122697000000075 0
126 -0.3887598 -1.310591000000087 0
127 -0.3888149999999999 -1.498484999999669 0
128 -0.3888702 -1.686378999999982 0
129 -0.3889254 -1.874273000000001 0
130 -0.2246778000003579 -2.063023999999793 0
131 -0.06040260000075343 -2.157827999999565 0
132 0.1038725999991354 -2.252631999999501 0
133 0.2681477999994452 -2.34743599999968 0
134 -0.3068154000001904 -2.01562199999989 0
135 -0.1425402000006138 -2.110425999999646 0
136 0.02173499999885059 -2.205229999999337 0
137 0.1860101999992172 -2.300033999999548 0
138 0.3502853999999295 -2.394837999999959 0
139 -0.2870555000002978 0.9208505000001737 0
140 -0.1422600000007387 0.8364710000004305 0
141 0.002535499998831181 0.7520915000006811 0
142 0.1473309999991775 0.6677120000004793 0
143 0.292126499999562 0.5833325000002553 0
144 -0.359453250000126 0.9630402500000735 0
145 -0.2146577500005074 0.8786607500002958 0
146 -0.06986225000094654 0.7942812500005516 0
147 0.07493324999901307 0.7099017500005751 0
148 0.2197287499993921 0.6255222500003543 0
149 0.3645242499997529 0.541142750000144 0
150 0.4369338 0.2996424000004465 0
151 0.4369455999999999 0.1003318000010557 0
152 0.4369573999999999 -0.09897879999893433 0
153 0.4369691999999999 -0.2982893999994682 0
154 0.4369279 0.3992977000002083 0
155 0.4369396999999999 0.1999871000007445 0
156 0.4369514999999999 0.0006765000012983746 0
157 0.4369632999999999 -0.1986340999992012 0
158 0.4369751 -0.397944699999734 0
159 -0.2681672000003488 0.8519726000002033 0
160 -0.1043944000008338 0.756534200000486 0
161 0.0593783999991318 0.6610958000005059 0
162 0.2231511999995278 0.5656574000002752 0
163 -0.350053600000176 0.8996918000001026 0
164 -0.1862808000006211 0.8042534000003621 0
165 -0.02250800000110442 0.7088150000006437 0
166 0.1412647999992704 0.6133766000004252 0
167 0.3050375999997377 0.5179382000001529 0
168 0.386935 0.2824478000004595 0
169 0.386946 0.09467660000093836 0
170 0.3869569999999999 -0.09309459999902064 0
171 0.386968 -0.2808657999995782 0
172 0.3869295 0.3763334000001972 0
173 0.3869405 0.1885622000007189 0
174 0.3869514999999999 0.0007910000012555929 0
175 0.3869625 -0.186980199999228 0
176 0.3869735 -0.3747513999997799 0
177 0.2218890000004205 -0.5633143999997589 0
178 0.05679900000087862 -0.6579917999994962 0
179 -0.1082909999990299 -0.7526691999994437 0
180 -0.2733809999995461 -0.8473465999997397 0
181 0.3044340000001615 -0.5159756999999074 0
182 0.1393440000007014 -0.6106530999995978 0
183 -0.02574599999883276 -0.7053304999993306 0
184 -0.1908359999993237 -0.8000078999996121 0
185 -0.355925999999904 -0.8946852999999448 0
186 0.486968 -0.2810582000004034 0
187 0.4869570000000001 -0.09326240000093899 0
188 0.486946 0.09453339999903687 0
189 0.4869350000000001 0.282329199999496 0
190 0.4869735 -0.3749561000001024 0
191 0.4869625 -0.1871603000007002 0
192 0.4869515000000001 0.0006354999988061327 0
193 0.4869405000000001 0.1884312999993407 0
194 0.4869295 0.376227099999748 0
195 -0.4296029999999985 1.798502000000538 0
196 -0.430164999999997 1.600184000001075 0
197 -0.4307269999999969 1.401866000001092 0
198 -0.4312889999999986 1.203548000000502 0
199 -0.4293219999999994 1.897661000000227 0
200 -0.429883999999998 1.699343000000683 0
201 -0.4304459999999956 1.501025000001549 0
202 -0.4310079999999979 1.302707000000713 0
203 -0.4315699999999992 1.104389000000284 0
204 -0.4796513999999991 1.781366000000312 0
205 -0.4801807999999977 1.594552000000798 0
206 -0.480710199999997 1.407738000001067 0
207 -0.4812395999999985 1.220924000000512 0
208 -0.4793866999999992 1.874773000000299 0
209 -0.4799160999999982 1.687959000000637 0
210 -0.4804454999999966 1.501145000001203 0
211 -0.4809748999999978 1.314331000000769 0
212 -0.4815042999999988 1.127517000000431 0
213 -0.2568672000004346 2.096483999999748 0
214 -0.08469340000091324 2.196147999999472 0
215 0.08748039999910451 2.295811999999482 0
216 0.2596541999996642 2.395475999999806 0
217 -0.3429541000002102 2.046651999999878 0
218 -0.1707803000007498 2.146315999999566 0
219 0.001393499998748937 2.245979999999276 0
220 0.1735672999993867 2.345643999999645 0
221 0.3457410999997922 2.44530799999988 0
222 0.2732500000003584 0.6522039999997912 0
223 0.1094950000008891 0.7476329999994819 0
224 -0.05425999999910475 0.8430619999994782 0
225 -0.2180149999995065 0.9384909999997124 0
226 0.3551275000001526 0.6044894999999111 0
227 0.191372500000582 0.6999184999996608 0
228 0.02761750000109331 0.7953474999993628 0
229 -0.1361374999993009 0.8907764999995925 0
230 -0.2998924999997579 0.9862054999998588 0
231 -0.381240600000001 1.220723999999644 0
232 -0.3807112000000026 1.407527999999063 0
233 -0.3801818000000031 1.594331999998924 0
234 -0.3796524000000017 1.781135999999401 0
235 -0.3815053000000003 1.127321999999904 0
236 -0.3809759000000019 1.314125999999342 0
237 -0.3804465000000042 1.50092999999852 0
238 -0.3799171000000034 1.687733999998773 0
239 -0.3793877000000012 1.874537999999569 0
240 -0.2168810000002403 2.061855999999861 0
241 -0.05463900000086663 2.155771999999498 0
242 0.107602999999153 2.24968799999951 0
243 0.26984499999963 2.343603999999786 0
244 -0.2980020000000716 2.014897999999959 0
245 -0.1357600000005876 2.10881399999966 0
246 0.0264819999988819 2.202729999999353 0
247 0.1887239999993835 2.296645999999643 0
248 0.3509659999998845 2.390561999999933 0
249 -0.2667732000005058 2.148517999999707 0
250 -0.1046294000003847 2.242375999999777 0
251 0.05751439999917296 2.336233999999521 0
252 0.2196581999999901 2.430091999999994 0
253 -0.3478451000000548 2.101588999999969 0
254 -0.1857013000003769 2.195446999999782 0
255 -0.02355750000099222 2.289304999999426 0
256 0.1385862999996466 2.383162999999795 0
257 0.3007301000000803 2.477021000000047 0
258 0.4322619999999995 -2.833330000000896 0
259 0.4323649999999996 -2.666660000000723 0
260 0.4322104999999997 -2.916665000000448 0
261 0.4323134999999995 -2.749995000000874 0
262 0.4324165 -2.58332499999995 0
263 -0.5813156666662084 -2.080143333333066 0
264 -0.7236703333329022 -2.163196666666415 0
265 -0.5101383333333879 -2.038616666666698 0
266 -0.6524929999991282 -2.121669999999491 0
267 -0.7948476666664046 -2.20472333333318 0
268 0.3822559999999997 -2.84295000000052 0
269 0.3823529999999996 -2.685900000000694 0
270 0.3822075 -2.921474999999965 0
271 0.3823044999999995 -2.76442500000088 0
272 0.3824014999999999 -2.607375000000085 0
273 -0.5812243333328733 -2.137976666666398 0
274 -0.723624666666345 -2.221053333333145 0
275 -0.5100241666662956 -2.096438333333117 0
276 -0.652424499999424 -2.179514999999664 0
277 -0.7948248333332453 -2.262591666666615 0
278 -0.866025 -2.27518999999918 0
279 0.407159 -3 0
280 0.7215060000004571 -2.332589999999735 0
281 0.5769870000004611 -2.416289999999733 0
282 0.7937655000000137 -2.290739999999992 0
283 0.649246500000608 -2.374439999999648 0
284 0.5047275000003133 -2.458139999999819 0
285 0.7381666666672648 -2.380719999999654 0
286 0.6103083333333458 -2.454769999999993 0
287 0.8020958333337305 -2.34369499999977 0
288 0.6742375000006309 -2.417744999999635 0
289 0.5463791666665121 -2.491795000000089 0
290 0.4823530000000001 -2.685879999999769 0
291 0.4822560000000002 -2.84293999999971 0
292 0.4824015 -2.607349999999884 0
293 0.4823045000000004 -2.764409999999442 0
294 0.4822075000000007 -2.921469999998872 0
295 0.457159 -3 0
296 0.866025 -2.27778 0
297 -0.7235730000003628 -0.8337773333331219 0
298 -0.5811210000004331 -0.9167766666664143 0
299 -0.7947990000001954 -0.7922776666665527 0
300 -0.6523470000005304 -0.875276999999691 0
301 -0.5098950000002349 -0.9582763333331965 0
302 -0.740242333333598 -0.8819339999998458 0
303 -0.6144596666670437 -0.9552219999997803 0
304 -0.8031336666668123 -0.8452899999999152 0
305 -0.6773510000005358 -0.9185779999996878 0
306 -0.5515683333333905 -0.9918659999999667 0
307 -0.6146436666663018 -2.041699999999787 0
308 -0.7403343333330854 -2.115029999999855 0
309 -0.5517983333330124 -2.005034999999813 0
310 -0.6774889999997397 -2.078364999999848 0
311 -0.8031796666665142 -2.151694999999911 0
312 -0.866025 -2.217305 0
313 -0.866025 -0.779712 0
314 0.7230103333337248 -0.6641506666668946 0
315 0.579995666667053 -0.5808753333335583 0
316 0.7945176666668132 -0.7057883333334187 0
317 0.6515030000004548 -0.6225130000002648 0
318 0.5084883333334811 -0.5392376666667527 0
319 0.7229470000003358 -0.7219726666668622 0
320 0.5798690000004003 -0.6386603333335664 0
321 0.7944860000001841 -0.7636288333334406 0
322 0.6514080000005742 -0.6803165000003343 0
323 0.5083300000002724 -0.5970041666668253 0
324 0.5769569999996738 -2.358530000000189 0
325 0.7214909999995694 -2.27482000000025 0
326 0.5046899999997893 -2.400385000000122 0
327 0.6492239999996061 -2.316675000000228 0
328 0.793757999999616 -2.232965000000223 0
329 0.866025 -2.22000000000082 0
330 0.866025 -0.7763555000001038 0
331 -0.7213003333336663 0.8377386666664741 0
332 -0.5765756666670391 0.9214843333331179 0
333 -0.793662666666849 0.7958658333332279 0
334 -0.6489380000005771 0.8796114999996661 0
335 -0.5042133333335437 0.963357166666545 0
336 -0.7213300000003953 0.779953666666438 0
337 -0.5766350000003488 0.8636823333331314 0
338 -0.793677500000234 0.7380893333331979 0
339 -0.648982500000608 0.8218179999996482 0
340 -0.5042875000001041 0.9055466666666064 0
341 -0.5809889999996104 -0.858986000000227 0
342 -0.7235069999995888 -0.7759480000002397 0
343 -0.5097299999998512 -0.9005050000000867 0
344 -0.6522479999993919 -0.8174670000003543 0
345 -0.7947659999996795 -0.7344290000001868 0
346 -0.866025 -0.721844 0
347 -0.866025 0.725109 0
348 0.5799563333330247 0.5817549999998213 0
349 0.7229906666663355 0.6645569999998082 0
350 0.5084391666665909 0.5403539999999561 0
351 0.651473499999452 0.6231559999996827 0
352 0.794507833333268 0.7059579999999621 0
353 0.7396763333335912 -0.6159960000001501 0
354 0.6133276666669554 -0.542425000000168 0
355 0.8028506666667833 -0.6527815000000678 0
356 0.6765020000004128 -0.5792105000002404 0
357 0.5501533333334724 -0.505639500000081 0
358 0.6132909999997124 0.5432786666665002 0
359 0.7396579999996427 0.6164323333331265 0
360 0.5501074999999553 0.5067018333333075 0
361 0.6764744999995173 0.5798554999997205 0
362 0.8028414999996937 0.6530091666664893 0
363 0.866025 0.7184725000003368 0
364 0.866025 -0.7184964999998963 0
365 -0.720363666667062 2.167120000000231 0
366 -0.5747023333337302 2.081970000000232 0
367 -0.7931943333338394 2.209695000000296 0
368 -0.6475330000005056 2.124545000000296 0
369 -0.5018716666668588 2.039395000000112 0
370 -0.6098543333329558 0.9599936666668851 0
371 -0.7379396666662501 0.8858773333335743 0
372 -0.5458116666664732 0.9970518333334454 0
373 -0.673896999999538 0.9229355000002674 0
374 -0.8019823333331522 0.8488191666667715 0
375 -0.7370573333336586 2.11896000000019 0
376 -0.6080896666669399 2.04357000000016 0
377 -0.8015411666671469 2.156655000000281 0
378 -0.6725735000006141 2.081265000000359 0
379 -0.5436058333333611 2.005875000000016 0
380 -0.866025 0.7828769999999999 0
381 -0.866025 2.22331 0
382 0.5765603333330283 2.41308666666684 0
383 0.7212926666663095 2.331033333333536 0
384 0.5041941666665913 2.454113333333376 0
385 0.6489264999997788 2.372060000000126 0
386 0.7936588333329583 2.290006666666879 0
387 0.576732999999604 2.355516666666891 0
388 0.7213789999996477 2.273513333333533 0
389 0.5044099999999625 2.396518333333355 0
390 0.6490559999993921 2.314515000000345 0
391 0.7937019999995316 2.232511666666932 0
392 0.723018333333722 0.722347000000225 0
393 0.5800116666670693 0.6395610000002331 0
394 0.7945216666668127 0.7637400000000845 0
395 0.6515150000006662 0.6809540000003856 0
396 0.508508333333473 0.5981680000000809 0
397 0.866025 2.220245 0
398 0.866025 0.7762460000003737 0
399 0.4316743333333337 2.663426666666291 0
400 0.4315206666666672 2.831713333332698 0
401 0.4317511666666671 2.579283333332872 0
402 0.4315975000000011 2.747569999998766 0
403 0.431443833333334 2.915856666665897 0
404 0.3816570000000005 2.682633333332813 0
405 0.3815120000000005 2.841316666666146 0
406 0.3817294999999998 2.603291666666858 0
407 0.381584500000001 2.761974999998865 0
408 0.3814395000000003 2.920658333333073 0
409 -0.7203223333336819 2.225013333333537 0
410 -0.5746196666671859 2.13983666666697 0
411 -0.7931736666664767 2.267601666666556 0
412 -0.647471000000423 2.182425000000247 0
413 -0.5017683333337153 2.097248333333557 0
414 0.406367 3 0
415 -0.866025 2.28123 0
416 0.609875666666291 2.451680000000213 0
417 0.7379503333329989 2.37907000000019 0
418 0.5458383333332129 2.487985000000069 0
419 0.673912999999375 2.415375000000354 0
420 0.8019876666666471 2.342765000000011 0
421 0.4815116666666664 2.841430000000202 0
422 0.481656333333333 2.682860000000318 0
423 0.4814393333333326 2.920715000000805 0
424 0.4815839999999998 2.762145000000227 0
425 0.4817286666666667 2.60357499999991 0
426 0.866025 2.27772 0
427 0.456367 3 0
428 -0.1293995333324786 -2.20460166666716 0
429 -0.05678044999897938 -2.246510000000589 0
430 -0.2841460166662026 -2.115298333333601 0
431 -0.2115269333327076 -2.157206666667028 0
432 -0.6524473333328877 -2.150586666666407 0
433 -0.7236474999996236 -2.19212499999978 0
434 -0.366273416666384 -2.067903333333496 0
435 0.2527125166669766 -2.425116666666845 0
436 0.1800934333338937 -2.383208333333656 0
437 0.4073589999999996 -2.676280000000709 0
438 0.4074074999999998 -2.597755000000362 0
439 0.4073074999999995 -2.759615000000795 0
440 0.3348399166668149 -2.472511666666752 0
441 -0.7948248333331724 -2.233651666666573 0
442 0.407459 -2.51442 0
443 0.4072589999999996 -2.838140000000708 0
444 0.4072074999999998 -2.92147500000026 0
445 -0.5100698333331042 -2.067521666666533 0
446 -0.5812699999995408 -2.109059999999732 0
447 0.09796603333413678 -2.335813333333797 0
448 0.025346950001015 -2.293905000000586 0
449 -0.4388925 -2.025995 0
450 0.7937655000002286 -2.319629999999868 0
451 0.7298363333338609 -2.356654999999694 0
452 0.657576833333863 -2.398504999999693 0
453 0.5936476666669035 -2.435529999999863 0
454 0.4574074999999997 -2.597740000000361 0
455 0.4573589999999998 -2.676270000000246 0
456 0.5297185000002306 -2.472554999999867 0
457 0.457459 -2.514405 0
458 0.4573074999999998 -2.759605000000333 0
459 0.4572589999999999 -2.838135000000303 0
460 0.4572075000000001 -2.921469999999855 0
461 -0.4637021999999999 -1.113874399999762 0
462 -0.463673 -1.014143 0
463 -0.7320023333329938 -2.139113333333135 0
464 -0.6608249999996469 -2.09758666666646 0
465 -0.5977903333337384 -0.9359993333330974 0
466 -0.5348990000002165 -0.9726433333332072 0
467 -0.4638433999999997 -1.595295199998911 0
468 -0.4638157999999997 -1.501309199998912 0
469 -0.7947990000001814 -0.821211666666561 0
470 -0.7319076666669804 -0.8578556666664838 0
471 -0.6606816666670156 -0.8993553333331301 0
472 -0.4638709999999998 -1.689281199999163 0
473 -0.4637589999999998 -1.307591799999311 0
474 -0.4637865999999997 -1.401577799998998 0
475 -0.4639001999999999 -1.789012599999402 0
476 -0.4639277999999999 -1.882998599999671 0
477 -0.4637297999999999 -1.207860399999553 0
478 -0.7948476666664511 -2.175778333333207 0
479 -0.5351343333331042 -2.024256666666533 0
480 -0.463957 -1.98273 0
481 -0.5979796666662551 -2.060921666666427 0
482 -0.3407021666664823 -0.9724149999998943 0
483 -0.413673 -1.014263 0
484 0.2776888166665375 -2.381804666666592 0
485 0.3598264166668149 -2.429206666666752 0
486 -0.4138433999999998 -1.595298199999432 0
487 -0.4138709999999998 -1.689245199999433 0
488 0.6492315000000655 -2.345559999999962 0
489 0.5769720000000674 -2.387409999999961 0
490 0.5799323333337267 -0.6097678333335623 0
491 0.6514396666670625 -0.6514055000002306 0
492 0.2050697333334546 -2.339896333333403 0
493 0.7944860000001679 -0.7346993333334311 0
494 0.05287990000108259 -0.746698399999379 0
495 0.125850733334208 -0.7048503999994984 0
496 0.5047050000002306 -2.429264999999866 0
497 0.7229786666670304 -0.6930616666668784 0
498 0.7937579999997848 -2.261855000000125 0
499 0.7214985000000133 -2.303704999999992 0
500 -0.4137589999999999 -1.307672799999519 0
501 -0.4137297999999999 -1.207941399999762 0
502 -0.4138157999999998 -1.501351199999432 0
503 -0.4137865999999999 -1.401619799999519 0
504 -0.4137021999999999 -1.113994399999762 0
505 0.2083975333339015 -0.6575101999996742 0
506 -0.2581553666662378 -0.9250747999997541 0
507 -0.1026377333323696 -0.8358865999994474 0
508 -0.1851845333326894 -0.8832267999996307 0
509 -0.4139001999999999 -1.788976599999671 0
510 -0.0318245499997665 -2.203184000000135 0
511 -0.1044436333332657 -2.161275666666706 0
512 0.2813683666670059 -0.6156621999998054 0
513 -0.1865812333330679 -2.11387366666682 0
514 -0.4139277999999999 -1.882923599999671 0
515 0.1229321333332997 -2.292494333333314 0
516 0.05031305000017791 -2.250586000000103 0
517 -0.02966689999886515 -0.7940385999993491 0
518 0.4324455 -2.471115 0
519 -0.341337916666384 -2.024563333333496 0
520 -0.413957 -1.982655 0
521 -0.259200316666563 -2.071965333333393 0
522 0.3639151666668004 -0.5683219999999233 0
523 0.436886 -0.526474 0
524 0.5083933333335265 -0.5681116666667791 0
525 -0.2052136000005438 0.8442218000003169 0
526 -0.1233272000007863 0.7965026000004582 0
527 0.4119571999999999 -0.09603669999897749 0
528 0.4119512999999999 0.003618600001017547 0
529 -0.7936775000001977 0.7669733333332189 0
530 0.4119289 0.3849307000002232 0
531 0.4119344 0.291045100000453 0
532 -0.5097960000002165 -0.9294003333332072 0
533 -0.5810550000000217 -0.8878813333333206 0
534 0.4119457999999999 0.09750420000099705 0
535 -0.2830541666662554 -0.8817132999997641 0
536 -0.210083333332707 -0.8398652999996408 0
537 -0.6522809999999866 -0.8463816666666744 0
538 -0.3655991666664823 -0.9290519999998943 0
539 0.1852410999993527 0.6166847000003772 0
540 0.2576388499995449 0.5744949500002652 0
541 0.1834933333339062 -0.6141531999996714 0
542 0.2564641666670107 -0.5723051999998028 0
543 0.4119686 -0.2895775999995233 0
544 0.4119627 -0.1899222999992563 0
545 0.411923 0.484586 0
546 0.4119741 -0.3834631999997341 0
547 0.3390091666668004 -0.5249664999999233 0
548 0.41198 -0.4831185 0
549 0.339525249999781 0.5267757500001277 0
550 0.1009483333341353 -0.6614918999995401 0
551 -0.7213151666670308 0.808846166666456 0
552 -0.6489676666670076 0.8507104999998027 0
553 -0.05092945000100133 0.7543128500005836 0
554 -0.3594977500001489 0.9341307500000868 0
555 -0.2776113500003233 0.8864115500001885 0
556 -0.4318955 0.9763205 0
557 -0.5042578333335195 0.9344476666665589 0
558 -0.1275383333324489 -0.7925265999994928 0
559 -0.05456749999894442 -0.7506785999993946 0
560 -0.576605333333694 0.8925833333331246 0
561 0.02797750000100985 -0.7033398999994209 0
562 0.03095694999898149 0.7065936500005936 0
563 0.1033546999991547 0.6644039000004927 0
564 0.4119402999999999 0.1913898000007576 0
565 -0.7235399999999759 -0.8048626666666807 0
566 -0.7947659999997945 -0.7633630000001198 0
567 -0.43857 -0.9709 0
568 0.7313243333329891 0.6404946666664674 0
569 0.7945078333331678 0.6770714999999041 0
570 0.4619344 0.2909857999999713 0
571 0.4619289 0.3848837000002233 0
572 0.7945176666668624 -0.6768588333334473 0
573 0.6598360000003221 -0.5984356666668542 0
574 0.5966616666670042 -0.5616501666668632 0
575 0.4619403 0.1913305000002759 0
576 0.4619626999999999 -0.1900184999996689 0
577 0.4619686 -0.2896737999999358 0
578 0.4619572 -0.09612059999993666 0
579 0.4619517 -0.00222269999994873 0
580 0.5966236666663685 0.5625168333331607 0
581 0.6598071666663337 0.5990936666664739 0
582 0.461923 0.484539 0
583 0.5334401666665123 0.5259399999999106 0
584 0.731343333333658 -0.6400733333335223 0
585 0.4619458 0.0974326000000463 0
586 0.5334873333335265 -0.5248646666667791 0
587 0.4619740999999999 -0.3835716999997341 0
588 0.46198 -0.483227 0
589 -0.5913960000003351 2.062770000000196 0
590 -0.5269121666668651 2.025075000000116 0
591 -0.793194333333531 2.180735000000116 0
592 -0.4554538999999973 1.498209000000945 0
593 -0.4551728999999973 1.597368000000937 0
594 -0.455718599999997 1.40480200000108 0
595 -0.5932149999999974 0.9407390000000015 0
596 -0.6572576666666445 0.9036808333333461 0
597 -0.5291723333335195 0.977797166666559 0
598 -0.7287105000003603 2.143040000000211 0
599 -0.7296199999999582 0.8618080000000242 0
600 -0.7936626666668332 0.824749833333237 0
601 -0.45681 1.01967 0
602 -0.4565289999999993 1.118829000000251 0
603 -0.454908199999998 1.690775000000694 0
604 -0.4562642999999986 1.212236000000507 0
605 -0.4559832999999978 1.311395000000802 0
606 -0.6558798333336944 2.100465000000211 0
607 -0.4543624999999992 1.883341000000269 0
608 -0.4540815 1.9825 0
609 -0.4546271999999988 1.789934000000425 0
610 0.5799840000000469 0.6106580000000272 0
611 0.6515011666667023 0.6520590000000206 0
612 0.364565749999781 0.5700537500001277 0
613 0.2826882499999602 0.6177682500000232 0
614 0.4369634999999999 0.527864 0
615 0.5084806666665123 0.5692649999999106 0
616 -0.4065294999999993 1.118734000000251 0
617 -0.4068105 1.019575 0
618 -0.1801375000001226 0.8874810000000715 0
619 -0.09825999999992174 0.8397664999999543 0
620 -0.3179951000002172 2.032211999999874 0
621 -0.2368741000003374 2.079169999999805 0
622 0.7937019999998238 2.261246666666767 0
623 0.7213358333329787 2.302273333333535 0
624 -0.2525352499999022 0.929670749999943 0
625 0.09754169999912876 2.272749999999496 0
626 0.1786626999993672 2.319707999999634 0
627 -0.404082 1.98238 0
628 -0.4046277 1.789818999999969 0
629 -0.4043629999999993 1.883221000000269 0
630 -0.1507872000005768 2.129001999999666 0
631 -0.4051734 1.597258 0
632 -0.4049086999999993 1.690660000000238 0
633 -0.3344127500001489 0.9773852500000868 0
634 -0.4062647999999998 1.212136000000073 0
635 0.01642069999911894 2.22579199999949 0
636 0.4319575 2.46633 0
637 0.3458705999998321 2.416497999999903 0
638 0.05601524999986013 0.7498622500000816 0
639 0.1284130000000333 0.7076724999999806 0
640 0.5043236666665141 2.42530333333342 0
641 0.5766466666663161 2.384301666666865 0
642 -0.4054380999999998 1.503856000000069 0
643 -0.4057190999999998 1.404697000000078 0
644 0.210290499999768 0.6599580000001353 0
645 0.7230045000000287 0.6934520000000166 0
646 -0.405983799999999 1.311295000000368 0
647 -0.02586225000013678 0.7975767500000797 0
648 0.7945216666668611 0.7348530000001126 0
649 0.2647495999996471 2.369539999999796 0
650 0.6490128333329568 2.343275000000213 0
651 -0.06966620000088994 2.175959999999485 0
652 0.4064395000000002 2.920658333333073 0
653 0.4065163333333338 2.836514999999422 0
654 -0.1757333000007095 2.17233299999959 0
655 -0.09466140000064899 2.219261999999624 0
656 -0.008574500000640112 2.26909399999963 0
657 0.07249739999913873 2.316022999999502 0
658 -0.3428921000002173 2.075571999999874 0
659 -0.428979 2.02574 0
660 0.2396561999998272 2.4127839999999 0
661 0.1535692999995473 2.362951999999738 0
662 0.3207280999998321 2.459712999999903 0
663 -0.2618202000004701 2.122500999999728 0
664 -0.5746610000004581 2.110903333333601 0
665 -0.5018096666668651 2.068315000000116 0
666 -0.647491666667124 2.153478333333601 0
667 0.4067381666666668 2.593688333333145 0
668 0.406815 2.509545 0
669 0.406665666666667 2.673029999999552 0
670 0.4065888333333338 2.757173333332755 0
671 -0.7203430000003719 2.196066666666884 0
672 -0.793173666666841 2.238641666666769 0
673 0.4565161666666668 2.83657166666645 0
674 0.4565885000000001 2.757286666666508 0
675 0.6655841666663003 2.391356666666875 0
676 0.5932179999996596 2.432383333333527 0
677 0.4568145 2.509715 0
678 0.4567376666666668 2.593858333333146 0
679 0.4564393333333332 2.920715000000101 0
680 0.5291806666665141 2.46868833333342 0
681 0.4566653333333334 2.673143333333305 0
682 0.7296214999996542 2.355051666666863 0
683 0.7936588333331548 2.318746666666768 0
$EndNodes
$Elements
290
1 15 2 2 611429 34
2 15 2 1 612433 35
3 15 2 3 616448 38
4 15 2 4 643549 58
5 8 2 4 10899 34 36 278
6 8 2 1 10900 35 33 279
7 8 2 1 10904 33 39 295
8 8 2 2 10905 38 37 296
9 8 2 4 10909 34 42 312
10 8 2 4 10910 41 40 313
11 8 2 2 10914 37 45 329
12 8 2 2 10915 44 43 330
13 8 2 4 10919 40 48 346
14 8 2 4 10920 47 46 347
15 8 2 2 10924 49 51 363
16 8 2 2 10925 50 43 364
17 8 2 4 10929 46 53 380
18 8 2 4 10930 54 52 381
19 8 2 2 10934 55 56 397
20 8 2 2 10935 57 49 398
21 8 2 3 10939 58 59 414
22 8 2 4 10940 60 52 415
23 8 2 2 10943 55 61 426
24 8 2 3 10944 62 58 427
25 9 2 11 1249 65 66 76 71 428 429
26 9 2 11 1249 66 67 77 72 430 431
27 9 2 11 1249 274 273 264 276 432 433
28 9 2 11 1249 77 67 10 430 434 82
29 9 2 11 1249 74 63 64 435 69 436
30 9 2 11 1249 269 259 9 437 438 272
31 9 2 11 1249 258 259 269 261 437 439
32 9 2 11 1249 9 63 74 440 435 78
33 9 2 11 1249 36 274 34 277 441 278
34 9 2 11 1249 76 66 77 428 431 81
35 9 2 11 1249 259 2 9 262 442 438
36 9 2 11 1249 34 274 264 441 433 267
37 9 2 11 1249 9 2 63 442 68 440
38 9 2 11 1249 33 258 268 260 443 444
39 9 2 11 1249 273 10 263 275 445 446
40 9 2 11 1249 75 64 65 447 70 448
41 9 2 11 1249 35 33 268 279 444 270
42 9 2 11 1249 268 258 269 443 439 271
43 9 2 11 1249 75 65 76 448 429 80
44 9 2 11 1249 263 10 5 445 449 265
45 9 2 11 1249 74 64 75 436 447 79
46 9 2 11 1249 67 5 10 73 449 434
47 9 2 11 1249 264 273 263 432 446 266
48 9 2 11 1250 285 38 280 287 450 451
49 9 2 11 1250 281 285 280 452 451 283
50 9 2 11 1250 286 285 281 288 452 453
51 9 2 11 1250 290 11 259 292 454 455
52 9 2 11 1250 11 286 281 289 453 456
53 9 2 11 1250 280 38 37 450 296 282
54 9 2 11 1250 259 11 2 454 457 262
55 9 2 11 1250 291 290 258 293 458 459
56 9 2 11 1250 258 290 259 458 455 261
57 9 2 11 1250 11 281 2 456 284 457
58 9 2 11 1250 33 291 258 460 459 260
59 9 2 11 1250 39 291 33 294 460 295
60 9 2 11 1251 83 12 6 461 462 87
61 9 2 11 1251 264 308 263 463 464 266
62 9 2 11 1251 12 303 298 306 465 466
63 9 2 11 1251 85 94 93 467 98 468
64 9 2 11 1251 302 41 297 304 469 470
65 9 2 11 1251 303 302 298 305 471 465
66 9 2 11 1251 95 94 85 99 467 472
67 9 2 11 1251 297 41 40 469 313 299
68 9 2 11 1251 93 92 84 97 473 474
69 9 2 11 1251 298 302 297 471 470 300
70 9 2 11 1251 86 95 85 475 472 90
71 9 2 11 1251 13 95 86 100 475 476
72 9 2 11 1251 84 92 83 473 477 88
73 9 2 11 1251 34 42 264 312 478 267
74 9 2 11 1251 92 12 83 96 461 477
75 9 2 11 1251 85 93 84 468 474 89
76 9 2 11 1251 42 308 264 311 463 478
77 9 2 11 1251 12 298 6 466 301 462
78 9 2 11 1251 263 13 5 479 480 265
79 9 2 11 1251 263 307 13 481 309 479
80 9 2 11 1251 308 307 263 310 481 464
81 9 2 11 1251 5 13 86 480 476 91
82 9 2 11 1252 15 105 6 482 111 483
83 9 2 11 1252 17 133 63 138 484 485
84 9 2 11 1252 124 123 85 128 486 487
85 9 2 11 1252 281 280 324 283 488 489
86 9 2 11 1252 314 315 320 317 490 491
87 9 2 11 1252 63 133 64 484 492 69
88 9 2 11 1252 44 43 319 330 493 321
89 9 2 11 1252 103 113 102 494 495 108
90 9 2 11 1252 17 281 324 496 489 326
91 9 2 11 1252 319 314 320 497 491 322
92 9 2 11 1252 280 37 325 282 498 499
93 9 2 11 1252 43 314 319 316 497 493
94 9 2 11 1252 84 121 83 500 501 88
95 9 2 11 1252 85 122 84 502 503 89
96 9 2 11 1252 83 15 6 504 483 87
97 9 2 11 1252 113 112 102 117 505 495
98 9 2 11 1252 122 121 84 126 500 503
99 9 2 11 1252 15 115 105 120 506 482
100 9 2 11 1252 115 114 104 119 507 508
101 9 2 11 1252 86 124 85 509 487 90
102 9 2 11 1252 65 131 66 510 511 71
103 9 2 11 1252 102 112 101 505 512 107
104 9 2 11 1252 66 131 130 511 135 513
105 9 2 11 1252 16 124 86 129 509 514
106 9 2 11 1252 64 132 65 515 516 70
107 9 2 11 1252 85 123 122 486 127 502
108 9 2 11 1252 121 15 83 125 504 501
109 9 2 11 1252 114 103 104 517 109 507
110 9 2 11 1252 325 37 45 498 329 328
111 9 2 11 1252 114 113 103 118 494 517
112 9 2 11 1252 2 17 63 518 485 68
113 9 2 11 1252 67 16 5 519 520 73
114 9 2 11 1252 67 130 16 521 134 519
115 9 2 11 1252 66 130 67 513 521 72
116 9 2 11 1252 101 14 4 522 523 106
117 9 2 11 1252 112 14 101 116 522 512
118 9 2 11 1252 315 4 14 318 523 524
119 9 2 11 1252 320 315 14 490 524 323
120 9 2 11 1252 5 16 86 520 514 91
121 9 2 11 1252 133 132 64 137 515 492
122 9 2 11 1252 2 281 17 284 496 518
123 9 2 11 1252 115 104 105 508 110 506
124 9 2 11 1252 132 131 65 136 510 516
125 9 2 11 1252 324 280 325 488 499 327
126 9 2 11 1253 160 159 140 164 525 526
127 9 2 11 1253 152 170 151 527 528 156
128 9 2 11 1253 47 46 336 347 529 338
129 9 2 11 1253 168 19 150 172 530 531
130 9 2 11 1253 21 298 341 532 533 343
131 9 2 11 1253 170 169 151 174 534 528
132 9 2 11 1253 105 180 104 535 536 110
133 9 2 11 1253 298 297 341 300 537 533
134 9 2 11 1253 21 180 105 185 535 538
135 9 2 11 1253 162 142 143 539 148 540
136 9 2 11 1253 102 177 101 541 542 107
137 9 2 11 1253 153 171 152 543 544 157
138 9 2 11 1253 150 19 3 530 545 154
139 9 2 11 1253 20 171 153 176 543 546
140 9 2 11 1253 101 20 4 547 548 106
141 9 2 11 1253 101 177 20 542 181 547
142 9 2 11 1253 19 162 143 167 540 549
143 9 2 11 1253 102 178 177 550 182 541
144 9 2 11 1253 336 331 337 551 552 339
145 9 2 11 1253 46 331 336 333 551 529
146 9 2 11 1253 141 160 140 553 526 146
147 9 2 11 1253 19 143 3 549 149 545
148 9 2 11 1253 159 18 139 163 554 555
149 9 2 11 1253 332 1 18 335 556 557
150 9 2 11 1253 104 179 103 558 559 109
151 9 2 11 1253 337 332 18 560 557 340
152 9 2 11 1253 103 178 102 561 550 108
153 9 2 11 1253 161 141 142 562 147 563
154 9 2 11 1253 169 168 151 173 564 534
155 9 2 11 1253 180 179 104 184 558 536
156 9 2 11 1253 341 297 342 537 565 344
157 9 2 11 1253 151 168 150 564 531 155
158 9 2 11 1253 171 170 152 175 527 544
159 9 2 11 1253 161 160 141 165 553 562
160 9 2 11 1253 139 18 1 554 556 144
161 9 2 11 1253 342 40 48 566 346 345
162 9 2 11 1253 179 178 103 183 561 559
163 9 2 11 1253 297 40 342 299 566 565
164 9 2 11 1253 140 159 139 525 555 145
165 9 2 11 1253 331 332 337 334 560 552
166 9 2 11 1253 4 20 153 548 546 158
167 9 2 11 1253 6 21 105 567 538 111
168 9 2 11 1253 162 161 142 166 563 539
169 9 2 11 1253 6 298 21 301 532 567
170 9 2 11 1254 359 349 51 568 569 362
171 9 2 11 1254 189 150 23 570 571 194
172 9 2 11 1254 43 314 50 316 572 364
173 9 2 11 1254 353 315 354 573 574 356
174 9 2 11 1254 151 150 189 155 570 575
175 9 2 11 1254 153 152 186 157 576 577
176 9 2 11 1254 186 152 187 576 578 191
177 9 2 11 1254 152 188 187 579 192 578
178 9 2 11 1254 349 49 51 352 363 569
179 9 2 11 1254 358 348 359 580 581 361
180 9 2 11 1254 23 3 348 582 350 583
181 9 2 11 1254 314 315 353 317 573 584
182 9 2 11 1254 152 151 188 156 585 579
183 9 2 11 1254 188 151 189 585 575 193
184 9 2 11 1254 150 3 23 154 582 571
185 9 2 11 1254 50 314 353 572 584 355
186 9 2 11 1254 23 348 358 583 580 360
187 9 2 11 1254 348 349 359 351 568 581
188 9 2 11 1254 315 22 354 586 357 574
189 9 2 11 1254 4 153 22 158 587 588
190 9 2 11 1254 22 153 186 587 577 190
191 9 2 11 1254 315 4 22 318 588 586
192 9 2 11 1255 24 376 366 379 589 590
193 9 2 11 1255 365 54 52 591 381 367
194 9 2 11 1255 197 205 196 592 593 201
195 9 2 11 1255 197 206 205 594 210 592
196 9 2 11 1255 371 370 332 373 595 596
197 9 2 11 1255 332 370 25 595 372 597
198 9 2 11 1255 375 54 365 377 591 598
199 9 2 11 1255 53 371 331 374 599 600
200 9 2 11 1255 1 25 198 601 602 203
201 9 2 11 1255 205 204 196 209 603 593
202 9 2 11 1255 198 207 197 604 605 202
203 9 2 11 1255 366 375 365 606 598 368
204 9 2 11 1255 195 24 7 607 608 199
205 9 2 11 1255 46 53 331 380 600 333
206 9 2 11 1255 25 207 198 212 604 602
207 9 2 11 1255 196 204 195 603 609 200
208 9 2 11 1255 376 375 366 378 606 589
209 9 2 11 1255 331 371 332 599 596 334
210 9 2 11 1255 207 206 197 211 594 605
211 9 2 11 1255 24 366 7 590 369 608
212 9 2 11 1255 204 24 195 208 607 609
213 9 2 11 1255 332 25 1 597 601 335
214 9 2 11 1256 348 393 349 610 611 351
215 9 2 11 1256 27 143 222 612 613 226
216 9 2 11 1256 3 143 27 149 612 614
217 9 2 11 1256 3 27 348 614 615 350
218 9 2 11 1256 1 198 28 203 616 617
219 9 2 11 1256 140 225 224 618 229 619
220 9 2 11 1256 29 213 240 620 621 244
221 9 2 11 1256 55 388 383 622 623 386
222 9 2 11 1256 140 139 225 145 624 618
223 9 2 11 1256 242 215 243 625 626 247
224 9 2 11 1256 29 7 213 627 217 620
225 9 2 11 1256 234 195 29 628 629 239
226 9 2 11 1256 240 213 214 621 218 630
227 9 2 11 1256 233 196 234 631 632 238
228 9 2 11 1256 139 28 225 633 230 624
229 9 2 11 1256 139 1 28 144 617 633
230 9 2 11 1256 28 198 231 616 634 235
231 9 2 11 1256 241 215 242 635 625 246
232 9 2 11 1256 196 195 234 200 628 632
233 9 2 11 1256 216 8 26 221 636 637
234 9 2 11 1256 142 141 223 147 638 639
235 9 2 11 1256 382 26 8 640 636 384
236 9 2 11 1256 387 26 382 389 640 641
237 9 2 11 1256 197 196 232 201 642 643
238 9 2 11 1256 222 142 223 644 639 227
239 9 2 11 1256 393 392 349 395 645 611
240 9 2 11 1256 198 197 231 202 646 634
241 9 2 11 1256 141 140 224 146 619 647
242 9 2 11 1256 27 393 348 396 610 615
243 9 2 11 1256 232 196 233 642 631 237
244 9 2 11 1256 143 142 222 148 644 613
245 9 2 11 1256 392 57 49 394 398 648
246 9 2 11 1256 215 216 243 220 649 626
247 9 2 11 1256 383 387 382 650 641 385
248 9 2 11 1256 349 392 49 645 648 352
249 9 2 11 1256 223 141 224 638 647 228
250 9 2 11 1256 388 387 383 390 650 623
251 9 2 11 1256 195 7 29 199 627 629
252 9 2 11 1256 56 388 55 391 622 397
253 9 2 11 1256 240 214 241 630 651 245
254 9 2 11 1256 243 216 26 649 637 248
255 9 2 11 1256 231 197 232 646 643 236
256 9 2 11 1256 241 214 215 651 219 635
257 9 2 11 1257 400 58 405 403 652 653
258 9 2 11 1257 249 214 250 654 655 254
259 9 2 11 1257 250 215 251 656 657 255
260 9 2 11 1257 7 213 31 217 658 659
261 9 2 11 1257 215 216 252 220 660 661
262 9 2 11 1257 216 30 252 662 257 660
263 9 2 11 1257 31 213 249 658 663 253
264 9 2 11 1257 31 410 366 413 664 665
265 9 2 11 1257 366 410 365 664 666 368
266 9 2 11 1257 8 399 30 401 667 668
267 9 2 11 1257 30 399 404 667 669 406
268 9 2 11 1257 404 400 405 670 653 407
269 9 2 11 1257 410 409 365 412 671 666
270 9 2 11 1257 405 58 59 652 414 408
271 9 2 11 1257 213 214 249 218 654 663
272 9 2 11 1257 215 252 251 661 256 657
273 9 2 11 1257 399 400 404 402 670 669
274 9 2 11 1257 7 31 366 659 665 369
275 9 2 11 1257 214 215 250 219 656 655
276 9 2 11 1257 409 60 52 411 415 672
277 9 2 11 1257 216 8 30 221 668 662
278 9 2 11 1257 365 409 52 671 672 367
279 9 2 11 1258 422 421 400 424 673 674
280 9 2 11 1258 383 416 382 675 676 385
281 9 2 11 1258 8 32 399 677 678 401
282 9 2 11 1258 421 62 58 423 427 679
283 9 2 11 1258 382 32 8 680 677 384
284 9 2 11 1258 399 422 400 681 674 402
285 9 2 11 1258 383 417 416 682 419 675
286 9 2 11 1258 382 416 32 676 418 680
287 9 2 11 1258 55 61 383 426 683 386
288 9 2 11 1258 32 422 399 425 681 678
289 9 2 11 1258 400 421 58 673 679 403
290 9 2 11 1258 61 417 383 420 682 683
$EndElements
