$MeshFormat
2.2 0 8
$EndMeshFormat
$Nodes
683
1 -0.432464 0.997353 0
2 -0.432074 1.99671 0
3 0.432471 2.49825 0
4 -0.432462 -1.00099 0
5 0.437637 0.498978 0
6 0.439365 -0.501377 0
7 0.432332 -2.50281 0
8 -0.435623 -2.00547 0
9 -0.435607 -2.06311 0
10 0.382448 -2.53185 0
11 0.482447 -2.53155 0
12 -0.485532 -1.97646 0
13 -0.482552 -1.02965 0
14 0.432186 -2.4451 0
15 -0.385532 -1.97655 0
16 -0.382553 -1.03002 0
17 0.439182 -0.55911 0
18 0.389315 -0.472431 0
19 -0.432236 -0.943232 0
20 -0.43234 0.939661 0
21 0.387687 0.469967 0
22 0.489315 -0.472585 0
23 0.487687 0.470255 0
24 -0.482453 1.0262 0
25 -0.482085 1.96784 0
26 0.437438 0.556713 0
27 -0.382453 1.02633 0
28 -0.382085 1.96791 0
29 0.432505 2.44047 0
30 0.382437 2.52703 0
31 -0.432141 2.05448 0
32 0.482437 2.52711 0
33 0.434319 -3 0
34 -0.866025 -2.25241 0
35 0.384318 -3 0
36 -0.866025 -2.31006 0
37 0.866025 -2.25139 0
38 0.866025 -2.30918 0
39 0.484319 -3 0
40 -0.866025 -0.747993 0
41 -0.866025 -0.805883 0
42 -0.866025 -2.19477 0
43 0.866025 -0.749494 0
44 0.866025 -2.19359 0
45 0.866025 -0.807334 0
46 -0.866025 0.746537 0
47 -0.866025 -0.690103 0
48 -0.866025 0.688773 0
49 0.866025 0.74829 0
50 0.866025 -0.691654 0
51 0.866025 0.690439 0
52 -0.866025 2.24711 0
53 -0.866025 0.804301 0
54 -0.866025 2.18939 0
55 0.866025 2.24741 0
56 0.866025 2.18965 0
57 0.866025 0.806141 0
58 0.431877 3 0
59 -0.866025 2.30484 0
60 0.381877 3 0
61 0.481877 3 0
62 0.866025 2.30518 0
63 -0.262032000000416 -2.104937999999762 0
64 -0.08844100000078675 -2.204405999999549 0
65 0.08514999999898765 -2.30387399999942 0
66 0.2587409999996098 -2.403341999999776 0
67 -0.3488275000000862 -2.055203999999951 0
68 -0.175236500000494 -2.154671999999717 0
69 -0.001645500000913402 -2.254139999999476 0
70 0.1719454999991112 -2.353607999999491 0
71 0.3455364999997691 -2.453075999999868 0
72 -0.2719960000004525 -2.156857999999741 0
73 -0.1083850000009625 -2.250605999999448 0
74 0.05522599999890215 -2.344353999999371 0
75 0.2188369999993952 -2.438101999999653 0
76 -0.3538015000001828 -2.109983999999895 0
77 -0.1901905000006591 -2.203731999999623 0
78 -0.02657950000139769 -2.297479999999199 0
79 0.13703149999921 -2.391227999999547 0
80 0.3006424999997038 -2.48497599999983 0
81 -0.4350961666666672 -1.838056666666855 0
82 -0.4345693333333351 -1.670643333333897 0
83 -0.4340425000000034 -1.503230000001085 0
84 -0.4335156666666707 -1.335816666667939 0
85 -0.4329888333333346 -1.168403333333739 0
86 -0.4353595833333335 -1.921763333333377 0
87 -0.4348327500000015 -1.754350000000481 0
88 -0.4343059166666692 -1.586936666667491 0
89 -0.4337790833333367 -1.419523333334405 0
90 -0.4332522500000019 -1.252110000000616 0
91 -0.4327254166666676 -1.08469666666697 0
92 -0.4849360000000008 -1.787098000000261 0
93 -0.4843400000000027 -1.597736000000859 0
94 -0.4837440000000036 -1.408374000001137 0
95 -0.4831480000000016 -1.219012000000503 0
96 -0.4852340000000003 -1.881779000000089 0
97 -0.4846380000000015 -1.692417000000478 0
98 -0.484042000000004 -1.503055000001253 0
99 -0.483446000000002 -1.313693000000651 0
100 -0.4828500000000006 -1.124331000000192 0
101 -0.2871575000003249 -0.9177211666668529 0
102 -0.1418530000007777 -0.834452333333779 0
103 0.003451499998750829 -0.7511835000007159 0
104 0.1487559999991523 -0.6679146666671525 0
105 0.2940604999995835 -0.584645833333572 0
106 -0.3598097500001165 -0.9593555833334001 0
107 -0.2145052500005597 -0.8760867500003208 0
108 -0.06920075000099479 -0.7928179166672368 0
109 0.07610374999896341 -0.7095490833339273 0
110 0.2214082499993389 -0.6262802500003788 0
111 0.3667127499998004 -0.543011416666781 0
112 0.2686424000003115 -2.351390000000178 0
113 0.1050988000008709 -2.257680000000499 0
114 -0.05844479999923835 -2.163970000000436 0
115 -0.2219883999995507 -2.070260000000257 0
116 0.3504142000001937 -2.398245000000111 0
117 0.1868706000006375 -2.304535000000365 0
118 0.02332700000113364 -2.21082500000065 0
119 -0.1402165999994149 -2.117115000000335 0
120 -0.3037601999997684 -2.023405000000133 0
121 -0.3849362000000012 -1.787244000000399 0
122 -0.3843404000000027 -1.597938000000884 0
123 -0.3837446000000028 -1.408632000000911 0
124 -0.3831488000000015 -1.219326000000477 0
125 -0.3852341000000005 -1.88189700000018 0
126 -0.384638300000002 -1.692591000000642 0
127 -0.3840425000000041 -1.503285000001288 0
128 -0.3834467000000018 -1.313979000000563 0
129 -0.3828509000000014 -1.124673000000461 0
130 -0.2182060000003356 -0.9358380000001922 0
131 -0.05385900000077309 -0.841656000000443 0
132 0.1104879999992006 -0.747474000000458 0
133 0.2748349999996293 -0.6532920000002125 0
134 -0.3003795000001592 -0.9829290000000912 0
135 -0.1360325000005456 -0.8887470000003126 0
136 0.0283144999989548 -0.7945650000005989 0
137 0.1926614999994186 -0.7003830000003333 0
138 0.3570084999998075 -0.6062010000001103 0
139 -0.2874471666669521 0.9142905000001635 0
140 -0.1424303333340287 0.8312280000003983 0
141 0.002586499998940839 0.7481655000006067 0
142 0.1476033333326169 0.6651030000004103 0
143 0.2926201666663159 0.5820405000002009 0
144 -0.3599555833334735 0.9558217500000803 0
145 -0.2149387500005176 0.8727592500002965 0
146 -0.0699219166675899 0.7896967500005289 0
147 0.0750949166657659 0.7066342500005159 0
148 0.2201117499994545 0.6235717500003124 0
149 0.3651285833332555 0.5405092500000446 0
150 0.4379825999999992 0.2989070000004853 0
151 0.4383281999999982 0.09883600000106435 0
152 0.4386737999999981 -0.1012349999988593 0
153 0.4390193999999991 -0.3013059999994837 0
154 0.4378097999999996 0.3989425000001984 0
155 0.4381553999999987 0.1988715000007485 0
156 0.4385009999999976 -0.001199499998612519 0
157 0.4388465999999987 -0.2012704999992596 0
158 0.4391921999999995 -0.4013414999997418 0
159 0.2250048000003018 -0.5665911999998271 0
160 0.06069460000082672 -0.6607513999995263 0
161 -0.1036155999991636 -0.7549115999995206 0
162 -0.2679257999995818 -0.8490717999997603 0
163 0.307159900000094 -0.5195110999999462 0
164 0.1428497000005623 -0.6136712999996777 0
165 -0.02146049999896038 -0.7078314999994042 0
166 -0.1857706999994019 -0.8019916999996572 0
167 -0.3500808999998136 -0.8961518999998932 0
168 -0.2683346000003677 0.8457222000002106 0
169 -0.1043292000008192 0.7517834000004693 0
170 0.05967619999915441 0.6578446000004843 0
171 0.2236815999995778 0.5639058000002419 0
172 -0.3503373000001462 0.8926916000000837 0
173 -0.1863319000006239 0.7987528000003573 0
174 -0.02232650000104092 0.7048140000005962 0
175 0.14167889999931 0.6108752000003952 0
176 0.3056842999997352 0.5169364000001517 0
177 0.3880125999999992 0.2814874000004793 0
178 0.3883381999999983 0.09300780000099962 0
179 0.3886637999999983 -0.09547179999898958 0
180 0.3889893999999992 -0.2839513999994924 0
181 0.3878497999999996 0.375727200000243 0
182 0.3881753999999987 0.1872476000007651 0
183 0.3885009999999979 -0.001231999998782485 0
184 0.3888265999999987 -0.1897115999992166 0
185 0.3891521999999997 -0.3781911999997891 0
186 0.4889894000000007 -0.2840170000004079 0
187 0.4886638000000016 -0.09544900000096729 0
188 0.4883382000000017 0.09311899999902801 0
189 0.4880126000000009 0.2816869999995131 0
190 0.4891522000000003 -0.3783010000001683 0
191 0.4888266000000012 -0.189733000000696 0
192 0.4885010000000021 -0.001165000001247307 0
193 0.4881754000000012 0.1874029999993009 0
194 0.4878498000000004 0.3759709999997472 0
195 -0.4323860000000001 1.197224399999714 0
196 -0.4323080000000004 1.397095799999132 0
197 -0.4322300000000004 1.596967199998985 0
198 -0.4321520000000003 1.796838599999409 0
199 -0.4324250000000001 1.097288699999857 0
200 -0.4323470000000003 1.297160099999421 0
201 -0.4322690000000005 1.497031499998721 0
202 -0.4321910000000003 1.69690289999932 0
203 -0.4321130000000002 1.896774299999567 0
204 -0.4823794000000002 1.214527999999601 0
205 -0.4823058000000003 1.402855999999115 0
206 -0.4822322000000004 1.591183999999063 0
207 -0.4821586000000002 1.779511999999618 0
208 -0.4824162000000001 1.120363999999677 0
209 -0.4823426000000003 1.308691999999164 0
210 -0.4822690000000004 1.49701999999885 0
211 -0.4821954000000003 1.685347999999341 0
212 -0.4821218 1.873675999999809 0
213 -0.2591650000003588 2.097017999999792 0
214 -0.08625600000104089 2.197325999999396 0
215 0.08665299999874382 2.297633999999271 0
216 0.2595619999992108 2.397941999999542 0
217 -0.3456195000001842 2.046863999999893 0
218 -0.1727105000007783 2.147171999999549 0
219 0.0001984999986354707 2.247479999999209 0
220 0.1731074999990477 2.347787999999448 0
221 0.3460164999997015 2.448095999999827 0
222 0.2734598000003546 0.6506363999997968 0
223 0.1094816000008833 0.7445597999994942 0
224 -0.0544965999991564 0.8384831999995168 0
225 -0.2184747999995739 0.9324065999997559 0
226 0.3554489000001705 0.6036746999999023 0
227 0.1914707000006054 0.6975980999996533 0
228 0.02749250000107623 0.7915214999993836 0
229 -0.1364856999994243 0.8854448999996702 0
230 -0.3004638999998075 0.9793682999998898 0
231 -0.3823794000000001 1.214645999999714 0
232 -0.3823058000000004 1.402961999999124 0
233 -0.3822322000000004 1.591277999999003 0
234 -0.3821586000000002 1.779593999999506 0
235 -0.3824162 1.120487999999822 0
236 -0.3823426000000002 1.308803999999535 0
237 -0.3822690000000004 1.497119999998991 0
238 -0.3821954000000004 1.685435999999131 0
239 -0.3821218000000001 1.873751999999766 0
240 -0.2191670000003066 2.062421999999822 0
241 -0.05624900000083705 2.156933999999514 0
242 0.1066689999991721 2.25144599999952 0
243 0.2695869999995225 2.345957999999723 0
244 -0.3006260000001648 2.015165999999904 0
245 -0.137708000000526 2.109677999999695 0
246 0.02520999999894841 2.20418999999939 0
247 0.1881279999991819 2.298701999999525 0
248 0.3510459999997515 2.393213999999856 0
249 0.2195214000003682 2.432520000000213 0
250 0.05660580000075544 2.338010000000438 0
251 -0.1063097999992545 2.243500000000432 0
252 -0.2692253999996299 2.148990000000214 0
253 0.3009792000002817 2.479775000000163 0
254 0.138063600000587 2.385265000000341 0
255 -0.02485199999903787 2.290755000000558 0
256 -0.1877675999995334 2.196245000000271 0
257 -0.3506831999997687 2.101735000000134 0
258 0.4329943333333313 -2.66853999999948 0
259 0.4336566666666644 -2.834269999999422 0
260 0.4326631666666656 -2.58567499999974 0
261 0.4333254999999938 -2.751404999998449 0
262 0.4339878333333321 -2.917134999999695 0
263 -0.7225576666669919 -2.170096666666853 0
264 -0.5790903333337825 -2.087783333333591 0
265 -0.7942913333335503 -2.211253333333457 0
266 -0.6508240000005254 -2.128940000000301 0
267 -0.5073566666670195 -2.046626666666869 0
268 0.3830713333333319 -2.687899999999653 0
269 0.3836946666666647 -2.843949999999509 0
270 0.3827596666666643 -2.609874999999415 0
271 0.3833829999999981 -2.765924999999519 0
272 0.3840063333333347 -2.921975000000354 0
273 -0.7225523333336779 -2.227743333333531 0
274 -0.5790796666669884 -2.145426666666851 0
275 -0.7942886666668483 -2.268901666666771 0
276 -0.6508160000004395 -2.186585000000252 0
277 -0.5073433333333077 -2.104268333333319 0
278 0.409318499999924 -3 0
279 -0.866025 -2.281235000000747 0
280 0.7214606666670593 -2.335196666666439 0
281 0.5768963333337294 -2.419003333333104 0
282 0.7937428333336241 -2.293293333333165 0
283 0.6491785000004013 -2.377099999999767 0
284 0.5046141666668936 -2.460906666666535 0
285 0.7381656666664803 -2.383303333333441 0
286 0.6103063333336134 -2.457426666666505 0
287 0.8020953333333644 -2.346241666666649 0
288 0.6742360000004791 -2.420364999999722 0
289 0.5463766666663403 -2.494488333333523 0
290 0.483071 -2.6877 0
291 0.4836949999999952 -2.843849999998786 0
292 0.482759 -2.609625 0
293 0.4833829999999983 -2.76577499999958 0
294 0.4840069999999971 -2.921924999999282 0
295 0.459319 -3 0
296 0.866025 -2.280285 0
297 -0.5769829999996204 -0.9166576666668882 0
298 -0.7215039999996441 -0.8323253333335411 0
299 -0.5047224999997435 -0.9588238333334831 0
300 -0.6492434999995558 -0.8744915000002593 0
301 -0.7937644999997093 -0.7901591666668364 0
302 -0.6103763333329443 -0.955061000000227 0
303 -0.7382006666660935 -0.8804720000003344 0
304 -0.5464641666665079 -0.9923555000000925 0
305 -0.6742884999992911 -0.9177665000004137 0
306 -0.8021128333330261 -0.8431775000001793 0
307 -0.7391940000003665 -2.12200000000021 0
308 -0.6123630000003704 -2.049230000000212 0
309 -0.8026095000002607 -2.15838500000015 0
310 -0.6757785000004325 -2.085615000000248 0
311 -0.5489475000002711 -2.012845000000156 0
312 -0.866025 -0.7769379999997926 0
313 -0.866025 -2.22359 0
314 0.5815849999995025 -0.5840826666663773 0
315 0.7238049999995526 -0.6667883333330732 0
316 0.5104749999996956 -0.5427298333331563 0
317 0.6526949999993921 -0.6254354999996464 0
318 0.7949149999998411 -0.7081411666665742 0
319 0.7214120000004264 -2.27742666666642 0
320 0.576799000000362 -2.361263333333123 0
321 0.7937185000002372 -2.235508333333196 0
322 0.6491055000005425 -2.319344999999685 0
323 0.5044925000003868 -2.403181666666443 0
324 0.5814629999996482 -0.6418513333331287 0
325 0.7237439999996149 -0.7245926666664427 0
326 0.5103224999998938 -0.6004806666666048 0
327 0.6526034999995998 -0.6832219999997672 0
328 0.7948844999998259 -0.7659633333332321 0
329 0.866025 -0.7784139999998962 0
330 0.866025 -2.22249 0
331 -0.7215046666670459 0.8301423333331139 0
332 -0.5769843333336864 0.9137476666664625 0
333 -0.7937648333334124 0.7883396666666209 0
334 -0.6492445000006282 0.8719449999996367 0
335 -0.5047241666669147 0.9555503333331899 0
336 -0.5768323333329395 -0.8588556666668965 0
337 -0.7214286666662492 -0.774479333333577 0
338 -0.5045341666665062 -0.901043833333427 0
339 -0.649130499999394 -0.8166675000003536 0
340 -0.7937268333332506 -0.732291166666715 0
341 -0.7214633333336989 0.7724023333331218 0
342 -0.5769016666670901 0.8560316666664216 0
343 -0.7937441666667937 0.7305876666665931 0
344 -0.6491825000004565 0.814216999999736 0
345 -0.5046208333334063 0.8978463333332911 0
346 -0.866025 -0.7190480000002074 0
347 -0.866025 0.7176549999999999 0
348 0.5804329999996656 0.5820819999998054 0
349 0.7232289999996285 0.6651859999997838 0
350 0.5090349999999291 0.5405299999999588 0
351 0.651830999999379 0.6236339999996385 0
352 0.7946269999996424 0.7067379999997918 0
353 0.7404550000003166 -0.6186310000001841 0
354 0.6148850000002262 -0.5456080000001315 0
355 0.8032400000001909 -0.655142500000111 0
356 0.6776700000004676 -0.5821195000002719 0
357 0.5521000000001044 -0.5090965000000607 0
358 0.6137996666662606 0.5436496666664303 0
359 0.7399123333329507 0.6170443333331106 0
360 0.5507433333331666 0.5069523333332363 0
361 0.6768559999993394 0.5803469999996156 0
362 0.8029686666664936 0.653741666666566 0
363 0.866025 0.7193645000001038 0
364 0.866025 -0.7205739999999538 0
365 -0.5767243333329528 2.080176666666447 0
366 -0.7213746666662254 2.163643333333079 0
367 -0.5043991666664399 2.038443333333202 0
368 -0.6490494999995079 2.121909999999716 0
369 -0.7936998333330587 2.205376666666508 0
370 -0.7381676666670391 0.8782673333331179 0
371 -0.6103103333336797 0.9522336666664664 0
372 -0.8020963333334241 0.8412841666666142 0
373 -0.6742390000004348 0.9152504999997485 0
374 -0.5463816666668653 0.9892168333332184 0
375 -0.6100649999997778 2.041689999999872 0
376 -0.7380449999997164 2.115539999999836 0
377 -0.5460749999998201 2.004764999999896 0
378 -0.6740549999996276 2.078614999999785 0
379 -0.8020349999998692 2.152464999999924 0
380 -0.866025 2.21825 0
381 -0.866025 0.7754190000000001 0
382 0.5769889999995857 2.414636666666906 0
383 0.721506999999595 2.331023333333567 0
384 0.5047299999999797 2.456443333333345 0
385 0.649247999999198 2.372830000000464 0
386 0.7937659999996333 2.289216666666879 0
387 0.5770116666663171 2.356863333333536 0
388 0.7215183333328783 2.27325666666693 0
389 0.504758333333018 2.398666666666849 0
390 0.6492649999993479 2.315060000000377 0
391 0.7937716666667463 2.231453333333287 0
392 0.7231626666669222 0.7229983333334821 0
393 0.5803003333336474 0.6398556666668493 0
394 0.7945938333334182 0.764569666666716 0
395 0.6517315000004922 0.6814270000002864 0
396 0.5088691666667517 0.5982843333333828 0
397 0.866025 2.21853 0
398 0.866025 0.7772155000001499 0
399 0.4320749999999994 2.832750000000491 0
400 0.4322729999999996 2.665500000000376 0
401 0.4319760000000004 2.916374999999658 0
402 0.4321739999999992 2.749125000000707 0
403 0.4323719999999998 2.581875000000188 0
404 -0.5767689999993617 2.137933333332965 0
405 -0.7213969999994779 2.221386666666366 0
406 -0.5044549999995047 2.096206666666381 0
407 -0.6490829999992315 2.179659999999557 0
408 -0.7937109999998776 2.263113333333262 0
409 0.3820636666666662 2.842343333333767 0
410 0.3822503333333326 2.684686666667331 0
411 0.3819703333333331 2.92117166666692 0
412 0.3821569999999992 2.763515000000687 0
413 0.3823436666666667 2.605858333333278 0
414 -0.866025 2.275975000000608 0
415 0.406877 3 0
416 0.4820636666666662 2.842370000000404 0
417 0.4822503333333328 2.684740000000462 0
418 0.4819703333333334 2.921184999999926 0
419 0.4821569999999999 2.763555000000108 0
420 0.4823436666666669 2.60592499999982 0
421 0.6102996666663199 2.453133333333534 0
422 0.738162333332979 2.379156666666872 0
423 0.5463683333332318 2.490121666666725 0
424 0.6742309999993905 2.416145000000353 0
425 0.8020936666663044 2.342168333333543 0
426 0.866025 2.276295000000747 0
427 0.456877 3 0
428 -0.1802185000006196 -2.180631999999645 0
429 -0.09841300000087463 -2.227505999999499 0
430 -0.435615 -2.03429 0
431 -0.5073486666668913 -2.075446666666795 0
432 -0.0166075000009423 -2.27437999999946 0
433 0.0701879999989449 -2.324113999999395 0
434 -0.5790850000003854 -2.116605000000221 0
435 -0.6508186666669902 -2.157761666666852 0
436 -0.7942886666668389 -2.240076666666766 0
437 -0.2670140000004343 -2.130897999999751 0
438 -0.348819500000208 -2.084023999999881 0
439 0.3205944999998049 -2.467595999999888 0
440 0.40739 -2.51733 0
441 0.4083639999999982 -2.761084999999538 0
442 0.4086756666666645 -2.839109999999465 0
443 0.1519934999991914 -2.370987999999537 0
444 0.4090068333333323 -2.921974999999755 0
445 0.4077211666666656 -2.60019499999974 0
446 0.4080328333333316 -2.678219999999566 0
447 0.2387889999995025 -2.420721999999715 0
448 -0.7225550000003349 -2.198920000000192 0
449 0.4577206666666657 -2.60004499999974 0
450 0.4580326666666656 -2.67811999999974 0
451 0.7937428333335297 -2.322188333333219 0
452 0.7298131666667698 -2.35924999999994 0
453 0.4583638333333322 -2.760984999999711 0
454 0.6575310000001049 -2.401153333333273 0
455 0.4586758333333297 -2.839059999999104 0
456 0.4573895 -2.51718 0
457 0.5296716666668647 -2.475276666666552 0
458 0.4590069999999976 -2.921924999999393 0
459 0.5936013333336714 -2.438214999999804 0
460 -0.457507 -1.01532 0
461 -0.5297674999998102 -0.9731538333334441 0
462 -0.4586298333333371 -1.372095333334538 0
463 -0.4588932500000035 -1.45580200000111 0
464 -0.459191250000003 -1.550483000000972 0
465 -0.4594546666666689 -1.634189666667378 0
466 -0.4597526666666679 -1.728870666667079 0
467 -0.460016083333334 -1.812577333333558 0
468 -0.4580684166666681 -1.193707666667121 0
469 -0.4583318333333362 -1.277414333334221 0
470 -0.5957266666670764 -2.068506666666901 0
471 -0.6674603333336812 -2.109663333333533 0
472 -0.5936796666662824 -0.9358593333335576 0
473 -0.4577704166666673 -1.099026666666869 0
474 -0.7298523333328688 -0.8563986666669378 0
475 -0.7937644999998221 -0.8191041666667706 0
476 -0.657591833332857 -0.8985648333336114 0
477 -0.7308758333336792 -2.146048333333532 0
478 -0.4603140833333336 -1.907258333333427 0
479 -0.794291333333496 -2.182433333333427 0
480 -0.4605775 -1.990965 0
481 -0.5323111666668913 -2.032121666666796 0
482 0.432259 -2.473955 0
483 0.5045411666668647 -2.432051666666552 0
484 0.1768961999996496 -2.327631999999799 0
485 0.2636916999999606 -2.377365999999977 0
486 -0.1800295000005567 -0.8851451666669856 0
487 -0.09785600000077541 -0.8380541666671111 0
488 0.3454634999998049 -2.424220999999888 0
489 0.5768476666670457 -2.390133333333114 0
490 0.6491298333337107 -2.348229999999781 0
491 -0.4103140833333336 -1.907303333333427 0
492 -0.4100161833333342 -1.812650333333627 0
493 -0.4097527666666682 -1.728943666667148 0
494 -0.2526817500003303 -0.9267795833335226 0
495 -0.4086301333333368 -1.372224333334425 0
496 -0.4088935500000031 -1.455931000000998 0
497 -0.02520375000101113 -0.7964197500005794 0
498 0.05696974999897572 -0.749328750000587 0
499 0.1296219999991765 -0.7076943333338053 0
500 0.2117954999993908 -0.6606033333336825 0
501 -0.4080688166666681 -1.193864666667108 0
502 -0.4083322333333361 -1.277571333334208 0
503 0.6526339999996005 -0.654319833333101 0
504 0.7237744999995838 -0.695690499999758 0
505 -0.4094548666666689 -1.634290666667391 0
506 -0.07344290000001255 -2.184187999999993 0
507 0.01335259999987465 -2.233921999999928 0
508 -0.1552147000001687 -2.137332999999903 0
509 -0.323782000000208 -2.040743999999881 0
510 -0.2420101999999834 -2.08759900000001 0
511 0.5103834999997513 -0.5715963333331886 0
512 0.4392735 -0.5302435 0
513 0.3666212499997917 -0.571877916666786 0
514 0.7937185000002132 -2.264408333333209 0
515 -0.4075075 -1.015505 0
516 -0.3348552500001625 -0.9738705833334265 0
517 -0.4077709166666673 -1.099211666666869 0
518 0.7214363333337428 -2.306311666666429 0
519 -0.4091914500000031 -1.550584000000985 0
520 0.7948844999998075 -0.7370433333332214 0
521 0.2844477499996064 -0.6189689166668922 0
522 0.5815239999995754 -0.612966999999753 0
523 -0.4105775 -1.99101 0
524 0.09512439999992925 -2.28077699999996 0
525 -0.432349 -0.9721109999999999 0
526 -0.3596967500001624 -0.9304765833334264 0
527 -0.2775416499999533 -0.8833964833333066 0
528 -0.6491681666662918 -0.8455905000002188 0
529 -0.7214663333329466 -0.803402333333559 0
530 0.4136687999999982 -0.09835339999892442 0
531 0.4134959999999982 0.001682100001037384 0
532 -0.57690766666628 -0.8877566666668923 0
533 0.03113134999904763 0.7030050500005455 0
534 0.1036397666658857 0.6614738000004473 0
535 0.1047252999999895 -0.6643330333333394 0
536 0.1868803999997271 -0.6172529333334897 0
537 0.4128347999999996 0.3844370000002427 0
538 0.412662 0.4844725 0
539 0.3401535833331579 0.5260037500001005 0
540 0.1856424666660973 0.6145044000003261 0
541 0.2581508833329468 0.5729731500002214 0
542 0.3416877499997918 -0.528538416666786 0
543 0.41434 -0.486904 0
544 0.4138315999999986 -0.1925931999991758 0
545 0.4131703999999987 0.1901617000007718 0
546 0.4133331999999982 0.09592190000103198 0
547 0.2595326499999426 -0.5756185166666996 0
548 -0.05087135000093918 0.749974450000538 0
549 -0.7937441666668494 0.7594696666665609 0
550 0.4140043999999992 -0.292628699999488 0
551 -0.2053824666671982 0.8384751000003045 0
552 -0.123379766667424 0.7915057000004337 0
553 -0.7937268333331247 -0.7612361666667885 0
554 0.4129975999999992 0.2901972000004823 0
555 -0.432402 0.968507 0
556 -0.5046621666668432 0.9267043333332312 0
557 -0.5046094999998102 -0.9299448333334441 0
558 -0.1227342999999707 -0.7946819666666498 0
559 -0.05008205000020638 -0.7530475500001182 0
560 -0.2048894000001798 -0.8417620666667697 0
561 0.03207304999978877 -0.7059674500001211 0
562 0.4141671999999996 -0.3868684999997418 0
563 -0.27789088333366 0.8800063500001871 0
564 -0.5769430000003882 0.8848896666664421 0
565 -0.649203166667068 0.8430869999997678 0
566 -0.3598935833334761 0.9269757500000817 0
567 -0.7214840000003724 0.8012723333331179 0
568 0.4638315999999993 -0.1926259999996336 0
569 0.4640043999999999 -0.2926614999999457 0
570 0.6610199999999096 -0.6013568333332807 0
571 0.5982349999998644 -0.5648453333332544 0
572 0.4629976 0.2902969999999993 0
573 0.4628347999999995 0.3845810000002426 0
574 0.5340599999998328 0.5261684999999027 0
575 0.5971163333329631 0.5628658333331178 0
576 0.7315706666662896 0.6411151666664472 0
577 0.7946269999998143 0.6778124999998919 0
578 0.6601726666663081 0.599563166666458 0
579 0.4635059999999999 -0.004057999999915629 0
580 0.4636687999999999 -0.09834199999991328 0
581 0.7949149999997763 -0.6792211666665366 0
582 0.7321299999999347 -0.6427096666666287 0
583 0.4631703999999995 0.1902615000002887 0
584 0.4633331999999999 0.09597750000004618 0
585 0.462662 0.4846165 0
586 0.4641671999999996 -0.3869454999997418 0
587 0.46434 -0.486981 0
588 0.5354499999997513 -0.5283338333331886 0
589 -0.4572701000000003 1.494139899999098 0
590 -0.4573069000000003 1.399975899999124 0
591 -0.793764833333523 0.817221666666557 0
592 -0.7298361666670425 0.8542048333331159 0
593 -0.4571553000000002 1.788175299999514 0
594 -0.4571943000000003 1.688239599999302 0
595 -0.4572311000000004 1.594075599999024 0
596 -0.4573437000000002 1.305811899999367 0
597 -0.4570795 1.982275 0
598 -0.5294046666664765 2.024008333333223 0
599 -0.5297186666668432 0.9699738333332313 0
600 -0.593647333333683 0.9329906666664645 0
601 -0.4574195000000001 1.111712199999857 0
602 -0.4573827000000001 1.205876199999657 0
603 -0.4574585 1.0117765 0
604 -0.5933946666663653 2.06093333333316 0
605 -0.6657198333330017 2.102666666666475 0
606 -0.7297098333329709 2.139591666666457 0
607 -0.7936998333331127 2.176516666666539 0
608 -0.4571185000000001 1.882339299999705 0
609 -0.6575760000003628 0.8960074999997902 0
610 -0.4070795 1.98231 0
611 -0.4071185000000002 1.882374299999705 0
612 0.365029083333158 0.5693767500001005 0
613 0.2830399833333352 0.6163384499999989 0
614 0.4375375 0.5278455 0
615 -0.4072679000000003 1.499964599999054 0
616 -0.4073069000000004 1.400028899999128 0
617 0.649259333332956 2.343943333333551 0
618 0.7215126666662366 2.302140000000248 0
619 0.5803666666666565 0.6109688333333274 0
620 0.5089354999998328 0.5693974999999027 0
621 0.7937716666664392 2.260333333333465 0
622 0.09666099999895794 2.274539999999395 0
623 0.1781199999991332 2.321795999999497 0
624 -0.1804525666668013 0.8818173000000771 0
625 -0.09846346666659256 0.8348555999999576 0
626 -0.4072311000000004 1.594122599998994 0
627 -0.252960983333263 0.9233485499999597 0
628 -0.3349500833334761 0.9703102500000818 0
629 -0.4071553000000002 1.788216299999458 0
630 -0.4074195 1.111777199999857 0
631 -0.4073827000000001 1.205935199999714 0
632 -0.07125250000093897 2.177129999999456 0
633 0.01020649999906559 2.224385999999458 0
634 -0.3206250000001794 2.032463999999896 0
635 -0.2391660000003327 2.079719999999807 0
636 -0.1527115000006737 2.129873999999609 0
637 -0.4073437000000002 1.305870899999423 0
638 -0.02595505000010778 0.7933243500000617 0
639 0.5047469999997929 2.427553333333453 0
640 0.5770003333329514 2.385750000000221 0
641 0.432488 2.46936 0
642 0.3460334999996054 2.419205999999771 0
643 0.7231958333332753 0.6940921666666329 0
644 0.7945938333334611 0.735644166666741 0
645 0.2645744999993667 2.371949999999632 0
646 0.6517646666666379 0.6525208333333166 0
647 0.2105315666664858 0.6578697000001036 0
648 -0.4074585 1.0118415 0
649 0.1285424666667501 0.7048313999999523 0
650 -0.4071943000000003 1.688280599999246 0
651 0.05603404999991204 0.7463626500000504 0
652 0.4072616666666661 2.675093333333853 0
653 0.4073549999999998 2.596265000000188 0
654 -0.2641951999999944 2.123004000000003 0
655 -0.1777407000003354 2.173157999999805 0
656 -0.7937109999997389 2.234248333333183 0
657 0.3209994999996054 2.462485999999771 0
658 0.407454 2.51264 0
659 0.07162939999974963 2.317821999999855 0
660 -0.009828400000255338 2.270566999999851 0
661 -0.3456530000001794 2.075748999999896 0
662 -0.5044326666664765 2.067328333333224 0
663 -0.4321075 2.025595 0
664 -0.5767466666661573 2.109054999999706 0
665 0.4070693333333328 2.837546666667129 0
666 0.407162666666666 2.758718333333912 0
667 0.4069703333333331 2.921171666666884 0
668 -0.6490718333327936 2.150788333333022 0
669 -0.7213858333328517 2.192514999999722 0
670 0.2395416999997895 2.415230999999878 0
671 0.153087199999556 2.365076999999742 0
672 -0.09628290000014769 2.220412999999914 0
673 0.5936443333329529 2.43388500000022 0
674 0.6575756666662824 2.396896666666889 0
675 0.4572616666666662 2.675120000000419 0
676 0.4571626666666661 2.758745000000477 0
677 0.7298346666662869 2.35509000000022 0
678 0.7937659999997975 2.318101666666784 0
679 0.5297129999997929 2.470873333333453 0
680 0.4570693333333328 2.837560000000448 0
681 0.4569703333333331 2.921185000000202 0
682 0.4573549999999998 2.596305000000188 0
683 0.457454 2.51268 0
$EndNodes
$Elements
290
1 15 2 2 656696 33
2 15 2 1 659708 36
3 15 2 3 662719 38
4 15 2 4 691828 60
5 8 2 1 11666 33 35 278
6 8 2 4 11667 36 34 279
7 8 2 1 11671 33 39 295
8 8 2 2 11672 38 37 296
9 8 2 4 11676 40 41 312
10 8 2 4 11677 42 34 313
11 8 2 2 11681 43 45 329
12 8 2 2 11682 44 37 330
13 8 2 4 11686 40 47 346
14 8 2 4 11687 48 46 347
15 8 2 2 11691 49 51 363
16 8 2 2 11692 50 43 364
17 8 2 4 11696 52 54 380
18 8 2 4 11697 53 46 381
19 8 2 2 11701 55 56 397
20 8 2 2 11702 57 49 398
21 8 2 4 11706 52 59 414
22 8 2 3 11707 60 58 415
23 8 2 2 11710 55 62 426
24 8 2 3 11711 61 58 427
25 9 2 11 1335 73 72 64 77 428 429
26 9 2 11 1335 264 8 9 267 430 431
27 9 2 11 1335 74 64 65 432 69 433
28 9 2 11 1335 263 264 274 266 434 435
29 9 2 11 1335 36 34 273 279 436 275
30 9 2 11 1335 64 72 63 428 437 68
31 9 2 11 1335 63 9 8 438 430 67
32 9 2 11 1335 10 66 7 439 71 440
33 9 2 11 1335 269 268 259 271 441 442
34 9 2 11 1335 75 74 65 79 433 443
35 9 2 11 1335 33 269 259 444 442 262
36 9 2 11 1335 258 10 7 445 440 260
37 9 2 11 1335 268 10 258 270 445 446
38 9 2 11 1335 10 75 66 80 447 439
39 9 2 11 1335 273 263 274 448 435 276
40 9 2 11 1335 259 268 258 441 446 261
41 9 2 11 1335 75 65 66 443 70 447
42 9 2 11 1335 33 35 269 278 272 444
43 9 2 11 1335 34 263 273 265 448 436
44 9 2 11 1335 74 73 64 78 429 432
45 9 2 11 1335 72 9 63 76 438 437
46 9 2 11 1335 274 264 9 434 431 277
47 9 2 11 1336 290 11 258 292 449 450
48 9 2 11 1336 285 38 280 287 451 452
49 9 2 11 1336 259 290 258 453 450 261
50 9 2 11 1336 280 38 37 451 296 282
51 9 2 11 1336 281 285 280 454 452 283
52 9 2 11 1336 291 290 259 293 453 455
53 9 2 11 1336 258 11 7 449 456 260
54 9 2 11 1336 11 281 7 457 284 456
55 9 2 11 1336 33 291 259 458 455 262
56 9 2 11 1336 33 39 291 295 294 458
57 9 2 11 1336 11 286 281 289 459 457
58 9 2 11 1336 286 285 281 288 454 459
59 9 2 11 1337 13 4 297 460 299 461
60 9 2 11 1337 83 84 94 89 462 463
61 9 2 11 1337 82 83 93 88 464 465
62 9 2 11 1337 92 82 93 466 465 97
63 9 2 11 1337 81 82 92 87 466 467
64 9 2 11 1337 84 85 95 90 468 469
65 9 2 11 1337 263 264 308 266 470 471
66 9 2 11 1337 13 297 302 461 472 304
67 9 2 11 1337 85 4 13 91 460 473
68 9 2 11 1337 303 298 41 474 475 306
69 9 2 11 1337 298 40 41 301 312 475
70 9 2 11 1337 94 84 95 462 469 99
71 9 2 11 1337 302 297 303 472 476 305
72 9 2 11 1337 95 85 13 468 473 100
73 9 2 11 1337 297 298 303 300 474 476
74 9 2 11 1337 263 308 307 471 310 477
75 9 2 11 1337 12 81 92 478 467 96
76 9 2 11 1337 93 83 94 464 463 98
77 9 2 11 1337 42 263 307 479 477 309
78 9 2 11 1337 34 263 42 265 479 313
79 9 2 11 1337 264 8 12 267 480 481
80 9 2 11 1337 264 12 308 481 311 470
81 9 2 11 1337 8 81 12 86 478 480
82 9 2 11 1338 7 14 281 482 483 284
83 9 2 11 1338 66 65 112 70 484 485
84 9 2 11 1338 130 102 131 486 487 135
85 9 2 11 1338 14 66 112 488 485 116
86 9 2 11 1338 281 320 280 489 490 283
87 9 2 11 1338 15 81 121 491 492 125
88 9 2 11 1338 81 82 121 87 493 492
89 9 2 11 1338 130 101 102 494 107 486
90 9 2 11 1338 83 84 123 89 495 496
91 9 2 11 1338 131 102 103 487 108 497
92 9 2 11 1338 131 103 132 497 498 136
93 9 2 11 1338 132 104 133 499 500 137
94 9 2 11 1338 84 85 124 90 501 502
95 9 2 11 1338 123 84 124 495 502 128
96 9 2 11 1338 103 104 132 109 499 498
97 9 2 11 1338 325 324 315 327 503 504
98 9 2 11 1338 121 82 122 493 505 126
99 9 2 11 1338 65 64 114 69 506 507
100 9 2 11 1338 64 115 114 508 119 506
101 9 2 11 1338 63 15 115 509 120 510
102 9 2 11 1338 314 17 6 511 512 316
103 9 2 11 1338 105 6 17 111 512 513
104 9 2 11 1338 319 44 37 321 330 514
105 9 2 11 1338 14 320 281 323 489 483
106 9 2 11 1338 16 4 101 515 106 516
107 9 2 11 1338 16 101 130 516 494 134
108 9 2 11 1338 124 85 16 501 517 129
109 9 2 11 1338 320 319 280 322 518 490
110 9 2 11 1338 122 83 123 519 496 127
111 9 2 11 1338 45 325 43 328 520 329
112 9 2 11 1338 104 105 133 110 521 500
113 9 2 11 1338 315 324 314 503 522 317
114 9 2 11 1338 63 8 15 67 523 509
115 9 2 11 1338 64 63 115 68 510 508
116 9 2 11 1338 324 17 314 326 511 522
117 9 2 11 1338 133 105 17 521 513 138
118 9 2 11 1338 280 319 37 518 514 282
119 9 2 11 1338 65 114 113 507 118 524
120 9 2 11 1338 43 325 315 520 504 318
121 9 2 11 1338 85 4 16 91 515 517
122 9 2 11 1338 7 66 14 71 488 482
123 9 2 11 1338 8 81 15 86 491 523
124 9 2 11 1338 82 83 122 88 519 505
125 9 2 11 1338 112 65 113 484 524 117
126 9 2 11 1339 4 19 101 525 526 106
127 9 2 11 1339 19 162 101 167 527 526
128 9 2 11 1339 336 298 337 528 529 339
129 9 2 11 1339 152 179 151 530 531 156
130 9 2 11 1339 297 298 336 300 528 532
131 9 2 11 1339 170 141 142 533 147 534
132 9 2 11 1339 104 160 159 535 164 536
133 9 2 11 1339 150 21 5 537 538 154
134 9 2 11 1339 21 143 5 539 149 538
135 9 2 11 1339 171 142 143 540 148 541
136 9 2 11 1339 105 18 6 542 543 111
137 9 2 11 1339 180 179 152 184 530 544
138 9 2 11 1339 178 177 151 182 545 546
139 9 2 11 1339 104 159 105 536 547 110
140 9 2 11 1339 170 169 141 174 548 533
141 9 2 11 1339 48 46 341 347 549 343
142 9 2 11 1339 153 180 152 550 544 157
143 9 2 11 1339 169 168 140 173 551 552
144 9 2 11 1339 141 169 140 548 552 146
145 9 2 11 1339 337 40 47 553 346 340
146 9 2 11 1339 151 177 150 545 554 155
147 9 2 11 1339 332 1 20 335 555 556
148 9 2 11 1339 4 297 19 299 557 525
149 9 2 11 1339 102 161 103 558 559 108
150 9 2 11 1339 105 159 18 547 163 542
151 9 2 11 1339 101 162 102 527 560 107
152 9 2 11 1339 171 170 142 175 534 540
153 9 2 11 1339 162 161 102 166 558 560
154 9 2 11 1339 103 160 104 561 535 109
155 9 2 11 1339 18 180 153 185 550 562
156 9 2 11 1339 140 168 139 551 563 145
157 9 2 11 1339 331 332 342 334 564 565
158 9 2 11 1339 161 160 103 165 561 559
159 9 2 11 1339 298 40 337 301 553 529
160 9 2 11 1339 168 20 139 172 566 563
161 9 2 11 1339 342 332 20 564 556 345
162 9 2 11 1339 21 171 143 176 541 539
163 9 2 11 1339 179 178 151 183 546 531
164 9 2 11 1339 6 18 153 543 562 158
165 9 2 11 1339 177 21 150 181 537 554
166 9 2 11 1339 46 331 341 333 567 549
167 9 2 11 1339 19 297 336 557 532 338
168 9 2 11 1339 341 331 342 567 565 344
169 9 2 11 1339 139 20 1 566 555 144
170 9 2 11 1340 153 152 186 157 568 569
171 9 2 11 1340 353 314 354 570 571 356
172 9 2 11 1340 189 150 23 572 573 194
173 9 2 11 1340 23 348 358 574 575 360
174 9 2 11 1340 359 349 51 576 577 362
175 9 2 11 1340 358 348 359 575 578 361
176 9 2 11 1340 349 49 51 352 363 577
177 9 2 11 1340 152 188 187 579 192 580
178 9 2 11 1340 50 315 353 581 582 355
179 9 2 11 1340 186 152 187 568 580 191
180 9 2 11 1340 151 150 189 155 572 583
181 9 2 11 1340 43 315 50 318 581 364
182 9 2 11 1340 152 151 188 156 584 579
183 9 2 11 1340 188 151 189 584 583 193
184 9 2 11 1340 150 5 23 154 585 573
185 9 2 11 1340 315 314 353 317 570 582
186 9 2 11 1340 348 349 359 351 576 578
187 9 2 11 1340 23 5 348 585 350 574
188 9 2 11 1340 22 153 186 586 569 190
189 9 2 11 1340 314 6 22 316 587 588
190 9 2 11 1340 314 22 354 588 357 571
191 9 2 11 1340 6 153 22 158 586 587
192 9 2 11 1341 196 206 205 589 210 590
193 9 2 11 1341 53 331 370 591 592 372
194 9 2 11 1341 197 198 207 202 593 594
195 9 2 11 1341 196 197 206 201 595 589
196 9 2 11 1341 204 196 205 596 590 209
197 9 2 11 1341 25 2 365 597 367 598
198 9 2 11 1341 332 24 371 599 374 600
199 9 2 11 1341 24 195 204 601 602 208
200 9 2 11 1341 332 1 24 335 603 599
201 9 2 11 1341 1 195 24 199 601 603
202 9 2 11 1341 25 365 375 598 604 377
203 9 2 11 1341 375 365 366 604 368 605
204 9 2 11 1341 376 366 54 606 607 379
205 9 2 11 1341 366 52 54 369 380 607
206 9 2 11 1341 375 366 376 605 606 378
207 9 2 11 1341 46 331 53 333 591 381
208 9 2 11 1341 207 198 25 593 608 212
209 9 2 11 1341 331 332 370 334 609 592
210 9 2 11 1341 206 197 207 595 594 211
211 9 2 11 1341 198 2 25 203 597 608
212 9 2 11 1341 370 332 371 609 600 373
213 9 2 11 1341 195 196 204 200 596 602
214 9 2 11 1342 198 2 28 203 610 611
215 9 2 11 1342 26 143 222 612 613 226
216 9 2 11 1342 5 143 26 149 612 614
217 9 2 11 1342 196 197 232 201 615 616
218 9 2 11 1342 388 387 383 390 617 618
219 9 2 11 1342 26 393 348 396 619 620
220 9 2 11 1342 55 388 383 621 618 386
221 9 2 11 1342 242 215 243 622 623 247
222 9 2 11 1342 140 225 224 624 229 625
223 9 2 11 1342 232 197 233 615 626 237
224 9 2 11 1342 140 139 225 145 627 624
225 9 2 11 1342 139 27 225 628 230 627
226 9 2 11 1342 234 198 28 629 611 239
227 9 2 11 1342 27 195 231 630 631 235
228 9 2 11 1342 241 214 242 632 633 246
229 9 2 11 1342 28 2 213 610 217 634
230 9 2 11 1342 240 213 214 635 218 636
231 9 2 11 1342 195 196 231 200 637 631
232 9 2 11 1342 141 140 224 146 625 638
233 9 2 11 1342 5 26 348 614 620 350
234 9 2 11 1342 387 29 382 389 639 640
235 9 2 11 1342 216 3 29 221 641 642
236 9 2 11 1342 349 392 49 643 644 352
237 9 2 11 1342 243 216 29 645 642 248
238 9 2 11 1342 348 393 349 619 646 351
239 9 2 11 1342 143 142 222 148 647 613
240 9 2 11 1342 139 1 27 144 648 628
241 9 2 11 1342 222 142 223 647 649 227
242 9 2 11 1342 233 197 234 626 650 238
243 9 2 11 1342 197 198 234 202 629 650
244 9 2 11 1342 382 29 3 639 641 384
245 9 2 11 1342 392 57 49 394 398 644
246 9 2 11 1342 142 141 223 147 651 649
247 9 2 11 1342 223 141 224 651 638 228
248 9 2 11 1342 383 387 382 617 640 385
249 9 2 11 1342 215 216 243 220 645 623
250 9 2 11 1342 28 213 240 634 635 244
251 9 2 11 1342 240 214 241 636 632 245
252 9 2 11 1342 1 195 27 199 630 648
253 9 2 11 1342 56 388 55 391 621 397
254 9 2 11 1342 231 196 232 637 616 236
255 9 2 11 1342 393 392 349 395 643 646
256 9 2 11 1342 214 215 242 219 622 633
257 9 2 11 1343 30 410 400 413 652 653
258 9 2 11 1343 213 252 214 654 655 218
259 9 2 11 1343 405 52 59 656 414 408
260 9 2 11 1343 216 30 3 657 658 221
261 9 2 11 1343 251 250 215 255 659 660
262 9 2 11 1343 31 252 213 257 654 661
263 9 2 11 1343 2 365 31 367 662 663
264 9 2 11 1343 31 365 404 662 664 406
265 9 2 11 1343 410 409 399 412 665 666
266 9 2 11 1343 3 30 400 658 653 403
267 9 2 11 1343 399 409 58 665 667 401
268 9 2 11 1343 365 366 404 368 668 664
269 9 2 11 1343 400 410 399 652 666 402
270 9 2 11 1343 404 366 405 668 669 407
271 9 2 11 1343 216 249 30 670 253 657
272 9 2 11 1343 215 250 249 659 254 671
273 9 2 11 1343 409 60 58 411 415 667
274 9 2 11 1343 366 52 405 369 656 669
275 9 2 11 1343 214 251 215 672 660 219
276 9 2 11 1343 2 31 213 663 661 217
277 9 2 11 1343 252 251 214 256 672 655
278 9 2 11 1343 215 249 216 671 670 220
279 9 2 11 1344 422 421 382 424 673 674
280 9 2 11 1344 400 417 399 675 676 402
281 9 2 11 1344 62 422 383 425 677 678
282 9 2 11 1344 382 421 32 673 423 679
283 9 2 11 1344 399 416 58 680 681 401
284 9 2 11 1344 55 62 383 426 678 386
285 9 2 11 1344 32 417 400 420 675 682
286 9 2 11 1344 383 422 382 677 674 385
287 9 2 11 1344 382 32 3 679 683 384
288 9 2 11 1344 417 416 399 419 680 676
289 9 2 11 1344 416 61 58 418 427 681
290 9 2 11 1344 3 32 400 683 682 403
$EndElements
