$MeshFormat
2.2 0 8
$EndMeshFormat
$Nodes
683
1 0.43543 0.5022 0
2 0.427783 2.503 0
3 -0.435911 -2.00121 0
4 -0.43015 -0.992887 0
5 0.433524 -0.496238 0
6 -0.438526 2.00674 0
7 -0.434313 1.00198 0
8 0.430895 -2.50173 0
9 -0.436054 -2.05886 0
10 0.381022 -2.53067 0
11 0.481022 -2.53045 0
12 -0.480315 -1.02167 0
13 -0.485745 -1.97208 0
14 0.430836 -2.44396 0
15 -0.385746 -1.97244 0
16 -0.380315 -1.02191 0
17 0.433461 -0.553952 0
18 -0.430111 -0.935187 0
19 0.383579 -0.467281 0
20 0.385375 0.473296 0
21 -0.434198 0.9442469999999999 0
22 0.485375 0.473555 0
23 0.483579 -0.467417 0
24 -0.488404 1.97759 0
25 -0.484434 1.03071 0
26 -0.384434 1.03099 0
27 0.43515 0.560028 0
28 0.427467 2.4452 0
29 -0.388404 1.97783 0
30 0.377985 2.5321 0
31 -0.438614 2.06431 0
32 0.477983 2.5315 0
33 -0.866025 -2.24674 0
34 0.433085 -3 0
35 -0.866025 -2.30431 0
36 0.383084 -3 0
37 0.866025 -2.24929 0
38 0.483085 -3 0
39 0.866025 -2.30709 0
40 -0.866025 -0.741455 0
41 -0.866025 -0.799177 0
42 -0.866025 -2.18917 0
43 0.866025 -0.7462029999999999 0
44 0.866025 -0.803953 0
45 0.866025 -2.19148 0
46 -0.866025 0.75161 0
47 -0.866025 -0.683733 0
48 -0.866025 0.69381 0
49 0.866025 0.7552179999999999 0
50 0.866025 0.697225 0
51 0.866025 -0.688453 0
52 -0.866025 2.24989 0
53 -0.866025 2.19237 0
54 -0.866025 0.80941 0
55 0.866025 2.24555 0
56 0.866025 0.813211 0
57 0.866025 2.18756 0
58 0.431252 3 0
59 0.381251 3 0
60 -0.866025 2.30741 0
61 0.481253 3 0
62 0.866025 2.30354 0
63 -0.2625498000004558 -2.101313999999737 0
64 -0.08918860000096668 -2.201417999999442 0
65 0.08417259999903354 -2.301521999999442 0
66 0.2575337999995337 -2.401625999999731 0
67 -0.3492304000001847 -2.051261999999893 0
68 -0.1758692000006846 -2.151365999999605 0
69 -0.002508000001138488 -2.251469999999343 0
70 0.1708531999993945 -2.35157399999965 0
71 0.3442143999997297 -2.451677999999844 0
72 -0.2726388000002864 -2.153221999999835 0
73 -0.1092236000008336 -2.247583999999519 0
74 0.05419159999916745 -2.34194599999952 0
75 0.2176067999992895 -2.43630799999959 0
76 -0.3543464000001554 -2.106040999999911 0
77 -0.1909312000005374 -2.20040299999969 0
78 -0.02751600000102572 -2.294764999999408 0
79 0.1358991999993277 -2.389126999999612 0
80 0.2993143999996457 -2.483488999999795 0
81 -0.4349508333333347 -1.833156166666912 0
82 -0.4339906666666697 -1.665102333333868 0
83 -0.4330305000000064 -1.497048500001127 0
84 -0.4320703333333364 -1.328994666667201 0
85 -0.43111016666667 -1.160940833333926 0
86 -0.4354309166666677 -1.917183083333508 0
87 -0.4344707500000015 -1.749129250000272 0
88 -0.433510583333337 -1.581075416667303 0
89 -0.4325504166666711 -1.413021583334109 0
90 -0.4315902500000021 -1.244967750000372 0
91 -0.4306300833333348 -1.076913916666924 0
92 -0.4846590000000022 -1.781998000000391 0
93 -0.4835730000000062 -1.591916000001085 0
94 -0.4824870000000057 -1.401834000001007 0
95 -0.4814010000000024 -1.211752000000417 0
96 -0.4852020000000007 -1.877039000000128 0
97 -0.4841160000000039 -1.686957000000677 0
98 -0.4830300000000055 -1.49687500000097 0
99 -0.481944000000004 -1.306793000000712 0
100 -0.4808580000000012 -1.116711000000207 0
101 -0.2574152000003715 -0.8935572000002137 0
102 -0.08468040000087396 -0.7942274000005025 0
103 0.08805439999916226 -0.6948976000004817 0
104 0.2607891999995829 -0.5955678000002399 0
105 -0.3437826000001594 -0.9432221000000917 0
106 -0.1710478000006437 -0.8438923000003702 0
107 0.001686999998798511 -0.7445625000006909 0
108 0.1744217999992622 -0.6452327000004243 0
109 0.3471565999998145 -0.5459029000001068 0
110 0.267519600000348 -2.349656000000201 0
111 0.1042032000007743 -2.255352000000447 0
112 -0.05911319999910997 -2.161048000000514 0
113 -0.2224295999995545 -2.066744000000257 0
114 0.3491778000000547 -2.396808000000032 0
115 0.1858614000007041 -2.302504000000407 0
116 0.02254500000099541 -2.208200000000575 0
117 -0.1407713999993322 -2.113896000000385 0
118 -0.3040877999997188 -2.019592000000162 0
119 -0.3846598000000027 -1.782334000000477 0
120 -0.3835736000000061 -1.592228000001076 0
121 -0.3824874000000056 -1.402122000000981 0
122 -0.3814012000000024 -1.212016000000417 0
123 -0.3852029000000014 -1.877387000000253 0
124 -0.3841167000000047 -1.687281000000826 0
125 -0.3830305000000079 -1.497175000001388 0
126 -0.3819443000000042 -1.30706900000074 0
127 -0.3808581000000024 -1.116963000000411 0
128 -0.2175598000003502 -0.9283184000002014 0
129 -0.05480460000086057 -0.8347268000004949 0
130 0.1079505999991489 -0.7411352000004894 0
131 0.2707057999995481 -0.6475436000002599 0
132 -0.298937400000098 -0.9751142000000564 0
133 -0.1361822000005936 -0.8815226000003413 0
134 0.0265729999988914 -0.7879310000006375 0
135 0.1893281999993547 -0.6943394000003711 0
136 0.3520833999997773 -0.6007478000001281 0
137 0.4339051999999993 -0.2965504000003987 0
138 0.434286399999998 -0.09686280000103803 0
139 0.434667599999998 0.1028247999989554 0
140 0.435048799999999 0.3025123999994584 0
141 0.4337145999999998 -0.3963942000001113 0
142 0.4340957999999988 -0.1967066000006666 0
143 0.4344769999999974 0.002980999998639156 0
144 0.4348581999999985 0.2026685999992373 0
145 0.4352393999999994 0.4023561999996975 0
146 0.2904728333336005 0.5854966666665131 0
147 0.1455156666674118 0.6687933333329051 0
148 0.0005585000011939512 0.752089999999314 0
149 -0.144398666665749 0.8353866666661394 0
150 -0.289355833333202 0.918683333333258 0
151 0.3629514166668168 0.5438483333332471 0
152 0.217994250000535 0.6271449999996925 0
153 0.07303708333427583 0.7104416666661251 0
154 -0.07192008333221389 0.7937383333326902 0
155 -0.2168772499995 0.8770349999997127 0
156 -0.3618344166665928 0.9603316666666244 0
157 -0.2673730000004133 -0.8416058000002377 0
158 -0.1046350000008623 -0.7480246000004959 0
159 0.05810299999911595 -0.6544434000005084 0
160 0.2208409999995357 -0.560862200000267 0
161 -0.3487420000001527 -0.8883964000000878 0
162 -0.1860040000006693 -0.7948152000003849 0
163 -0.02326600000109202 -0.701234000000628 0
164 0.1394719999993519 -0.6076528000003727 0
165 0.3022099999998099 -0.5140716000001093 0
166 0.3839381999999991 -0.2791656000004791 0
167 0.384297399999998 -0.09105020000104475 0
168 0.384656599999998 0.09706519999892466 0
169 0.3850157999999991 0.2851805999995363 0
170 0.3837585999999997 -0.3732233000001694 0
171 0.3841177999999986 -0.185107900000741 0
172 0.3844769999999976 0.003007499998748608 0
173 0.3848361999999985 0.1911228999992 0
174 0.3851953999999996 0.3792382999997663 0
175 0.2214604000002805 0.5674861999998388 0
176 0.0575458000007828 0.6616763999995502 0
177 -0.1063687999991155 0.7558665999994918 0
178 -0.2702833999995835 0.8500567999997606 0
179 0.303417700000096 0.5203910999999448 0
180 0.1395031000005761 0.6145812999996689 0
181 -0.02441149999891762 0.7087714999993781 0
182 -0.1883260999993525 0.8029616999996279 0
183 -0.3522406999997848 0.8971518999998763 0
184 0.4850158000000008 0.2853606000004055 0
185 0.4846566000000018 0.09716620000094123 0
186 0.4842974000000019 -0.09102819999901529 0
187 0.483938200000001 -0.2792225999994856 0
188 0.4851954000000003 0.3794578000001548 0
189 0.4848362000000013 0.191263400000699 0
190 0.4844770000000022 0.003069000001169164 0
191 0.4841178000000014 -0.1851253999992503 0
192 0.4837586000000004 -0.3733197999997893 0
193 -0.4378238333333348 1.839280000000347 0
194 -0.4371216666666702 1.671820000000839 0
195 -0.4364195000000057 1.504360000001345 0
196 -0.4357173333333371 1.336900000000882 0
197 -0.4350151666666686 1.169440000000463 0
198 -0.4381749166666669 1.923010000000055 0
199 -0.4374727500000025 1.755550000000578 0
200 -0.4367705833333379 1.588090000001092 0
201 -0.4360684166666718 1.42063000000122 0
202 -0.4353662500000031 1.253170000000741 0
203 -0.4346640833333349 1.085710000000366 0
204 -0.4876100000000019 1.788214000000443 0
205 -0.486816000000004 1.598838000000963 0
206 -0.486022000000004 1.409462000000946 0
207 -0.4852280000000016 1.220086000000391 0
208 -0.488007000000001 1.882902000000248 0
209 -0.4872130000000029 1.693526000000702 0
210 -0.486419000000005 1.5041500000012 0
211 -0.4856250000000031 1.314774000000743 0
212 -0.4848310000000003 1.125398000000075 0
213 0.2545212000004333 2.403748000000248 0
214 0.0812594000009641 2.304496000000552 0
215 -0.09200239999905679 2.20524400000054 0
216 -0.2652641999995493 2.105992000000258 0
217 0.3411521000001463 2.453374000000084 0
218 0.1678903000005966 2.354122000000342 0
219 -0.005371499998824969 2.254870000000673 0
220 -0.1786332999991803 2.15561800000047 0
221 -0.351895099999571 2.056366000000246 0
222 -0.2205172000004059 0.9367976000002333 0
223 -0.05660040000071409 0.8426052000004104 0
224 0.107316399999264 0.7484128000004229 0
225 0.2712331999996234 0.6542204000002163 0
226 -0.3024756000002335 0.9838938000001343 0
227 -0.1385588000005062 0.889701400000291 0
228 0.02535799999906979 0.7955090000005346 0
229 0.1892747999994166 0.7013166000003352 0
230 0.3531915999998058 0.6071242000001116 0
231 0.2642928000002767 2.351726000000158 0
232 0.1011186000007663 2.258252000000439 0
233 -0.06205559999925669 2.164778000000426 0
234 -0.2252297999995868 2.071304000000237 0
235 0.3458799000000258 2.398463000000015 0
236 0.1827057000004761 2.304989000000273 0
237 0.019531500000876 2.211515000000502 0
238 -0.1436426999994072 2.11804100000034 0
239 -0.3068168999997014 2.024567000000171 0
240 -0.3876100000000018 1.788462000000417 0
241 -0.3868160000000042 1.599094000001007 0
242 -0.3860220000000045 1.409726000001076 0
243 -0.3852280000000022 1.220358000000538 0
244 -0.3880070000000009 1.883146000000208 0
245 -0.3872130000000027 1.693778000000632 0
246 -0.3864190000000063 1.504410000001493 0
247 -0.3856250000000024 1.315042000000566 0
248 -0.3848310000000019 1.125674000000444 0
249 0.214665200000349 2.4385420000002 0
250 0.05134540000084564 2.344984000000484 0
251 -0.111974399999101 2.251426000000515 0
252 -0.2752941999994671 2.157868000000305 0
253 0.2963251000002114 2.485321000000121 0
254 0.133005300000621 2.391763000000355 0
255 -0.03031449999889629 2.298205000000632 0
256 -0.1936342999990969 2.204647000000517 0
257 -0.3569540999997979 2.111089000000116 0
258 -0.7226536666671193 -2.164896666666925 0
259 -0.5792823333337815 -2.083053333333589 0
260 -0.7943393333335398 -2.205818333333451 0
261 -0.6509680000005709 -2.123975000000326 0
262 -0.5075966666669665 -2.042131666666838 0
263 0.4316249999999979 -2.667819999999538 0
264 0.4323549999999975 -2.833909999999451 0
265 0.4312599999999996 -2.584774999999907 0
266 0.431989999999997 -2.750864999999328 0
267 0.4327200000000001 -2.91695500000002 0
268 -0.7227013333337008 -2.222493333333543 0
269 -0.5793776666669814 -2.140676666666847 0
270 -0.7943631666672154 -2.26340166666698 0
271 -0.6510395000006381 -2.181585000000364 0
272 -0.507715833333506 -2.099768333333432 0
273 0.3817093333333312 -2.687113333332842 0
274 0.3823966666666643 -2.843556666666117 0
275 0.3813656666666656 -2.608891666666421 0
276 0.3820529999999976 -2.765334999999459 0
277 0.3827403333333307 -2.921778333332748 0
278 0.4080845000001925 -3 0
279 -0.866025 -2.275525 0
280 0.5759383333328205 -2.417583333333631 0
281 0.7209816666661285 -2.333436666666979 0
282 0.5034166666663933 -2.459656666666825 0
283 0.6484599999993224 -2.375510000000393 0
284 0.793503333333081 -2.29136333333348 0
285 0.4823973333333342 -2.843483333333536 0
286 0.4817096666666687 -2.686966666667129 0
287 0.482741166666668 -2.921741666666971 0
288 0.4820535000000011 -2.765225000000259 0
289 0.4813658333333323 -2.608708333333088 0
290 0.6093563333329055 -2.455996666666915 0
291 0.73769066666635 -2.381543333333517 0
292 0.5451891666665094 -2.493223333333425 0
293 0.6735234999994426 -2.418770000000324 0
294 0.8018578333337106 -2.344316666666448 0
295 0.866025 -2.27819 0
296 0.458085 -3 0
297 -0.5754416666662987 -0.9090763333335456 0
298 -0.7207333333329471 -0.8252656666668894 0
299 -0.5027958333331393 -0.9509816666667786 0
300 -0.6480874999994459 -0.8671710000003197 0
301 -0.7933791666664572 -0.7833603333334541 0
302 -0.6088849999999275 -0.9475056666667085 0
303 -0.7374549999998308 -0.873341333333431 0
304 -0.5446000000001225 -0.9845878333332627 0
305 -0.6731699999998051 -0.9104235000001125 0
306 -0.801739999999993 -0.8362591666666708 0
307 -0.7392650000003149 -2.116806666666847 0
308 -0.6125050000002558 -2.044443333333479 0
309 -0.8026450000002398 -2.15298833333347 0
310 -0.6758850000005936 -2.080625000000339 0
311 -0.549125000000075 -2.008261666666709 0
312 -0.866025 -0.770316 0
313 -0.866025 -2.217955 0
314 0.5776909999996416 -0.5795596666664595 0
315 0.7218579999995843 -0.6628813333330931 0
316 0.5056074999999194 -0.5378988333332867 0
317 0.649774499999443 -0.621220499999678 0
318 0.7939414999997879 -0.704542166666544 0
319 0.5776489999996328 -0.6372856666664545 0
320 0.7218369999996024 -0.7206193333331035 0
321 0.5055550000000115 -0.59561883333334 0
322 0.6497429999995618 -0.6789524999997467 0
323 0.7939309999995685 -0.7622861666664174 0
324 0.720962000000299 -2.275639999999826 0
325 0.5758990000004679 -2.359799999999729 0
326 0.793493500000147 -2.233559999999915 0
327 0.6484305000006051 -2.317719999999649 0
328 0.5033675000003612 -2.401879999999791 0
329 0.866025 -0.7750779999999999 0
330 0.866025 -2.220385 0
331 -0.5782169999996336 0.9185233333335459 0
332 -0.7221209999997019 0.8350666666668396 0
333 -0.5062649999997668 0.960251666666802 0
334 -0.6501689999994836 0.8767950000002995 0
335 -0.7940729999999929 0.7933383333333375 0
336 -0.7207203333336918 -0.7675509999997933 0
337 -0.5754156666670671 -0.851368999999769 0
338 -0.7933726666668496 -0.7256419999998945 0
339 -0.6480680000006354 -0.8094599999996335 0
340 -0.5027633333335697 -0.8932779999998637 0
341 -0.5781403333329889 0.8607680000001997 0
342 -0.7220826666663278 0.7772890000001966 0
343 -0.5061691666665131 0.9025075000000889 0
344 -0.6501114999995214 0.8190285000002775 0
345 -0.794053833332961 0.7355495000002159 0
346 -0.866025 0.7227100000001868 0
347 -0.866025 -0.7125940000001038 0
348 0.722493333333625 0.6708786666668379 0
349 0.5789616666670399 0.5865393333335526 0
350 0.7942591666669219 0.7130483333334832 0
351 0.6507275000006414 0.6287090000003768 0
352 0.5071958333336332 0.5443696666668428 0
353 0.7391416666670374 0.6226683333335512 0
354 0.6122583333336948 0.548111666666879 0
355 0.8025833333334227 0.6599466666667191 0
356 0.6757000000005009 0.5853900000002943 0
357 0.5488166666668324 0.5108333333334307 0
358 0.6110609999997167 -0.541095666666503 0
359 0.7385429999996712 -0.6147743333331432 0
360 0.5473199999999768 -0.50425633333332 0
361 0.674801999999417 -0.577934999999663 0
362 0.8022839999995038 -0.6516136666663799 0
363 0.866025 -0.717328 0
364 0.866025 0.7262215 0
365 -0.7235253333335614 2.16884000000013 0
366 -0.5810256666669742 2.087790000000175 0
367 -0.7947751666667883 2.209365000000069 0
368 -0.6522755000003407 2.128315000000194 0
369 -0.5097758333335811 2.047265000000141 0
370 -0.7401513333335369 2.120776666666782 0
371 -0.6142776666669687 2.049183333333505 0
372 -0.8030881666668369 2.15657333333343 0
373 -0.6772145000002219 2.084980000000126 0
374 -0.551340833333177 2.013386666666578 0
375 -0.6116309999997251 0.9569433333334928 0
376 -0.7388279999997795 0.8831766666667945 0
377 -0.5480324999999202 0.9938266666667129 0
378 -0.6752294999996994 0.9200600000001743 0
379 -0.8024264999998121 0.8462933333334424 0
380 -0.866025 0.7805099999998132 0
381 -0.866025 2.22113 0
382 0.7199443333335696 2.331366666666528 0
383 0.5738636666670436 2.417183333333112 0
384 0.7929846666671729 2.288458333333036 0
385 0.6469040000005259 2.374274999999691 0
386 0.5008233333333053 2.460091666666683 0
387 0.5787749999995959 0.6444223333330958 0
388 0.7223999999996401 0.7288166666664552 0
389 0.5069624999998001 0.6022251666665492 0
390 0.6505874999995818 0.6866194999997542 0
391 0.7942124999998157 0.771013833333225 0
392 0.7198390000004621 2.273439999999729 0
393 0.5736530000004354 2.359319999999744 0
394 0.7929320000001967 2.230499999999884 0
395 0.6467460000008014 2.316379999999529 0
396 0.5005600000001864 2.40225999999989 0
397 0.866025 0.7842144999997949 0
398 0.866025 2.216555 0
399 0.4300956666666731 2.834333333334259 0
400 0.4289393333333366 2.668666666667129 0
401 0.4306738333333356 2.917166666666991 0
402 0.4295175000000066 2.751500000000943 0
403 0.4283611666666666 2.585833333333316 0
404 0.3801623333333364 2.844033333333767 0
405 0.3790736666666713 2.688066666667331 0
406 0.3807066666666618 2.922016666665967 0
407 0.3796180000000062 2.766050000000889 0
408 0.3785293333333374 2.610083333333921 0
409 -0.5810843333329695 2.145343333333126 0
410 -0.7235546666662939 2.226376666666455 0
411 -0.5098491666664696 2.104826666666554 0
412 -0.6523194999995334 2.185859999999734 0
413 -0.794789833333428 2.266893333333387 0
414 -0.866025 2.27865 0
415 0.406251500000076 3 0
416 0.4790729999999976 2.68766666666632 0
417 0.480162999999996 2.843833333332755 0
418 0.4785280000000005 2.609583333333403 0
419 0.4796179999999916 2.76574999999879 0
420 0.480707999999997 2.921916666666242 0
421 0.7366776666669161 2.37952666666652 0
422 0.6073303333337252 2.455513333333103 0
423 0.8013513333333895 2.3415333333333 0
424 0.6720040000005216 2.417519999999694 0
425 0.5426566666666033 2.493506666666704 0
426 0.4562525 3 0
427 0.866025 2.274545 0
428 0.4063234999999989 -2.599244999999769 0
429 0.4059585 -2.5162 0
430 -0.5793300000003815 -2.111865000000218 0
431 -0.6510156666670504 -2.152786666666886 0
432 -0.4359825 -2.030035 0
433 -0.5076681666668907 -2.070956666666794 0
434 -0.1809137000006265 -2.177319999999638 0
435 -0.09920610000090013 -2.22450099999948 0
436 -0.7943631666668505 -2.234616666666772 0
437 -0.3493019000002279 -2.080086999999868 0
438 -0.2675943000003711 -2.127267999999786 0
439 0.4077408333333321 -2.921778333333059 0
440 0.4070321666666644 -2.760511666666146 0
441 0.4066671666666646 -2.67746666666619 0
442 0.06918209999910049 -2.321733999999481 0
443 0.1508896999991615 -2.368914999999516 0
444 0.4073758333333309 -2.838733333332784 0
445 0.3192778999997669 -2.466147999999865 0
446 0.2375702999994116 -2.41896699999966 0
447 -0.72267750000041 -2.193695000000234 0
448 -0.01749850000089961 -2.271681999999481 0
449 0.4559585 -2.51609 0
450 0.5284801666664103 -2.474016666666815 0
451 0.456323499999999 -2.599134999999769 0
452 0.7293361666662392 -2.357490000000248 0
453 0.7935033333330643 -2.320263333333489 0
454 0.592647333332863 -2.436790000000273 0
455 0.6568144999995853 -2.399563333333574 0
456 0.4566673333333333 -2.677393333333333 0
457 0.4570323333333332 -2.76043833333329 0
458 0.4573761666666659 -2.838696666666493 0
459 0.4577411666666671 -2.921741666666768 0
460 -0.4552325 -1.0072785 0
461 -0.455712583333335 -1.091305416666963 0
462 -0.459324833333336 -1.723550166667129 0
463 -0.4598049166666685 -1.807577083333651 0
464 -0.4583017500000063 -1.544482250001106 0
465 -0.4587818333333379 -1.628509166667476 0
466 -0.4572786666666711 -1.365414333334104 0
467 -0.4577587500000061 -1.449441250001067 0
468 -0.4562555833333362 -1.186346416667171 0
469 -0.4567356666666694 -1.270373333333809 0
470 -0.5921633333331131 -0.9282910000001271 0
471 -0.6648091666664373 -0.886385666666799 0
472 -0.7933791666664736 -0.8122213333334447 0
473 -0.7290941666663889 -0.8493035000001602 0
474 -0.5278783333331494 -0.9653731666667729 0
475 -0.5958936666670187 -2.063748333333534 0
476 -0.6675793333336875 -2.104670000000202 0
477 -0.7309593333337171 -2.140851666666886 0
478 -0.4603479166666674 -1.902618083333456 0
479 -0.7943393333335597 -2.177033333333462 0
480 -0.460828 -1.986645 0
481 -0.5325136666668908 -2.027566666666795 0
482 0.3441848999997669 -2.422792999999865 0
483 0.2625266999999408 -2.375640999999966 0
484 0.5759186666666443 -2.38869166666668 0
485 0.5033871666664103 -2.430771666666815 0
486 0.7939309999998012 -0.7334111666665517 0
487 0.7218474999995934 -0.6917503333330983 0
488 -0.4093252333333362 -1.723718166667173 0
489 -0.4087821333333379 -1.628665166667472 0
490 -0.06974250000086726 -0.8144771000004987 0
491 0.01163509999913748 -0.7676813000004959 0
492 0.6484403333332982 -2.346618333333354 0
493 -0.407278866666671 -1.365558333334091 0
494 -0.4067357666666694 -1.270505333333809 0
495 0.7209718333332138 -2.304538333333403 0
496 0.7934935000001495 -2.262464999999913 0
497 -0.1511201000006121 -0.8612729000003519 0
498 -0.3188651000001858 -0.9577336000001069 0
499 -0.2374875000003609 -0.9109378000002075 0
500 -0.4103484166666673 -1.902798083333456 0
501 -0.4108285 -1.986825 0
502 -0.4062556833333362 -1.186478416667171 0
503 0.4308655 -2.472845 0
504 -0.4098053166666688 -1.807745083333695 0
505 -0.405712583333335 -1.091425416666963 0
506 -0.3241479000002279 -2.036876999999868 0
507 -0.4083020500000063 -1.544638250001102 0
508 -0.407758950000006 -1.449585250001054 0
509 0.09800249999915558 -0.7180164000004856 0
510 0.1793800999993552 -0.6712206000003709 0
511 -0.07415090000003832 -2.181232999999978 0
512 0.01252969999996179 -2.231284999999978 0
513 0.5055759999998208 -0.5667558333332298 0
514 0.4334925 -0.525095 0
515 0.6497534999996086 -0.6500834999997738 0
516 0.1758460999996908 -2.325588999999821 0
517 0.09418789999990393 -2.278436999999944 0
518 -0.2424897000000051 -2.084028999999997 0
519 0.3471250999997915 -0.57475990000012 0
520 -0.1558091000002606 -2.134080999999849 0
521 0.5776699999996372 -0.6084226666664569 0
522 0.2657474999995655 -0.6215557000002498 0
523 -0.4052325 -1.0073985 0
524 -0.7940538333331639 0.7644495000000984 0
525 0.2408150999995593 -0.5782150000002535 0
526 0.154447699999349 -0.6278799000003743 0
527 0.3221840999997915 -0.5314244000001199 0
528 -0.3437631000001858 -0.9143721000001068 0
529 -0.4301305 -0.964037 0
530 0.4087420999999997 -0.3819157000001994 0
531 0.4085515 -0.4817595 0
532 -0.5062074999998167 0.931385166666773 0
533 -0.4342555 0.9731135 0
534 -0.6501306666663453 0.8479173333335197 0
535 -0.7221018333330149 0.8061778333335181 0
536 0.409471499999998 0.0001011999989433132 0
537 0.409291899999998 -0.09395650000104139 0
538 0.0730786999991391 -0.6746705000004951 0
539 0.1015307333340973 0.6652348666662277 0
540 0.02905215000098837 0.7068831999994321 0
541 0.4091122999999985 -0.1880142000007586 0
542 0.4089216999999992 -0.2878580000004389 0
543 0.410032299999999 0.2938464999994974 0
544 0.4098416999999985 0.1940026999992459 0
545 -0.1253837333324322 0.7956266333328156 0
546 -0.2073410333326662 0.84272173333295 0
547 0.409662099999998 0.09994499999894002 0
548 -0.05290514999896079 0.7539782999994029 0
549 -0.361776916666601 0.9314651666666289 0
550 -0.5754286666666829 -0.8802226666666573 0
551 -0.5027763333331494 -0.9221316666667728 0
552 -0.01328870000087901 -0.7243354000005054 0
553 -0.09465770000086812 -0.7711260000004991 0
554 -0.7207268333333194 -0.7964083333333414 0
555 -0.7933726666668459 -0.7545029999998967 0
556 -0.1760267000006436 -0.8179166000003701 0
557 0.4102118999999995 0.3879041999997292 0
558 -0.2623941000003924 -0.8675815000002256 0
559 -0.6480745000000071 -0.8383173333333291 0
560 0.4104025 0.487748 0
561 0.3379239166668003 0.5293963333332565 0
562 0.2559666166669405 0.576491433333176 0
563 -0.2798196166663928 0.8843700666665093 0
564 -0.5781786666663112 0.8896456666668728 0
565 0.1834880333338462 0.6181397666663719 0
566 0.6590516666670386 0.6046038333335519 0
567 0.7308175000003312 0.6467735000001946 0
568 0.7302004999996278 -0.6388278333331181 0
569 0.6664594999996505 -0.601988499999798 0
570 0.7939414999997922 -0.6756671666665466 0
571 0.5943759999996792 -0.5603276666664813 0
572 0.5321683333335199 0.5300471666667763 0
573 0.4604025 0.4878775 0
574 0.7942591666668125 0.6840518333334189 0
575 0.4602118999999995 0.3880336999997292 0
576 0.4600322999999998 0.293936499999932 0
577 0.4592919 -0.09394550000002666 0
578 0.4594824999999999 0.005898299999970047 0
579 0.4598416999999994 0.1940926999996805 0
580 0.4596620999999999 0.09999549999994831 0
581 0.4591122999999995 -0.1880427000002618 0
582 0.4589217000000001 -0.2878864999999421 0
583 0.5956100000003673 0.5673255000002158 0
584 0.4585515 -0.4818275 0
585 0.4587420999999996 -0.3819837000001993 0
586 0.5306349999998208 -0.5234883333332297 0
587 -0.4631139166666674 1.908435000000174 0
588 -0.463465 1.992165 0
589 -0.4616177500000048 1.551599000001154 0
590 -0.4612207500000048 1.456911000001146 0
591 -0.4608696666666705 1.373181000000914 0
592 -0.4601215833333351 1.194763000000427 0
593 -0.4597245833333343 1.100075000000232 0
594 -0.794072999999851 0.8222383333334198 0
595 -0.7304744999997408 0.8591216666668171 0
596 -0.5313254999998168 0.9746166666667729 0
597 -0.4593735 1.016345 0
598 -0.5949239999996794 0.9377333333335194 0
599 -0.7947751666667807 2.180605000000065 0
600 -0.7318383333335492 2.144808333333456 0
601 -0.668901500000265 2.109011666666817 0
602 -0.462365833333336 1.730017000000641 0
603 -0.4627169166666684 1.813747000000395 0
604 -0.5347148333334871 2.032690000000088 0
605 -0.5976516666669714 2.06848666666684 0
606 -0.4619688333333371 1.635329000000901 0
607 -0.4604726666666693 1.278493000000636 0
608 -0.6585224999997066 0.9008500000001702 0
609 0.280853016666612 0.6198585333333647 0
610 0.3628114166668003 0.5727623333332565 0
611 -0.07702899999915674 2.185011000000483 0
612 -0.1586160999993218 2.138274000000389 0
613 -0.412365833333336 1.730141000000628 0
614 -0.4127169166666683 1.813871000000382 0
615 0.7942124999998201 0.7420173333332276 0
616 0.7224466666666325 0.6998476666666466 0
617 0.6506341666666104 0.6576504999999668 0
618 -0.336894916666601 0.974836666666629 0
619 -0.4093735 1.016485 0
620 0.009601900000853703 2.234637000000489 0
621 0.5070558333335199 0.5732836666667762 0
622 0.43529 0.531114 0
623 -0.4116177500000049 1.551727000001176 0
624 -0.4112207500000051 1.457043000001211 0
625 0.7929320000002311 2.259494999999864 0
626 -0.245246999999568 2.088648000000247 0
627 -0.3268340999997746 2.041911000000129 0
628 -0.4108696666666708 1.373313000000979 0
629 -0.4104726666666696 1.27862900000071 0
630 -0.4101215833333354 1.194899000000501 0
631 0.7198916666670159 2.302403333333128 0
632 0.6467986666670025 2.345343333333136 0
633 -0.4097245833333343 1.100215000000232 0
634 -0.413465 1.992285 0
635 -0.4131139166666674 1.908555000000174 0
636 -0.2549365166668039 0.9277404666667457 0
637 -0.1004995333332315 0.8389959333332748 0
638 -0.1824579333330774 0.8860921333331864 0
639 0.5788683333333179 0.6154808333333242 0
640 0.5737583333337395 2.388251666666428 0
641 0.5006653333335218 2.431191666666556 0
642 0.3409941000002167 2.424474000000124 0
643 0.259407000000355 2.377737000000203 0
644 0.2083744333335176 0.6615068666665607 0
645 -0.4119688333333372 1.635457000000923 0
646 0.1264160333333379 0.7086030666666641 0
647 0.09118900000086519 2.281374000000496 0
648 0.427625 2.4741 0
649 0.05393745000022898 0.7502513999998685 0
650 0.1727761000006204 2.328111000000355 0
651 -0.02802094999976007 0.7973475999998623 0
652 0.4040065000000039 2.67836666666723 0
653 0.4034621666666683 2.600383333333565 0
654 -0.43857 2.035525 0
655 -0.3519390999997747 2.085151000000129 0
656 -0.7947898333331469 2.238133333333227 0
657 -0.7235399999999277 2.197608333333292 0
658 0.1479623000006566 2.371519000000376 0
659 0.2345932000003912 2.421145000000224 0
660 -0.1019883999990789 2.228335000000528 0
661 -0.183648299999262 2.181556000000423 0
662 0.4045846666666723 2.761200000000795 0
663 -0.5098198333334871 2.076050000000087 0
664 -0.5810549999999719 2.11656666666665 0
665 0.3162531000002167 2.467924000000124 0
666 0.402884 2.51755 0
667 -0.02032849999910558 2.275114000000512 0
668 -0.2702791999995082 2.131930000000282 0
669 0.4057071666666682 2.922016666666884 0
670 -0.6523048333332655 2.157091666666628 0
671 0.06630240000090487 2.324740000000518 0
672 0.4051290000000047 2.839183333334013 0
673 0.4545843333333354 2.761000000000289 0
674 0.4551293333333346 2.839083333333507 0
675 0.455707499999998 2.921916666666378 0
676 0.6552706666669799 2.398354999999816 0
677 0.7283110000002428 2.355446666666524 0
678 0.4534611666666683 2.600083333333565 0
679 0.4540061666666671 2.678166666666725 0
680 0.5259233333335218 2.474341666666556 0
681 0.5905970000003844 2.436348333333108 0
682 0.7929846666667848 2.317453333333264 0
683 0.452883 2.51725 0
$EndNodes
$Elements
290
1 15 2 2 2560662 34
2 15 2 1 2561666 35
3 15 2 3 2564677 37
4 15 2 4 2593786 59
5 8 2 1 43815 34 36 278
6 8 2 4 43816 35 33 279
7 8 2 2 43820 37 39 295
8 8 2 1 43821 38 34 296
9 8 2 4 43825 40 41 312
10 8 2 4 43826 42 33 313
11 8 2 2 43830 43 44 329
12 8 2 2 43831 45 37 330
13 8 2 4 43835 46 48 346
14 8 2 4 43836 47 40 347
15 8 2 2 43840 43 51 363
16 8 2 2 43841 50 49 364
17 8 2 4 43845 46 54 380
18 8 2 4 43846 53 52 381
19 8 2 2 43850 49 56 397
20 8 2 2 43851 57 55 398
21 8 2 4 43855 52 60 414
22 8 2 3 43856 59 58 415
23 8 2 3 43859 58 61 426
24 8 2 2 43860 62 55 427
25 9 2 11 4935 263 10 8 428 429 265
26 9 2 11 4935 258 259 269 261 430 431
27 9 2 11 4935 259 3 9 262 432 433
28 9 2 11 4935 73 72 64 77 434 435
29 9 2 11 4935 35 33 268 279 436 270
30 9 2 11 4935 72 9 63 76 437 438
31 9 2 11 4935 34 36 274 278 277 439
32 9 2 11 4935 264 273 263 440 441 266
33 9 2 11 4935 75 74 65 79 442 443
34 9 2 11 4935 273 10 263 275 428 441
35 9 2 11 4935 274 273 264 276 440 444
36 9 2 11 4935 10 66 8 445 71 429
37 9 2 11 4935 75 65 66 443 70 446
38 9 2 11 4935 33 258 268 260 447 436
39 9 2 11 4935 74 64 65 448 69 442
40 9 2 11 4935 34 274 264 439 444 267
41 9 2 11 4935 10 75 66 80 446 445
42 9 2 11 4935 64 72 63 434 438 68
43 9 2 11 4935 268 258 269 447 431 271
44 9 2 11 4935 63 9 3 437 432 67
45 9 2 11 4935 74 73 64 78 435 448
46 9 2 11 4935 269 259 9 430 433 272
47 9 2 11 4936 11 8 280 449 282 450
48 9 2 11 4936 263 8 11 265 449 451
49 9 2 11 4936 291 281 39 452 453 294
50 9 2 11 4936 290 280 291 454 455 293
51 9 2 11 4936 286 263 11 456 451 289
52 9 2 11 4936 264 263 286 266 456 457
53 9 2 11 4936 280 281 291 283 452 455
54 9 2 11 4936 285 264 286 458 457 288
55 9 2 11 4936 34 264 285 267 458 459
56 9 2 11 4936 38 34 285 296 459 287
57 9 2 11 4936 11 280 290 450 454 292
58 9 2 11 4936 281 37 39 284 295 453
59 9 2 11 4937 85 4 12 91 460 461
60 9 2 11 4937 81 82 92 87 462 463
61 9 2 11 4937 82 83 93 88 464 465
62 9 2 11 4937 83 84 94 89 466 467
63 9 2 11 4937 84 85 95 90 468 469
64 9 2 11 4937 95 85 12 468 461 100
65 9 2 11 4937 93 83 94 464 467 98
66 9 2 11 4937 302 297 298 470 300 471
67 9 2 11 4937 298 40 41 301 312 472
68 9 2 11 4937 92 82 93 462 465 97
69 9 2 11 4937 94 84 95 466 469 99
70 9 2 11 4937 303 298 41 473 472 306
71 9 2 11 4937 12 297 302 474 470 304
72 9 2 11 4937 258 259 308 261 475 476
73 9 2 11 4937 12 4 297 460 299 474
74 9 2 11 4937 258 308 307 476 310 477
75 9 2 11 4937 13 81 92 478 463 96
76 9 2 11 4937 302 298 303 471 473 305
77 9 2 11 4937 42 258 307 479 477 309
78 9 2 11 4937 33 258 42 260 479 313
79 9 2 11 4937 259 3 13 262 480 481
80 9 2 11 4937 259 13 308 481 311 475
81 9 2 11 4937 3 81 13 86 478 480
82 9 2 11 4938 14 66 110 482 483 114
83 9 2 11 4938 14 325 280 328 484 485
84 9 2 11 4938 43 320 315 486 487 318
85 9 2 11 4938 119 82 120 488 489 124
86 9 2 11 4938 129 102 130 490 491 134
87 9 2 11 4938 280 325 281 484 492 283
88 9 2 11 4938 121 84 122 493 494 126
89 9 2 11 4938 281 324 37 495 496 284
90 9 2 11 4938 128 102 129 497 490 133
91 9 2 11 4938 16 101 128 498 499 132
92 9 2 11 4938 3 81 15 86 500 501
93 9 2 11 4938 84 85 122 90 502 494
94 9 2 11 4938 8 66 14 71 482 503
95 9 2 11 4938 15 81 119 500 504 123
96 9 2 11 4938 128 101 102 499 106 497
97 9 2 11 4938 44 320 43 323 486 329
98 9 2 11 4938 122 85 16 502 505 127
99 9 2 11 4938 63 3 15 67 501 506
100 9 2 11 4938 120 83 121 507 508 125
101 9 2 11 4938 81 82 119 87 488 504
102 9 2 11 4938 8 14 280 503 485 282
103 9 2 11 4938 130 103 131 509 510 135
104 9 2 11 4938 65 64 112 69 511 512
105 9 2 11 4938 314 17 5 513 514 316
106 9 2 11 4938 320 319 315 322 515 487
107 9 2 11 4938 110 65 111 516 517 115
108 9 2 11 4938 66 65 110 70 516 483
109 9 2 11 4938 63 15 113 506 118 518
110 9 2 11 4938 82 83 120 88 507 489
111 9 2 11 4938 102 103 130 107 509 491
112 9 2 11 4938 104 5 17 109 514 519
113 9 2 11 4938 64 63 113 68 518 520
114 9 2 11 4938 64 113 112 520 117 511
115 9 2 11 4938 324 45 37 326 330 496
116 9 2 11 4938 319 17 314 321 513 521
117 9 2 11 4938 315 319 314 515 521 317
118 9 2 11 4938 131 104 17 522 519 136
119 9 2 11 4938 103 104 131 108 522 510
120 9 2 11 4938 85 4 16 91 523 505
121 9 2 11 4938 325 324 281 327 495 492
122 9 2 11 4938 16 4 101 523 105 498
123 9 2 11 4938 83 84 121 89 493 508
124 9 2 11 4938 65 112 111 512 116 517
125 9 2 11 4939 48 342 46 345 524 346
126 9 2 11 4939 103 104 160 108 525 526
127 9 2 11 4939 104 19 160 527 165 525
128 9 2 11 4939 4 101 18 105 528 529
129 9 2 11 4939 5 137 19 141 530 531
130 9 2 11 4939 331 21 7 532 533 333
131 9 2 11 4939 342 341 332 344 534 535
132 9 2 11 4939 138 168 167 536 172 537
133 9 2 11 4939 103 160 159 526 164 538
134 9 2 11 4939 176 147 148 539 153 540
135 9 2 11 4939 46 342 332 524 535 335
136 9 2 11 4939 137 138 166 142 541 542
137 9 2 11 4939 139 140 169 144 543 544
138 9 2 11 4939 177 149 178 545 546 182
139 9 2 11 4939 19 137 166 530 542 170
140 9 2 11 4939 168 139 169 547 544 173
141 9 2 11 4939 176 148 177 540 548 181
142 9 2 11 4939 104 5 19 109 531 527
143 9 2 11 4939 150 7 21 156 533 549
144 9 2 11 4939 18 337 297 340 550 551
145 9 2 11 4939 102 159 158 552 163 553
146 9 2 11 4939 298 336 40 554 555 301
147 9 2 11 4939 138 139 168 143 547 536
148 9 2 11 4939 157 102 158 556 553 162
149 9 2 11 4939 169 140 20 543 557 174
150 9 2 11 4939 4 18 297 529 551 299
151 9 2 11 4939 166 138 167 541 537 171
152 9 2 11 4939 18 101 157 528 558 161
153 9 2 11 4939 337 336 298 339 554 559
154 9 2 11 4939 20 1 146 560 151 561
155 9 2 11 4939 20 146 175 561 562 179
156 9 2 11 4939 149 150 178 155 563 546
157 9 2 11 4939 332 341 331 534 564 334
158 9 2 11 4939 336 47 40 338 347 555
159 9 2 11 4939 102 103 159 107 538 552
160 9 2 11 4939 341 21 331 343 532 564
161 9 2 11 4939 178 150 21 563 549 183
162 9 2 11 4939 148 149 177 154 545 548
163 9 2 11 4939 101 102 157 106 556 558
164 9 2 11 4939 175 147 176 565 539 180
165 9 2 11 4939 297 337 298 550 559 300
166 9 2 11 4939 175 146 147 562 152 565
167 9 2 11 4939 140 1 20 145 560 557
168 9 2 11 4940 349 353 348 566 567 351
169 9 2 11 4940 315 359 358 568 361 569
170 9 2 11 4940 51 359 315 362 568 570
171 9 2 11 4940 315 358 314 569 571 317
172 9 2 11 4940 22 349 1 572 352 573
173 9 2 11 4940 353 50 348 355 574 567
174 9 2 11 4940 184 22 140 188 575 576
175 9 2 11 4940 348 50 49 574 364 350
176 9 2 11 4940 138 186 139 577 578 143
177 9 2 11 4940 139 184 140 579 576 144
178 9 2 11 4940 186 185 139 190 580 578
179 9 2 11 4940 187 186 138 191 577 581
180 9 2 11 4940 137 187 138 582 581 142
181 9 2 11 4940 140 22 1 575 573 145
182 9 2 11 4940 185 184 139 189 579 580
183 9 2 11 4940 43 51 315 363 570 318
184 9 2 11 4940 22 354 349 357 583 572
185 9 2 11 4940 354 353 349 356 566 583
186 9 2 11 4940 5 23 137 584 585 141
187 9 2 11 4940 314 23 5 586 584 316
188 9 2 11 4940 314 358 23 571 360 586
189 9 2 11 4940 23 187 137 192 582 585
190 9 2 11 4941 193 24 6 587 588 198
191 9 2 11 4941 206 205 195 210 589 590
192 9 2 11 4941 196 206 195 591 590 201
193 9 2 11 4941 25 207 197 212 592 593
194 9 2 11 4941 46 54 332 380 594 335
195 9 2 11 4941 54 376 332 379 595 594
196 9 2 11 4941 331 25 7 596 597 333
197 9 2 11 4941 7 25 197 597 593 203
198 9 2 11 4941 331 375 25 598 377 596
199 9 2 11 4941 365 53 52 599 381 367
200 9 2 11 4941 371 370 365 373 600 601
201 9 2 11 4941 194 204 193 602 603 199
202 9 2 11 4941 24 366 6 604 369 588
203 9 2 11 4941 24 371 366 374 605 604
204 9 2 11 4941 370 53 365 372 599 600
205 9 2 11 4941 195 205 194 589 606 200
206 9 2 11 4941 205 204 194 209 602 606
207 9 2 11 4941 207 206 196 211 591 607
208 9 2 11 4941 204 24 193 208 587 603
209 9 2 11 4941 197 207 196 592 607 202
210 9 2 11 4941 332 376 331 595 608 334
211 9 2 11 4941 371 365 366 601 368 605
212 9 2 11 4941 376 375 331 378 598 608
213 9 2 11 4942 27 225 146 230 609 610
214 9 2 11 4942 234 233 215 238 611 612
215 9 2 11 4942 194 240 193 613 614 199
216 9 2 11 4942 348 49 388 350 615 616
217 9 2 11 4942 387 348 388 617 616 390
218 9 2 11 4942 150 26 7 618 619 156
219 9 2 11 4942 233 214 215 620 219 611
220 9 2 11 4942 1 349 27 352 621 622
221 9 2 11 4942 242 241 195 246 623 624
222 9 2 11 4942 57 55 392 398 625 394
223 9 2 11 4942 29 234 216 239 626 627
224 9 2 11 4942 243 242 196 247 628 629
225 9 2 11 4942 197 243 196 630 629 202
226 9 2 11 4942 392 382 393 631 632 395
227 9 2 11 4942 26 243 197 248 630 633
228 9 2 11 4942 29 216 6 627 221 634
229 9 2 11 4942 193 29 6 635 634 198
230 9 2 11 4942 240 29 193 244 635 614
231 9 2 11 4942 150 222 26 636 226 618
232 9 2 11 4942 149 223 222 637 227 638
233 9 2 11 4942 149 222 150 638 636 155
234 9 2 11 4942 349 348 387 351 617 639
235 9 2 11 4942 393 383 28 640 641 396
236 9 2 11 4942 27 349 387 621 639 389
237 9 2 11 4942 231 28 213 235 642 643
238 9 2 11 4942 196 242 195 628 624 201
239 9 2 11 4942 146 225 147 609 644 152
240 9 2 11 4942 241 240 194 245 613 645
241 9 2 11 4942 195 241 194 623 645 200
242 9 2 11 4942 225 224 147 229 646 644
243 9 2 11 4942 234 215 216 612 220 626
244 9 2 11 4942 233 232 214 237 647 620
245 9 2 11 4942 7 26 197 619 633 203
246 9 2 11 4942 1 27 146 622 610 151
247 9 2 11 4942 383 2 28 386 648 641
248 9 2 11 4942 147 224 148 646 649 153
249 9 2 11 4942 388 49 56 615 397 391
250 9 2 11 4942 213 28 2 642 648 217
251 9 2 11 4942 214 231 213 650 643 218
252 9 2 11 4942 382 383 393 385 640 632
253 9 2 11 4942 148 223 149 651 637 154
254 9 2 11 4942 224 223 148 228 651 649
255 9 2 11 4942 232 231 214 236 650 647
256 9 2 11 4942 55 382 392 384 631 625
257 9 2 11 4943 30 405 400 408 652 653
258 9 2 11 4943 6 31 216 654 655 221
259 9 2 11 4943 365 52 410 367 656 657
260 9 2 11 4943 214 249 213 658 659 218
261 9 2 11 4943 252 251 215 256 660 661
262 9 2 11 4943 400 405 399 652 662 402
263 9 2 11 4943 31 366 409 663 664 411
264 9 2 11 4943 213 30 2 665 666 217
265 9 2 11 4943 6 366 31 369 663 654
266 9 2 11 4943 410 52 60 656 414 413
267 9 2 11 4943 215 251 250 660 255 667
268 9 2 11 4943 31 252 216 257 668 655
269 9 2 11 4943 2 30 400 666 653 403
270 9 2 11 4943 404 59 58 406 415 669
271 9 2 11 4943 213 249 30 659 253 665
272 9 2 11 4943 366 365 409 368 670 664
273 9 2 11 4943 215 250 214 667 671 219
274 9 2 11 4943 405 404 399 407 672 662
275 9 2 11 4943 409 365 410 670 657 412
276 9 2 11 4943 216 252 215 668 661 220
277 9 2 11 4943 399 404 58 672 669 401
278 9 2 11 4943 214 250 249 671 254 658
279 9 2 11 4944 416 399 417 673 674 419
280 9 2 11 4944 399 58 417 401 675 674
281 9 2 11 4944 382 383 421 385 676 677
282 9 2 11 4944 32 400 416 678 679 418
283 9 2 11 4944 417 58 61 675 426 420
284 9 2 11 4944 383 32 422 680 425 681
285 9 2 11 4944 62 382 421 682 677 423
286 9 2 11 4944 55 382 62 384 682 427
287 9 2 11 4944 2 400 32 403 678 683
288 9 2 11 4944 421 383 422 676 681 424
289 9 2 11 4944 400 399 416 402 673 679
290 9 2 11 4944 383 2 32 386 683 680
$EndElements
