$MeshFormat
2.2 0 8
$EndMeshFormat
$Nodes
683
1 -0.434242 1.99715 0
2 0.428503 0.50236 0
3 -0.434348 0.998853 0
4 0.43233 -0.503204 0
5 -0.427178 -1.00394 0
6 -0.430453 -1.9946 0
7 0.438046 -2.50246 0
8 0.435027 2.49864 0
9 0.388021 -2.53113 0
10 -0.4306 -2.05243 0
11 0.488021 -2.53122 0
12 -0.480358 -1.96569 0
13 -0.477274 -1.03275 0
14 0.438104 -2.44457 0
15 -0.380358 -1.96597 0
16 -0.377273 -1.03273 0
17 0.432637 -0.560891 0
18 -0.427287 -0.946137 0
19 -0.434348 0.941167 0
20 0.378613 0.473381 0
21 0.382221 -0.474531 0
22 0.478613 0.473492 0
23 0.482219 -0.474049 0
24 -0.484345 1.02777 0
25 -0.484245 1.96848 0
26 0.428516 0.560039 0
27 -0.384345 1.02777 0
28 -0.384245 1.96827 0
29 0.435035 2.44092 0
30 -0.434065 2.05498 0
31 0.384953 2.52748 0
32 0.484953 2.52757 0
33 0.43761 -3 0
34 -0.866025 -2.24634 0
35 0.38761 -3 0
36 -0.866025 -2.30409 0
37 0.866025 -2.25334 0
38 0.48761 -3 0
39 0.866025 -2.31119 0
40 -0.866025 -0.750481 0
41 -0.866025 -2.18859 0
42 -0.866025 -0.808221 0
43 0.866025 -0.749722 0
44 0.866025 -0.807235 0
45 0.866025 -2.19549 0
46 -0.866025 0.750465 0
47 -0.866025 -0.69274 0
48 -0.866025 0.692779 0
49 0.866025 0.753852 0
50 0.866025 0.69618 0
51 0.866025 -0.692209 0
52 -0.866025 2.24978 0
53 -0.866025 0.808152 0
54 -0.866025 2.19185 0
55 0.866025 2.25016 0
56 0.866025 0.811523 0
57 0.866025 2.19245 0
58 0.433744 3 0
59 -0.866025 2.30771 0
60 0.383743 3 0
61 0.866025 2.30787 0
62 0.483744 3 0
63 -0.2857031666671814 -2.079243333333032 0
64 -0.1409533333343757 -2.163886666666057 0
65 0.003796499998652225 -2.248529999999212 0
66 0.1485463333324677 -2.333173333332827 0
67 0.2932961666663918 -2.417816666666506 0
68 -0.3580780833335545 -2.036921666666537 0
69 -0.2133282500007334 -2.121564999999571 0
70 -0.06857841666786441 -2.206208333332633 0
71 0.07617141666571514 -2.29085166666611 0
72 0.2209212499995755 -2.375494999999752 0
73 0.3656710833332801 -2.460138333333302 0
74 -0.2668758000004642 -2.148169999999729 0
75 -0.1031516000008776 -2.243909999999487 0
76 0.06057259999901399 -2.339649999999423 0
77 0.2242967999995654 -2.435389999999746 0
78 -0.348737900000284 -2.100299999999834 0
79 -0.1850137000007387 -2.196039999999568 0
80 -0.02128950000111224 -2.29177999999935 0
81 0.1424346999993433 -2.387519999999616 0
82 0.3061588999998037 -2.483259999999885 0
83 -0.4278329999999986 -1.202071999999575 0
84 -0.428487999999997 -1.400203999999106 0
85 -0.4291429999999969 -1.598335999999072 0
86 -0.4297979999999982 -1.79646799999947 0
87 -0.4275054999999994 -1.103005999999829 0
88 -0.4281604999999976 -1.301137999999284 0
89 -0.428815499999996 -1.499269999998779 0
90 -0.4294704999999975 -1.697401999999246 0
91 -0.4301254999999989 -1.895533999999694 0
92 -0.4778907999999988 -1.219337999999653 0
93 -0.478507599999997 -1.405925999999098 0
94 -0.4791243999999968 -1.592513999999028 0
95 -0.4797411999999987 -1.7791019999996 0
96 -0.4775823999999997 -1.126043999999923 0
97 -0.4781991999999982 -1.31263199999947 0
98 -0.4788159999999962 -1.499219999998868 0
99 -0.4794327999999979 -1.685807999999359 0
100 -0.4800495999999988 -1.872395999999627 0
101 -0.2552764000003871 -0.9037928000002255 0
102 -0.08337480000094255 -0.8036456000005492 0
103 0.08852679999898233 -0.7034984000005928 0
104 0.2604283999994794 -0.6033512000003033 0
105 -0.341227200000167 -0.9538664000000974 0
106 -0.1693256000006257 -0.8537192000003646 0
107 0.002575999998813361 -0.7535720000006914 0
108 0.1744775999991352 -0.6534248000005038 0
109 0.3463791999997086 -0.5532776000001697 0
110 0.2744116000002408 -2.348850000000141 0
111 0.110719200000601 -2.253130000000351 0
112 -0.05297319999937627 -2.157410000000365 0
113 -0.216665599999672 -2.061690000000192 0
114 0.3562578000001341 -2.396710000000079 0
115 0.1925654000004277 -2.30099000000025 0
116 0.02887300000100035 -2.205270000000585 0
117 -0.1348193999993899 -2.109550000000357 0
118 -0.2985117999998095 -2.013830000000111 0
119 -0.3797410000000013 -1.779322000000399 0
120 -0.3791240000000037 -1.592674000001128 0
121 -0.3785070000000031 -1.406026000000955 0
122 -0.3778900000000019 -1.219378000000582 0
123 -0.3800495000000007 -1.872646000000218 0
124 -0.3794325000000021 -1.685998000000622 0
125 -0.3788155000000041 -1.499350000001245 0
126 -0.3781985000000025 -1.312702000000756 0
127 -0.3775814999999997 -1.126053999999901 0
128 -0.2152910000003927 -0.9383622000002287 0
129 -0.05330900000082106 -0.8439944000004783 0
130 0.1086729999991411 -0.7496266000005003 0
131 0.2706549999995537 -0.65525880000026 0
132 -0.2962820000001637 -0.9855461000000953 0
133 -0.1343000000006401 -0.8911783000003729 0
134 0.02768199999892201 -0.796810500000628 0
135 0.1896639999993047 -0.702442700000405 0
136 0.3516459999998235 -0.6080749000001028 0
137 -0.2617778000003404 0.8995544000001958 0
138 -0.08920760000085443 0.8002558000004917 0
139 0.0833625999991448 0.7009572000004921 0
140 0.2559327999995827 0.6016586000002402 0
141 -0.3480629000001417 0.9492037000000816 0
142 -0.1754927000005814 0.8499051000003346 0
143 -0.002922500001049322 0.7506065000006038 0
144 0.1696476999993632 0.6513079000003664 0
145 0.3422178999998285 0.5520093000000987 0
146 0.429140833333332 0.334766000000354 0
147 0.4297786666666634 0.1671720000008599 0
148 0.430416499999995 -0.0004219999986774248 0
149 0.4310543333333299 -0.1680159999990971 0
150 0.431692166666665 -0.3356099999995812 0
151 0.428821916666666 0.418563000000188 0
152 0.4294597499999976 0.250969000000632 0
153 0.4300975833333292 0.08337500000109072 0
154 0.4307354166666625 -0.08421899999890459 0
155 0.4313732499999974 -0.2518129999993061 0
156 0.4320110833333325 -0.4194069999997984 0
157 -0.2717558000003524 0.8476098000002027 0
158 -0.1091636000007716 0.7540526000004439 0
159 0.05342859999916433 0.6604954000004808 0
160 0.2160207999995973 0.5669382000002317 0
161 -0.3530519000001489 0.8943884000000857 0
162 -0.1904597000005104 0.8008312000002937 0
163 -0.02786750000109239 0.7072740000006286 0
164 0.1347246999994419 0.6137168000003212 0
165 0.2973168999997564 0.5201596000001403 0
166 0.3793345999999982 0.2837986000004491 0
167 0.3800561999999961 0.09421620000100617 0
168 0.380777799999996 -0.09536619999895429 0
169 0.3814993999999981 -0.2849485999995058 0
170 0.3789737999999995 0.3785898000001309 0
171 0.3796953999999973 0.1890074000007071 0
172 0.380416999999995 -0.0005749999986912613 0
173 0.3811385999999966 -0.1901573999991056 0
174 0.3818601999999992 -0.3797397999997825 0
175 0.2203194000003521 -0.5688521999997949 0
176 0.05841780000083291 -0.6631733999995147 0
177 -0.103483799999137 -0.7574945999994973 0
178 -0.265385399999548 -0.8518157999997367 0
179 0.3012702000001408 -0.521691599999918 0
180 0.1393686000005795 -0.6160127999996624 0
181 -0.02253299999890901 -0.7103339999993644 0
182 -0.1844345999993172 -0.8046551999996022 0
183 -0.3463361999997926 -0.8989763999998792 0
184 0.4793341999999984 0.2839838000004166 0
185 0.4800553999999964 0.09447560000096317 0
186 0.4807765999999962 -0.09503259999900193 0
187 0.4814977999999982 -0.2845407999995224 0
188 0.4789735999999993 0.3787379000001723 0
189 0.4796947999999973 0.1892297000007234 0
190 0.4804159999999953 -0.0002784999987814341 0
191 0.4811371999999972 -0.189786699999262 0
192 0.4818583999999991 -0.3792948999997577 0
193 -0.4342632 1.797490600000312 0
194 -0.4342843999999999 1.597831200000858 0
195 -0.4343055999999999 1.39817180000091 0
196 -0.4343268 1.198512400000494 0
197 -0.4342526 1.897320300000322 0
198 -0.4342738 1.697660900000503 0
199 -0.4342949999999999 1.498001500001202 0
200 -0.4343161999999999 1.298342100000858 0
201 -0.4343374 1.098682700000163 0
202 -0.4842649999999999 1.780338000000286 0
203 -0.4842849999999999 1.59219600000079 0
204 -0.4843049999999999 1.404054000000945 0
205 -0.4843249999999999 1.21591200000045 0
206 -0.484255 1.874409000000068 0
207 -0.484275 1.686267000000496 0
208 -0.4842949999999999 1.498125000001126 0
209 -0.4843149999999999 1.309983000000547 0
210 -0.484335 1.121840999999984 0
211 -0.2893638333334803 2.080731666666582 0
212 -0.1444856666673797 2.164313333332922 0
213 0.0003924999988184075 2.247894999999319 0
214 0.145270666665836 2.331476666666187 0
215 0.2901488333328152 2.415058333333034 0
216 -0.3618029166668028 2.038940833333255 0
217 -0.2169247500002302 2.122522499999867 0
218 -0.07204658333442859 2.206104166666035 0
219 0.07283158333243311 2.289685833332814 0
220 0.2177097499992032 2.37326749999954 0
221 0.3625879166664857 2.456849166666562 0
222 0.2659438000004113 0.6535851999997633 0
223 0.1033716000008494 0.7471313999995113 0
224 -0.05920059999917587 0.8406775999995257 0
225 -0.2217727999995499 0.934223799999741 0
226 0.3472299000001845 0.6068120999998938 0
227 0.1846577000006047 0.700358299999652 0
228 0.02208550000108261 0.7939044999993771 0
229 -0.1404866999993288 0.8874506999996139 0
230 -0.3030588999997521 0.9809968999998574 0
231 -0.384325 1.215869999999835 0
232 -0.3843050000000001 1.40396999999928 0
233 -0.3842850000000001 1.592069999999107 0
234 -0.384265 1.780169999999532 0
235 -0.384335 1.121820000000095 0
236 -0.3843150000000001 1.309919999999438 0
237 -0.3842950000000002 1.498019999998557 0
238 -0.3842750000000001 1.686119999999361 0
239 -0.384255 1.874219999999807 0
240 -0.2203890000003243 2.062799999999813 0
241 -0.05653300000087602 2.157329999999495 0
242 0.1073229999991361 2.251859999999501 0
243 0.2711789999995929 2.346389999999765 0
244 -0.302317000000058 2.015534999999967 0
245 -0.1384610000006421 2.11006499999963 0
246 0.02539499999874117 2.204594999999274 0
247 0.1892509999994437 2.299124999999679 0
248 0.3531069999995675 2.393654999999751 0
249 -0.2702614000004212 2.149479999999757 0
250 -0.1064578000009947 2.243979999999426 0
251 0.05734579999892242 2.338479999999378 0
252 0.2211493999996654 2.432979999999807 0
253 -0.3521632000001415 2.102229999999918 0
254 -0.1883596000005734 2.196729999999669 0
255 -0.02455600000121827 2.291229999999297 0
256 0.139247599999314 2.385729999999604 0
257 0.3030511999998939 2.480229999999939 0
258 0.437900666666667 -2.668306666666204 0
259 0.4377553333333337 -2.83415333333287 0
260 0.4379733333333338 -2.585383333332853 0
261 0.4378280000000009 -2.751229999998925 0
262 0.4376826666666669 -2.917076666666435 0
263 -0.7208343333337797 -2.162426666666925 0
264 -0.5756436666671271 -2.078513333333599 0
265 -0.793429666666761 -2.204383333333388 0
266 -0.6482390000006369 -2.120470000000368 0
267 -0.5030483333336526 -2.036556666666851 0
268 0.3878840000000003 -2.687419999999625 0
269 0.3877470000000006 -2.843709999999335 0
270 0.3879525000000004 -2.609274999999603 0
271 0.3878155000000009 -2.765564999999028 0
272 0.3876785 -2.921854999999984 0
273 -0.7208833333335735 -2.220203333333472 0
274 -0.5757416666670065 -2.136316666666863 0
275 -0.7934541666667445 -2.262146666666712 0
276 -0.6483125000008046 -2.178260000000465 0
277 -0.5031708333334529 -2.094373333333403 0
278 0.41261 -3 0
279 -0.866025 -2.275215 0
280 0.7233653333335639 -2.336379999999866 0
281 0.580705666667104 -2.419419999999746 0
282 0.794695166666702 -2.294859999999979 0
283 0.6520355000004109 -2.377899999999761 0
284 0.5093758333335456 -2.460939999999876 0
285 0.4878840000000014 -2.687479999998381 0
286 0.4877470000000012 -2.843739999998699 0
287 0.4879525000000008 -2.609349999999028 0
288 0.4878155000000018 -2.765609999997864 0
289 0.4876785000000005 -2.921869999999399 0
290 0.7400236666669133 -2.38453333333319 0
291 0.6140223333336323 -2.457876666666492 0
292 0.8030243333333208 -2.347861666666674 0
293 0.6770230000004123 -2.42120499999976 0
294 0.5510216666667527 -2.494548333333283 0
295 0.46261 -3 0
296 0.866025 -2.282265 0
297 -0.7197426666670679 -0.8349673333331017 0
298 -0.5734603333336551 -0.9194536666664809 0
299 -0.7928838333334005 -0.7927241666666278 0
300 -0.646601500000651 -0.8772104999996241 0
301 -0.500319166666876 -0.9616968333332124 0
302 -0.6089136666662436 -2.039989999999755 0
303 -0.7374693333330582 -2.114289999999841 0
304 -0.544635833333165 -2.002839999999903 0
305 -0.6731914999995353 -2.077139999999731 0
306 -0.801747166666499 -2.151439999999903 0
307 -0.736441333333638 -0.883063999999824 0
308 -0.6068576666670238 -0.9579069999997938 0
309 -0.8012331666666146 -0.8456425000000301 0
310 -0.6716495000005649 -0.9204854999996738 0
311 -0.5420658333336017 -0.9953284999998451 0
312 -0.866025 -2.217465 0
313 -0.866025 -0.7793510000002906 0
314 0.5768949999997266 -0.5853766666665112 0
315 0.7214600000002716 -0.6675493333334876 0
316 0.5046124999999868 -0.5442903333333258 0
317 0.6491774999997556 -0.6264629999998611 0
318 0.793742500000165 -0.7086356666667604 0
319 0.5770996666662749 -0.643005666666444 0
320 0.7215623333329557 -0.7251203333331188 0
321 0.5048683333331943 -0.6019483333332543 0
322 0.6493309999993301 -0.6840629999996193 0
323 0.7937936666664454 -0.7661776666665409 0
324 0.723384666667046 -2.278516666666446 0
325 0.5807443333335691 -2.361543333333196 0
326 0.7947048333335758 -2.237003333333192 0
327 0.6520645000003864 -2.320029999999775 0
328 0.5094241666670413 -2.403056666666449 0
329 0.866025 -0.7784784999996082 0
330 0.866025 -2.224415 0
331 -0.7221326666669721 0.8332609999998244 0
332 -0.5782403333336784 0.9160569999998015 0
333 -0.7940788333333098 0.7918630000000136 0
334 -0.6501865000005475 0.874658999999685 0
335 -0.5062941666667475 0.9574549999999534 0
336 -0.5735329999996304 -0.8616713333335468 0
337 -0.7197789999996348 -0.7772056666668776 0
338 -0.5004099999997152 -0.9039041666668312 0
339 -0.646655999999464 -0.8194385000003096 0
340 -0.7929019999997683 -0.7349728333334672 0
341 -0.7221326666669783 0.7755749999998207 0
342 -0.5782403333337627 0.8583709999997529 0
343 -0.794078833333413 0.7341769999999541 0
344 -0.6501865000005864 0.8169729999996627 0
345 -0.5062941666668486 0.8997689999998953 0
346 -0.866025 -0.7216104999998132 0
347 -0.866025 0.721621999999848 0
348 0.7201843333337438 0.6700213333335692 0
349 0.5743436666670391 0.5861906666668807 0
350 0.7931046666668256 0.7119366666667579 0
351 0.6472640000006357 0.6281060000003653 0
352 0.5014233333335774 0.5442753333334736 0
353 0.7368876666669653 0.6219506666668383 0
354 0.6077503333336205 0.5477213333334984 0
355 0.8014563333334956 0.6590653333334267 0
356 0.6723190000004724 0.5848360000002716 0
357 0.5431816666667664 0.5106066666667239 0
358 0.6101543333331135 -0.546768999999875 0
359 0.7380896666664047 -0.6194889999998511 0
360 0.5461866666665894 -0.510408999999956 0
361 0.6741219999995622 -0.5831289999997512 0
362 0.8020573333331784 -0.6558489999999119 0
363 0.866025 -0.7209655000003918 0
364 0.866025 0.7250159999998963 0
365 -0.7220973333336403 2.16557000000018 0
366 -0.5781696666669573 2.08136000000017 0
367 -0.7940611666668621 2.207675000000114 0
368 -0.6501335000003452 2.123465000000202 0
369 -0.5062058333336037 2.039255000000158 0
370 -0.6115716666663831 0.9545640000001633 0
371 -0.7387983333330721 0.8813580000001504 0
372 -0.5479583333331729 0.9911670000000924 0
373 -0.6751849999995734 0.9179610000002456 0
374 -0.8024116666665357 0.8447550000000753 0
375 -0.7387650000003971 2.117393333333565 0
376 -0.6115050000003253 2.042936666666857 0
377 -0.8023950000004889 2.154621666666953 0
378 -0.675135000000566 2.080165000000331 0
379 -0.5478750000000787 2.005708333333379 0
380 -0.866025 0.7793085 0
381 -0.866025 2.220815 0
382 0.5786929999996322 2.415813333333546 0
383 0.7223589999996536 2.332986666666867 0
384 0.5068600000001696 2.457226666666569 0
385 0.6505259999994143 2.374400000000338 0
386 0.7941919999997831 2.291573333333459 0
387 0.7201886666670825 0.727695000000239 0
388 0.5743523333337149 0.6438670000002193 0
389 0.7931068333334421 0.7696090000000625 0
390 0.6472705000005694 0.6857810000003273 0
391 0.5014341666668396 0.6019530000000993 0
392 0.5786983333330228 2.358096666666846 0
393 0.7223616666662843 2.275273333333554 0
394 0.5068666666665114 2.399508333333423 0
395 0.6505299999995549 2.316685000000257 0
396 0.7941933333332387 2.233861666666721 0
397 0.866025 2.221305 0
398 0.866025 0.7826875000000925 0
399 0.4345993333333341 2.665759999999711 0
400 0.4341716666666682 2.832879999999422 0
401 0.4348131666666674 2.582199999999726 0
402 0.4343855000000018 2.749319999999293 0
403 0.4339578333333334 2.91643999999996 0
404 -0.7220383333336946 2.223466666666878 0
405 -0.578051666667136 2.139223333333608 0
406 -0.7940316666672034 2.265588333333648 0
407 -0.6500450000004601 2.181345000000269 0
408 -0.5060583333332654 2.097101666666627 0
409 0.3845496666666681 2.684986666666118 0
410 0.3841463333333341 2.842493333333016 0
411 0.384751333333332 2.606233333333861 0
412 0.3843480000000031 2.76373999999878 0
413 0.3839446666666674 2.921246666666369 0
414 0.408743499999924 3 0
415 -0.866025 2.278745 0
416 0.739001000000246 2.381103333333191 0
417 0.61197700000021 2.454336666666546 0
418 0.8025130000001526 2.344486666666579 0
419 0.675489000000386 2.417719999999777 0
420 0.5484650000002771 2.490953333333174 0
421 0.4845500000000009 2.68504666666632 0
422 0.4841470000000018 2.84252333333264 0
423 0.4847515000000005 2.60630833333315 0
424 0.484348500000002 2.763784999999245 0
425 0.483945499999999 2.921261666667054 0
426 0.458744 3 0
427 0.866025 2.279015 0
428 -0.04967755000111268 -2.24621999999935 0
429 -0.1220524666676266 -2.203898333332772 0
430 -0.5756926666670668 -2.107415000000231 0
431 -0.6482880000003931 -2.149371666666894 0
432 0.2587964833329786 -2.426603333333126 0
433 0.3406585833331959 -2.474473333333253 0
434 -0.5031218333335635 -2.0654716666668 0
435 0.412819666666667 -2.760786666666248 0
436 0.4128923333333337 -2.677863333332914 0
437 -0.7208588333336765 -2.191315000000198 0
438 -0.2039145666674199 -2.156028333332893 0
439 -0.2762894833338228 -2.11370666666638 0
440 -0.7934541666667867 -2.233271666666736 0
441 0.4129608333333336 -2.599718333333102 0
442 0.4130335 -2.516795 0
443 0.03218454999883311 -2.294089999999318 0
444 0.4126785000000003 -2.921854999999668 0
445 0.4127511666666672 -2.838931666666102 0
446 -0.4305265 -2.023515 0
447 0.1045594666657408 -2.336411666666125 0
448 0.1864215666660166 -2.384281666666286 0
449 -0.3581515833335907 -2.065836666666516 0
450 0.4626785000000005 -2.92186999999935 0
451 0.794695166666782 -2.323784999999933 0
452 0.7316945000002386 -2.360456666666528 0
453 0.4629608333333335 -2.599763333333102 0
454 0.4630335 -2.51684 0
455 0.5973640000003682 -2.438648333333119 0
456 0.534363333333552 -2.475319999999873 0
457 0.4628196666666676 -2.760816666665626 0
458 0.4627511666666674 -2.838946666665785 0
459 0.6603646666670087 -2.401976666666468 0
460 0.4628923333333342 -2.677893333332293 0
461 -0.453189399999998 -1.30977099999938 0
462 -0.4528618999999987 -1.210704999999614 0
463 -0.7934296666668899 -2.175508333333462 0
464 -0.4541336999999969 -1.59542499999905 0
465 -0.4544420999999979 -1.688718999999336 0
466 -0.4547695999999984 -1.787784999999535 0
467 -0.7291518333334189 -2.138358333333383 0
468 -0.4525534999999993 -1.117410999999787 0
469 -0.792883833333534 -0.8215941666665508 0
470 -0.728092000000353 -0.8590156666664628 0
471 -0.5901590000003394 -0.9386803333331373 0
472 -0.5253671666668276 -0.9761018333332405 0
473 -0.6633001666670458 -0.8964371666664477 0
474 -0.453825299999997 -1.502130999999085 0
475 -0.453497799999997 -1.403064999999102 0
476 -0.5922786666666853 -2.059251666666677 0
477 -0.6565565000000926 -2.09640166666672 0
478 -0.452226 -1.018345 0
479 -0.5280008333335635 -2.0221016666668 0
480 -0.4550779999999991 -1.881078999999735 0
481 -0.4554055 -1.980145 0
482 0.7937936666664779 -0.7374211666665593 0
483 -0.4050779999999991 -1.881218999999735 0
484 -0.4054055 -1.980285 0
485 -0.1493329000006676 -0.871003900000389 0
486 -0.06834190000088181 -0.8238200000005138 0
487 0.2114789666663542 -2.341011666666484 0
488 0.1296327666665344 -2.293151666666589 0
489 0.09859989999906171 -0.7265625000005466 0
490 0.01264909999909927 -0.7766361000005247 0
491 0.2838538833333163 -2.383333333333324 0
492 0.723375000000305 -2.307448333333156 0
493 0.6520548333335665 -2.348961666666531 0
494 0.3657000833331959 -2.431193333333253 0
495 0.438075 -2.473515 0
496 0.794704833333523 -2.265928333333223 0
497 0.179590899999268 -0.6793786000004265 0
498 -0.4038060000000004 -1.496439000000117 0
499 -0.4034975000000001 -1.403115000000031 0
500 -0.4028615000000003 -1.210725000000078 0
501 -0.4025529999999993 -1.117400999999787 0
502 -0.09696326666687599 -2.160648333333211 0
503 -0.02458835000036202 -2.202969999999788 0
504 0.7215111666666136 -0.6963348333333033 0
505 -0.4022255 -1.018335 0
506 -0.3162747000001935 -0.9682614000001127 0
507 -0.4047694999999998 -1.787894999999935 0
508 0.5807250000003366 -2.390481666666471 0
509 0.509404833333552 -2.431994999999873 0
510 -0.2352837000003899 -0.9210775000002271 0
511 -0.4031889999999995 -1.309790999999844 0
512 0.5047659999998633 -0.5731338333332556 0
513 0.5769973333330007 -0.6141911666664777 0
514 0.4324835 -0.5320475 0
515 0.3465326999997397 -0.5821211000001516 0
516 -0.2511843833334267 -2.070466666666612 0
517 -0.1788094666670239 -2.112788333333125 0
518 0.2655416999995165 -0.6293050000002817 0
519 -0.4044419999999991 -1.688828999999735 0
520 0.05725784999962663 -2.250829999999782 0
521 -0.3330305833335907 -2.022606666666516 0
522 0.6492798333332732 -0.6552774999999658 0
523 -0.4041335000000004 -1.5955050000001 0
524 -0.7929019999998175 -0.7638433333334388 0
525 0.07347229999990762 -0.6833359000000538 0
526 0.1544230999996672 -0.6361753000001938 0
527 0.23597679999959 0.5842984000002359 0
528 0.3172728999997914 0.5375198000001201 0
529 0.06839559999915457 0.6807263000004864 0
530 0.149691699999371 0.6339477000003619 0
531 0.4052363499999956 0.04689710000116437 0
532 0.4055971499999955 -0.04789409999881586 0
533 -0.7940788333334892 0.7630199999999103 0
534 0.4045566333333308 0.2254853000006545 0
535 0.4042377166666651 0.3092823000004016 0
536 -0.2603308999999675 -0.8778042999999811 0
537 -0.1743801000002453 -0.8277307000001429 0
538 0.4072755 -0.4888675 0
539 0.4069565833333325 -0.4050704999997906 0
540 -0.7221326666669752 0.8044179999998226 0
541 -0.6501865000003674 0.8458159999997886 0
542 -0.7197608333333514 -0.8060864999999897 0
543 -0.3480629000001702 0.920360700000098 0
544 -0.2667668000003464 0.8735821000001993 0
545 -0.1804817000006034 0.8239328000003472 0
546 -0.099185600000813 0.7771542000004679 0
547 0.4065957833333316 -0.3102792999995435 0
548 0.3213246999997397 -0.5389411000001516 0
549 0.4049174333333297 0.130694100000933 0
550 -0.007478500000077326 -0.7304965000000451 0
551 -0.6466378333333491 -0.8483193333333243 0
552 -0.5734966666666428 -0.8905625000000139 0
553 0.406276866666664 -0.2264822999993014 0
554 0.2403738999999157 -0.586101700000049 0
555 -0.4272325 -0.9750385 0
556 -0.3412817000001935 -0.9249649000001128 0
557 -0.01788950000084505 0.7303756000004862 0
558 -0.5782403333337205 0.8872139999997772 0
559 -0.5062941666668392 0.9286119999999007 0
560 -0.434348 0.97001 0
561 -0.09342930000003977 -0.7805701000000232 0
562 0.403876916666666 0.404073500000177 0
563 0.403558 0.4878705 0
564 -0.5003736666668275 -0.9327953333332404 0
565 0.4059160666666629 -0.1316910999990257 0
566 0.5910470000003298 0.5669560000001895 0
567 0.5264783333335196 0.5298413333334404 0
568 0.4565949833333316 -0.3100753999995518 0
569 0.4569555833333325 -0.4048294999997906 0
570 0.455915466666663 -0.1315242999990495 0
571 0.4555965499999956 -0.04772729999883968 0
572 0.456276066666664 -0.2262783999993098 0
573 0.454556433333331 0.2255779000006382 0
574 0.4542375166666652 0.3093749000003853 0
575 0.4552359499999957 0.04702680000114287 0
576 0.4549170333333299 0.1308238000009115 0
577 0.7297748333333381 -0.6435191666666693 0
578 0.7937425000001358 -0.6798791666667439 0
579 0.453876916666666 0.404129000000177 0
580 0.6658071666666925 -0.6071591666666813 0
581 0.6639673333336822 0.6088713333335338 0
582 0.4572745 -0.4886265 0
583 0.59352466666642 -0.5660728333331931 0
584 0.5295569999998633 -0.5297128333332556 0
585 0.453558 0.487926 0
586 0.7285360000003545 0.6459860000002038 0
587 0.793104666666872 0.6831006666667846 0
588 -0.4593052999999999 1.401112900000928 0
589 -0.4593152999999999 1.30704190000068 0
590 -0.7304655000000221 0.8573094999999874 0
591 -0.7940788333334861 0.8207064999999122 0
592 -0.4593259 1.207212200000472 0
593 -0.6668521666666776 0.8939124999999939 0
594 -0.5949060000000308 0.9353104999999824 0
595 -0.4592746999999999 1.689084600000572 0
596 -0.4592846999999999 1.595013600000824 0
597 -0.4592946999999999 1.500942600000902 0
598 -0.4593359 1.113141200000247 0
599 -0.4592541 1.882985300000156 0
600 -0.4592641 1.788914300000299 0
601 -0.6584673333336772 2.099376666666868 0
602 -0.5948373333336413 2.062148333333513 0
603 -0.5312073333334787 2.024920000000085 0
604 -0.7940611666668203 2.17871000000009 0
605 -0.4592435 1.982815 0
606 -0.7304311666670187 2.141481666666873 0
607 -0.5312926666668392 0.9719134999999008 0
608 -0.4593465 1.0133115 0
609 0.7941933333331421 2.262716666666777 0
610 0.7223603333329689 2.30413000000021 0
611 -0.4092435 1.98271 0
612 -0.4092541 1.882880300000156 0
613 0.574348000000377 0.6150288333335501 0
614 0.6472683333337294 0.6569441666668943 0
615 0.126296833332486 2.291668333332844 0
616 0.2082248333327144 2.338933333332976 0
617 0.6505286666663381 2.345541666666856 0
618 0.5786956666663274 2.386955000000196 0
619 -0.1554902000002022 0.8672398000001164 0
620 -0.07420410000001515 0.8204667000000088 0
621 -0.4092641 1.788830299999922 0
622 -0.4092947 1.500900600000069 0
623 -0.4092847 1.594950599999983 0
624 -0.3230614000001702 0.9636622000000979 0
625 -0.2417752999999452 0.9168890999999684 0
626 -0.02807025000102881 2.202612499999407 0
627 0.05385774999897724 2.24987749999941 0
628 -0.1005093333341279 2.160821666666208 0
629 -0.4092747 1.689000600000195 0
630 -0.4093359 1.113141200000247 0
631 -0.4093259 1.207191200000165 0
632 0.174653199999778 0.6772712000001277 0
633 0.260938299999997 0.6276219000000017 0
634 -0.4093152999999999 1.307020900000373 0
635 0.5068639999998161 2.428366666666773 0
636 0.435031 2.46978 0
637 0.7201865000004131 0.698858166666904 0
638 0.7931068333335413 0.7407735000001194 0
639 0.01208099999998447 0.770817400000009 0
640 0.280663916666204 2.3807241666664 0
641 0.09336709999999709 0.7240443000000016 0
642 -0.4093053 1.401070900000095 0
643 -0.3368044166667402 2.024500833333291 0
644 0.4285095 0.5311995 0
645 0.5014298333335195 0.5731148333334404 0
646 -0.2548764166669023 2.071765833333197 0
647 0.3625919166664076 2.427989166666517 0
648 0.3422243999997914 0.5808488000001201 0
649 -0.182437333333852 2.113556666666367 0
650 -0.4093465 1.0133115 0
651 -0.2073735333339005 2.15689666666634 0
652 -0.2798126166669508 2.115105833333169 0
653 -0.4341535 2.026065 0
654 -0.5061173333334786 2.068170000000085 0
655 -0.7940316666668473 2.236623333333439 0
656 0.1832100333327507 2.382228333332997 0
657 0.1013082333323792 2.334978333332783 0
658 -0.05303265000108814 2.245937499999372 0
659 -0.1254717333341872 2.204146666666174 0
660 -0.7220678333336674 2.194518333333529 0
661 0.02886914999887041 2.293187499999348 0
662 0.4093606666666681 2.75893333333277 0
663 0.4091590000000012 2.837686666666219 0
664 -0.3617144166667401 2.067855833333291 0
665 0.4089451666666671 2.921246666666508 0
666 0.40999 2.51306 0
667 0.3375509166664076 2.471269166666517 0
668 -0.5781106666670467 2.110291666666889 0
669 -0.6500745000003882 2.152396666666894 0
670 0.2556491166662402 2.424019166666421 0
671 0.4097761666666671 2.596619999999855 0
672 0.4095745000000011 2.675373333332914 0
673 0.4589455000000009 2.92126166666632 0
674 0.7941919999998268 2.320428333333433 0
675 0.7306799999999498 2.357045000000029 0
676 0.6588469999999391 2.398458333333369 0
677 0.5953349999999211 2.435075000000046 0
678 0.4593608333333346 2.758963333332871 0
679 0.4595746666666675 2.675403333333015 0
680 0.5318229999998161 2.471691666666773 0
681 0.459776166666667 2.596664999999855 0
682 0.45999 2.513105 0
683 0.459159333333335 2.837701666666031 0
$EndNodes
$Elements
290
1 15 2 2 2373783 33
2 15 2 1 2376795 36
3 15 2 3 2380810 39
4 15 2 4 2406907 58
5 8 2 1 40652 33 35 278
6 8 2 4 40653 36 34 279
7 8 2 1 40657 33 38 295
8 8 2 2 40658 39 37 296
9 8 2 4 40662 34 41 312
10 8 2 4 40663 42 40 313
11 8 2 2 40667 43 44 329
12 8 2 2 40668 45 37 330
13 8 2 4 40672 40 47 346
14 8 2 4 40673 48 46 347
15 8 2 2 40677 43 51 363
16 8 2 2 40678 50 49 364
17 8 2 4 40682 46 53 380
18 8 2 4 40683 54 52 381
19 8 2 2 40687 55 57 397
20 8 2 2 40688 56 49 398
21 8 2 3 40692 58 60 414
22 8 2 4 40693 59 52 415
23 8 2 3 40696 58 62 426
24 8 2 2 40697 61 55 427
25 9 2 11 4581 65 75 64 428 429 70
26 9 2 11 4581 263 264 274 266 430 431
27 9 2 11 4581 9 77 67 82 432 433
28 9 2 11 4581 274 264 10 430 434 277
29 9 2 11 4581 259 268 258 435 436 261
30 9 2 11 4581 273 263 274 437 431 276
31 9 2 11 4581 64 74 63 438 439 69
32 9 2 11 4581 34 263 273 265 437 440
33 9 2 11 4581 258 9 7 441 442 260
34 9 2 11 4581 268 9 258 270 441 436
35 9 2 11 4581 36 34 273 279 440 275
36 9 2 11 4581 76 75 65 80 428 443
37 9 2 11 4581 33 269 259 444 445 262
38 9 2 11 4581 264 6 10 267 446 434
39 9 2 11 4581 77 76 66 81 447 448
40 9 2 11 4581 269 268 259 271 435 445
41 9 2 11 4581 35 269 33 272 444 278
42 9 2 11 4581 9 67 7 433 73 442
43 9 2 11 4581 77 66 67 448 72 432
44 9 2 11 4581 63 10 6 449 446 68
45 9 2 11 4581 76 65 66 443 71 447
46 9 2 11 4581 75 74 64 79 438 429
47 9 2 11 4581 74 10 63 78 449 439
48 9 2 11 4582 38 286 33 289 450 295
49 9 2 11 4582 290 39 280 292 451 452
50 9 2 11 4582 258 11 7 453 454 260
51 9 2 11 4582 11 291 281 294 455 456
52 9 2 11 4582 286 285 259 288 457 458
53 9 2 11 4582 281 290 280 459 452 283
54 9 2 11 4582 33 286 259 450 458 262
55 9 2 11 4582 285 11 258 287 453 460
56 9 2 11 4582 11 281 7 456 284 454
57 9 2 11 4582 280 39 37 451 296 282
58 9 2 11 4582 291 290 281 293 459 455
59 9 2 11 4582 259 285 258 457 460 261
60 9 2 11 4583 84 92 83 461 462 88
61 9 2 11 4583 34 41 263 312 463 265
62 9 2 11 4583 95 94 85 99 464 465
63 9 2 11 4583 86 95 85 466 465 90
64 9 2 11 4583 41 303 263 306 467 463
65 9 2 11 4583 92 13 83 96 468 462
66 9 2 11 4583 307 42 297 309 469 470
67 9 2 11 4583 297 42 40 469 313 299
68 9 2 11 4583 13 308 298 311 471 472
69 9 2 11 4583 308 297 298 473 300 471
70 9 2 11 4583 85 93 84 474 475 89
71 9 2 11 4583 308 307 297 310 470 473
72 9 2 11 4583 303 302 264 305 476 477
73 9 2 11 4583 83 13 5 468 478 87
74 9 2 11 4583 93 92 84 97 461 475
75 9 2 11 4583 85 94 93 464 98 474
76 9 2 11 4583 263 303 264 467 477 266
77 9 2 11 4583 13 298 5 472 301 478
78 9 2 11 4583 264 302 12 476 304 479
79 9 2 11 4583 12 95 86 100 466 480
80 9 2 11 4583 264 12 6 479 481 267
81 9 2 11 4583 6 12 86 481 480 91
82 9 2 11 4584 44 320 43 323 482 329
83 9 2 11 4584 6 86 15 91 483 484
84 9 2 11 4584 128 102 129 485 486 133
85 9 2 11 4584 110 66 111 487 488 115
86 9 2 11 4584 102 103 130 107 489 490
87 9 2 11 4584 67 66 110 72 487 491
88 9 2 11 4584 325 324 280 327 492 493
89 9 2 11 4584 129 102 130 486 490 134
90 9 2 11 4584 7 67 14 73 494 495
91 9 2 11 4584 280 324 37 492 496 282
92 9 2 11 4584 130 103 131 489 497 135
93 9 2 11 4584 120 84 121 498 499 125
94 9 2 11 4584 122 83 16 500 501 127
95 9 2 11 4584 65 64 112 70 502 503
96 9 2 11 4584 43 320 315 482 504 318
97 9 2 11 4584 16 5 101 505 105 506
98 9 2 11 4584 15 86 119 483 507 123
99 9 2 11 4584 14 325 281 328 508 509
100 9 2 11 4584 128 101 102 510 106 485
101 9 2 11 4584 121 84 122 499 511 126
102 9 2 11 4584 281 325 280 508 493 283
103 9 2 11 4584 319 17 314 321 512 513
104 9 2 11 4584 104 4 17 109 514 515
105 9 2 11 4584 64 63 113 69 516 517
106 9 2 11 4584 131 104 17 518 515 136
107 9 2 11 4584 14 67 110 494 491 114
108 9 2 11 4584 7 14 281 495 509 284
109 9 2 11 4584 324 45 37 326 330 496
110 9 2 11 4584 86 85 119 90 519 507
111 9 2 11 4584 66 65 111 71 520 488
112 9 2 11 4584 84 83 122 88 500 511
113 9 2 11 4584 314 17 4 512 514 316
114 9 2 11 4584 63 15 113 521 118 516
115 9 2 11 4584 103 104 131 108 518 497
116 9 2 11 4584 64 113 112 517 117 502
117 9 2 11 4584 315 319 314 522 513 317
118 9 2 11 4584 63 6 15 68 484 521
119 9 2 11 4584 85 84 120 89 498 523
120 9 2 11 4584 83 5 16 87 505 501
121 9 2 11 4584 16 101 128 506 510 132
122 9 2 11 4584 111 65 112 520 503 116
123 9 2 11 4584 119 85 120 519 523 124
124 9 2 11 4584 320 319 315 322 522 504
125 9 2 11 4585 337 40 47 524 346 340
126 9 2 11 4585 103 176 175 525 180 526
127 9 2 11 4585 20 160 140 165 527 528
128 9 2 11 4585 160 159 139 164 529 530
129 9 2 11 4585 168 167 148 172 531 532
130 9 2 11 4585 48 46 341 347 533 343
131 9 2 11 4585 147 166 146 534 535 152
132 9 2 11 4585 101 178 102 536 537 106
133 9 2 11 4585 4 21 150 538 539 156
134 9 2 11 4585 341 331 342 540 541 344
135 9 2 11 4585 297 40 337 299 524 542
136 9 2 11 4585 157 19 137 161 543 544
137 9 2 11 4585 158 157 138 162 545 546
138 9 2 11 4585 21 169 150 174 547 539
139 9 2 11 4585 104 21 4 548 538 109
140 9 2 11 4585 148 167 147 531 549 153
141 9 2 11 4585 177 176 103 181 525 550
142 9 2 11 4585 298 297 336 300 551 552
143 9 2 11 4585 150 169 149 547 553 155
144 9 2 11 4585 103 175 104 526 554 108
145 9 2 11 4585 5 18 101 555 556 105
146 9 2 11 4585 159 158 138 163 546 557
147 9 2 11 4585 342 332 19 558 559 345
148 9 2 11 4585 336 297 337 551 542 339
149 9 2 11 4585 332 3 19 335 560 559
150 9 2 11 4585 331 332 342 334 558 541
151 9 2 11 4585 138 157 137 545 544 142
152 9 2 11 4585 137 19 3 543 560 141
153 9 2 11 4585 178 177 102 182 561 537
154 9 2 11 4585 102 177 103 561 550 107
155 9 2 11 4585 146 20 2 562 563 151
156 9 2 11 4585 160 139 140 530 144 527
157 9 2 11 4585 167 166 147 171 534 549
158 9 2 11 4585 159 138 139 557 143 529
159 9 2 11 4585 18 178 101 183 536 556
160 9 2 11 4585 18 298 336 564 552 338
161 9 2 11 4585 5 298 18 301 564 555
162 9 2 11 4585 46 331 341 333 540 533
163 9 2 11 4585 20 140 2 528 145 563
164 9 2 11 4585 149 168 148 565 532 154
165 9 2 11 4585 166 20 146 170 562 535
166 9 2 11 4585 104 175 21 554 179 548
167 9 2 11 4585 169 168 149 173 565 553
168 9 2 11 4586 22 354 349 357 566 567
169 9 2 11 4586 23 187 150 192 568 569
170 9 2 11 4586 149 186 148 570 571 154
171 9 2 11 4586 150 187 149 568 572 155
172 9 2 11 4586 147 184 146 573 574 152
173 9 2 11 4586 148 185 147 575 576 153
174 9 2 11 4586 51 359 315 362 577 578
175 9 2 11 4586 186 185 148 190 575 571
176 9 2 11 4586 187 186 149 191 570 572
177 9 2 11 4586 184 22 146 188 579 574
178 9 2 11 4586 315 359 358 577 361 580
179 9 2 11 4586 354 348 349 581 351 566
180 9 2 11 4586 4 23 150 582 569 156
181 9 2 11 4586 43 51 315 363 578 318
182 9 2 11 4586 314 358 23 583 360 584
183 9 2 11 4586 315 358 314 580 583 317
184 9 2 11 4586 314 23 4 584 582 316
185 9 2 11 4586 22 349 2 567 352 585
186 9 2 11 4586 354 353 348 356 586 581
187 9 2 11 4586 146 22 2 579 585 151
188 9 2 11 4586 185 184 147 189 573 576
189 9 2 11 4586 353 50 348 355 587 586
190 9 2 11 4586 348 50 49 587 364 350
191 9 2 11 4587 205 204 195 209 588 589
192 9 2 11 4587 53 371 331 374 590 591
193 9 2 11 4587 196 205 195 592 589 200
194 9 2 11 4587 331 370 332 593 594 334
195 9 2 11 4587 203 202 194 207 595 596
196 9 2 11 4587 195 204 194 588 597 199
197 9 2 11 4587 24 205 196 210 592 598
198 9 2 11 4587 202 25 193 206 599 600
199 9 2 11 4587 204 203 194 208 596 597
200 9 2 11 4587 331 371 370 590 373 593
201 9 2 11 4587 46 53 331 380 591 333
202 9 2 11 4587 376 375 366 378 601 602
203 9 2 11 4587 25 376 366 379 602 603
204 9 2 11 4587 365 54 52 604 381 367
205 9 2 11 4587 193 25 1 599 605 197
206 9 2 11 4587 375 54 365 377 604 606
207 9 2 11 4587 366 375 365 601 606 368
208 9 2 11 4587 194 202 193 595 600 198
209 9 2 11 4587 25 366 1 603 369 605
210 9 2 11 4587 332 24 3 607 608 335
211 9 2 11 4587 3 24 196 608 598 201
212 9 2 11 4587 332 370 24 594 372 607
213 9 2 11 4588 55 393 383 609 610 386
214 9 2 11 4588 193 1 28 197 611 612
215 9 2 11 4588 349 388 348 613 614 351
216 9 2 11 4588 242 214 243 615 616 247
217 9 2 11 4588 383 392 382 617 618 385
218 9 2 11 4588 138 225 224 619 229 620
219 9 2 11 4588 393 392 383 395 617 610
220 9 2 11 4588 234 193 28 621 612 239
221 9 2 11 4588 232 194 233 622 623 237
222 9 2 11 4588 137 27 225 624 230 625
223 9 2 11 4588 138 137 225 142 625 619
224 9 2 11 4588 241 213 242 626 627 246
225 9 2 11 4588 241 212 213 628 218 626
226 9 2 11 4588 233 194 234 623 629 238
227 9 2 11 4588 27 196 231 630 631 235
228 9 2 11 4588 213 214 242 219 615 627
229 9 2 11 4588 194 193 234 198 621 629
230 9 2 11 4588 140 139 222 144 632 633
231 9 2 11 4588 196 195 231 200 634 631
232 9 2 11 4588 382 29 8 635 636 384
233 9 2 11 4588 348 387 49 637 638 350
234 9 2 11 4588 139 138 224 143 620 639
235 9 2 11 4588 214 215 243 220 640 616
236 9 2 11 4588 222 139 223 632 641 227
237 9 2 11 4588 195 194 232 199 622 642
238 9 2 11 4588 231 195 232 634 642 236
239 9 2 11 4588 28 1 211 611 216 643
240 9 2 11 4588 388 387 348 390 637 614
241 9 2 11 4588 2 26 349 644 645 352
242 9 2 11 4588 28 211 240 643 646 244
243 9 2 11 4588 215 8 29 221 636 647
244 9 2 11 4588 26 140 222 648 633 226
245 9 2 11 4588 139 224 223 639 228 641
246 9 2 11 4588 392 29 382 394 635 618
247 9 2 11 4588 387 56 49 389 398 638
248 9 2 11 4588 243 215 29 640 647 248
249 9 2 11 4588 240 212 241 649 628 245
250 9 2 11 4588 2 140 26 145 648 644
251 9 2 11 4588 3 196 27 201 630 650
252 9 2 11 4588 26 388 349 391 613 645
253 9 2 11 4588 137 3 27 141 650 624
254 9 2 11 4588 57 393 55 396 609 397
255 9 2 11 4588 240 211 212 646 217 649
256 9 2 11 4589 211 212 249 217 651 652
257 9 2 11 4589 1 30 366 653 654 369
258 9 2 11 4589 404 59 52 406 415 655
259 9 2 11 4589 214 252 251 656 256 657
260 9 2 11 4589 212 213 250 218 658 659
261 9 2 11 4589 365 404 52 660 655 367
262 9 2 11 4589 213 214 251 219 657 661
263 9 2 11 4589 409 400 410 662 663 412
264 9 2 11 4589 249 212 250 651 659 254
265 9 2 11 4589 30 211 249 664 652 253
266 9 2 11 4589 410 58 60 665 414 413
267 9 2 11 4589 215 8 31 221 666 667
268 9 2 11 4589 1 211 30 216 664 653
269 9 2 11 4589 250 213 251 658 661 255
270 9 2 11 4589 366 405 365 668 669 368
271 9 2 11 4589 30 405 366 408 668 654
272 9 2 11 4589 400 58 410 403 665 663
273 9 2 11 4589 215 31 252 667 257 670
274 9 2 11 4589 8 399 31 401 671 666
275 9 2 11 4589 399 400 409 402 662 672
276 9 2 11 4589 31 399 409 671 672 411
277 9 2 11 4589 214 215 252 220 670 656
278 9 2 11 4589 405 404 365 407 660 669
279 9 2 11 4590 422 58 62 673 426 425
280 9 2 11 4590 61 383 416 674 675 418
281 9 2 11 4590 416 382 417 676 677 419
282 9 2 11 4590 399 400 421 402 678 679
283 9 2 11 4590 383 382 416 385 676 675
284 9 2 11 4590 382 32 417 680 420 677
285 9 2 11 4590 32 399 421 681 679 423
286 9 2 11 4590 55 383 61 386 674 427
287 9 2 11 4590 382 8 32 384 682 680
288 9 2 11 4590 400 58 422 403 673 683
289 9 2 11 4590 421 400 422 678 683 424
290 9 2 11 4590 8 399 32 401 681 682
$EndElements
