$MeshFormat
2.2 0 8
$EndMeshFormat
$Nodes
683
1 0.434038 -0.503108 0
2 0.435974 2.49659 0
3 -0.435081 0.998851 0
4 -0.435942 1.99823 0
5 0.437157 0.498071 0
6 -0.434505 -0.997686 0
7 0.428075 -2.50072 0
8 -0.440033 -2.00116 0
9 -0.440069 -2.05883 0
10 0.37815 -2.52968 0
11 0.47815 -2.52938 0
12 -0.489874 -1.97211 0
13 -0.484664 -1.02637 0
14 -0.389873 -1.97234 0
15 -0.384665 -1.02684 0
16 0.43367 -0.560855 0
17 0.427894 -2.44293 0
18 -0.434256 -0.940006 0
19 0.384128 -0.47399 0
20 0.387067 0.469175 0
21 -0.434949 0.941121 0
22 0.484127 -0.474518 0
23 0.487067 0.469202 0
24 -0.485917 1.96951 0
25 -0.485106 1.02763 0
26 0.435824 2.43891 0
27 -0.385917 1.96923 0
28 -0.385106 1.02781 0
29 0.437043 0.555791 0
30 -0.43568 2.05597 0
31 0.385953 2.52559 0
32 0.485954 2.52544 0
33 0.429371 -3 0
34 -0.866025 -2.24558 0
35 0.379371 -3 0
36 -0.866025 -2.30323 0
37 0.866025 -2.24503 0
38 0.866025 -2.30293 0
39 0.479371 -3 0
40 -0.866025 -0.7470020000000001 0
41 -0.866025 -0.804827 0
42 -0.866025 -2.18794 0
43 0.866025 -0.756431 0
44 0.866025 -0.814394 0
45 0.866025 -2.18713 0
46 -0.866025 0.748812 0
47 -0.866025 0.691005 0
48 -0.866025 -0.689177 0
49 0.866025 0.7465540000000001 0
50 0.866025 -0.698468 0
51 0.866025 0.688768 0
52 -0.866025 2.24926 0
53 -0.866025 2.19136 0
54 -0.866025 0.8066179999999999 0
55 0.866025 2.24781 0
56 0.866025 2.19005 0
57 0.866025 0.8043400000000001 0
58 0.435618 3 0
59 -0.866025 2.30715 0
60 0.385618 3 0
61 0.485618 3 0
62 0.866025 2.30557 0
63 -0.2664114000004413 -2.101071999999746 0
64 -0.09278980000093484 -2.200983999999462 0
65 0.0808317999990571 -2.300895999999457 0
66 0.2544533999995944 -2.400807999999766 0
67 -0.3532222000002435 -2.05111599999986 0
68 -0.1796006000006969 -2.151027999999599 0
69 -0.005979000001227919 -2.250939999999293 0
70 0.1676425999994364 -2.350851999999676 0
71 0.3412641999997644 -2.450763999999864 0
72 -0.2764252000003267 -2.152999999999812 0
73 -0.1127814000007709 -2.247169999999556 0
74 0.05086239999914893 -2.34133999999951 0
75 0.2145061999994427 -2.435509999999679 0
76 -0.3582471000001234 -2.105914999999929 0
77 -0.194603300000539 -2.20008499999969 0
78 -0.03095950000100128 -2.294254999999424 0
79 0.1326842999994151 -2.388424999999663 0
80 0.2963280999996938 -2.482594999999824 0
81 -0.4391116666666677 -1.833914333333521 0
82 -0.4381903333333365 -1.666668666667231 0
83 -0.4372690000000062 -1.499423000001128 0
84 -0.4363476666666707 -1.332177333334071 0
85 -0.4354263333333351 -1.164931666666999 0
86 -0.4395723333333333 -1.917537166666672 0
87 -0.4386510000000028 -1.75029150000051 0
88 -0.4377296666666711 -1.583045833334134 0
89 -0.4368083333333384 -1.415800166667578 0
90 -0.4358870000000018 -1.248554500000331 0
91 -0.4349656666666673 -1.081308833333454 0
92 -0.4888320000000024 -1.782962000000434 0
93 -0.4877900000000076 -1.593814000001388 0
94 -0.4867480000000065 -1.404666000001188 0
95 -0.4857059999999976 -1.215517999999574 0
96 -0.4893530000000005 -1.877536000000102 0
97 -0.488311000000005 -1.68838800000091 0
98 -0.487269000000009 -1.499240000001641 0
99 -0.4862270000000028 -1.310092000000513 0
100 -0.4851849999999975 -1.120943999999547 0
101 -0.2607964000004002 -0.8987704000002279 0
102 -0.0870878000009459 -0.7998548000005387 0
103 0.08662079999908695 -0.7009392000005199 0
104 0.2603293999995455 -0.6020236000002588 0
105 -0.3476507000001449 -0.9482282000000825 0
106 -0.1739421000007353 -0.8493126000004187 0
107 -0.0002335000011739474 -0.7503970000006684 0
108 0.1734750999992967 -0.6514814000004004 0
109 0.3471836999996866 -0.5525658000001785 0
110 -0.3888314000000026 -1.783240000000468 0
111 -0.3877898000000028 -1.594140000000503 0
112 -0.3867482000000035 -1.405040000000642 0
113 -0.3857066000000027 -1.215940000000486 0
114 -0.3893521999999996 -1.877789999999933 0
115 -0.388310600000004 -1.688690000000729 0
116 -0.3872690000000051 -1.499590000000925 0
117 -0.3862274000000021 -1.310490000000378 0
118 -0.3851858 -1.121390000000005 0
119 -0.2209980000004033 -0.9336430000002297 0
120 -0.05733100000088159 -0.8404460000005021 0
121 0.1063359999990791 -0.7472490000005244 0
122 0.2700029999996258 -0.6540520000002131 0
123 -0.302831500000257 -0.9802415000001463 0
124 -0.1391645000006735 -0.8870445000003835 0
125 0.02450249999881671 -0.7938475000006738 0
126 0.1881694999994002 -0.7006505000003416 0
127 0.3518364999997944 -0.6074535000001171 0
128 0.2643406000004196 -2.348812000000242 0
129 0.1007872000008476 -2.254694000000488 0
130 -0.06276619999919386 -2.160576000000464 0
131 -0.2263195999995967 -2.066458000000232 0
132 0.3461173000003832 -2.39587100000022 0
133 0.1825639000005806 -2.301753000000334 0
134 0.01901050000102777 -2.207635000000591 0
135 -0.1445428999994512 -2.113517000000316 0
136 -0.3080962999999263 -2.019399000000043 0
137 0.4346617999999985 -0.3028722000004748 0
138 0.4352855999999969 -0.1026364000010035 0
139 0.4359093999999967 0.09759939999894673 0
140 0.4365331999999983 0.2978351999994494 0
141 0.4343498999999993 -0.4029901000002134 0
142 0.4349736999999977 -0.2027543000007378 0
143 0.4355974999999961 -0.002518500001260415 0
144 0.4362212999999975 0.1977172999991981 0
145 0.4368450999999992 0.3979530999997353 0
146 0.2917840000003136 0.5815343333331533 0
147 0.1464110000007771 0.6649976666662205 0
148 0.001038000001179817 0.7484609999993226 0
149 -0.1443349999992496 0.8319243333329025 0
150 -0.2897079999996048 0.9153876666664398 0
151 0.3644705000002035 0.5398026666665497 0
152 0.2190975000005508 0.6232659999996837 0
153 0.07372450000095826 0.7067293333327831 0
154 -0.07164849999897838 0.7901926666660801 0
155 -0.2170214999994394 0.8736559999996781 0
156 -0.3623944999998402 0.9571193333332415 0
157 -0.2705792000003697 -0.8468028000002106 0
158 -0.1069024000008218 -0.753599600000468 0
159 0.05677439999917427 -0.6603964000004703 0
160 0.2204511999995851 -0.5671932000002363 0
161 -0.3524176000001885 -0.8934044000001073 0
162 -0.1887408000005918 -0.800201200000337 0
163 -0.02506400000106757 -0.706998000000608 0
164 0.1386127999993825 -0.6137948000003517 0
165 0.3022895999998606 -0.5205916000000794 0
166 0.3847157999999986 -0.2853570000004642 0
167 0.3853035999999968 -0.0967240000010367 0
168 0.3858913999999968 0.09190899999898927 0
169 0.3864791999999983 0.2805419999994621 0
170 0.3844218999999994 -0.3796735000001856 0
171 0.3850096999999975 -0.1910405000008011 0
172 0.385597499999996 -0.00240750000127149 0
173 0.3861852999999977 0.1862254999992723 0
174 0.3867730999999994 0.374858499999801 0
175 0.2226638000003725 0.5635641999997861 0
176 0.05826060000086436 0.6579533999995038 0
177 -0.1061425999990945 0.7523425999994802 0
178 -0.2705457999995742 0.8467317999997556 0
179 0.3048654000001669 0.5163695999999042 0
180 0.1404622000006325 0.6107587999996369 0
181 -0.02394099999882465 0.7051479999993252 0
182 -0.1883441999993199 0.7995371999996095 0
183 -0.3527473999998319 0.8939263999999034 0
184 0.4847149999999987 -0.2857740000004204 0
185 0.4853029999999968 -0.09703000000101436 0
186 0.4858909999999969 0.0917139999989901 0
187 0.4864789999999986 0.2804579999995279 0
188 0.4844209999999995 -0.3801460000001645 0
189 0.4850089999999979 -0.1914020000006695 0
190 0.4855969999999961 -0.002658000001269978 0
191 0.4861849999999977 0.1860859999992612 0
192 0.4867729999999995 0.3748299999998258 0
193 -0.4352531999999996 1.198726799999531 0
194 -0.4354253999999991 1.398602599998976 0
195 -0.4355975999999993 1.598478399999106 0
196 -0.4357697999999996 1.798354199999531 0
197 -0.4351670999999998 1.098788899999807 0
198 -0.4353392999999996 1.298664699999545 0
199 -0.4355114999999992 1.498540499999004 0
200 -0.4356836999999994 1.698416299999278 0
201 -0.4358558999999995 1.898292099999455 0
202 -0.4852681999999998 1.216005999999714 0
203 -0.4854303999999993 1.404381999999159 0
204 -0.4855925999999992 1.592757999999046 0
205 -0.4857547999999995 1.78113399999948 0
206 -0.4851870999999999 1.121817999999928 0
207 -0.4853492999999995 1.310193999999461 0
208 -0.485511499999999 1.498569999998927 0
209 -0.4856736999999994 1.686945999999324 0
210 -0.4858358999999998 1.875321999999822 0
211 0.2906546666669913 2.413530000000185 0
212 0.1453353333341519 2.330470000000468 0
213 1.600000113421984e-05 2.247410000000648 0
214 -0.1453033333326023 2.164350000000418 0
215 -0.2906226666662768 2.081290000000223 0
216 0.3633143333335156 2.455060000000104 0
217 0.2179950000005739 2.372000000000328 0
218 0.07267566666765674 2.288940000000566 0
219 -0.07264366666580324 2.205880000000493 0
220 -0.2179629999994281 2.122820000000327 0
221 -0.363282333333014 2.039760000000182 0
222 0.2714758000003759 2.344974000000215 0
223 0.1071276000007886 2.251038000000451 0
224 -0.05722059999920875 2.157102000000452 0
225 -0.2215687999996828 2.063166000000181 0
226 0.3536499000002969 2.391942000000169 0
227 0.1893017000006432 2.298006000000368 0
228 0.02495350000106883 2.204070000000611 0
229 -0.1393946999990894 2.11013400000052 0
230 -0.3037428999998398 2.016198000000092 0
231 -0.3857548000000005 1.780946000000503 0
232 -0.385592600000001 1.592662000001093 0
233 -0.3854304000000009 1.40437800000105 0
234 -0.3852682000000004 1.21609400000046 0
235 -0.3858359000000001 1.875088000000109 0
236 -0.3856737000000007 1.686804000000775 0
237 -0.3855115000000012 1.498520000001446 0
238 -0.3853493000000009 1.3102360000011 0
239 -0.3851871000000003 1.121952000000361 0
240 -0.2206762000003488 0.9334062000002002 0
241 -0.05624640000081571 0.8390024000004683 0
242 0.1081833999991237 0.7445986000005032 0
243 0.2726131999995707 0.6501948000002464 0
244 -0.3028911000001712 0.9806081000000981 0
245 -0.1384613000005911 0.8862043000003392 0
246 0.02596849999885975 0.7918005000006546 0
247 0.1903982999993513 0.6973967000003725 0
248 0.3548280999997757 0.6029929000001288 0
249 0.2216264000003959 2.431666000000226 0
250 0.05729980000085744 2.33774200000049 0
251 -0.107026799999086 2.243818000000522 0
252 -0.2713533999994976 2.149894000000287 0
253 0.3037897000001804 2.478628000000103 0
254 0.1394631000007552 2.384704000000431 0
255 -0.02486349999895737 2.290780000000596 0
256 -0.189190099999286 2.196856000000408 0
257 -0.3535166999998312 2.102932000000096 0
258 0.4285069999999988 -2.667146666666204 0
259 0.428938999999999 -2.833573333332928 0
260 0.428291 -2.583933333333351 0
261 0.4287229999999968 -2.750359999998779 0
262 0.4291549999999979 -2.916786666665852 0
263 -0.7240276666669935 -2.164106666666854 0
264 -0.5820303333336297 -2.082633333333503 0
265 -0.7950263333335933 -2.204843333333482 0
266 -0.6530290000007668 -2.12337000000044 0
267 -0.5110316666668746 -2.041896666666786 0
268 0.3785569999999988 -2.686453333332871 0
269 0.378963999999999 -2.843226666666291 0
270 0.378353499999998 -2.608066666665913 0
271 0.378760499999997 -2.764839999998844 0
272 0.3791674999999999 -2.921613333333308 0
273 -0.7240396666670202 -2.221763333333536 0
274 -0.5820543333338227 -2.140296666666948 0
275 -0.7950323333335966 -2.262496666666818 0
276 -0.6530470000006078 -2.181030000000349 0
277 -0.5110616666666994 -2.099563333333352 0
278 0.404371 -3 0
279 -0.866025 -2.274405000000747 0
280 0.5740583333327995 -2.415490000000311 0
281 0.7200416666660463 -2.330260000000362 0
282 0.5010666666665591 -2.458105000000063 0
283 0.6470499999990711 -2.372875000000542 0
284 0.7930333333326688 -2.287645000000388 0
285 0.6074416666670498 -2.453896666666443 0
286 0.7367333333325944 -2.378413333333765 0
287 0.5427958333333112 -2.491638333333346 0
288 0.6720874999996299 -2.416155000000216 0
289 0.8013791666662753 -2.340671666666895 0
290 0.4789640000000002 -2.843126666666754 0
291 0.4785570000000018 -2.686253333334027 0
292 0.4791675000000004 -2.921563333333469 0
293 0.4787605000000017 -2.764690000000651 0
294 0.478353500000001 -2.607816666667038 0
295 0.866025 -2.27398 0
296 0.454371 -3 0
297 -0.5783449999996394 -0.9141246666668761 0
298 -0.7221849999996423 -0.8305633333335412 0
299 -0.5064249999996503 -0.9559053333335364 0
300 -0.650264999999447 -0.8723440000003213 0
301 -0.794104999999879 -0.788782666666737 0
302 -0.6117843333329798 -0.9525223333335386 0
303 -0.7389046666662376 -0.878674666666916 0
304 -0.5482241666664128 -0.9894461666668142 0
305 -0.6753444999992472 -0.9155985000004373 0
306 -0.802464833333113 -0.8417508333334613 0
307 -0.7406413333336637 -2.115996666666856 0
308 -0.6152576666670363 -2.044053333333546 0
309 -0.803333166667044 -2.15196833333355 0
310 -0.6779495000005391 -2.08002500000031 0
311 -0.5525658333334103 -2.008081666666711 0
312 -0.866025 -0.7759145000000001 0
313 -0.866025 -2.21676 0
314 0.5780336666662098 -0.5875489999997321 0
315 0.722029333332918 -0.6719899999997564 0
316 0.5060358333331575 -0.5453284999998969 0
317 0.6500314999994845 -0.6297694999996977 0
318 0.7940271666663246 -0.7142104999997994 0
319 0.5777883333328793 -0.6453679999997337 0
320 0.7219066666661158 -0.7298809999996769 0
321 0.5057291666664486 -0.6031114999998721 0
322 0.6498474999992877 -0.6876244999995822 0
323 0.7939658333331703 -0.7721374999999043 0
324 0.7199813333336156 -2.272396666666502 0
325 0.5739376666671108 -2.357663333333074 0
326 0.7930031666666806 -2.229763333333325 0
327 0.6469595000009551 -2.315029999999442 0
328 0.5009158333334264 -2.400296666666613 0
329 0.866025 -0.7854125 0
330 0.866025 -2.21608 0
331 -0.5787289999996159 0.9155046666668896 0
332 -0.7223769999996035 0.8321583333335634 0
333 -0.5069049999998723 0.9571778333334074 0
334 -0.6505529999992985 0.8738315000004071 0
335 -0.7942009999998018 0.7904851666667817 0
336 -0.5786409999996734 0.8577490000001895 0
337 -0.7223329999996604 0.774377000000197 0
338 -0.5067949999998312 0.8994350000000979 0
339 -0.6504869999995722 0.8160630000002482 0
340 -0.7941789999998584 0.7326910000000821 0
341 -0.7221020000003366 -0.7727866666664711 0
342 -0.5781790000003257 -0.8563963333331441 0
343 -0.7940635000002876 -0.7309818333331662 0
344 -0.6501405000005325 -0.8145914999996907 0
345 -0.5062175000001976 -0.8982011666665519 0
346 -0.866025 0.719908499999848 0
347 -0.866025 -0.7180895 0
348 0.5801129999996786 0.5808986666664805 0
349 0.7230689999996021 0.6637263333331027 0
350 0.5086349999999744 0.5394848333333184 0
351 0.6515909999992767 0.6223124999995809 0
352 0.7945469999997068 0.7051401666664968 0
353 0.7387256666670047 -0.6238180000001982 0
354 0.6114263333336628 -0.5491680000001933 0
355 0.8023753333334943 -0.6611430000000944 0
356 0.6750760000005456 -0.5864930000003199 0
357 0.5477766666669734 -0.5118430000001799 0
358 0.6133863333330218 0.5423906666664862 0
359 0.7397056666663131 0.6155793333331285 0
360 0.5502266666664863 0.5057963333332288 0
361 0.6765459999993292 0.5789849999996114 0
362 0.8028653333332345 0.6521736666666094 0
363 0.866025 0.7176610000001521 0
364 0.866025 -0.7274495 0
365 -0.5793029999992791 2.081906666666246 0
366 -0.7226639999993582 2.165583333332959 0
367 -0.5076224999995708 2.040068333333083 0
368 -0.6509834999992792 2.123744999999579 0
369 -0.7943444999996269 2.207421666666449 0
370 -0.6126196666663828 2.043459999999834 0
371 -0.7393223333329882 2.117409999999798 0
372 -0.5492683333331013 2.006484999999865 0
373 -0.6759709999993315 2.08043499999961 0
374 -0.8026736666666938 2.154385000000016 0
375 -0.7390520000003225 0.8802886666664795 0
376 -0.6120790000002774 0.9539593333331724 0
377 -0.8025385000001989 0.8434533333332179 0
378 -0.675565500000503 0.9171239999997082 0
379 -0.5485925000001377 0.9907946666665868 0
380 -0.866025 2.22031 0
381 -0.866025 0.7777150000000462 0
382 0.7226746666670089 2.330736666666469 0
383 0.579324333333791 2.413663333333068 0
384 0.7943498333334664 2.289273333333256 0
385 0.6509995000005803 2.372199999999664 0
386 0.507649166666998 2.455126666666475 0
387 0.7226246666670126 2.273003333333133 0
388 0.5792243333337281 2.355956666666438 0
389 0.7943248333332533 2.231526666666713 0
390 0.6509245000008256 2.314479999999522 0
391 0.5075241666663663 2.397433333333507 0
392 0.5800369999995749 0.6386406666664204 0
393 0.7230309999997037 0.7214903333331617 0
394 0.5085399999997021 0.5972158333331608 0
395 0.6515339999994766 0.6800654999996968 0
396 0.7945279999997441 0.7629151666665184 0
397 0.866025 0.775446999999848 0
398 0.866025 2.21893 0
399 0.4357366666666663 2.83219666666713 0
400 0.435855333333333 2.664393333333739 0
401 0.435677333333333 2.916098333333875 0
402 0.4357959999999996 2.748295000000566 0
403 0.4359146666666663 2.58049166666718 0
404 -0.5791283333328914 2.139696666666409 0
405 -0.7225766666663541 2.223423333333151 0
406 -0.5074041666665996 2.097833333333294 0
407 -0.6508524999994558 2.181559999999682 0
408 -0.7943008333331788 2.265286666666576 0
409 0.3857296666666664 2.84186333333368 0
410 0.3858413333333331 2.683726666667013 0
411 0.3856738333333331 2.920931666667016 0
412 0.3857854999999998 2.762795000000285 0
413 0.3858971666666663 2.604658333333847 0
414 -0.866025 2.27820499999918 0
415 0.410618 3 0
416 0.4857299999999994 2.841813333334143 0
417 0.4858419999999997 2.6836266666671 0
418 0.4856739999999991 2.920906666667916 0
419 0.4857859999999996 2.762720000000622 0
420 0.4858979999999994 2.604533333334178 0
421 0.6126443333331203 2.452150000000124 0
422 0.7393346666664624 2.378860000000118 0
423 0.5492991666663529 2.488795000000182 0
424 0.6759894999997058 2.41550500000017 0
425 0.8026798333332186 2.342215000000067 0
426 0.866025 2.27669 0
427 0.460618 3 0
428 0.4033284999999994 -2.598413333333102 0
429 0.4031125 -2.5152 0
430 -0.1027856000008529 -2.224076999999509 0
431 -0.02096370000089295 -2.271161999999486 0
432 -0.1846075000006308 -2.176991999999637 0
433 -0.271418300000384 -2.127035999999779 0
434 -0.7240336666670069 -2.192935000000195 0
435 -0.6530410000004081 -2.152201666666901 0
436 -0.5820423333337262 -2.111465000000226 0
437 -0.5110496666668148 -2.070731666666751 0
438 -0.3532402000002207 -2.079950999999873 0
439 -0.440051 -2.029995 0
440 0.3163016999997972 -2.465243999999883 0
441 0.4035319999999988 -2.676799999999537 0
442 0.4037479999999989 -2.7600133333329 0
443 0.403951499999999 -2.838399999999609 0
444 0.06584709999910301 -2.321117999999484 0
445 0.2344797999995185 -2.418158999999723 0
446 0.1476689999992499 -2.368202999999568 0
447 -0.7950323333335101 -2.233671666666768 0
448 0.4041674999999995 -2.921613333333145 0
449 0.7930333333330232 -2.316595000000181 0
450 0.4531125 -2.51505 0
451 0.4533284999999994 -2.598263333333102 0
452 0.7283874999993203 -2.354336666667063 0
453 0.4535320000000003 -2.676700000000116 0
454 0.655395833332697 -2.396951666667038 0
455 0.5261041666663998 -2.472435000000156 0
456 0.5907499999999246 -2.434693333333377 0
457 0.4539514999999996 -2.838349999999841 0
458 0.4537480000000004 -2.759913333333478 0
459 0.4541675000000001 -2.921563333333377 0
460 -0.4595845 -1.012028 0
461 -0.5315044999998197 -0.970247333333438 0
462 -0.4625295000000069 -1.546618500001258 0
463 -0.4620085000000064 -1.452044500001158 0
464 -0.462990166666672 -1.630241333334309 0
465 -0.4615478333333386 -1.36842166666763 0
466 -0.4635111666666694 -1.724815333333832 0
467 -0.4605661666666664 -1.190224833333287 0
468 -0.4600451666666676 -1.0956508333335 0
469 -0.4610268333333342 -1.273847666666823 0
470 -0.7305448333329398 -0.8546190000002285 0
471 -0.7941049999998211 -0.8176951666667706 0
472 -0.5950646666663095 -0.9333235000002074 0
473 -0.6586248333329385 -0.8963996666668961 0
474 -0.463971833333335 -1.808438166666978 0
475 -0.6696426666670149 -2.1040800000002 0
476 -0.7323345000003285 -2.140051666666855 0
477 -0.4644928333333339 -1.903012166666761 0
478 -0.598644000000333 -2.063343333333524 0
479 -0.7950263333334968 -2.176023333333427 0
480 -0.4649535 -1.986635 0
481 -0.5359521666668149 -2.027371666666752 0
482 -0.4135108666666695 -1.72495433333385 0
483 -0.4129900666666696 -1.630404333333867 0
484 0.433854 -0.5319815 0
485 0.3469996999997728 -0.5814393000001294 0
486 -0.4115479333333372 -1.368608666667356 0
487 -0.4120086000000048 -1.452231500000885 0
488 0.1725861999997384 -2.324853999999849 0
489 0.259397000000007 -2.374810000000004 0
490 0.3411736999997972 -2.421868999999883 0
491 0.4279845 -2.471825 0
492 0.5009761666663998 -2.429210000000156 0
493 0.5739979999999552 -2.386576666666693 0
494 -0.4144923333333339 -1.903127166666761 0
495 -0.4139715333333351 -1.808577166666995 0
496 -0.414953 -1.98675 0
497 -0.4110271333333367 -1.274058666667278 0
498 0.7939658333330579 -0.7431559999998385 0
499 -0.4105664666666689 -1.190435833333743 0
500 -0.4100456666666675 -1.0958858333335 0
501 -0.409585 -1.012263 0
502 -0.3227307000002001 -0.9628052000001139 0
503 0.096478399999083 -0.7240941000005221 0
504 0.009624099999066577 -0.7735519000005315 0
505 -0.3281422000002207 -2.036705999999873 0
506 -0.4125294000000045 -1.546781500000816 0
507 -0.1595547000002658 -2.133720999999847 0
508 -0.07777800000006435 -2.180779999999963 0
509 -0.246365500000019 -2.083764999999989 0
510 0.5058518333331049 -0.574201999999866 0
511 0.009032799999931618 -2.23073599999996 0
512 0.09080949999995233 -2.277794999999973 0
513 0.7200114999998309 -2.301328333333432 0
514 0.6469896666665785 -2.343961666666718 0
515 0.7930031666668078 -2.258713333333251 0
516 -0.1540429000006746 -0.8667489000003842 0
517 -0.07220940000091375 -0.8201504000005204 0
518 0.6499088333328986 -0.6586789999997451 0
519 0.7219679999995169 -0.7009354999997166 0
520 0.1783118999993564 -0.6774956000003665 0
521 0.5779109999995445 -0.6164584999997329 0
522 0.2651661999995856 -0.628037800000236 0
523 -0.2408972000004018 -0.9162067000002287 0
524 0.3222286999997728 -0.5380068000001295 0
525 0.2403902999995653 -0.5846084000002476 0
526 -0.7941789999998302 0.7615945000000985 0
527 -0.1788335000006578 -0.8233288000003747 0
528 -0.2656878000003849 -0.8727866000002192 0
529 0.412112 0.483623 0
530 0.4118000999999991 0.3835050999997247 0
531 -0.5782619999999825 -0.8852605000000101 0
532 -0.6501819999999841 -0.8434798333333426 0
533 -0.5063004999998197 -0.927065333333438 0
534 0.153535999999336 -0.6340662000003781 0
535 -0.125238799999172 0.7921334666661913 0
536 -0.05255229999895733 0.7504017999994014 0
537 0.4115061999999983 0.2891885999994557 0
538 0.4111942999999975 0.1890706999992044 0
539 -0.6505089999996385 0.8449536666668764 0
540 -0.7223549999996319 0.8032676666668802 0
541 0.4109003999999968 0.094754199998968 0
542 0.4093948999999992 -0.3884311000002374 0
543 0.4096887999999985 -0.2941146000004695 0
544 -0.2074403999994119 0.839328066666329 0
545 0.02964930000102209 0.7032071999994132 0
546 0.4105884999999969 -0.00536370000100711 0
547 0.4102945999999968 -0.0996802000010201 0
548 0.07169759999913061 -0.6806678000004951 0
549 0.1023358000008207 0.6614755333328621 0
550 0.4100006999999977 -0.1939967000007338 0
551 -0.3475262000002001 -0.9193882000001139 0
552 -0.7221434999999894 -0.8016750000000061 0
553 -0.7940635000001683 -0.7598943333332355 0
554 -0.2801268999995895 0.8810597333330976 0
555 -0.4343804999999999 -0.968846 0
556 -0.09699510000088385 -0.7767272000005033 0
557 0.3394255000001568 0.5253546666665767 0
558 0.409083 -0.488549 0
559 0.257223900000343 0.5725492666664698 0
560 -0.5786849999996446 0.8866268333335395 0
561 -0.01515670000088581 -0.7301256000005045 0
562 -0.506838999999808 0.9283128333334447 0
563 -0.435015 0.969986 0
564 -0.3623284999998024 0.9282543333332198 0
565 0.1845374000005748 0.6142809333330033 0
566 0.6583796666666073 -0.6056834999999652 0
567 0.5947299999999363 -0.5683584999999627 0
568 0.7303774999999613 -0.6479039999999773 0
569 0.4606061999999967 0.0002846999989661869 0
570 0.4602942999999968 -0.09983320000100893 0
571 0.5967496666663502 0.5616446666664834 0
572 0.6599093333329958 0.5982389999998046 0
573 0.7945469999998011 0.6762471666665514 0
574 0.7313873333329576 0.6396528333331156 0
575 0.4615060999999984 0.2891465999994887 0
576 0.4611941999999977 0.1890286999992373 0
577 0.5335899999998392 0.5250503333332402 0
578 0.794027166666459 -0.6852289999998782 0
579 0.4618000999999992 0.3835185999997247 0
580 0.4600002999999978 -0.1942052000007119 0
581 0.4609001999999968 0.09465669999896842 0
582 0.462112 0.4836365 0
583 0.4596883999999986 -0.2943231000004476 0
584 0.5310803333331049 -0.531033499999866 0
585 0.4593943999999992 -0.3886951000002374 0
586 0.4590824999999999 -0.488813 0
587 -0.4603467999999994 1.307304299999345 0
588 -0.4604278999999992 1.401492299999068 0
589 -0.6588904999999692 0.8978966666666846 0
590 -0.5954039999999466 0.934732000000031 0
591 -0.4605139999999993 1.501430199999132 0
592 -0.4607622999999996 1.789744099999505 0
593 -0.4606761999999994 1.689806199999293 0
594 -0.595961333332831 2.06268333333304 0
595 -0.6593126666661338 2.099658333333022 0
596 -0.4600935 1.0132405 0
597 -0.531917499999808 0.9715673333334448 0
598 -0.4601795999999998 1.113178399999766 0
599 -0.4602606999999997 1.207366399999623 0
600 -0.5326099999996395 2.025708333333123 0
601 -0.7943444999996792 2.178471666666479 0
602 -0.7309931666661732 2.141496666666379 0
603 -0.4609295 1.98387 0
604 -0.7942009999998018 0.8193881666667817 0
605 -0.730714499999963 0.8562235000000215 0
606 -0.4608433999999998 1.883932099999765 0
607 -0.4605950999999992 1.595618199999076 0
608 0.2084055666672639 2.337722000000341 0
609 0.1262314666674702 2.290754000000459 0
610 0.5085779999998393 0.5683448333332403 0
611 0.5800749999996268 0.6097696666664505 0
612 0.7943248333335063 2.260406666666567 0
613 0.4371 0.526931 0
614 -0.4100935 1.0133305 0
615 -0.4101795999999998 1.113268399999765 0
616 -0.4104279 1.401490300000013 0
617 -0.410509 1.495632300000035 0
618 0.7945279999998518 0.7340221666665809 0
619 0.2821985999999421 0.6158645666666999 0
620 0.3644135000001568 0.5686626666665766 0
621 -0.4106761999999998 1.689712199999804 0
622 -0.4107623 1.789650100000017 0
623 -0.02860229999903727 2.20225600000055 0
624 -0.1012619666659055 2.160726000000435 0
625 -0.1834360666661425 2.1137580000003 0
626 -0.2560957333329798 2.072228000000202 0
627 -0.3382698333331384 2.025260000000111 0
628 -0.4109295 1.98373 0
629 -0.2551920999999768 0.92439693333332 0
630 -0.3374069999998024 0.9715988333332198 0
631 0.1272971999999504 0.7047981333333618 0
632 0.2095121000001739 0.6575962333332335 0
633 -0.4108433999999998 1.883792099999765 0
634 -0.1002907000000327 0.8354633666666854 0
635 -0.1825055999997992 0.8826652666665513 0
636 0.7226496666670108 2.301869999999801 0
637 0.6509495000003684 2.343346666666453 0
638 0.0535718000009614 2.24922400000055 0
639 -0.4105951000000001 1.5955702000001 0
640 -0.4102607 1.207410399999996 0
641 -0.4103467999999998 1.307348299999718 0
642 0.3632393333334957 2.426220000000093 0
643 0.435899 2.46775 0
644 0.2810652333336836 2.3792520000002 0
645 0.5075741666668955 2.426286666666534 0
646 0.05461070000015178 0.7465297999999129 0
647 0.6515529999995885 0.6511834999997616 0
648 0.7230499999996529 0.6926083333331322 0
649 -0.02760419999981795 0.7937316999998955 0
650 0.5792743333337596 2.384809999999753 0
651 -0.5074914999996396 2.068938333333123 0
652 -0.435811 2.0271 0
653 0.410848333333333 2.674060000000376 0
654 0.4109041666666665 2.59499166666687 0
655 0.4106738333333332 2.92093166666684 0
656 0.4107331666666664 2.837030000000405 0
657 0.02865790000099583 2.292576000000569 0
658 -0.05350539999897588 2.245614000000585 0
659 -0.1261650666658441 2.20408400000047 0
660 -0.2083283666660499 2.157122000000352 0
661 -0.7943008333331771 2.236341666666576 0
662 -0.3631513333331384 2.068630000000112 0
663 0.4107889999999997 2.757961666667072 0
664 -0.6508961666661248 2.152639999999684 0
665 -0.5792156666660853 2.110801666666327 0
666 0.2561405333336936 2.422598000000206 0
667 0.3383038333334957 2.469560000000093 0
668 -0.2809880333328872 2.115592000000255 0
669 0.4109635 2.51109 0
670 0.1013175666675047 2.334106000000479 0
671 0.1834808666672739 2.381068000000347 0
672 -0.7226203333328561 2.194503333333055 0
673 0.4608486666666664 2.67401000000042 0
674 0.460789333333333 2.757911666667115 0
675 0.4607333333333329 2.837005000000636 0
676 0.4606739999999997 2.920906666667071 0
677 0.4609046666666665 2.59491666666687 0
678 0.7310046666667356 2.354798333333293 0
679 0.7943498333335044 2.318153333333234 0
680 0.5959843333334556 2.432906666666596 0
681 0.6593295000001267 2.396261666666593 0
682 0.5326391666668955 2.469551666666534 0
683 0.460964 2.511015 0
$EndNodes
$Elements
290
1 15 2 1 2884268 33
2 15 2 2 2887280 36
3 15 2 3 2889287 37
4 15 2 4 2919400 60
5 8 2 1 49270 33 35 278
6 8 2 4 49271 36 34 279
7 8 2 2 49275 37 38 295
8 8 2 1 49276 39 33 296
9 8 2 4 49280 40 41 312
10 8 2 4 49281 42 34 313
11 8 2 2 49285 43 44 329
12 8 2 2 49286 45 37 330
13 8 2 4 49290 46 47 346
14 8 2 4 49291 48 40 347
15 8 2 2 49295 49 51 363
16 8 2 2 49296 50 43 364
17 8 2 4 49300 52 53 380
18 8 2 4 49301 54 46 381
19 8 2 2 49305 49 57 397
20 8 2 2 49306 56 55 398
21 8 2 4 49310 52 59 414
22 8 2 3 49311 60 58 415
23 8 2 2 49314 55 62 426
24 8 2 3 49315 61 58 427
25 9 2 11 5546 258 10 7 428 429 260
26 9 2 11 5546 74 73 64 78 430 431
27 9 2 11 5546 64 72 63 432 433 68
28 9 2 11 5546 73 72 64 77 432 430
29 9 2 11 5546 273 263 274 434 435 276
30 9 2 11 5546 274 264 9 436 437 277
31 9 2 11 5546 63 9 8 438 439 67
32 9 2 11 5546 10 66 7 440 71 429
33 9 2 11 5546 268 10 258 270 428 441
34 9 2 11 5546 269 268 259 271 442 443
35 9 2 11 5546 74 64 65 431 69 444
36 9 2 11 5546 10 75 66 80 445 440
37 9 2 11 5546 259 268 258 442 441 261
38 9 2 11 5546 75 65 66 446 70 445
39 9 2 11 5546 34 263 273 265 434 447
40 9 2 11 5546 33 269 259 448 443 262
41 9 2 11 5546 35 269 33 272 448 278
42 9 2 11 5546 75 74 65 79 444 446
43 9 2 11 5546 72 9 63 76 438 433
44 9 2 11 5546 263 264 274 266 436 435
45 9 2 11 5546 36 34 273 279 447 275
46 9 2 11 5546 264 8 9 267 439 437
47 9 2 11 5547 281 37 38 284 295 449
48 9 2 11 5547 258 7 11 260 450 451
49 9 2 11 5547 286 281 38 452 449 289
50 9 2 11 5547 291 258 11 453 451 294
51 9 2 11 5547 280 281 286 283 452 454
52 9 2 11 5547 11 7 280 450 282 455
53 9 2 11 5547 285 280 286 456 454 288
54 9 2 11 5547 290 259 291 457 458 293
55 9 2 11 5547 259 258 291 261 453 458
56 9 2 11 5547 33 259 290 262 457 459
57 9 2 11 5547 33 290 39 459 292 296
58 9 2 11 5547 11 280 285 455 456 287
59 9 2 11 5548 13 6 297 460 299 461
60 9 2 11 5548 93 83 94 462 463 98
61 9 2 11 5548 82 83 93 88 462 464
62 9 2 11 5548 83 84 94 89 465 463
63 9 2 11 5548 92 82 93 466 464 97
64 9 2 11 5548 95 85 13 467 468 100
65 9 2 11 5548 84 85 95 90 467 469
66 9 2 11 5548 303 298 41 470 471 306
67 9 2 11 5548 298 40 41 301 312 471
68 9 2 11 5548 302 297 303 472 473 305
69 9 2 11 5548 13 297 302 461 472 304
70 9 2 11 5548 94 84 95 465 469 99
71 9 2 11 5548 85 6 13 91 460 468
72 9 2 11 5548 81 82 92 87 466 474
73 9 2 11 5548 263 308 307 475 310 476
74 9 2 11 5548 12 81 92 477 474 96
75 9 2 11 5548 297 298 303 300 470 473
76 9 2 11 5548 263 264 308 266 478 475
77 9 2 11 5548 34 263 42 265 479 313
78 9 2 11 5548 42 263 307 479 476 309
79 9 2 11 5548 264 8 12 267 480 481
80 9 2 11 5548 264 12 308 481 311 478
81 9 2 11 5548 8 81 12 86 477 480
82 9 2 11 5549 110 82 111 482 483 115
83 9 2 11 5549 104 1 16 109 484 485
84 9 2 11 5549 83 84 112 89 486 487
85 9 2 11 5549 66 65 128 70 488 489
86 9 2 11 5549 17 66 128 490 489 132
87 9 2 11 5549 7 17 280 491 492 282
88 9 2 11 5549 17 325 280 328 493 492
89 9 2 11 5549 14 81 110 494 495 114
90 9 2 11 5549 8 81 14 86 494 496
91 9 2 11 5549 112 84 113 486 497 117
92 9 2 11 5549 44 320 43 323 498 329
93 9 2 11 5549 113 85 15 499 500 118
94 9 2 11 5549 85 6 15 91 501 500
95 9 2 11 5549 15 6 101 501 105 502
96 9 2 11 5549 102 103 121 107 503 504
97 9 2 11 5549 63 8 14 67 496 505
98 9 2 11 5549 111 83 112 506 487 116
99 9 2 11 5549 64 131 130 507 135 508
100 9 2 11 5549 64 63 131 68 509 507
101 9 2 11 5549 314 16 1 510 484 316
102 9 2 11 5549 65 64 130 69 508 511
103 9 2 11 5549 128 65 129 488 512 133
104 9 2 11 5549 325 324 281 327 513 514
105 9 2 11 5549 280 325 281 493 514 283
106 9 2 11 5549 281 324 37 513 515 284
107 9 2 11 5549 82 83 111 88 506 483
108 9 2 11 5549 81 82 110 87 482 495
109 9 2 11 5549 63 14 131 505 136 509
110 9 2 11 5549 7 66 17 71 490 491
111 9 2 11 5549 119 102 120 516 517 124
112 9 2 11 5549 320 319 315 322 518 519
113 9 2 11 5549 121 103 122 503 520 126
114 9 2 11 5549 324 45 37 326 330 515
115 9 2 11 5549 319 16 314 321 510 521
116 9 2 11 5549 315 319 314 518 521 317
117 9 2 11 5549 122 104 16 522 485 127
118 9 2 11 5549 103 104 122 108 522 520
119 9 2 11 5549 84 85 113 90 499 497
120 9 2 11 5549 43 320 315 498 519 318
121 9 2 11 5549 65 130 129 511 134 512
122 9 2 11 5549 119 101 102 523 106 516
123 9 2 11 5549 15 101 119 502 523 123
124 9 2 11 5549 120 102 121 517 504 125
125 9 2 11 5550 104 19 160 524 165 525
126 9 2 11 5550 47 337 46 340 526 346
127 9 2 11 5550 101 102 157 106 527 528
128 9 2 11 5550 140 5 20 145 529 530
129 9 2 11 5550 297 342 298 531 532 300
130 9 2 11 5550 18 342 297 345 531 533
131 9 2 11 5550 103 104 160 108 525 534
132 9 2 11 5550 148 149 177 154 535 536
133 9 2 11 5550 139 140 169 144 537 538
134 9 2 11 5550 337 336 332 339 539 540
135 9 2 11 5550 168 139 169 541 538 173
136 9 2 11 5550 19 137 166 542 543 170
137 9 2 11 5550 177 149 178 535 544 182
138 9 2 11 5550 176 148 177 545 536 181
139 9 2 11 5550 138 168 167 546 172 547
140 9 2 11 5550 103 160 159 534 164 548
141 9 2 11 5550 176 147 148 549 153 545
142 9 2 11 5550 137 138 166 142 550 543
143 9 2 11 5550 18 101 157 551 528 161
144 9 2 11 5550 298 341 40 552 553 301
145 9 2 11 5550 149 150 178 155 554 544
146 9 2 11 5550 341 48 40 343 347 553
147 9 2 11 5550 166 138 167 550 547 171
148 9 2 11 5550 6 18 297 555 533 299
149 9 2 11 5550 169 140 20 537 530 174
150 9 2 11 5550 157 102 158 527 556 162
151 9 2 11 5550 138 139 168 143 541 546
152 9 2 11 5550 342 341 298 344 552 532
153 9 2 11 5550 20 5 146 529 151 557
154 9 2 11 5550 104 1 19 109 558 524
155 9 2 11 5550 20 146 175 557 559 179
156 9 2 11 5550 332 336 331 539 560 334
157 9 2 11 5550 102 159 158 561 163 556
158 9 2 11 5550 331 21 3 562 563 333
159 9 2 11 5550 102 103 159 107 548 561
160 9 2 11 5550 150 3 21 156 563 564
161 9 2 11 5550 336 21 331 338 562 560
162 9 2 11 5550 178 150 21 554 564 183
163 9 2 11 5550 46 337 332 526 540 335
164 9 2 11 5550 1 137 19 141 542 558
165 9 2 11 5550 175 146 147 559 152 565
166 9 2 11 5550 6 101 18 105 551 555
167 9 2 11 5550 175 147 176 565 549 180
168 9 2 11 5551 353 314 354 566 567 356
169 9 2 11 5551 315 314 353 317 566 568
170 9 2 11 5551 138 139 185 143 569 570
171 9 2 11 5551 358 348 359 571 572 361
172 9 2 11 5551 349 49 51 352 363 573
173 9 2 11 5551 359 349 51 574 573 362
174 9 2 11 5551 139 140 187 144 575 576
175 9 2 11 5551 23 348 358 577 571 360
176 9 2 11 5551 43 315 50 318 578 364
177 9 2 11 5551 187 140 23 575 579 192
178 9 2 11 5551 184 138 185 580 570 189
179 9 2 11 5551 186 139 187 581 576 191
180 9 2 11 5551 140 5 23 145 582 579
181 9 2 11 5551 50 315 353 578 568 355
182 9 2 11 5551 137 138 184 142 580 583
183 9 2 11 5551 185 139 186 569 581 190
184 9 2 11 5551 23 5 348 582 350 577
185 9 2 11 5551 348 349 359 351 574 572
186 9 2 11 5551 314 22 354 584 357 567
187 9 2 11 5551 1 137 22 141 585 586
188 9 2 11 5551 22 137 184 585 583 188
189 9 2 11 5551 314 1 22 316 586 584
190 9 2 11 5552 202 194 203 587 588 207
191 9 2 11 5552 375 331 376 589 590 378
192 9 2 11 5552 194 195 203 199 591 588
193 9 2 11 5552 195 196 205 200 592 593
194 9 2 11 5552 370 365 371 594 595 373
195 9 2 11 5552 331 3 25 333 596 597
196 9 2 11 5552 25 193 202 598 599 206
197 9 2 11 5552 331 25 376 597 379 590
198 9 2 11 5552 3 193 25 197 598 596
199 9 2 11 5552 24 365 370 600 594 372
200 9 2 11 5552 366 52 53 369 380 601
201 9 2 11 5552 371 366 53 602 601 374
202 9 2 11 5552 24 4 365 603 367 600
203 9 2 11 5552 365 366 371 368 602 595
204 9 2 11 5552 193 194 202 198 587 599
205 9 2 11 5552 54 332 375 604 605 377
206 9 2 11 5552 46 332 54 335 604 381
207 9 2 11 5552 205 196 24 592 606 210
208 9 2 11 5552 204 195 205 607 593 209
209 9 2 11 5552 196 4 24 201 603 606
210 9 2 11 5552 332 331 375 334 589 605
211 9 2 11 5552 203 195 204 591 607 208
212 9 2 11 5553 223 222 212 227 608 609
213 9 2 11 5553 29 348 392 610 611 394
214 9 2 11 5553 56 55 387 398 612 389
215 9 2 11 5553 5 348 29 350 610 613
216 9 2 11 5553 3 28 193 614 615 197
217 9 2 11 5553 194 233 232 616 237 617
218 9 2 11 5553 393 49 57 618 397 396
219 9 2 11 5553 29 243 146 248 619 620
220 9 2 11 5553 195 231 196 621 622 200
221 9 2 11 5553 224 213 214 623 219 624
222 9 2 11 5553 225 224 214 229 624 625
223 9 2 11 5553 27 225 215 230 626 627
224 9 2 11 5553 27 215 4 627 221 628
225 9 2 11 5553 150 240 28 629 244 630
226 9 2 11 5553 243 242 147 247 631 632
227 9 2 11 5553 196 27 4 633 628 201
228 9 2 11 5553 149 241 240 634 245 635
229 9 2 11 5553 387 382 388 636 637 390
230 9 2 11 5553 149 240 150 635 629 155
231 9 2 11 5553 213 223 212 638 609 218
232 9 2 11 5553 55 382 387 384 636 612
233 9 2 11 5553 232 231 195 236 621 639
234 9 2 11 5553 224 223 213 228 638 623
235 9 2 11 5553 193 234 194 640 641 198
236 9 2 11 5553 211 26 2 642 643 216
237 9 2 11 5553 222 26 211 226 642 644
238 9 2 11 5553 383 2 26 386 643 645
239 9 2 11 5553 147 242 148 631 646 153
240 9 2 11 5553 392 349 393 647 648 395
241 9 2 11 5553 150 28 3 630 614 156
242 9 2 11 5553 146 243 147 619 632 152
243 9 2 11 5553 148 241 149 649 634 154
244 9 2 11 5553 28 234 193 239 640 615
245 9 2 11 5553 194 232 195 617 639 199
246 9 2 11 5553 388 383 26 650 645 391
247 9 2 11 5553 349 49 393 352 618 648
248 9 2 11 5553 242 241 148 246 649 646
249 9 2 11 5553 382 383 388 385 650 637
250 9 2 11 5553 212 222 211 608 644 217
251 9 2 11 5553 225 214 215 625 220 626
252 9 2 11 5553 234 233 194 238 616 641
253 9 2 11 5553 231 27 196 235 633 622
254 9 2 11 5553 348 349 392 351 647 611
255 9 2 11 5553 5 29 146 613 620 151
256 9 2 11 5554 4 365 30 367 651 652
257 9 2 11 5554 31 410 400 413 653 654
258 9 2 11 5554 409 60 58 411 415 655
259 9 2 11 5554 399 409 58 656 655 401
260 9 2 11 5554 251 250 213 255 657 658
261 9 2 11 5554 252 251 214 256 659 660
262 9 2 11 5554 405 52 59 661 414 408
263 9 2 11 5554 4 30 215 652 662 221
264 9 2 11 5554 410 409 399 412 656 663
265 9 2 11 5554 365 366 404 368 664 665
266 9 2 11 5554 30 365 404 651 665 406
267 9 2 11 5554 400 410 399 653 663 402
268 9 2 11 5554 211 249 31 666 253 667
269 9 2 11 5554 215 252 214 668 660 220
270 9 2 11 5554 2 31 400 669 654 403
271 9 2 11 5554 212 250 249 670 254 671
272 9 2 11 5554 404 366 405 664 672 407
273 9 2 11 5554 213 250 212 657 670 218
274 9 2 11 5554 30 252 215 257 668 662
275 9 2 11 5554 211 31 2 667 669 216
276 9 2 11 5554 366 52 405 369 661 672
277 9 2 11 5554 214 251 213 659 658 219
278 9 2 11 5554 212 249 211 671 666 217
279 9 2 11 5555 400 417 399 673 674 402
280 9 2 11 5555 399 416 58 675 676 401
281 9 2 11 5555 32 417 400 420 673 677
282 9 2 11 5555 62 422 382 425 678 679
283 9 2 11 5555 422 421 383 424 680 681
284 9 2 11 5555 383 421 32 680 423 682
285 9 2 11 5555 417 416 399 419 675 674
286 9 2 11 5555 416 61 58 418 427 676
287 9 2 11 5555 382 422 383 678 681 385
288 9 2 11 5555 383 32 2 682 683 386
289 9 2 11 5555 2 32 400 683 677 403
290 9 2 11 5555 55 62 382 426 679 384
$EndElements
