$MeshFormat
2.2 0 8
$EndMeshFormat
$Nodes
683
1 0.434373 2.50343 0
2 -0.431315 2.00452 0
3 0.435926 0.503024 0
4 -0.427085 0.999366 0
5 -0.433429 -1.00374 0
6 0.436287 -0.49929 0
7 0.432264 -2.49526 0
8 -0.43268 -1.99283 0
9 -0.432571 -2.05072 0
10 0.382271 -2.52404 0
11 0.482271 -2.52417 0
12 -0.482702 -1.96419 0
13 -0.483407 -1.03256 0
14 -0.382702 -1.96404 0
15 -0.383407 -1.03253 0
16 0.4363 -0.557084 0
17 0.432377 -2.4375 0
18 0.386277 -0.470495 0
19 0.385936 0.474095 0
20 -0.427129 0.941712 0
21 -0.433433 -0.945941 0
22 0.485936 0.474131 0
23 0.486277 -0.470468 0
24 -0.477207 1.02827 0
25 -0.481194 1.97558 0
26 0.434458 2.44577 0
27 -0.381193 1.9757 0
28 -0.377207 1.02836 0
29 0.435905 0.560716 0
30 0.384322 2.53229 0
31 -0.431295 2.06224 0
32 0.484322 2.53245 0
33 -0.866025 -2.24673 0
34 0.432382 -3 0
35 -0.866025 -2.30468 0
36 0.382382 -3 0
37 0.866025 -2.24556 0
38 0.482382 -3 0
39 0.866025 -2.30325 0
40 -0.866025 -0.752916 0
41 -0.866025 -0.810712 0
42 -0.866025 -2.18878 0
43 0.866025 -0.7482799999999999 0
44 0.866025 -0.8060659999999999 0
45 0.866025 -2.18787 0
46 -0.866025 0.7478089999999999 0
47 -0.866025 0.69018 0
48 -0.866025 -0.695119 0
49 0.866025 0.750803 0
50 0.866025 0.693099 0
51 0.866025 -0.690493 0
52 -0.866025 2.25546 0
53 -0.866025 0.805438 0
54 -0.866025 2.19772 0
55 0.866025 2.25636 0
56 0.866025 2.19874 0
57 0.866025 0.8085059999999999 0
58 0.433499 3 0
59 0.383499 3 0
60 -0.866025 2.31319 0
61 0.866025 2.31397 0
62 0.483499 3 0
63 -0.2596912000003812 -2.093315999999779 0
64 -0.08670240000083068 -2.193801999999518 0
65 0.08628639999893434 -2.294287999999381 0
66 0.2592751999994435 -2.394773999999677 0
67 -0.3461856000001183 -2.043072999999931 0
68 -0.1731968000005977 -2.143558999999653 0
69 -0.000208000001125308 -2.244044999999347 0
70 0.1727807999992481 -2.344530999999563 0
71 0.3457695999998394 -2.445016999999907 0
72 -0.2696026000005194 -2.145383999999698 0
73 -0.1066342000005545 -2.240047999999678 0
74 0.05633419999909989 -2.334711999999477 0
75 0.219302599999761 -2.429375999999861 0
76 -0.351086800000175 -2.098051999999898 0
77 -0.1881184000006069 -2.192715999999647 0
78 -0.02515000000088907 -2.287379999999484 0
79 0.1378183999993777 -2.382043999999638 0
80 0.3007867999999166 -2.476707999999952 0
81 -0.4328297999999997 -1.795012000000503 0
82 -0.4329795999999992 -1.597194000001007 0
83 -0.4331293999999992 -1.399376000001042 0
84 -0.4332791999999996 -1.201558000000521 0
85 -0.4327548999999999 -1.893921000000196 0
86 -0.4329046999999994 -1.696103000000823 0
87 -0.433054499999999 -1.498285000001321 0
88 -0.4332042999999995 -1.300467000000648 0
89 -0.4333540999999997 -1.10264900000043 0
90 -0.4828429999999997 -1.777864000000321 0
91 -0.4829839999999992 -1.59153800000098 0
92 -0.4831249999999992 -1.405212000000989 0
93 -0.4832659999999996 -1.218886000000469 0
94 -0.4827724999999999 -1.871027000000086 0
95 -0.4829134999999996 -1.684701000000585 0
96 -0.4830544999999989 -1.498375000001358 0
97 -0.4831954999999994 -1.312049000000709 0
98 -0.4833364999999998 -1.125723000000233 0
99 -0.2884763333335921 -0.9196650000001502 0
100 -0.1435236666673773 -0.8355900000004122 0
101 0.001428999998876579 -0.7515150000006516 0
102 0.146381666665897 -0.6674400000004465 0
103 0.2913343333329708 -0.5833650000002102 0
104 -0.3609526666667916 -0.9617025000000725 0
105 -0.2160000000004705 -0.8776275000002729 0
106 -0.0710473333342429 -0.7935525000005276 0
107 0.07390533333242971 -0.7094775000005241 0
108 0.2188579999994913 -0.625402500000295 0
109 0.3638106666665052 -0.5413275000000937 0
110 -0.3828429999999997 -1.777738000000416 0
111 -0.3829839999999992 -1.591436000001058 0
112 -0.3831249999999994 -1.405134000000763 0
113 -0.3832659999999995 -1.218832000000642 0
114 -0.3827724999999998 -1.870889000000227 0
115 -0.3829134999999996 -1.684587000000562 0
116 -0.383054499999999 -1.498285000001344 0
117 -0.3831954999999994 -1.311983000000744 0
118 -0.3833364999999996 -1.125681000000489 0
119 -0.2194656000003392 -0.9374408000001967 0
120 -0.05552420000082048 -0.8423516000004758 0
121 0.108417199999126 -0.7472624000005069 0
122 0.2723585999995693 -0.6521732000002498 0
123 -0.3014363000001549 -0.9849854000000898 0
124 -0.1374949000005033 -0.8898962000002919 0
125 0.02644649999893561 -0.7948070000006173 0
126 0.19038789999931 -0.6997178000004002 0
127 0.3543292999998488 -0.6046286000000877 0
128 0.2693612000002038 -2.342808000000118 0
129 0.1063454000006971 -2.248116000000405 0
130 -0.056670399999108 -2.153424000000518 0
131 -0.2196861999995876 -2.058732000000239 0
132 0.3508691000000452 -2.390154000000026 0
133 0.1878533000004735 -2.295462000000275 0
134 0.02483750000100404 -2.200770000000583 0
135 -0.138178299999454 -2.106078000000317 0
136 -0.3011940999999538 -2.011386000000027 0
137 0.4362268333333334 -0.3322376666669669 0
138 0.4361666666666669 -0.1651853333341323 0
139 0.4361065000000005 0.001866999998720309 0
140 0.4360463333333336 0.1689193333325084 0
141 0.4359861666666668 0.3359716666662101 0
142 0.4362569166666667 -0.4157638333334767 0
143 0.4361967500000002 -0.2487115000005622 0
144 0.4361365833333337 -0.08165916666770218 0
145 0.436076416666667 0.08539316666558128 0
146 0.4360162500000002 0.2524454999993415 0
147 0.4359560833333334 0.4194978333331059 0
148 0.2633238000003369 0.6022923999998062 0
149 0.09072160000079277 0.701560799999544 0
150 -0.08188059999912384 0.8008291999994961 0
151 -0.2544827999995738 0.9000975999997549 0
152 0.349624900000121 0.5526581999999305 0
153 0.1770227000005726 0.6519265999996707 0
154 0.004420500001035499 0.7511949999994044 0
155 -0.168181699999354 0.8504633999996285 0
156 -0.3407838999997718 0.9497317999998687 0
157 0.3862088000000001 -0.2815770000003901 0
158 0.3861406000000003 -0.09265900000095356 0
159 0.3860724000000003 0.09625899999903775 0
160 0.3860042000000002 0.2851769999995188 0
161 0.3862429000000001 -0.3760360000002345 0
162 0.3861747000000003 -0.1871180000006786 0
163 0.3861065000000004 0.001799999998784385 0
164 0.3860383000000002 0.1907179999993248 0
165 0.3859701000000001 0.3796359999997595 0
166 0.2233230000003565 0.5676183999997949 0
167 0.06071000000093674 0.6611417999994613 0
168 -0.1019029999990314 0.7546651999994429 0
169 -0.2645159999995321 0.848188599999731 0
170 0.3046295000001691 0.5208566999999027 0
171 0.1420165000006539 0.614380099999624 0
172 -0.02059649999870233 0.7079034999992537 0
173 -0.1832094999992683 0.8014268999995793 0
174 -0.3458224999997011 0.8949502999998281 0
175 -0.269491000000424 -0.850851800000246 0
176 -0.1055490000009081 -0.7557626000005268 0
177 0.05839299999912634 -0.6606734000005068 0
178 0.2223349999995821 -0.5655842000002423 0
179 -0.3514620000001777 -0.8983964000001031 0
180 -0.1875200000006221 -0.8033072000003608 0
181 -0.02357800000110616 -0.7082180000006415 0
182 0.1403639999993718 -0.6131288000003643 0
183 0.3043059999998085 -0.5180396000001111 0
184 0.4860041999999998 0.2852112000004117 0
185 0.4860723999999996 0.09629140000099468 0
186 0.4861405999999996 -0.09262839999899458 0
187 0.4862087999999998 -0.2815481999994973 0
188 0.4859700999999999 0.37967110000016 0
189 0.4860382999999997 0.1907513000007368 0
190 0.4861064999999995 0.001831500001332087 0
191 0.4861746999999997 -0.1870882999991598 0
192 0.4862428999999999 -0.3760080999997649 0
193 -0.4306100000000015 1.836994333333694 0
194 -0.4299050000000036 1.669468666667534 0
195 -0.4292000000000053 1.501943000001257 0
196 -0.4284950000000045 1.334417333334403 0
197 -0.4277900000000024 1.166891666667231 0
198 -0.4309625000000009 1.920757166666865 0
199 -0.4302575000000025 1.753231500000598 0
200 -0.4295525000000043 1.585705833334369 0
201 -0.4288475000000047 1.41818016666778 0
202 -0.4281425000000029 1.250654500000692 0
203 -0.4274375000000004 1.083128833333439 0
204 -0.4803966000000016 1.786118000000373 0
205 -0.4795992000000042 1.596656000001006 0
206 -0.4788018000000043 1.407194000001015 0
207 -0.4780044000000019 1.21773200000046 0
208 -0.480795300000001 1.880849000000228 0
209 -0.4799979000000028 1.691387000000648 0
210 -0.4792005000000055 1.501925000001311 0
211 -0.4784031000000031 1.312463000000737 0
212 -0.4776057000000021 1.123001000000503 0
213 0.2612354000003979 2.403648000000229 0
214 0.08809780000094702 2.303866000000546 0
215 -0.08503979999912026 2.204084000000507 0
216 -0.2581773999995636 2.104302000000251 0
217 0.3478042000001103 2.453539000000063 0
218 0.1746666000007768 2.353757000000448 0
219 0.00152900000124534 2.253975000000718 0
220 -0.1716085999993701 2.154193000000363 0
221 -0.3447461999997951 2.054411000000118 0
222 0.2713278000003825 2.35175600000022 0
223 0.108197600000857 2.257742000000494 0
224 -0.05493259999925315 2.163728000000431 0
225 -0.2180627999995942 2.069714000000234 0
226 0.3528928999999285 2.398762999999959 0
227 0.1897627000005996 2.304749000000346 0
228 0.0266325000010818 2.210735000000624 0
229 -0.1364976999991222 2.116721000000506 0
230 -0.2996278999998707 2.022707000000075 0
231 -0.3803958000000019 1.786232000000451 0
232 -0.3795986000000042 1.596764000000989 0
233 -0.3788014000000038 1.407296000000893 0
234 -0.3780042000000025 1.217828000000589 0
235 -0.3807944000000004 1.880966000000091 0
236 -0.3799972000000027 1.691498000000638 0
237 -0.379200000000005 1.502030000001177 0
238 -0.3784028000000021 1.312562000000514 0
239 -0.3776056000000012 1.123094000000275 0
240 -0.2145846000003484 0.9348312000002004 0
241 -0.0519622000009029 0.8413024000005193 0
242 0.1106601999989915 0.74777360000058 0
243 0.2732825999994806 0.6542448000002987 0
244 -0.2958958000001788 0.9815956000001028 0
245 -0.1332734000005709 0.8880668000003283 0
246 0.02934899999878349 0.7945380000006996 0
247 0.1919713999990633 0.7010092000005388 0
248 0.3545937999997875 0.6074804000001222 0
249 0.2211986000003735 2.438280000000216 0
250 0.05807520000082894 2.344270000000478 0
251 -0.1050481999990879 2.250260000000526 0
252 -0.2681715999995374 2.156250000000267 0
253 0.3027602999999597 2.485284999999977 0
254 0.139636900000597 2.391275000000344 0
255 -0.0234864999988158 2.297265000000682 0
256 -0.1866098999994617 2.20325500000031 0
257 -0.3497332999999289 2.109245000000041 0
258 -0.7215766666669936 -2.162096666666858 0
259 -0.5771283333337718 -2.07746333333359 0
260 -0.7938008333335467 -2.204413333333458 0
261 -0.6493525000002589 -2.119780000000151 0
262 -0.5049041666667926 -2.035146666666741 0
263 0.4323033333333333 -2.663506666666464 0
264 0.4323426666666665 -2.831753333332842 0
265 0.4322836666666666 -2.579383333333094 0
266 0.4323229999999998 -2.74762999999938 0
267 0.4323623333333333 -2.915876666666823 0
268 -0.721540333333678 -2.220026666666869 0
269 -0.5770556666670221 -2.135373333333542 0
270 -0.7937826666663843 -2.262353333333168 0
271 -0.6492980000004577 -2.177700000000268 0
272 -0.5048133333334582 -2.09304666666674 0
273 0.3823079999999999 -2.682693333332928 0
274 0.3823449999999999 -2.841346666666204 0
275 0.3822894999999999 -2.603366666666252 0
276 0.3823264999999998 -2.762019999999317 0
277 0.3823634999999999 -2.920673333332838 0
278 0.407382 -3 0
279 -0.866025 -2.275705 0
280 0.576850999999603 -2.412026666666895 0
281 0.7214379999997695 -2.328793333333466 0
282 0.5045574999997805 -2.45364333333346 0
283 0.6491444999995576 -2.370410000000255 0
284 0.7937314999999543 -2.287176666666693 0
285 0.4823450000000001 -2.841390000000318 0
286 0.4823080000000001 -2.682780000000376 0
287 0.4823634999999999 -2.920694999999956 0
288 0.4823265000000002 -2.762085000000658 0
289 0.4822894999999999 -2.603474999999736 0
290 0.6101889999996764 -2.450530000000186 0
291 0.7381069999997458 -2.376890000000146 0
292 0.5462299999998838 -2.487350000000067 0
293 0.6741479999996816 -2.413710000000183 0
294 0.8020659999996949 -2.340070000000176 0
295 0.866025 -2.274405 0
296 0.457382 -3 0
297 -0.5776276666662503 -0.9201320000002415 0
298 -0.7218263333329427 -0.8365240000002265 0
299 -0.5055283333332172 -0.9619360000000674 0
300 -0.6497269999994278 -0.8783280000003318 0
301 -0.7939256666664793 -0.7947200000001087 0
302 -0.6109463333329287 -0.9586106666669012 0
303 -0.7384856666663089 -0.8846613333335408 0
304 -0.5471766666663008 -0.9955853333335454 0
305 -0.6747159999994238 -0.9216360000003341 0
306 -0.8022553333332099 -0.8476866666667382 0
307 -0.7382506666668747 -2.113916666666789 0
308 -0.6104763333335721 -2.039053333333473 0
309 -0.8021378333332517 -2.151348333333285 0
310 -0.674363500000395 -2.076485000000231 0
311 -0.5465891666669656 -2.001621666666842 0
312 -0.866025 -0.781814 0
313 -0.866025 -2.217755 0
314 0.579532999999633 -0.582286666666454 0
315 0.7227789999995486 -0.6652833333330718 0
316 0.507909999999938 -0.5407883333332975 0
317 0.6511559999993665 -0.6237849999996329 0
318 0.7944019999997605 -0.7067816666665279 0
319 0.5795416666662774 -0.6400779999997744 0
320 0.7227833333329179 -0.7230719999997592 0
321 0.5079208333331445 -0.5985809999998906 0
322 0.6511624999993034 -0.6815749999995964 0
323 0.7944041666665702 -0.7645689999999441 0
324 0.7214756666669622 -2.27107999999983 0
325 0.5769263333337177 -2.354289999999779 0
326 0.7937503333335124 -2.229474999999897 0
327 0.649201000000691 -2.312684999999602 0
328 0.5046516666671075 -2.395894999999746 0
329 0.866025 -0.7771729999998479 0
330 0.866025 -2.216715 0
331 -0.5733983333329856 0.915513666666866 0
332 -0.7197116666663059 0.8316613333335401 0
333 -0.500241666666435 0.9574398333334661 0
334 -0.6465549999996553 0.8735875000001976 0
335 -0.7928683333329716 0.7897351666668739 0
336 -0.5734276666663354 0.8578680000001899 0
337 -0.7197263333328061 0.7740240000003021 0
338 -0.5002783333332097 0.8997900000000708 0
339 -0.6465769999994295 0.8159460000003269 0
340 -0.7928756666665722 0.7321020000000542 0
341 -0.7218276666669834 -0.7787263333331498 0
342 -0.5776303333339621 -0.8623336666663022 0
343 -0.7939263333334424 -0.7369226666666034 0
344 -0.6497290000008081 -0.8205299999995315 0
345 -0.5055316666669427 -0.9041373333331734 0
346 -0.866025 0.7189945 0
347 -0.866025 -0.7240175 0
348 0.7226586666670465 0.6682100000002188 0
349 0.5792923333337479 0.5856170000002388 0
350 0.7943418333335462 0.7095065000001227 0
351 0.6509755000005494 0.6269135000003165 0
352 0.5076091666669263 0.5443205000001496 0
353 0.7393286666669138 0.620109666666809 0
354 0.6126323333336245 0.5471203333335012 0
355 0.8026768333335091 0.6566043333334346 0
356 0.6759805000004711 0.5836150000002713 0
357 0.5492841666668815 0.5106256666667904 0
358 0.6128596666663417 -0.5438096666664785 0
359 0.7394423333330007 -0.6171513333331407 0
360 0.5495683333332404 -0.5071388333332795 0
361 0.6761509999994604 -0.5804804999996873 0
362 0.8027336666665355 -0.6538221666665907 0
363 0.866025 -0.7193865000002051 0
364 0.866025 0.721951 0
365 -0.7211216666669664 2.171813333333506 0
366 -0.5762183333336026 2.088166666666822 0
367 -0.7935733333333698 2.213636666666687 0
368 -0.6486700000004283 2.129990000000247 0
369 -0.5037666666667163 2.046343333333362 0
370 -0.6068129999997355 0.9539926666668183 0
371 -0.7364189999997207 0.8797153333334934 0
372 -0.5420100000000352 0.9911313333333132 0
373 -0.6716159999994493 0.9168540000003156 0
374 -0.8012219999998451 0.8425766666667555 0
375 -0.7377480000003964 2.123673333333562 0
376 -0.609471000000167 2.049626666666763 0
377 -0.8018864999999707 2.16069666666665 0
378 -0.6736095000004522 2.086650000000261 0
379 -0.5453324999999145 2.012603333333284 0
380 -0.866025 0.7766234999999999 0
381 -0.866025 2.22659 0
382 0.7221410000003385 2.338716666666473 0
383 0.578257000000383 2.421073333333114 0
384 0.7940830000003988 2.297538333333105 0
385 0.6501990000005182 2.379894999999703 0
386 0.5063150000004639 2.462251666666401 0
387 0.7221693333335167 2.281083333333228 0
388 0.5783136666670641 2.363426666666439 0
389 0.7940971666669451 2.239911666666507 0
390 0.6502415000002402 2.322254999999863 0
391 0.5063858333336269 2.404598333333166 0
392 0.5792783333330016 0.6433126666664755 0
393 0.7226516666663139 0.72590933333313 0
394 0.507591666666436 0.6020143333332004 0
395 0.6509649999996654 0.6846109999998072 0
396 0.7943383333330536 0.7672076666665054 0
397 0.866025 0.7796544999996912 0
398 0.866025 2.22755 0
399 0.4337903333333328 2.834476666666985 0
400 0.4340816666666657 2.668953333333882 0
401 0.4336446666666669 2.917238333333219 0
402 0.4339359999999976 2.751715000001361 0
403 0.4342273333333322 2.586191666667329 0
404 0.3837733333333326 2.844096666667043 0
405 0.3840476666666667 2.688193333333305 0
406 0.3836361666666659 2.922048333333764 0
407 0.3839104999999999 2.766145000000038 0
408 0.3841848333333324 2.610241666667175 0
409 -0.5762049999996894 2.145889999999821 0
410 -0.7211149999996015 2.22953999999977 0
411 -0.5037499999999577 2.104064999999976 0
412 -0.6486599999993404 2.187714999999619 0
413 -0.7935699999996824 2.271364999999817 0
414 -0.866025 2.284325 0
415 0.408499 3 0
416 0.7387906666674321 2.386796666666228 0
417 0.6115563333331235 2.459623333333453 0
418 0.8024078333336625 2.350383333333145 0
419 0.675173500000246 2.423209999999859 0
420 0.5479391666666811 2.496036666666658 0
421 0.4840476666666673 2.688299999999624 0
422 0.4837733333333342 2.844149999999508 0
423 0.4841848333333339 2.610374999999674 0
424 0.4839105000000017 2.766224999999014 0
425 0.4836361666666671 2.92207499999976 0
426 0.458499 3 0
427 0.866025 2.28516500000082 0
428 0.4072871666666666 -2.593773333333232 0
429 0.4072675 -2.50965 0
430 -0.178152500000675 -2.169592999999608 0
431 -0.0966683000006926 -2.216924999999597 0
432 -0.01017390000081009 -2.267167999999529 0
433 -0.3461311000001906 -2.072017999999889 0
434 -0.2646469000004503 -2.119349999999739 0
435 -0.577092000000397 -2.106418333333566 0
436 -0.5048496666668859 -2.064091666666795 0
437 0.4073634999999999 -2.920673333333102 0
438 0.4073253333333332 -2.757223333332885 0
439 0.4073438333333332 -2.836549999999523 0
440 0.07131029999901711 -2.314499999999429 0
441 0.1527944999993477 -2.361831999999621 0
442 0.4073056666666666 -2.673099999999696 0
443 0.2392888999996023 -2.412074999999769 0
444 0.3207730999997218 -2.459406999999838 0
445 -0.7215585000003357 -2.191061666666863 0
446 -0.6493161666670079 -2.1487350000002 0
447 -0.7937826666668391 -2.233378333333434 0
448 -0.4326255 -2.021775 0
449 0.4573056666666667 -2.67314333333342 0
450 0.4572871666666666 -2.593838333333232 0
451 0.7297724999997577 -2.352841666666806 0
452 0.7937314999998848 -2.316021666666733 0
453 0.4573438333333333 -2.83657166666658 0
454 0.4573253333333333 -2.757266666666609 0
455 0.5935199999996397 -2.431278333333541 0
456 0.6658134999997229 -2.389661666666826 0
457 0.4572675 -2.509715 0
458 0.4573635 -2.920695000000159 0
459 0.5295609999998014 -2.468098333333447 0
460 -0.4581271999999992 -1.402294000001015 0
461 -0.4580522999999992 -1.501203000000998 0
462 -0.7938008333334968 -2.175438333333429 0
463 -0.4582725999999996 -1.210222000000495 0
464 -0.4583430999999998 -1.11705900000026 0
465 -0.4579112999999995 -1.687529000000664 0
466 -0.4578363999999997 -1.786438000000412 0
467 -0.4579817999999992 -1.594366000000993 0
468 -0.4581976999999994 -1.309131000000755 0
469 -0.7301559999996258 -0.8605926666668837 0
470 -0.7939256666664714 -0.8236180000001132 0
471 -0.5305173333331251 -0.9763460000001207 0
472 -0.5942869999995894 -0.9393713333335714 0
473 -0.6580566666662796 -0.9023966666668912 0
474 -0.6576895000003232 -2.095690000000189 0
475 -0.7299136666669341 -2.138006666666823 0
476 -0.458418 -1.01815 0
477 -0.5938023333336719 -2.058258333333532 0
478 -0.457691 -1.97851 0
479 -0.5299151666668859 -2.020826666666795 0
480 -0.4577658999999998 -1.879601000000252 0
481 -0.02704760000097195 -0.7969333000005637 0
482 0.0549230999990013 -0.7493887000005792 0
483 -0.1814946333338582 -0.8865154000003044 0
484 -0.09952393333409887 -0.838970800000444 0
485 0.2818464666662701 -0.61776910000023 0
486 0.2093701333327331 -0.6598066000003482 0
487 -0.4077658999999998 -1.879526000000252 0
488 -0.407691 -1.978435 0
489 0.651160333332913 -0.6526806666664231 0
490 0.7227811666662333 -0.6941776666664154 0
491 0.1273994333325115 -0.7073512000004767 0
492 0.794404166666459 -0.7356759999998796 0
493 0.7937503333334811 -2.258319999999915 0
494 -0.4080522999999994 -1.501164000000885 0
495 -0.4079817999999992 -1.594315000001032 0
496 -0.4081271999999994 -1.402255000000902 0
497 -0.4081976999999993 -1.309104000000842 0
498 -0.2539709666669657 -0.9285529000001734 0
499 -0.4078363999999997 -1.78637500000046 0
500 0.5768886666666604 -2.383158333333337 0
501 0.5046139999998015 -2.424763333333448 0
502 -0.4082725999999995 -1.210195000000581 0
503 0.4323205 -2.46638 0
504 0.7214568333333659 -2.299936666666648 0
505 0.6491821666667437 -2.341541666666622 0
506 -0.1531943000002091 -2.126266999999879 0
507 -0.07168639999996934 -2.173613000000018 0
508 0.5795373333329552 -0.6111823333331142 0
509 0.009821499999933231 -2.220958999999961 0
510 0.09631589999981574 -2.271201999999893 0
511 -0.4079112999999994 -1.687466000000712 0
512 0.1778237999995691 -2.318547999999749 0
513 0.2643181999998236 -2.368790999999898 0
514 0.3458260999997218 -2.416136999999838 0
515 -0.335941666666796 -0.9760975000000751 0
516 -0.4083430999999998 -1.11704400000026 0
517 -0.408418 -1.018135 0
518 -0.3211966000001906 -2.028677999999889 0
519 0.3638171666664854 -0.5702245000001052 0
520 0.5079164999998165 -0.569685333333227 0
521 0.4362935 -0.528187 0
522 -0.2396886999999844 -2.076024000000009 0
523 0.2433234000003467 0.5849553999998005 0
524 0.1570223000005747 0.6345895999996695 0
525 -0.2065073333339006 -0.843220900000329 0
526 -0.2789836666670081 -0.8852584000001981 0
527 0.4111235500000004 -0.04539600000111663 0
528 0.4110894500000004 0.04906299999887903 0
529 0.4109951833333335 0.3105743333328645 0
530 0.4110252666666669 0.2270481666660136 0
531 -0.433431 -0.9748405 0
532 -0.5055303333331251 -0.9330365000001208 0
533 -0.3609546666667961 -0.9328030000000751 0
534 -0.5002636666664928 0.9286128333334329 0
535 -0.5734129999996604 0.8866908333335279 0
536 -0.259499399999553 0.8741430999997429 0
537 -0.3408058999997869 0.9209047999998774 0
538 -0.7928756666664031 0.760916500000151 0
539 -0.09189179999907759 0.7777471999994695 0
540 -0.173198299999328 0.8245088999996135 0
541 0.410931 0.4885595 0
542 0.3246299000001684 0.5381936999999031 0
543 0.2568346666662765 -0.5744746000002263 0
544 0.1843583333327395 -0.6165121000003444 0
545 0.411282 -0.4848925 0
546 0.3388056666664854 -0.5269300000001051 0
547 0.1023873333325117 -0.6640567000004767 0
548 0.4111877333333335 -0.2233811666672612 0
549 0.4112178166666668 -0.3069073333336785 0
550 0.4111536333333337 -0.1289221666675429 0
551 -0.6465696666663207 0.844764666666865 0
552 -0.719718999999556 0.8028426666669211 0
553 0.4109610833333334 0.4050333333331051 0
554 0.07571580000086475 0.6813512999995026 0
555 -0.01058529999909355 0.7309854999994787 0
556 0.411059366666667 0.1325891666657731 0
557 -0.05206000000101577 -0.7536388000005891 0
558 -0.1245363333341427 -0.7956763000004694 0
559 -0.427107 0.970539 0
560 -0.7939263333334917 -0.7658211666665748 0
561 -0.5776290000001062 -0.8912328333332719 0
562 -0.6497283333334524 -0.8494288333332644 0
563 0.4112519166666667 -0.4013663333334834 0
564 0.02991099999900146 -0.7060942000005792 0
565 -0.721826999999963 -0.8076251666666882 0
566 0.4610252666666667 0.22706526666646 0
567 0.4609951833333333 0.3105914333333109 0
568 0.7943418333335233 0.6806545000001094 0
569 0.6676455000003355 0.60766516666686 0
570 0.5959623333336862 0.5663686666668699 0
571 0.4611536333333333 -0.1289068666665635 0
572 0.4611877333333334 -0.2233667666668148 0
573 0.4609610833333334 0.4050513333331051 0
574 0.5326141666668739 0.5298740000001194 0
575 0.7309936666669801 0.6441598333335139 0
576 0.460931 0.4885775 0
577 0.46108945 0.04907919999985749 0
578 0.4610593666666666 0.1326053666667515 0
579 0.46112355 -0.04538070000013714 0
580 0.5961963333329874 -0.5630481666664662 0
581 0.6594876666663169 -0.5997189999997974 0
582 0.4612178166666666 -0.3068929333332321 0
583 0.4612519166666667 -0.4013528333334834 0
584 0.7311106666662747 -0.6412173333331062 0
585 0.7944019999997743 -0.677888166666536 0
586 0.5329049999998166 -0.526377333333227 0
587 0.461282 -0.484879 0
588 -0.6569831666669995 2.105920000000192 0
589 -0.7294348333336814 2.147743333333534 0
590 -0.4551508000000026 1.727793333333953 0
591 -0.4555033000000016 1.811556166667034 0
592 -0.7935733333334832 2.184766666666753 0
593 -0.4536484000000044 1.370805666667709 0
594 -0.4532497000000032 1.276074666667432 0
595 -0.792868333333153 0.81854966666677 0
596 -0.5253026666664928 0.971891833333433 0
597 -0.452146 1.013818 0
598 -0.5901056666663606 0.9347531666668421 0
599 -0.7280653333330134 0.8556883333335168 0
600 -0.4524985000000012 1.097580833333615 0
601 -0.4559020000000008 1.906287166666847 0
602 -0.4540009000000048 1.454568500001136 0
603 -0.4547521000000039 1.63306233333427 0
604 -0.4528972000000022 1.192311833333846 0
605 -0.5928446666668847 2.068896666666793 0
606 -0.4562545 1.99005 0
607 -0.4543996000000048 1.549299500001132 0
608 -0.5287061666668014 2.031873333333411 0
609 -0.6632623333330208 0.8928270000001792 0
610 -0.4051504000000028 1.727850333333993 0
611 -0.4055029000000017 1.811613166667073 0
612 0.4359155 0.5318700000000001 0
613 0.3496144000001685 0.5815041999999031 0
614 0.01658260000084694 2.233797000000488 0
615 -0.0699861999991867 2.183906000000469 0
616 -0.2381200999995789 2.087008000000242 0
617 -0.3196851999997818 2.040001000000126 0
618 0.1797128000006648 2.327811000000383 0
619 0.09814770000090203 2.280804000000519 0
620 0.650968500000024 0.6557613333333472 0
621 0.7226551666666802 0.6970596666666744 0
622 0.2683031999999088 0.6282686000000525 0
623 -0.2345336999999612 0.9174643999999776 0
624 -0.3158448999997869 0.9642287999998774 0
625 0.7221551666669277 2.309899999999851 0
626 0.7940971666667584 2.268721666666614 0
627 -0.402146 1.013863 0
628 -0.4024985000000012 1.097625833333615 0
629 -0.06692140000001337 0.8210658000000077 0
630 -0.1482325999997361 0.8678301999998482 0
631 -0.4028971000000025 1.19235983333391 0
632 -0.4032496000000035 1.276122666667496 0
633 -0.4043993000000047 1.549353500001123 0
634 -0.4040007000000045 1.454619500001075 0
635 -0.406254 1.99011 0
636 -0.4059015000000008 1.906347166666847 0
637 0.5075986666668739 0.5731665000001194 0
638 0.5792853333333747 0.6144648333333571 0
639 0.794338333333157 0.738356166666565 0
640 0.5782853333337236 2.392249999999776 0
641 0.6502273333337013 2.351071666666456 0
642 0.5063575000001915 2.433421666666557 0
643 0.1820021000001367 0.6779027999999214 0
644 -0.4036482000000041 1.370856666667648 0
645 -0.4047518000000039 1.633116333334261 0
646 0.3478467000001989 2.424709000000115 0
647 0.2662816000003901 2.377702000000225 0
648 0.1006908999998921 0.724667200000062 0
649 0.01937969999994493 0.7714316000000316 0
650 0.4344155 2.4746 0
651 -0.1515512999993572 2.13689900000037 0
652 -0.09504399999910407 2.227172000000516 0
653 -0.01348229999914566 2.274177000000492 0
654 0.4090646666666662 2.678573333333594 0
655 0.4089189999999998 2.761335000000145 0
656 0.4087818333333327 2.839286666667014 0
657 -0.6486633333333279 2.158851666666664 0
658 -0.721118333333284 2.200676666666638 0
659 -0.7935699999998007 2.242499999999885 0
660 -0.5037566666668013 2.075203333333411 0
661 -0.431305 2.03338 0
662 -0.576211666666646 2.117028333333321 0
663 0.3227787000001989 2.467969000000115 0
664 0.4093475 2.51786 0
665 -0.3447361999997818 2.083271000000126 0
666 0.2412170000003857 2.420964000000223 0
667 0.1546482000006603 2.371073000000381 0
668 -0.2631744999995504 2.130276000000259 0
669 0.4086361666666664 2.922048333333521 0
670 0.4092018333333328 2.600621666666942 0
671 -0.1766056999993288 2.180167000000387 0
672 0.07308650000088798 2.324068000000512 0
673 0.4592018333333329 2.600701666666941 0
674 0.4593475 2.51794 0
675 0.7940830000001693 2.326343333333236 0
676 0.4590646666666665 2.678626666666753 0
677 0.4586361666666671 2.922074999999754 0
678 0.4587818333333335 2.839313333333247 0
679 0.5312895000001915 2.476761666666557 0
680 0.5949066666667533 2.440348333333284 0
681 0.666848666666731 2.399169999999963 0
682 0.4589190000000001 2.761388333333304 0
683 0.7304658333338854 2.362756666666351 0
$EndNodes
$Elements
290
1 15 2 2 3117424 34
2 15 2 1 3118428 35
3 15 2 3 3121439 37
4 15 2 4 3150548 59
5 8 2 1 53199 34 36 278
6 8 2 4 53200 35 33 279
7 8 2 2 53204 37 39 295
8 8 2 1 53205 38 34 296
9 8 2 4 53209 40 41 312
10 8 2 4 53210 42 33 313
11 8 2 2 53214 43 44 329
12 8 2 2 53215 45 37 330
13 8 2 4 53219 46 47 346
14 8 2 4 53220 48 40 347
15 8 2 2 53224 43 51 363
16 8 2 2 53225 50 49 364
17 8 2 4 53229 46 53 380
18 8 2 4 53230 54 52 381
19 8 2 2 53234 49 57 397
20 8 2 2 53235 56 55 398
21 8 2 4 53239 52 60 414
22 8 2 3 53240 59 58 415
23 8 2 3 53243 58 62 426
24 8 2 2 53244 61 55 427
25 9 2 11 5986 263 10 7 428 429 265
26 9 2 11 5986 73 72 64 77 430 431
27 9 2 11 5986 65 73 64 432 431 69
28 9 2 11 5986 72 9 63 76 433 434
29 9 2 11 5986 269 259 9 435 436 272
30 9 2 11 5986 34 36 274 278 277 437
31 9 2 11 5986 274 273 264 276 438 439
32 9 2 11 5986 75 74 65 79 440 441
33 9 2 11 5986 273 10 263 275 428 442
34 9 2 11 5986 264 273 263 438 442 266
35 9 2 11 5986 75 65 66 441 70 443
36 9 2 11 5986 10 66 7 444 71 429
37 9 2 11 5986 10 75 66 80 443 444
38 9 2 11 5986 268 258 269 445 446 271
39 9 2 11 5986 34 274 264 437 439 267
40 9 2 11 5986 74 73 65 78 432 440
41 9 2 11 5986 33 258 268 260 445 447
42 9 2 11 5986 63 9 8 433 448 67
43 9 2 11 5986 35 33 268 279 447 270
44 9 2 11 5986 259 8 9 262 448 436
45 9 2 11 5986 64 72 63 430 434 68
46 9 2 11 5986 258 259 269 261 435 446
47 9 2 11 5987 286 263 11 449 450 289
48 9 2 11 5987 291 281 39 451 452 294
49 9 2 11 5987 285 264 286 453 454 288
50 9 2 11 5987 290 280 281 455 283 456
51 9 2 11 5987 281 37 39 284 295 452
52 9 2 11 5987 263 7 11 265 457 450
53 9 2 11 5987 264 263 286 266 449 454
54 9 2 11 5987 34 264 285 267 453 458
55 9 2 11 5987 11 280 290 459 455 292
56 9 2 11 5987 11 7 280 457 282 459
57 9 2 11 5987 38 34 285 296 458 287
58 9 2 11 5987 290 281 291 456 451 293
59 9 2 11 5988 82 83 92 87 460 461
60 9 2 11 5988 33 258 42 260 462 313
61 9 2 11 5988 93 84 13 463 464 98
62 9 2 11 5988 81 82 90 86 465 466
63 9 2 11 5988 82 92 91 461 96 467
64 9 2 11 5988 83 84 93 88 463 468
65 9 2 11 5988 303 298 41 469 470 306
66 9 2 11 5988 90 82 91 465 467 95
67 9 2 11 5988 13 297 302 471 472 304
68 9 2 11 5988 302 297 303 472 473 305
69 9 2 11 5988 298 40 41 301 312 470
70 9 2 11 5988 258 259 307 261 474 475
71 9 2 11 5988 92 83 93 460 468 97
72 9 2 11 5988 84 5 13 89 476 464
73 9 2 11 5988 307 259 308 474 477 310
74 9 2 11 5988 42 258 307 462 475 309
75 9 2 11 5988 13 5 297 476 299 471
76 9 2 11 5988 297 298 303 300 469 473
77 9 2 11 5988 259 8 12 262 478 479
78 9 2 11 5988 12 81 90 480 466 94
79 9 2 11 5988 259 12 308 479 311 477
80 9 2 11 5988 8 81 12 85 480 478
81 9 2 11 5989 120 101 121 481 482 125
82 9 2 11 5989 119 100 120 483 484 124
83 9 2 11 5989 102 103 122 108 485 486
84 9 2 11 5989 8 81 14 85 487 488
85 9 2 11 5989 320 319 315 322 489 490
86 9 2 11 5989 101 102 121 107 491 482
87 9 2 11 5989 43 320 315 492 490 318
88 9 2 11 5989 324 45 37 326 330 493
89 9 2 11 5989 82 112 111 494 116 495
90 9 2 11 5989 120 100 101 484 106 481
91 9 2 11 5989 44 320 43 323 492 329
92 9 2 11 5989 112 83 113 496 497 117
93 9 2 11 5989 121 102 122 491 486 126
94 9 2 11 5989 119 99 100 498 105 483
95 9 2 11 5989 14 81 110 487 499 114
96 9 2 11 5989 17 325 280 328 500 501
97 9 2 11 5989 83 84 113 88 502 497
98 9 2 11 5989 7 17 280 503 501 282
99 9 2 11 5989 325 324 281 327 504 505
100 9 2 11 5989 64 131 130 506 135 507
101 9 2 11 5989 315 319 314 489 508 317
102 9 2 11 5989 65 64 129 69 509 510
103 9 2 11 5989 81 82 110 86 511 499
104 9 2 11 5989 82 83 112 87 496 494
105 9 2 11 5989 66 65 128 70 512 513
106 9 2 11 5989 129 64 130 509 507 134
107 9 2 11 5989 7 66 17 71 514 503
108 9 2 11 5989 15 99 119 515 498 123
109 9 2 11 5989 113 84 15 502 516 118
110 9 2 11 5989 15 5 99 517 104 515
111 9 2 11 5989 63 8 14 67 488 518
112 9 2 11 5989 122 103 16 485 519 127
113 9 2 11 5989 319 16 314 321 520 508
114 9 2 11 5989 103 6 16 109 521 519
115 9 2 11 5989 64 63 131 68 522 506
116 9 2 11 5989 314 16 6 520 521 316
117 9 2 11 5989 63 14 131 518 136 522
118 9 2 11 5989 84 5 15 89 517 516
119 9 2 11 5989 280 325 281 500 505 283
120 9 2 11 5989 17 66 128 514 513 132
121 9 2 11 5989 281 324 37 504 493 284
122 9 2 11 5989 110 82 111 511 495 115
123 9 2 11 5989 128 65 129 512 510 133
124 9 2 11 5990 166 148 149 523 153 524
125 9 2 11 5990 99 100 175 105 525 526
126 9 2 11 5990 158 139 159 527 528 163
127 9 2 11 5990 140 141 160 146 529 530
128 9 2 11 5990 5 21 297 531 532 299
129 9 2 11 5990 5 99 21 104 533 531
130 9 2 11 5990 336 20 331 338 534 535
131 9 2 11 5990 169 151 20 536 537 174
132 9 2 11 5990 47 337 46 340 538 346
133 9 2 11 5990 168 150 169 539 540 173
134 9 2 11 5990 19 3 148 541 152 542
135 9 2 11 5990 102 103 178 108 543 544
136 9 2 11 5990 103 6 18 109 545 546
137 9 2 11 5990 102 178 177 544 182 547
138 9 2 11 5990 137 138 157 143 548 549
139 9 2 11 5990 103 18 178 546 183 543
140 9 2 11 5990 157 138 158 548 550 162
141 9 2 11 5990 337 336 332 339 551 552
142 9 2 11 5990 19 148 166 542 523 170
143 9 2 11 5990 141 3 19 147 541 553
144 9 2 11 5990 167 149 150 554 154 555
145 9 2 11 5990 160 141 19 529 553 165
146 9 2 11 5990 139 140 159 145 556 528
147 9 2 11 5990 100 101 176 106 557 558
148 9 2 11 5990 331 20 4 534 559 333
149 9 2 11 5990 341 48 40 343 347 560
150 9 2 11 5990 151 4 20 156 559 537
151 9 2 11 5990 297 342 298 561 562 300
152 9 2 11 5990 18 137 157 563 549 161
153 9 2 11 5990 101 102 177 107 547 564
154 9 2 11 5990 175 100 176 525 558 180
155 9 2 11 5990 166 149 167 524 554 171
156 9 2 11 5990 159 140 160 556 530 164
157 9 2 11 5990 21 99 175 533 526 179
158 9 2 11 5990 21 342 297 345 561 532
159 9 2 11 5990 150 151 169 155 536 540
160 9 2 11 5990 332 336 331 551 535 334
161 9 2 11 5990 298 341 40 565 560 301
162 9 2 11 5990 176 101 177 557 564 181
163 9 2 11 5990 342 341 298 344 565 562
164 9 2 11 5990 46 337 332 538 552 335
165 9 2 11 5990 6 137 18 142 563 545
166 9 2 11 5990 167 150 168 555 539 172
167 9 2 11 5990 138 139 158 144 527 550
168 9 2 11 5991 140 184 141 566 567 146
169 9 2 11 5991 348 50 49 568 364 350
170 9 2 11 5991 354 348 349 569 351 570
171 9 2 11 5991 187 186 138 191 571 572
172 9 2 11 5991 184 22 141 188 573 567
173 9 2 11 5991 22 354 349 357 570 574
174 9 2 11 5991 353 50 348 355 568 575
175 9 2 11 5991 141 22 3 573 576 147
176 9 2 11 5991 22 349 3 574 352 576
177 9 2 11 5991 139 185 140 577 578 145
178 9 2 11 5991 138 186 139 571 579 144
179 9 2 11 5991 185 184 140 189 566 578
180 9 2 11 5991 354 353 348 356 575 569
181 9 2 11 5991 186 185 139 190 577 579
182 9 2 11 5991 359 358 314 361 580 581
183 9 2 11 5991 137 187 138 582 572 143
184 9 2 11 5991 23 187 137 192 582 583
185 9 2 11 5991 315 359 314 584 581 317
186 9 2 11 5991 43 51 315 363 585 318
187 9 2 11 5991 51 359 315 362 584 585
188 9 2 11 5991 314 358 23 580 360 586
189 9 2 11 5991 6 23 137 587 583 142
190 9 2 11 5991 314 23 6 586 587 316
191 9 2 11 5992 366 375 365 588 589 368
192 9 2 11 5992 194 204 193 590 591 199
193 9 2 11 5992 365 54 52 592 381 367
194 9 2 11 5992 207 206 196 211 593 594
195 9 2 11 5992 46 53 332 380 595 335
196 9 2 11 5992 331 24 4 596 597 333
197 9 2 11 5992 331 370 24 598 372 596
198 9 2 11 5992 53 371 332 374 599 595
199 9 2 11 5992 4 24 197 597 600 203
200 9 2 11 5992 204 25 193 208 601 591
201 9 2 11 5992 196 206 195 593 602 201
202 9 2 11 5992 205 204 194 209 590 603
203 9 2 11 5992 197 207 196 604 594 202
204 9 2 11 5992 375 54 365 377 592 589
205 9 2 11 5992 376 375 366 378 588 605
206 9 2 11 5992 193 25 2 601 606 198
207 9 2 11 5992 206 205 195 210 607 602
208 9 2 11 5992 25 376 366 379 605 608
209 9 2 11 5992 25 366 2 608 369 606
210 9 2 11 5992 24 207 197 212 604 600
211 9 2 11 5992 332 370 331 609 598 334
212 9 2 11 5992 332 371 370 599 373 609
213 9 2 11 5992 195 205 194 607 603 200
214 9 2 11 5993 194 231 193 610 611 199
215 9 2 11 5993 3 29 148 612 613 152
216 9 2 11 5993 224 214 215 614 219 615
217 9 2 11 5993 27 225 216 230 616 617
218 9 2 11 5993 223 222 214 227 618 619
219 9 2 11 5993 392 348 393 620 621 395
220 9 2 11 5993 29 243 148 248 622 613
221 9 2 11 5993 151 240 28 623 244 624
222 9 2 11 5993 224 223 214 228 619 614
223 9 2 11 5993 55 382 387 384 625 626
224 9 2 11 5993 4 28 197 627 628 203
225 9 2 11 5993 150 241 240 629 245 630
226 9 2 11 5993 197 234 196 631 632 202
227 9 2 11 5993 233 232 195 237 633 634
228 9 2 11 5993 27 216 2 617 221 635
229 9 2 11 5993 231 27 193 235 636 611
230 9 2 11 5993 193 27 2 636 635 198
231 9 2 11 5993 28 234 197 239 631 628
232 9 2 11 5993 56 55 387 398 626 389
233 9 2 11 5993 29 349 392 637 638 394
234 9 2 11 5993 348 49 393 350 639 621
235 9 2 11 5993 382 383 388 385 640 641
236 9 2 11 5993 388 383 26 640 642 391
237 9 2 11 5993 148 243 149 622 643 153
238 9 2 11 5993 234 233 196 238 644 632
239 9 2 11 5993 150 240 151 630 623 155
240 9 2 11 5993 232 231 194 236 610 645
241 9 2 11 5993 349 348 392 351 620 638
242 9 2 11 5993 196 233 195 644 634 201
243 9 2 11 5993 151 28 4 624 627 156
244 9 2 11 5993 195 232 194 633 645 200
245 9 2 11 5993 222 26 213 226 646 647
246 9 2 11 5993 149 242 241 648 246 649
247 9 2 11 5993 383 1 26 386 650 642
248 9 2 11 5993 243 242 149 247 648 643
249 9 2 11 5993 149 241 150 649 629 154
250 9 2 11 5993 213 26 1 646 650 217
251 9 2 11 5993 387 382 388 625 641 390
252 9 2 11 5993 214 222 213 618 647 218
253 9 2 11 5993 225 215 216 651 220 616
254 9 2 11 5993 225 224 215 229 615 651
255 9 2 11 5993 3 349 29 352 637 612
256 9 2 11 5993 393 49 57 639 397 396
257 9 2 11 5994 215 251 250 652 255 653
258 9 2 11 5994 400 405 399 654 655 402
259 9 2 11 5994 405 404 399 407 656 655
260 9 2 11 5994 409 365 410 657 658 412
261 9 2 11 5994 365 52 410 367 659 658
262 9 2 11 5994 2 366 31 369 660 661
263 9 2 11 5994 31 366 409 660 662 411
264 9 2 11 5994 213 30 1 663 664 217
265 9 2 11 5994 2 31 216 661 665 221
266 9 2 11 5994 213 249 30 666 253 663
267 9 2 11 5994 214 249 213 667 666 218
268 9 2 11 5994 410 52 60 659 414 413
269 9 2 11 5994 31 252 216 257 668 665
270 9 2 11 5994 366 365 409 368 657 662
271 9 2 11 5994 404 59 58 406 415 669
272 9 2 11 5994 1 30 400 664 670 403
273 9 2 11 5994 30 405 400 408 654 670
274 9 2 11 5994 399 404 58 656 669 401
275 9 2 11 5994 252 251 215 256 652 671
276 9 2 11 5994 216 252 215 668 671 220
277 9 2 11 5994 214 250 249 672 254 667
278 9 2 11 5994 215 250 214 653 672 219
279 9 2 11 5995 1 400 32 403 673 674
280 9 2 11 5995 55 382 61 384 675 427
281 9 2 11 5995 32 400 421 673 676 423
282 9 2 11 5995 399 58 422 401 677 678
283 9 2 11 5995 383 1 32 386 674 679
284 9 2 11 5995 382 383 417 385 680 681
285 9 2 11 5995 400 399 421 402 682 676
286 9 2 11 5995 422 58 62 677 426 425
287 9 2 11 5995 421 399 422 682 678 424
288 9 2 11 5995 383 32 417 679 420 680
289 9 2 11 5995 382 417 416 681 419 683
290 9 2 11 5995 61 382 416 675 683 418
$EndElements
