$MeshFormat
2.2 0 8
$EndMeshFormat
$Nodes
679
1 0.436755 -0.505613 0
2 -0.430623 -1.00412 0
3 -0.433111 -1.99998 0
4 0.433151 0.506703 0
5 -0.430964 0.998506 0
6 0.431322 -2.50335 0
7 -0.434349 2.00443 0
8 0.431737 2.50631 0
9 0.381346 -2.53211 0
10 -0.433254 -2.05776 0
11 0.481346 -2.53221 0
12 -0.483039 -1.97103 0
13 -0.480695 -1.03278 0
14 0.431437 -2.44556 0
15 -0.383039 -1.97128 0
16 -0.380695 -1.03309 0
17 0.43684 -0.563234 0
18 -0.430727 0.94084 0
19 -0.43042 -0.946334 0
20 0.386652 -0.476739 0
21 0.383254 0.47757 0
22 0.483254 0.477808 0
23 0.486652 -0.476522 0
24 -0.481061 1.02725 0
25 -0.484252 1.97541 0
26 0.431702 2.4485 0
27 -0.384252 1.97567 0
28 -0.381062 1.02764 0
29 0.433048 0.564293 0
30 -0.434476 2.06214 0
31 0.381812 2.53517 0
32 0.481812 2.53504 0
33 0.431734 -3 0
34 -0.866025 -2.24921 0
35 0.381734 -3 0
36 -0.866025 -2.3069 0
37 0.866025 -2.25253 0
38 0.866025 -2.31026 0
39 0.481734 -3 0
40 -0.866025 -0.749792 0
41 -0.866025 -2.19151 0
42 -0.866025 -0.807697 0
43 0.866025 -0.750647 0
44 0.866025 -2.19481 0
45 0.866025 -0.808219 0
46 -0.866025 0.746133 0
47 -0.866025 0.688329 0
48 -0.866025 -0.691887 0
49 0.866025 0.755124 0
50 0.866025 0.697475 0
51 0.866025 -0.693075 0
52 -0.866025 2.25204 0
53 -0.866025 0.803936 0
54 -0.866025 2.1944 0
55 0.866025 2.25394 0
56 0.866025 2.19611 0
57 0.866025 0.812773 0
58 0.433027 3 0
59 -0.866025 2.30968 0
60 0.383027 3 0
61 0.866025 2.31177 0
62 0.483027 3 0
63 0.2584354000003706 -2.402676000000216 0
64 0.08554880000083936 -2.302002000000489 0
65 -0.08733779999908187 -2.201328000000535 0
66 -0.2602243999995179 -2.100654000000281 0
67 0.3448787000000063 -2.453013000000004 0
68 0.1719921000006536 -2.352339000000381 0
69 -0.0008944999987720026 -2.251665000000715 0
70 -0.173781099999195 -2.150991000000469 0
71 -0.3466676999998335 -2.050317000000097 0
72 0.2184260000003178 -2.437240000000185 0
73 0.05550600000082101 -2.342370000000478 0
74 -0.1074139999990911 -2.247500000000529 0
75 -0.2703339999996098 -2.152630000000227 0
76 0.2998860000002469 -2.484675000000144 0
77 0.1369660000005093 -2.389805000000297 0
78 -0.0259539999989305 -2.294935000000623 0
79 -0.1888739999995422 -2.200065000000266 0
80 -0.3517939999998105 -2.10519500000011 0
81 -0.432613400000001 -1.800808000000399 0
82 -0.4321158000000024 -1.601636000000981 0
83 -0.4316182000000028 -1.402464000001111 0
84 -0.4311206000000015 -1.203292000000581 0
85 -0.4328622 -1.900394000000012 0
86 -0.4323646000000014 -1.701222000000574 0
87 -0.431867000000003 -1.5020500000012 0
88 -0.4313694000000024 -1.30287800000097 0
89 -0.4308718000000004 -1.103706000000148 0
90 -0.4825702000000014 -1.78338000000059 0
91 -0.4821014000000033 -1.59573000000131 0
92 -0.481632600000003 -1.408080000001223 0
93 -0.4811638000000014 -1.220430000000564 0
94 -0.4828046000000004 -1.877205000000175 0
95 -0.4823358000000024 -1.689555000000949 0
96 -0.4818670000000037 -1.501905000001488 0
97 -0.4813982000000028 -1.314255000001142 0
98 -0.4809294000000007 -1.126605000000268 0
99 -0.2571474000003632 -0.9044186000002087 0
100 -0.08367180000087959 -0.8047172000005055 0
101 0.08980379999906218 -0.7050158000005389 0
102 0.2632793999995386 -0.605314400000265 0
103 -0.3438852000001694 -0.9542693000000972 0
104 -0.1704096000006169 -0.8545679000003545 0
105 0.00306599999887236 -0.754866500000648 0
106 0.1765415999993912 -0.6551651000003498 0
107 0.3500171999997753 -0.555463700000129 0
108 0.2685418000003403 -2.350704000000198 0
109 0.1056466000007111 -2.255848000000414 0
110 -0.05724859999921939 -2.160992000000455 0
111 -0.2201437999996136 -2.066136000000225 0
112 0.3499894000001753 -2.398132000000102 0
113 0.1870942000005463 -2.303276000000318 0
114 0.02419900000092107 -2.208420000000536 0
115 -0.1386961999995792 -2.113564000000245 0
116 -0.301591399999825 -2.018708000000102 0
117 -0.3825702000000012 -1.783642000000477 0
118 -0.3821014000000025 -1.596004000000988 0
119 -0.3816326000000023 -1.408366000000919 0
120 -0.3811638000000008 -1.220728000000329 0
121 -0.3828046000000006 -1.877461000000238 0
122 -0.382335800000002 -1.689823000000787 0
123 -0.3818670000000031 -1.502185000001212 0
124 -0.3813982000000015 -1.314547000000601 0
125 -0.3809294000000008 -1.126909000000299 0
126 -0.2171880000002653 -0.9391188000001525 0
127 -0.05368100000083281 -0.8451476000004787 0
128 0.1098259999990406 -0.7511764000005514 0
129 0.2733329999995265 -0.6572052000002722 0
130 -0.2989415000001563 -0.9861044000000899 0
131 -0.1354345000005392 -0.8921332000003099 0
132 0.02807249999888745 -0.7981620000006394 0
133 0.1915794999992813 -0.7041908000004131 0
134 0.355086499999684 -0.6102196000001816 0
135 0.4361543333333347 -0.3368936666670462 0
136 0.4355536666666696 -0.1681743333341539 0
137 0.4349530000000045 0.0005449999987308107 0
138 0.4343523333333362 0.1692643333325232 0
139 0.4337516666666679 0.3379836666663154 0
140 0.4364546666666674 -0.4212533333335489 0
141 0.435854000000002 -0.2525340000005702 0
142 0.4352533333333372 -0.08381466666774423 0
143 0.4346526666666704 0.0849046666656269 0
144 0.434052000000002 0.2536239999994193 0
145 0.4334513333333342 0.4223433333330995 0
146 0.2603280000003356 0.6050635999998091 0
147 0.08750500000080513 0.7034241999995418 0
148 -0.08531799999921946 0.8017847999995558 0
149 -0.2581409999996212 0.9001453999997844 0
150 0.3467395000001887 0.5558832999998926 0
151 0.173916500000552 0.6542438999996858 0
152 0.001093500000998504 0.7526044999994317 0
153 -0.1717294999994014 0.8509650999996593 0
154 -0.3445524999998211 0.9493256999998982 0
155 -0.2670056000004097 -0.8524150000002355 0
156 -0.103591200000882 -0.7584960000005069 0
157 0.0598231999990923 -0.6645770000005218 0
158 0.2232375999995394 -0.5706580000002648 0
159 -0.3487128000001901 -0.8993745000001092 0
160 -0.1852984000006254 -0.8054555000003595 0
161 -0.02188400000111285 -0.7115365000006396 0
162 0.1415303999993184 -0.6176175000003917 0
163 0.3049447999998618 -0.5236985000000794 0
164 0.3859724000000015 -0.2858772000004207 0
165 0.3852928000000034 -0.09501540000097164 0
166 0.3846132000000034 0.09584639999903255 0
167 0.3839336000000017 0.2867081999995185 0
168 0.3863122000000006 -0.3813081000001741 0
169 0.3856326000000025 -0.1904463000007064 0
170 0.3849530000000045 0.0004154999987323049 0
171 0.3842734000000024 0.1912772999993165 0
172 0.3835938000000006 0.3821390999998271 0
173 0.2204578000003111 0.5702239999998229 0
174 0.05766160000086179 0.6628779999995095 0
175 -0.1051345999990663 0.7555319999994685 0
176 -0.2679307999995174 0.8481859999997253 0
177 0.3018559000001136 0.5238969999999353 0
178 0.1390597000005831 0.6165509999996681 0
179 -0.02373649999884631 0.7092049999993434 0
180 -0.1865326999992939 0.8018589999995981 0
181 -0.3493288999997056 0.8945129999998325 0
182 0.4839335999999984 0.2869420000004705 0
183 0.4846131999999966 0.0960760000009625 0
184 0.4852927999999965 -0.09478999999901638 0
185 0.485972399999998 -0.2856559999994545 0
186 0.4835937999999993 0.3823750000002025 0
187 0.4842733999999975 0.1915090000006925 0
188 0.4849529999999957 0.0006430000012023762 0
189 0.4856325999999975 -0.1902229999993132 0
190 0.486312199999999 -0.3810889999997189 0
191 -0.4315281666666655 1.166159999999646 0
192 -0.4320923333333302 1.333813999999075 0
193 -0.4326564999999939 1.501467999998201 0
194 -0.4332206666666629 1.669121999998888 0
195 -0.4337848333333315 1.836775999999444 0
196 -0.4312460833333334 1.082332999999999 0
197 -0.4318102499999976 1.249986999999298 0
198 -0.4323744166666627 1.417640999998804 0
199 -0.4329385833333282 1.58529499999849 0
200 -0.4335027499999971 1.752948999999133 0
201 -0.4340669166666656 1.9206029999997 0
202 -0.4816991999999986 1.216881999999584 0
203 -0.4823373999999973 1.406513999999176 0
204 -0.482975599999997 1.59614599999909 0
205 -0.4836137999999985 1.785777999999567 0
206 -0.4813800999999997 1.122065999999908 0
207 -0.482018299999998 1.31169799999938 0
208 -0.4826564999999953 1.501329999998597 0
209 -0.4832946999999981 1.690961999999431 0
210 -0.4839328999999993 1.880593999999792 0
211 0.2585198000003084 2.405934000000179 0
212 0.08530260000068174 2.305558000000395 0
213 -0.08791459999931156 2.205182000000399 0
214 -0.261131799999655 2.1048060000002 0
215 0.3451284000001141 2.456122000000066 0
216 0.1719112000006171 2.355746000000358 0
217 -0.001305999999071827 2.255370000000538 0
218 -0.1745231999994714 2.154994000000306 0
219 -0.3477403999999598 2.054618000000024 0
220 0.2685112000003812 2.353934000000221 0
221 0.105320400000821 2.259368000000476 0
222 -0.05787039999916865 2.164802000000482 0
223 -0.2210611999995529 2.070236000000259 0
224 0.3501066000000759 2.401217000000044 0
225 0.1869158000007273 2.306651000000421 0
226 0.02372500000101618 2.212085000000589 0
227 -0.1394657999993754 2.117519000000362 0
228 -0.3026565999998183 2.022953000000105 0
229 -0.3836140000000016 1.786064000000477 0
230 -0.3829760000000033 1.596458000000963 0
231 -0.3823380000000038 1.406852000001119 0
232 -0.3817000000000017 1.217246000000504 0
233 -0.3839330000000008 1.88086700000025 0
234 -0.383295000000003 1.691261000000897 0
235 -0.382657000000005 1.501655000001495 0
236 -0.3820190000000024 1.312049000000715 0
237 -0.3813810000000015 1.122443000000448 0
238 -0.2182400000003046 0.9349706000001734 0
239 -0.05541800000075098 0.8423012000004275 0
240 0.1074039999992693 0.749631800000416 0
241 0.2702259999996057 0.6569624000002244 0
242 -0.2996510000001648 0.9813053000000939 0
243 -0.1368290000005044 0.8886359000002871 0
244 0.02599299999896221 0.7959665000005908 0
245 0.188814999999493 0.7032971000002886 0
246 0.3516369999997369 0.6106277000001499 0
247 -0.2712184000002242 2.15674599999987 0
248 -0.1079608000008103 2.25135199999953 0
249 0.05529679999938325 2.345957999999642 0
250 0.2185543999993153 2.440563999999603 0
251 -0.3528472000000567 2.109442999999967 0
252 -0.1895896000004765 2.204048999999724 0
253 -0.02633200000106695 2.298654999999381 0
254 0.1369255999994378 2.393260999999674 0
255 0.3001831999996436 2.487866999999794 0
256 0.4315966666666671 -2.834450000000492 0
257 0.4314593333333335 -2.668900000000202 0
258 0.4316653333333336 -2.917225000000307 0
259 0.4315280000000001 -2.751675000000086 0
260 0.4313906666666661 -2.586124999999373 0
261 -0.5774156666660453 -2.083056666666309 0
262 -0.721720333332762 -2.166133333333005 0
263 -0.5052633333331951 -2.041518333333254 0
264 -0.6495679999991252 -2.124594999999497 0
265 -0.7938726666663073 -2.20767166666646 0
266 0.3816046666666668 -2.844036666666782 0
267 0.3814753333333337 -2.688073333333738 0
268 0.3816693333333337 -2.922018333333843 0
269 0.3815400000000004 -2.766055000000438 0
270 0.3814106666666666 -2.610091666666617 0
271 -0.5775109999996014 -2.140806666666437 0
272 -0.7217679999997428 -2.223853333333186 0
273 -0.5053824999999683 -2.099283333333315 0
274 -0.6496394999995374 -2.182329999999734 0
275 -0.7938964999997085 -2.265376666666499 0
276 -0.866025 -2.278055 0
277 0.406734 -3 0
278 0.7211240000002547 -2.33613666666652 0
279 0.5762230000002533 -2.419743333333187 0
280 0.7935745000002812 -2.294333333333171 0
281 0.6486735000007563 -2.377939999999564 0
282 0.503772499999982 -2.461546666666677 0
283 0.7377986666669265 -2.384243333333183 0
284 0.6095723333335983 -2.458226666666514 0
285 0.8019118333336003 -2.347251666666513 0
286 0.6736855000004623 -2.421234999999733 0
287 0.5454591666667512 -2.495218333333284 0
288 0.481475333333333 -2.688139999999566 0
289 0.4816046666666663 -2.844069999999566 0
290 0.4814106666666662 -2.610174999999442 0
291 0.4815399999999995 -2.766104999999428 0
292 0.4816693333333331 -2.922034999999663 0
293 0.456734 -3 0
294 0.866025 -2.281395 0
295 -0.57575699999965 -0.9193440000002043 0
296 -0.7208909999996199 -0.834568000000222 0
297 -0.5031899999998537 -0.9617320000000854 0
298 -0.6483239999994388 -0.8769560000003278 0
299 -0.7934579999997602 -0.7921800000001401 0
300 -0.738363000000296 -2.118016666666837 0
301 -0.6107010000002584 -2.044523333333482 0
302 -0.8021940000000488 -2.154763333333361 0
303 -0.6745320000004442 -2.081270000000256 0
304 -0.5468700000002031 -2.007776666666784 0
305 -0.6091383333329312 -0.9577523333335682 0
306 -0.7375816666662466 -0.8827246666669121 0
307 -0.5449166666664385 -0.9952661666668 0
308 -0.6733599999992523 -0.9202385000004367 0
309 -0.8018033333330397 -0.8452108333335049 0
310 -0.866025 -0.7787445000000462 0
311 -0.866025 -2.22036 0
312 0.5798449999996451 -0.5872909999997974 0
313 0.7229349999997208 -0.6689689999998406 0
314 0.5082999999998093 -0.5464519999998911 0
315 0.65138999999956 -0.6281299999997488 0
316 0.7944799999996461 -0.7098079999997979 0
317 0.7211623333337014 -2.278393333333121 0
318 0.5762996666670129 -2.361976666666467 0
319 0.7935936666669257 -2.236601666666517 0
320 0.6487310000005059 -2.320184999999708 0
321 0.5038683333334806 -2.403768333333248 0
322 0.5799016666662767 -0.6448956666664442 0
323 0.7229633333330597 -0.7265573333331772 0
324 0.508370833333132 -0.6040648333332185 0
325 0.6514324999995327 -0.6857264999997332 0
326 0.7944941666662917 -0.7673881666664526 0
327 0.866025 -0.779432999999698 0
328 0.866025 -2.22367 0
329 -0.5759843333330904 0.9143816666668076 0
330 -0.7210046666662336 0.8302573333335845 0
331 -0.5034741666665388 0.9564438333334075 0
332 -0.6484944999994925 0.8723195000002945 0
333 -0.7935148333329828 0.7881951666668701 0
334 -0.5758263333329331 0.8566696666668989 0
335 -0.7209256666662359 0.7724993333335832 0
336 -0.5032766666664145 0.8987548333334797 0
337 -0.6483759999993824 0.8145845000003582 0
338 -0.7934753333329643 0.7304141666668807 0
339 -0.7208233333338085 -0.7767026666663891 0
340 -0.5756216666670193 -0.8615183333331274 0
341 -0.7934241666669387 -0.7342948333331745 0
342 -0.6482225000006434 -0.8191104999996242 0
343 -0.5030208333334604 -0.9039261666665925 0
344 -0.866025 0.7172310000000001 0
345 -0.866025 -0.7208394999997949 0
346 0.7217336666670114 0.6723170000001979 0
347 0.5774423333337013 0.5895100000002111 0
348 0.7938793333335356 0.713720500000116 0
349 0.6495880000005005 0.6309135000002872 0
350 0.5052966666667233 0.5481065000000325 0
351 0.7384346666669552 0.6242526666668322 0
352 0.6108443333336624 0.5510303333335222 0
353 0.8022298333335165 0.6608638333334385 0
354 0.6746395000004959 0.5876415000002845 0
355 0.5470491666669226 0.5144191666668135 0
356 0.6131096666663395 -0.5487063333331466 0
357 0.7395673333330053 -0.6208906666664794 0
358 0.5498808333331731 -0.5126141666665752 0
359 0.6763384999995797 -0.5847984999997601 0
360 0.8027961666664938 -0.6569828333332346 0
361 0.866025 -0.7218610000003737 0
362 0.866025 0.7262994999995899 0
363 -0.5782409999996265 2.086966666666453 0
364 -0.7221329999996851 2.169503333333153 0
365 -0.5062949999998286 2.045698333333235 0
366 -0.6501869999993657 2.128234999999636 0
367 -0.7940789999996936 2.210771666666491 0
368 -0.737703666667062 0.8783739999997707 0
369 -0.6093823333336574 0.9528119999998119 0
370 -0.8018643333335453 0.8411549999998771 0
371 -0.6735430000005125 0.9155929999997027 0
372 -0.5452216666668679 0.9900309999998833 0
373 -0.611509666666184 2.04840666666639 0
374 -0.7387673333330949 2.121403333333197 0
375 -0.5478808333330996 2.011908333333199 0
376 -0.6751384999996648 2.084904999999808 0
377 -0.8023961666665306 2.157901666666588 0
378 -0.866025 2.22322 0
379 -0.866025 0.7750345000000001 0
380 0.7212623333335997 2.338063333333178 0
381 0.5764996666670645 2.422186666666435 0
382 0.7936436666669408 2.296001666666507 0
383 0.6488810000006466 2.380124999999624 0
384 0.5041183333336814 2.464248333333131 0
385 0.7212506666670483 2.280239999999778 0
386 0.5764763333336806 2.364369999999798 0
387 0.793637833334066 2.238174999999574 0
388 0.6488635000003045 2.322304999999823 0
389 0.5040891666670073 2.406434999999802 0
390 0.5773736666663464 0.6471196666664829 0
391 0.7216993333329329 0.7299463333331035 0
392 0.5052108333333445 0.6057063333333398 0
393 0.6495364999994421 0.6885329999996799 0
394 0.7938621666663779 0.7713596666665008 0
395 0.866025 0.7839484999999999 0
396 0.866025 2.225025 0
397 0.4321669999999985 2.670873333332755 0
398 0.4325969999999988 2.835436666666205 0
399 0.4319520000000012 2.588591666667115 0
400 0.4323819999999987 2.75315499999948 0
401 0.4328120000000008 2.917718333333625 0
402 -0.7221753333338921 2.227166666666987 0
403 -0.5783256666670346 2.144653333333544 0
404 -0.7941001666669346 2.268423333333487 0
405 -0.6502505000003842 2.185910000000221 0
406 -0.5064008333335989 2.103396666666819 0
407 0.3822169999999989 2.690113333332928 0
408 0.3826219999999984 2.845056666666059 0
409 0.3820145000000006 2.612641666666923 0
410 0.382419499999998 2.767584999999221 0
411 0.3828244999999984 2.922528333332719 0
412 0.408027 3 0
413 -0.866025 2.28086 0
414 0.7379540000003652 2.386193333333121 0
415 0.6098830000004009 2.460616666666434 0
416 0.801989500000178 2.348981666666563 0
417 0.6739185000006267 2.423404999999636 0
418 0.5458475000002139 2.497828333333209 0
419 0.4822170000000002 2.690026666666725 0
420 0.4826219999999989 2.845013333332929 0
421 0.4820144999999997 2.61253333333322 0
422 0.4824194999999993 2.767519999999747 0
423 0.4828244999999988 2.922506666666206 0
424 0.458027 3 0
425 0.866025 2.282855 0
426 0.4064673333333336 -2.67848666666697 0
427 0.4064026666666667 -2.600505000000101 0
428 0.07052740000083019 -2.322186000000483 0
429 -0.01093259999912588 -2.274751000000509 0
430 -0.2652791999995638 -2.126642000000254 0
431 -0.3467391999997589 -2.079207000000141 0
432 -0.5053348333330226 -2.070408333333154 0
433 -0.5774633333328234 -2.111931666666373 0
434 -0.0973758999990865 -2.224414000000532 0
435 -0.6496156666661816 -2.153469999999721 0
436 -0.7217441666662524 -2.194993333333095 0
437 -0.7938964999998714 -2.236531666666593 0
438 0.406334 -2.51773 0
439 0.1519874000005786 -2.369621000000337 0
440 0.4066006666666669 -2.839243333333637 0
441 0.4066693333333334 -2.922018333333391 0
442 0.3198907000001853 -2.467393000000108 0
443 0.2384307000003442 -2.4199580000002 0
444 0.4065360000000003 -2.761261666667115 0
445 -0.1788358999993458 -2.176979000000381 0
446 -0.4331825 -2.02887 0
447 0.7294613333335906 -2.360189999999852 0
448 0.6653481666669265 -2.397181666666517 0
449 0.4565360000000001 -2.761295000000029 0
450 0.4566006666666667 -2.839260000000029 0
451 0.7935745000001273 -2.32319833333326 0
452 0.4564026666666667 -2.600555000000101 0
453 0.456334 -2.51778 0
454 0.5928976666669258 -2.438984999999851 0
455 0.5287845000001267 -2.475976666666594 0
456 0.4566693333333331 -2.922034999999783 0
457 0.4564673333333332 -2.678519999999884 0
458 -0.4573430000000019 -1.692508000000785 0
459 -0.4575918000000012 -1.792094000000495 0
460 -0.5940583333331518 -2.063789999999895 0
461 -0.6662106666665102 -2.105328333333243 0
462 -0.456859800000003 -1.49909700000121 0
463 -0.4571086000000029 -1.598683000001146 0
464 -0.4578262000000005 -1.8859190000002 0
465 -0.4561422000000014 -1.211861000000573 0
466 -0.4563910000000021 -1.311447000000837 0
467 -0.793872666666381 -2.178821666666503 0
468 -0.528225999999825 -0.9760620000001021 0
469 -0.5924476666662906 -0.9385481666668862 0
470 -0.455659 -1.01845 0
471 -0.7934579999998099 -0.8211325000001111 0
472 -0.4566254000000029 -1.405272000001167 0
473 -0.7292363333329333 -0.858646333333567 0
474 -0.6566693333329483 -0.9010343333335582 0
475 -0.4559078000000008 -1.118036000000291 0
476 -0.730041666666529 -2.142074999999921 0
477 -0.458075 -1.985505 0
478 -0.5302273333330226 -2.027043333333154 0
479 -0.405659 -1.018605 0
480 -0.4059078000000007 -1.118191000000291 0
481 0.6514183333329988 -0.6569323333331424 0
482 0.5798733333329609 -0.6160933333331208 0
483 0.009154400000814633 -2.228588000000475 0
484 -0.07229319999915063 -2.181160000000495 0
485 -0.0686764000008562 -0.8249324000004921 0
486 0.01806139999911469 -0.7750817000005088 0
487 -0.3189212000001816 -0.9687543000001044 0
488 -0.4073430000000018 -1.692639000000729 0
489 -0.4071086000000025 -1.598820000000984 0
490 -0.4061422000000011 -1.212010000000455 0
491 0.4313795 -2.474455 0
492 0.5038300000001267 -2.432651666666594 0
493 -0.2371677000003142 -0.9217687000001806 0
494 -0.1504299000005724 -0.871918000000329 0
495 -0.4066254000000026 -1.405415000001015 0
496 -0.4063910000000018 -1.31159600000072 0
497 0.3449362000001853 -2.424118000000108 0
498 0.2634886000003555 -2.376690000000207 0
499 -0.4068742000000024 -1.50500100000095 0
500 0.7944941666665299 -0.7386021666665885 0
501 0.7229491666663903 -0.6977631666665089 0
502 -0.4078262000000005 -1.886044000000199 0
503 -0.4075918000000011 -1.792225000000438 0
504 0.09981489999905138 -0.7280961000005451 0
505 0.1815683999992944 -0.6811105000004055 0
506 0.1770453000005899 -2.326353000000343 0
507 0.09559770000077525 -2.278925000000451 0
508 0.7211431666669781 -2.307264999999821 0
509 0.7935936666668507 -2.26546166666656 0
510 -0.1537407999993477 -2.13373200000038 0
511 -0.3216316999997589 -2.035967000000141 0
512 -0.2401840999995657 -2.083395000000253 0
513 0.2683061999995326 -0.6312598000002686 0
514 0.5083424999998225 -0.5752624999998988 0
515 0.4367975 -0.5344234999999999 0
516 0.5762613333336331 -2.390859999999827 0
517 0.6487118333336338 -2.349056666666494 0
518 0.3500596999997693 -0.5842742000001325 0
519 -0.408075 -1.98563 0
520 -0.4305215 -0.975227 0
521 -0.5030884999998251 -0.9328390000001021 0
522 0.4082025 0.4921365 0
523 0.4085028333333339 0.4077768333331577 0
524 0.4094827666666698 0.1325553666657779 0
525 0.4091429666666689 0.2279862666660208 0
526 -0.7934753333331179 0.7593161666667916 0
527 -0.7209651666662348 0.8013783333335839 0
528 -0.3437837000001816 -0.9253763000001043 0
529 -0.2620765000003865 -0.8784168000002222 0
530 0.1539814000005581 0.6368240999996824 0
531 0.07258330000083346 0.6831510999995256 0
532 0.4114031666666673 -0.4068163333335231 0
533 0.4110633666666681 -0.3113854333337335 0
534 0.4117035 -0.491176 0
535 -0.7934241666669043 -0.7632473333331946 0
536 0.4088426333333348 0.3123459333329169 0
537 0.2403929000003234 0.587643799999816 0
538 0.3217910000001678 0.5413167999999046 0
539 -0.1753387000006447 -0.8285661000003706 0
540 0.3249656999997693 -0.5410267000001325 0
541 0.243258499999539 -0.5879862000002649 0
542 -0.01382819999917884 0.7323313999995327 0
543 -0.09522629999914289 0.7786583999995121 0
544 0.410122900000004 -0.04723520000112041 0
545 0.4104232333333365 -0.1315948666675628 0
546 0.1565206999993008 -0.6378369000004018 0
547 -0.5756893333333346 -0.8904311666666659 0
548 -0.6482563333333196 -0.8480431666666748 0
549 -0.4308455 0.969673 0
550 -0.3444339999998106 0.9204926999998921 0
551 -0.1766243999993684 0.8249853999996406 0
552 0.07481349999907724 -0.6847964000005303 0
553 -0.01192430000089365 -0.7346471000005137 0
554 -0.7208571666667143 -0.8056353333333055 0
555 0.4107630333333355 -0.2270257666672873 0
556 0.409783100000004 0.04819569999888168 0
557 -0.5033556666665452 0.9276108333334039 0
558 -0.6484154999995834 0.8434635000002417 0
559 -0.5759053333330117 0.8855256666668533 0
560 -0.09363150000088077 -0.7816066000005062 0
561 -0.2630358999995693 0.8741656999997549 0
562 0.4591429666666673 0.2281031666664969 0
563 0.4588426333333331 0.312462833333393 0
564 0.460423233333333 -0.1314821666665851 0
565 0.4601229000000005 -0.04712250000014279 0
566 0.4607630333333338 -0.2269151666668042 0
567 0.666289000000337 0.6116736666668601 0
568 0.5941433333336819 0.5702701666668667 0
569 0.5303481666668507 0.5336590000001056 0
570 0.4582025 0.4922555 0
571 0.7938793333335057 0.684896000000099 0
572 0.7300841666669833 0.6482848333335151 0
573 0.458502833333334 0.4078958333331577 0
574 0.4594827666666664 0.1326701666667429 0
575 0.731251166666363 -0.64492983333316 0
576 0.6680223333330302 -0.6088376666664936 0
577 0.4597831000000006 0.04831049999984666 0
578 0.4610633666666664 -0.3112748333332503 0
579 0.5964773333329922 -0.567998666666472 0
580 0.4614031666666674 -0.4067078333335231 0
581 0.7944799999998604 -0.6810219999999203 0
582 0.5332484999998226 -0.5319064999998987 0
583 0.4617035 -0.4910675 0
584 -0.5948753333329053 2.067686666666421 0
585 -0.6668213333329345 2.108954999999771 0
586 -0.4560125 1.012878 0
587 -0.5285226666665452 0.9708158333334038 0
588 -0.5926833333333739 0.9335968333333098 0
589 -0.7935148333331168 0.8170966666667923 0
590 -0.7293541666666479 0.8543156666666776 0
591 -0.4562945833333327 1.096704999999823 0
592 -0.4574969499999956 1.453990999998688 0
593 -0.4572148666666638 1.370163999999126 0
594 -0.458699316666665 1.811276999999506 0
595 -0.4584172333333307 1.727449999999227 0
596 -0.7940789999998425 2.181951666666576 0
597 -0.73045016666639 2.145453333333175 0
598 -0.4580981333333299 1.632633999998989 0
599 -0.4593005 1.98992 0
600 -0.5312464999998132 2.031188333333226 0
601 -0.4590184166666658 1.906092999999722 0
602 -0.4568957666666644 1.27534799999933 0
603 -0.4566136833333321 1.191520999999615 0
604 -0.4578160499999955 1.548806999998645 0
605 -0.6568440000000761 0.8963778333332892 0
606 0.6495536666666789 0.6597183333333404 0
607 0.7217164999999721 0.7011316666666507 0
608 -0.4084173333333323 1.727592999999682 0
609 -0.4080983333333331 1.632789999999925 0
610 0.4330995 0.535498 0
611 0.3466880000001678 0.5846782999999045 0
612 -0.151778999999762 0.8683776999998646 0
613 -0.2381904999999629 0.9175579999999789 0
614 0.008702900000754743 2.232275000000437 0
615 -0.07289249999924011 2.18499200000044 0
616 0.7212565000003239 2.309151666666478 0
617 0.7936378333335241 2.267089999999889 0
618 0.5052451666668507 0.5769015000001056 0
619 -0.4078162499999986 1.548962999999582 0
620 0.01604350000002708 0.7728626999999846 0
621 -0.07036799999998522 0.8220429999999916 0
622 -0.241096499999604 2.08752100000023 0
623 -0.3226918999998275 2.0402380000001 0
624 0.09531150000075139 2.282463000000436 0
625 -0.3196014999998106 0.9638926999998922 0
626 -0.406013 1.013073 0
627 0.7938621666664665 0.7425351666665518 0
628 -0.4066140833333336 1.191703000000075 0
629 -0.4062950833333328 1.096899999999823 0
630 -0.1544878999994322 2.137709000000329 0
631 -0.4074972499999989 1.45415999999966 0
632 -0.4086994166666665 1.811419999999961 0
633 -0.4090184166666657 1.906222999999722 0
634 0.2652769999999707 0.6310130000000167 0
635 -0.407215166666667 1.370333000000097 0
636 -0.4068961666666659 1.27552999999979 0
637 0.5764880000003726 2.393278333333117 0
638 0.6488693333336402 2.351216666666488 0
639 0.3451109000001542 2.427217000000089 0
640 0.2635155000003448 2.3799340000002 0
641 0.5774080000000239 0.618314833333347 0
642 0.1788655000002054 0.6801932999998831 0
643 0.1769069000005315 2.329746000000308 0
644 0.5041008333335323 2.435343333333218 0
645 0.4317195 2.477405 0
646 0.09745450000003722 0.7265279999999789 0
647 -0.4093005 1.99005 0
648 0.4078244999999992 2.922528333333029 0
649 -0.1795664999997679 2.180964000000134 0
650 -0.2661750999999396 2.130776000000035 0
651 0.4067745 2.52074 0
652 0.3201659000001542 2.470552000000089 0
653 -0.5782833333333306 2.115809999999998 0
654 -0.5063584999998132 2.074553333333226 0
655 -0.3478038999998275 2.0834730000001 0
656 0.4074069999999989 2.762774999999566 0
657 0.4071919999999987 2.680493333332842 0
658 -0.6502293333333597 2.157078333333349 0
659 0.4069894999999992 2.603021666666377 0
660 0.4076094999999986 2.840246666666132 0
661 -0.09793770000006091 2.228266999999965 0
662 -0.4344125 2.033285 0
663 -0.01132910000006426 2.278454999999963 0
664 0.07029970000003249 2.325758000000019 0
665 -0.7221541666667886 2.19833500000007 0
666 -0.7941001666669461 2.239603333333494 0
667 0.2385370999998118 2.423248999999891 0
668 0.1519284999999985 2.373060999999999 0
669 0.6572268333337148 2.404189999999778 0
670 0.5931913333337326 2.441401666666434 0
671 0.7936436666667999 2.324916666666589 0
672 0.4574069999999995 2.762731666666465 0
673 0.4571919999999993 2.68044999999974 0
674 0.4576094999999989 2.840224999999567 0
675 0.4578244999999995 2.922506666666465 0
676 0.4567745 2.520675 0
677 0.5291558333335322 2.478613333333218 0
678 0.4569894999999993 2.602956666666377 0
679 0.7296081666669825 2.36212833333315 0
$EndNodes
$Elements
288
1 15 2 2 3674105 34
2 15 2 1 3675109 35
3 15 2 3 3679124 38
4 15 2 4 3706225 58
5 8 2 4 62572 34 36 276
6 8 2 1 62573 35 33 277
7 8 2 1 62577 33 39 293
8 8 2 2 62578 38 37 294
9 8 2 4 62582 40 42 310
10 8 2 4 62583 41 34 311
11 8 2 2 62587 43 45 327
12 8 2 2 62588 44 37 328
13 8 2 4 62592 46 47 344
14 8 2 4 62593 48 40 345
15 8 2 2 62597 43 51 361
16 8 2 2 62598 50 49 362
17 8 2 4 62602 52 54 378
18 8 2 4 62603 53 46 379
19 8 2 2 62607 49 57 395
20 8 2 2 62608 56 55 396
21 8 2 3 62612 58 60 412
22 8 2 4 62613 59 52 413
23 8 2 3 62616 58 62 424
24 8 2 2 62617 61 55 425
25 9 2 11 7036 267 257 9 426 427 270
26 9 2 11 7036 73 64 74 428 429 78
27 9 2 11 7036 75 66 10 430 431 80
28 9 2 11 7036 271 10 261 273 432 433
29 9 2 11 7036 64 65 74 69 434 429
30 9 2 11 7036 262 271 261 435 433 264
31 9 2 11 7036 272 271 262 274 435 436
32 9 2 11 7036 34 272 262 437 436 265
33 9 2 11 7036 257 6 9 260 438 427
34 9 2 11 7036 72 64 73 439 428 77
35 9 2 11 7036 33 256 266 258 440 441
36 9 2 11 7036 9 63 72 442 443 76
37 9 2 11 7036 266 256 267 440 444 269
38 9 2 11 7036 33 266 35 441 268 277
39 9 2 11 7036 256 257 267 259 426 444
40 9 2 11 7036 74 65 75 434 445 79
41 9 2 11 7036 72 63 64 443 68 439
42 9 2 11 7036 9 6 63 438 67 442
43 9 2 11 7036 261 10 3 432 446 263
44 9 2 11 7036 36 272 34 275 437 276
45 9 2 11 7036 65 66 75 70 430 445
46 9 2 11 7036 66 3 10 71 446 431
47 9 2 11 7037 284 283 278 286 447 448
48 9 2 11 7037 289 288 256 291 449 450
49 9 2 11 7037 278 38 37 451 294 280
50 9 2 11 7037 283 38 278 285 451 447
51 9 2 11 7037 257 11 6 452 453 260
52 9 2 11 7037 11 284 279 287 454 455
53 9 2 11 7037 33 39 289 293 292 456
54 9 2 11 7037 284 278 279 448 281 454
55 9 2 11 7037 288 11 257 290 452 457
56 9 2 11 7037 256 288 257 449 457 259
57 9 2 11 7037 11 279 6 455 282 453
58 9 2 11 7037 33 289 256 456 450 258
59 9 2 11 7038 81 82 90 86 458 459
60 9 2 11 7038 262 261 301 264 460 461
61 9 2 11 7038 82 83 91 87 462 463
62 9 2 11 7038 12 81 90 464 459 94
63 9 2 11 7038 83 84 93 88 465 466
64 9 2 11 7038 34 262 41 265 467 311
65 9 2 11 7038 13 295 305 468 469 307
66 9 2 11 7038 13 2 295 470 297 468
67 9 2 11 7038 296 40 42 299 310 471
68 9 2 11 7038 92 83 93 472 466 97
69 9 2 11 7038 295 296 306 298 473 474
70 9 2 11 7038 90 82 91 458 463 95
71 9 2 11 7038 306 296 42 473 471 309
72 9 2 11 7038 91 83 92 462 472 96
73 9 2 11 7038 93 84 13 465 475 98
74 9 2 11 7038 262 301 300 461 303 476
75 9 2 11 7038 41 262 300 467 476 302
76 9 2 11 7038 305 295 306 469 474 308
77 9 2 11 7038 84 2 13 89 470 475
78 9 2 11 7038 261 3 12 263 477 478
79 9 2 11 7038 3 81 12 85 464 477
80 9 2 11 7038 261 12 301 478 304 460
81 9 2 11 7039 84 2 16 89 479 480
82 9 2 11 7039 313 322 312 481 482 315
83 9 2 11 7039 109 65 110 483 484 114
84 9 2 11 7039 127 100 101 485 105 486
85 9 2 11 7039 16 2 99 479 103 487
86 9 2 11 7039 117 82 118 488 489 122
87 9 2 11 7039 120 84 16 490 480 125
88 9 2 11 7039 6 14 279 491 492 282
89 9 2 11 7039 126 99 100 493 104 494
90 9 2 11 7039 119 83 120 495 496 124
91 9 2 11 7039 14 63 108 497 498 112
92 9 2 11 7039 82 83 119 87 495 499
93 9 2 11 7039 43 323 313 500 501 316
94 9 2 11 7039 15 81 117 502 503 121
95 9 2 11 7039 128 101 129 504 505 133
96 9 2 11 7039 108 64 109 506 507 113
97 9 2 11 7039 127 101 128 486 504 132
98 9 2 11 7039 16 99 126 487 493 130
99 9 2 11 7039 278 317 37 508 509 280
100 9 2 11 7039 82 119 118 499 123 489
101 9 2 11 7039 65 111 110 510 115 484
102 9 2 11 7039 66 15 111 511 116 512
103 9 2 11 7039 101 102 129 106 513 505
104 9 2 11 7039 312 17 1 514 515 314
105 9 2 11 7039 279 318 278 516 517 281
106 9 2 11 7039 318 317 278 320 508 517
107 9 2 11 7039 14 318 279 321 516 492
108 9 2 11 7039 317 44 37 319 328 509
109 9 2 11 7039 6 63 14 67 497 491
110 9 2 11 7039 83 84 120 88 490 496
111 9 2 11 7039 81 82 117 86 488 503
112 9 2 11 7039 64 65 109 69 483 507
113 9 2 11 7039 63 64 108 68 506 498
114 9 2 11 7039 102 1 17 107 515 518
115 9 2 11 7039 129 102 17 513 518 134
116 9 2 11 7039 322 17 312 324 514 482
117 9 2 11 7039 65 66 111 70 512 510
118 9 2 11 7039 66 3 15 71 519 511
119 9 2 11 7039 3 81 15 85 502 519
120 9 2 11 7039 126 100 127 494 485 131
121 9 2 11 7039 323 322 313 325 481 501
122 9 2 11 7039 45 323 43 326 500 327
123 9 2 11 7040 2 19 295 520 521 297
124 9 2 11 7040 139 4 21 145 522 523
125 9 2 11 7040 166 138 167 524 525 171
126 9 2 11 7040 46 335 330 526 527 333
127 9 2 11 7040 19 99 155 528 529 159
128 9 2 11 7040 173 147 174 530 531 178
129 9 2 11 7040 20 135 164 532 533 168
130 9 2 11 7040 1 135 20 140 532 534
131 9 2 11 7040 339 48 40 341 345 535
132 9 2 11 7040 167 139 21 536 523 172
133 9 2 11 7040 173 146 147 537 151 530
134 9 2 11 7040 21 4 146 522 150 538
135 9 2 11 7040 99 100 155 104 539 529
136 9 2 11 7040 102 20 158 540 163 541
137 9 2 11 7040 174 148 175 542 543 179
138 9 2 11 7040 138 139 167 144 536 525
139 9 2 11 7040 136 137 165 142 544 545
140 9 2 11 7040 101 102 158 106 541 546
141 9 2 11 7040 295 340 296 547 548 298
142 9 2 11 7040 149 5 18 154 549 550
143 9 2 11 7040 175 148 176 543 551 180
144 9 2 11 7040 100 101 157 105 552 553
145 9 2 11 7040 340 339 296 342 554 548
146 9 2 11 7040 101 158 157 546 162 552
147 9 2 11 7040 102 1 20 107 534 540
148 9 2 11 7040 2 99 19 103 528 520
149 9 2 11 7040 135 136 164 141 555 533
150 9 2 11 7040 47 335 46 338 526 344
151 9 2 11 7040 165 137 166 544 556 170
152 9 2 11 7040 329 18 5 557 549 331
153 9 2 11 7040 335 334 330 337 558 527
154 9 2 11 7040 296 339 40 554 535 299
155 9 2 11 7040 334 18 329 336 557 559
156 9 2 11 7040 155 100 156 539 560 160
157 9 2 11 7040 176 149 18 561 550 181
158 9 2 11 7040 330 334 329 558 559 332
159 9 2 11 7040 148 149 176 153 561 551
160 9 2 11 7040 21 146 173 538 537 177
161 9 2 11 7040 164 136 165 555 545 169
162 9 2 11 7040 174 147 148 531 152 542
163 9 2 11 7040 100 157 156 553 161 560
164 9 2 11 7040 137 138 166 143 524 556
165 9 2 11 7040 19 340 295 343 547 521
166 9 2 11 7041 138 182 139 562 563 144
167 9 2 11 7041 136 184 137 564 565 142
168 9 2 11 7041 185 184 136 189 564 566
169 9 2 11 7041 352 346 347 567 349 568
170 9 2 11 7041 22 347 4 569 350 570
171 9 2 11 7041 346 50 49 571 362 348
172 9 2 11 7041 352 351 346 354 572 567
173 9 2 11 7041 22 352 347 355 568 569
174 9 2 11 7041 182 22 139 186 573 563
175 9 2 11 7041 183 182 138 187 562 574
176 9 2 11 7041 313 357 356 575 359 576
177 9 2 11 7041 137 183 138 577 574 143
178 9 2 11 7041 135 185 136 578 566 141
179 9 2 11 7041 139 22 4 573 570 145
180 9 2 11 7041 184 183 137 188 577 565
181 9 2 11 7041 313 356 312 576 579 315
182 9 2 11 7041 351 50 346 353 571 572
183 9 2 11 7041 23 185 135 190 578 580
184 9 2 11 7041 51 357 313 360 575 581
185 9 2 11 7041 43 51 313 361 581 316
186 9 2 11 7041 312 23 1 582 583 314
187 9 2 11 7041 312 356 23 579 358 582
188 9 2 11 7041 1 23 135 583 580 140
189 9 2 11 7042 373 363 364 584 366 585
190 9 2 11 7042 329 5 24 331 586 587
191 9 2 11 7042 329 24 369 587 372 588
192 9 2 11 7042 46 330 53 333 589 379
193 9 2 11 7042 53 330 368 589 590 370
194 9 2 11 7042 5 191 24 196 591 586
195 9 2 11 7042 192 193 203 198 592 593
196 9 2 11 7042 194 195 205 200 594 595
197 9 2 11 7042 364 52 54 367 378 596
198 9 2 11 7042 374 364 54 597 596 377
199 9 2 11 7042 204 194 205 598 595 209
200 9 2 11 7042 25 7 363 599 365 600
201 9 2 11 7042 195 7 25 201 599 601
202 9 2 11 7042 191 192 202 197 602 603
203 9 2 11 7042 202 192 203 602 593 207
204 9 2 11 7042 193 194 204 199 598 604
205 9 2 11 7042 25 363 373 600 584 375
206 9 2 11 7042 24 191 202 591 603 206
207 9 2 11 7042 373 364 374 585 597 376
208 9 2 11 7042 203 193 204 592 604 208
209 9 2 11 7042 205 195 25 594 601 210
210 9 2 11 7042 368 329 369 605 588 371
211 9 2 11 7042 330 329 368 332 605 590
212 9 2 11 7043 390 346 391 606 607 393
213 9 2 11 7043 230 229 194 234 608 609
214 9 2 11 7043 4 29 146 610 611 150
215 9 2 11 7043 148 238 149 612 613 153
216 9 2 11 7043 222 221 213 226 614 615
217 9 2 11 7043 55 380 385 382 616 617
218 9 2 11 7043 4 347 29 350 618 610
219 9 2 11 7043 193 230 194 619 609 199
220 9 2 11 7043 147 239 148 620 621 152
221 9 2 11 7043 27 223 214 228 622 623
222 9 2 11 7043 148 239 238 621 243 612
223 9 2 11 7043 213 221 212 614 624 217
224 9 2 11 7043 149 28 5 625 626 154
225 9 2 11 7043 391 49 57 627 395 394
226 9 2 11 7043 28 232 191 237 628 629
227 9 2 11 7043 223 213 214 630 218 622
228 9 2 11 7043 231 230 193 235 619 631
229 9 2 11 7043 5 28 191 626 629 196
230 9 2 11 7043 194 229 195 608 632 200
231 9 2 11 7043 229 27 195 233 633 632
232 9 2 11 7043 56 55 385 396 617 387
233 9 2 11 7043 29 241 146 246 634 611
234 9 2 11 7043 232 231 192 236 635 636
235 9 2 11 7043 380 381 386 383 637 638
236 9 2 11 7043 346 49 391 348 627 607
237 9 2 11 7043 220 26 211 224 639 640
238 9 2 11 7043 191 232 192 628 636 197
239 9 2 11 7043 29 347 390 618 641 392
240 9 2 11 7043 149 238 28 613 242 625
241 9 2 11 7043 146 241 147 634 642 151
242 9 2 11 7043 192 231 193 635 631 198
243 9 2 11 7043 347 346 390 349 606 641
244 9 2 11 7043 212 220 211 643 640 216
245 9 2 11 7043 386 381 26 637 644 389
246 9 2 11 7043 381 8 26 384 645 644
247 9 2 11 7043 241 240 147 245 646 642
248 9 2 11 7043 147 240 239 646 244 620
249 9 2 11 7043 211 26 8 639 645 215
250 9 2 11 7043 221 220 212 225 643 624
251 9 2 11 7043 385 380 386 616 638 388
252 9 2 11 7043 27 214 7 623 219 647
253 9 2 11 7043 223 222 213 227 615 630
254 9 2 11 7043 195 27 7 633 647 201
255 9 2 11 7044 408 58 60 648 412 411
256 9 2 11 7044 214 213 247 218 649 650
257 9 2 11 7044 211 8 31 215 651 652
258 9 2 11 7044 30 403 363 406 653 654
259 9 2 11 7044 30 214 247 655 650 251
260 9 2 11 7044 397 398 407 400 656 657
261 9 2 11 7044 363 403 364 653 658 366
262 9 2 11 7044 8 397 31 399 659 651
263 9 2 11 7044 398 58 408 401 648 660
264 9 2 11 7044 247 213 248 649 661 252
265 9 2 11 7044 7 214 30 219 655 662
266 9 2 11 7044 213 212 248 217 663 661
267 9 2 11 7044 248 212 249 663 664 253
268 9 2 11 7044 31 397 407 659 657 409
269 9 2 11 7044 364 402 52 665 666 367
270 9 2 11 7044 403 402 364 405 665 658
271 9 2 11 7044 211 31 250 652 255 667
272 9 2 11 7044 212 211 250 216 667 668
273 9 2 11 7044 407 398 408 656 660 410
274 9 2 11 7044 212 250 249 668 254 664
275 9 2 11 7044 402 59 52 404 413 666
276 9 2 11 7044 7 30 363 662 654 365
277 9 2 11 7045 414 381 415 669 670 417
278 9 2 11 7045 55 380 61 382 671 425
279 9 2 11 7045 397 398 419 400 672 673
280 9 2 11 7045 419 398 420 672 674 422
281 9 2 11 7045 398 58 420 401 675 674
282 9 2 11 7045 381 8 32 384 676 677
283 9 2 11 7045 381 32 415 677 418 670
284 9 2 11 7045 8 397 32 399 678 676
285 9 2 11 7045 380 381 414 383 669 679
286 9 2 11 7045 32 397 419 678 673 421
287 9 2 11 7045 420 58 62 675 424 423
288 9 2 11 7045 61 380 414 671 679 416
$EndElements
