$MeshFormat
2.2 0 8
$EndMeshFormat
$Nodes
679
1 -0.433927 1.0007 0
2 0.431153 0.505477 0
3 0.426887 2.50119 0
4 -0.435622 1.99587 0
5 0.436052 -0.498471 0
6 -0.435527 -1.99932 0
7 -0.441627 -1.00507 0
8 0.432206 -2.49487 0
9 0.382229 -2.52391 0
10 -0.435253 -2.05706 0
11 0.482229 -2.52376 0
12 -0.491452 -1.03381 0
13 -0.485703 -1.97071 0
14 0.432098 -2.43723 0
15 -0.385705 -1.97019 0
16 -0.39145 -1.03384 0
17 0.435995 -0.556235 0
18 -0.433724 0.942971 0
19 0.381294 0.476406 0
20 0.385911 -0.469681 0
21 -0.441426 -0.947223 0
22 0.481295 0.476513 0
23 0.485912 -0.469584 0
24 -0.485573 1.96713 0
25 -0.483976 1.02943 0
26 0.427189 2.44342 0
27 -0.385573 1.96724 0
28 -0.383976 1.02972 0
29 0.4312 0.563063 0
30 -0.435674 2.05379 0
31 0.376898 2.52985 0
32 0.476898 2.53019 0
33 -0.866025 -2.25062 0
34 0.432604 -3 0
35 -0.866025 -2.30852 0
36 0.382604 -3 0
37 0.866025 -2.24496 0
38 0.482604 -3 0
39 0.866025 -2.30266 0
40 -0.866025 -0.7561560000000001 0
41 -0.866025 -0.814122 0
42 -0.866025 -2.19272 0
43 0.866025 -0.747786 0
44 0.866025 -0.805583 0
45 0.866025 -2.18725 0
46 -0.866025 0.749293 0
47 -0.866025 0.691446 0
48 -0.866025 -0.698191 0
49 0.866025 0.753482 0
50 0.866025 0.695923 0
51 0.866025 -0.689989 0
52 -0.866025 2.24699 0
53 -0.866025 0.807141 0
54 -0.866025 2.1891 0
55 0.866025 2.25005 0
56 0.866025 2.19245 0
57 0.866025 0.811042 0
58 0.42707 3 0
59 0.37707 3 0
60 -0.866025 2.30488 0
61 0.866025 2.30765 0
62 0.47707 3 0
63 0.2586594000004151 -2.395760000000237 0
64 0.08511280000097127 -2.296650000000555 0
65 -0.08843379999912704 -2.197540000000499 0
66 -0.2619803999995766 -2.098430000000242 0
67 0.3454327000000679 -2.445315000000039 0
68 0.1718861000005694 -2.346205000000325 0
69 -0.001660499998899057 -2.247095000000629 0
70 -0.1752070999993783 -2.147985000000355 0
71 -0.3487536999997741 -2.048875000000129 0
72 0.2187326000004203 -2.43054000000024 0
73 0.05523620000076906 -2.337170000000439 0
74 -0.1082601999991171 -2.243800000000504 0
75 -0.271756599999629 -2.150430000000212 0
76 0.3004808000002244 -2.477225000000128 0
77 0.1369844000005113 -2.383855000000292 0
78 -0.02651199999884163 -2.290485000000662 0
79 -0.1900083999993671 -2.197115000000361 0
80 -0.3535047999999693 -2.103745000000017 0
81 -0.4404070000000023 -1.203919999999627 0
82 -0.439187000000006 -1.402769999999012 0
83 -0.4379670000000062 -1.601619999998994 0
84 -0.4367470000000027 -1.800469999999558 0
85 -0.441017000000001 -1.10449499999984 0
86 -0.4397970000000038 -1.303344999999384 0
87 -0.4385770000000082 -1.502194999998662 0
88 -0.4373570000000043 -1.701044999999298 0
89 -0.4361370000000017 -1.899894999999718 0
90 -0.4903022000000024 -1.221189999999618 0
91 -0.4891524000000055 -1.408569999999098 0
92 -0.488002600000006 -1.59594999999902 0
93 -0.4868528000000031 -1.783329999999488 0
94 -0.4908771000000023 -1.127499999999624 0
95 -0.4897273000000059 -1.314879999999045 0
96 -0.4885775000000072 -1.502259999998835 0
97 -0.4874277000000056 -1.689639999999094 0
98 -0.4862779000000018 -1.8770199999997 0
99 -0.2953471666668859 -0.9206368333334598 0
100 -0.1490673333338842 -0.8362036666669845 0
101 -0.00278750000100475 -0.7517705000005799 0
102 0.1434923333326054 -0.6673373333337536 0
103 0.2897721666662548 -0.5829041666669044 0
104 -0.3684870833334001 -0.9628534166667051 0
105 -0.2222072500004043 -0.8784202500002333 0
106 -0.07592741666739422 -0.7939870833337532 0
107 0.07035241666581415 -0.7095539166671587 0
108 0.2166322499994411 -0.6251207500003226 0
109 0.3629120833330851 -0.5406875833334766 0
110 0.2685374000004078 -2.343822000000233 0
111 0.104976800000871 -2.250414000000498 0
112 -0.05858379999915103 -2.157006000000485 0
113 -0.222144399999759 -2.063598000000137 0
114 0.3503177000000293 -2.390526000000017 0
115 0.186757100000618 -2.297118000000353 0
116 0.02319650000105522 -2.203710000000603 0
117 -0.1403640999997199 -2.11030200000016 0
118 -0.3039246999998468 -2.016894000000088 0
119 -0.3868539999999979 -1.782920000000347 0
120 -0.3880029999999947 -1.595650000000868 0
121 -0.3891519999999946 -1.408380000000894 0
122 -0.3903009999999973 -1.221110000000443 0
123 -0.3862794999999986 -1.876555000000226 0
124 -0.3874284999999963 -1.689285000000608 0
125 -0.3885774999999924 -1.50201500000124 0
126 -0.3897264999999956 -1.314745000000711 0
127 -0.3908754999999973 -1.127475000000436 0
128 -0.2259610000004046 -0.9383190000002336 0
129 -0.06047200000089237 -0.8427980000005151 0
130 0.1050169999990898 -0.7472770000005254 0
131 0.2705059999995645 -0.6517560000002514 0
132 -0.3087055000002726 -0.9860795000001574 0
133 -0.1432165000006548 -0.8905585000003781 0
134 0.02227249999890246 -0.7950375000006336 0
135 0.1877614999994252 -0.6995165000003318 0
136 0.3532504999997986 -0.6039955000001163 0
137 -0.2609110000004069 0.9016554000002329 0
138 -0.08789500000090511 0.8026108000005181 0
139 0.0851209999990839 0.7035662000005243 0
140 0.2581369999995402 0.6045216000002632 0
141 -0.3474190000002141 0.9511777000001225 0
142 -0.1744030000006244 0.8521331000003574 0
143 -0.001387000001166538 0.7530885000006677 0
144 0.1716289999993698 0.6540439000003607 0
145 0.3446449999997693 0.554999300000132 0
146 0.4319694999999985 0.3381523333336371 0
147 0.4327859999999961 0.1708276666674693 0
148 0.4336024999999937 0.00350300000130177 0
149 0.4344189999999959 -0.1638216666658273 0
150 0.4352354999999977 -0.3311463333328698 0
151 0.4315612499999994 0.4218146666667972 0
152 0.4323777499999975 0.2544900000005167 0
153 0.4331942499999946 0.08716533333443949 0
154 0.4340107499999946 -0.08015933333223269 0
155 0.4348272499999968 -0.2474839999993562 0
156 0.4356437499999985 -0.4148086666663631 0
157 -0.2707204000002975 0.8496580000001703 0
158 -0.1077168000008076 0.7563450000004623 0
159 0.05528679999913105 0.6630320000004974 0
160 0.2182903999995948 0.569719000000232 0
161 -0.3522222000001567 0.8963145000000897 0
162 -0.1892186000005649 0.8030015000003234 0
163 -0.02621500000107885 0.7096885000006176 0
164 0.1367885999993426 0.6163755000003763 0
165 0.2997921999997876 0.5230625000001217 0
166 0.3822173999999979 0.2871886000004297 0
167 0.3831407999999952 0.09797120000097809 0
168 0.3840641999999949 -0.09124619999894157 0
169 0.3849875999999974 -0.2804635999994706 0
170 0.3817556999999993 0.3817973000001526 0
171 0.3826790999999967 0.1925799000006796 0
172 0.3836024999999936 0.003362500001304225 0
173 0.3845258999999963 -0.1858548999992273 0
174 0.3854492999999989 -0.3750722999997728 0
175 0.2204436000000556 -0.565189399999968 0
176 0.05497620000051717 -0.6606977999997015 0
177 -0.1104911999994209 -0.7562061999996658 0
178 -0.275958599999839 -0.8517145999999072 0
179 0.3031773000000019 -0.5174351999999989 0
180 0.1377099000003222 -0.6129435999998141 0
181 -0.02775749999921318 -0.7084519999995459 0
182 -0.1932248999995869 -0.8039603999997615 0
183 -0.3586922999998893 -0.8994687999999362 0
184 0.4822183999999976 0.2872936000004881 0
185 0.4831417999999948 0.09807420000106276 0
186 0.4840651999999947 -0.09114519999892007 0
187 0.4849885999999974 -0.2803645999994581 0
188 0.4817566999999988 0.3819033000002515 0
189 0.4826800999999959 0.1926839000008343 0
190 0.4836034999999933 0.003464500001367776 0
191 0.4845268999999956 -0.1857548999990959 0
192 0.4854502999999988 -0.3749742999997654 0
193 -0.435283000000001 1.796836000000581 0
194 -0.4349440000000016 1.597802000000911 0
195 -0.4346050000000017 1.398768000001006 0
196 -0.4342660000000008 1.19973400000046 0
197 -0.435452500000001 1.896353000000554 0
198 -0.4351135000000013 1.697319000000754 0
199 -0.4347745000000018 1.498285000001063 0
200 -0.4344355000000014 1.299251000000798 0
201 -0.4340965000000001 1.100217000000035 0
202 -0.4852536000000009 1.779590000000538 0
203 -0.4849342000000018 1.592050000001075 0
204 -0.4846148000000018 1.404510000001093 0
205 -0.484295400000001 1.21697000000059 0
206 -0.4854133000000004 1.873360000000231 0
207 -0.4850939000000011 1.68582000000065 0
208 -0.4847745000000023 1.498280000001329 0
209 -0.4844551000000012 1.310740000000713 0
210 -0.4841357000000007 1.123200000000369 0
211 0.2543852000003583 2.40012600000021 0
212 0.08188340000079181 2.299062000000464 0
213 -0.09061839999926247 2.197998000000432 0
214 -0.263120199999514 2.096934000000285 0
215 0.3406361000001275 2.450658000000074 0
216 0.1681343000005823 2.349594000000341 0
217 -0.004367499998898683 2.248530000000645 0
218 -0.1768692999994903 2.147466000000299 0
219 -0.3493710999998376 2.046402000000095 0
220 0.2646366000011432 2.34818400000067 0
221 0.1020842000006916 2.252948000000405 0
222 -0.06046819999935416 2.157712000000378 0
223 -0.2230205999988109 2.062476000000697 0
224 0.3459128000005494 2.395802000000322 0
225 0.18336040000085 2.300566000000498 0
226 0.02080800000094868 2.205330000000556 0
227 -0.1417443999992908 2.110094000000416 0
228 -0.304296799999412 2.014858000000345 0
229 -0.3852536000000007 1.779736000000408 0
230 -0.3849342000000019 1.592232000001119 0
231 -0.384614800000002 1.404728000001197 0
232 -0.3842954000000011 1.217224000000634 0
233 -0.3854133000000005 1.873488000000265 0
234 -0.3850939000000013 1.685984000000737 0
235 -0.3847745000000033 1.498480000001925 0
236 -0.3844551000000015 1.310976000000916 0
237 -0.3841356999999999 1.123471999999955 0
238 -0.2209408000004092 0.9363886000002343 0
239 -0.05790560000086431 0.8430572000004948 0
240 0.1051295999991137 0.7497258000005074 0
241 0.2681647999995495 0.6563944000002579 0
242 -0.3024584000001869 0.983054300000107 0
243 -0.1394232000006549 0.8897229000003749 0
244 0.02361199999886499 0.7963915000006497 0
245 0.1866471999993315 0.7030601000003827 0
246 0.3496823999997837 0.6097287000001239 0
247 -0.2731596000003648 2.149001999999786 0
248 -0.1106452000008507 2.244213999999502 0
249 0.0518691999990829 2.339425999999463 0
250 0.2143835999995877 2.434637999999758 0
251 -0.3544168000000696 2.101395999999959 0
252 -0.1919024000006129 2.196607999999641 0
253 -0.02938800000106717 2.291819999999375 0
254 0.133126399999326 2.387031999999605 0
255 0.295640799999787 2.482243999999875 0
256 -0.5790263333336065 -2.083086666666826 0
257 -0.7225256666668409 -2.166853333333435 0
258 -0.5072766666671186 -2.041203333333597 0
259 -0.6507760000000566 -2.124970000000033 0
260 -0.7942753333331802 -2.208736666666577 0
261 0.4324713333333335 -2.831623333333565 0
262 0.4323386666666668 -2.663246666666783 0
263 0.4325376666666667 -2.915811666666644 0
264 0.4324050000000002 -2.747435000000217 0
265 0.4322723333333333 -2.579058333333321 0
266 -0.578843666666361 -2.140879999999822 0
267 -0.722434333332943 -2.224699999999772 0
268 -0.5070483333331778 -2.098969999999909 0
269 -0.6506389999994215 -2.182789999999662 0
270 -0.794229666666425 -2.266609999999859 0
271 0.3824790000000003 -2.841303333333738 0
272 0.3823540000000007 -2.68260666666765 0
273 0.3825415000000001 -2.920651666666869 0
274 0.3824165000000008 -2.761955000001081 0
275 0.3822915000000002 -2.603258333333637 0
276 -0.866025 -2.27957 0
277 0.407604 -3 0
278 0.7214186666667806 -2.328263333333268 0
279 0.5768123333341109 -2.411566666666219 0
280 0.793721833333195 -2.286611666666746 0
281 0.6491155000008326 -2.36991499999952 0
282 0.5045091666670486 -2.453218333333113 0
283 0.4823539999999995 -2.682506666666059 0
284 0.4824789999999999 -2.841253333333246 0
285 0.4822915000000004 -2.603133333333779 0
286 0.4824164999999993 -2.761879999999115 0
287 0.4825414999999998 -2.920626666666491 0
288 0.738093000000192 -2.376359999999889 0
289 0.6101610000002746 -2.450059999999842 0
290 0.8020590000001458 -2.339509999999916 0
291 0.6741270000004072 -2.413209999999765 0
292 0.546195000000373 -2.486909999999785 0
293 0.457604 -3 0
294 0.866025 -2.27381 0
295 -0.7245590000003769 -0.8391273333331123 0
296 -0.5830930000005274 -0.9220986666663573 0
297 -0.7952920000001589 -0.7976416666665735 0
298 -0.6538260000006104 -0.880612999999642 0
299 -0.5123600000002912 -0.9635843333331625 0
300 -0.74116733333359 -0.8873513333331828 0
301 -0.6163096666669592 -0.960580666666495 0
302 -0.8035961666666606 -0.8507366666666702 0
303 -0.6787385000002433 -0.9239659999998573 0
304 -0.5538808333336174 -0.9971953333331667 0
305 -0.6124769999997556 -2.044713333333191 0
306 -0.7392509999994572 -2.11871666666635 0
307 -0.5490900000001174 -2.007711666666735 0
308 -0.675863999998962 -2.081714999999394 0
309 -0.8026379999999051 -2.155718333333278 0
310 -0.866025 -2.22167 0
311 -0.866025 -0.785139 0
312 0.579376333332956 -0.5815759999997812 0
313 0.722700666666207 -0.6646809999997334 0
314 0.5077141666664484 -0.5400234999998734 0
315 0.65103849999938 -0.6231284999996405 0
316 0.7943628333332233 -0.7062334999999361 0
317 0.5793383333328915 -0.6393509999997439 0
318 0.7226816666662744 -0.7224669999997726 0
319 0.5076666666664388 -0.5977929999998679 0
320 0.6510099999994577 -0.6809089999996856 0
321 0.7943533333329753 -0.7640249999997923 0
322 0.7213826666671017 -2.270576666666416 0
323 0.5767403333336281 -2.353903333333164 0
324 0.793703833333797 -2.228913333333066 0
325 0.6490615000006882 -2.312239999999604 0
326 0.5044191666669595 -2.395566666666498 0
327 0.866025 -0.7766845 0
328 0.866025 -2.216105 0
329 -0.7219923333336981 0.8330953333331211 0
330 -0.5779596666670249 0.9168976666664582 0
331 -0.7940086666668065 0.7911941666665853 0
332 -0.6499760000003888 0.8749964999997737 0
333 -0.5059433333336686 0.9587988333331382 0
334 -0.7219246666670447 0.7752876666664468 0
335 -0.5778243333337187 0.8591293333331091 0
336 -0.793974833333482 0.7333668333332469 0
337 -0.6498745000005741 0.817208499999666 0
338 -0.5057741666667716 0.9010501666666056 0
339 -0.5829589999995629 -0.8642123333335897 0
340 -0.7244919999994572 -0.781201666666985 0
341 -0.5121924999998373 -0.9057176666667621 0
342 -0.6537254999991946 -0.8227070000004724 0
343 -0.7952584999997796 -0.7396963333334626 0
344 -0.866025 -0.7271735 0
345 -0.866025 0.7203694999997949 0
346 0.7210676666670724 0.670813666666898 0
347 0.5761103333337356 0.5881453333335628 0
348 0.7935463333334556 0.712147833333403 0
349 0.6485890000005743 0.6294795000003275 0
350 0.5036316666668043 0.5468111666667451 0
351 0.7377816666669651 0.6227863333335035 0
352 0.6095383333334985 0.549649666666761 0
353 0.8019033333335449 0.6593546666667872 0
354 0.6736600000003633 0.5862180000002072 0
355 0.5454166666666784 0.5130813333333401 0
356 0.6126163333329908 -0.5430523333331347 0
357 0.7393206666661916 -0.6165206666663912 0
358 0.549264166666707 -0.5063181666666901 0
359 0.6759684999993141 -0.5797864999996023 0
360 0.8026728333330975 -0.6532548333331966 0
361 0.866025 -0.7188874999999999 0
362 0.866025 0.724702500000152 0
363 -0.7225573333336945 2.163283333333544 0
364 -0.5790896666670222 2.079576666666874 0
365 -0.7942911666668749 2.205136666666788 0
366 -0.6508235000007858 2.121430000000458 0
367 -0.507355833333621 2.037723333333501 0
368 -0.611325666666354 0.9553336666668486 0
369 -0.7386753333329933 0.8812373333335313 0
370 -0.5476508333331417 0.9923818333334449 0
371 -0.6750004999995658 0.9182855000002527 0
372 -0.802350166666622 0.8441891666666927 0
373 -0.7392076666670748 2.115110000000238 0
374 -0.6123903333335292 2.041120000000114 0
375 -0.8026163333337487 2.152105000000242 0
376 -0.6757990000004105 2.078115000000239 0
377 -0.5489816666667612 2.004125000000055 0
378 -0.866025 0.7782169999997949 0
379 -0.866025 2.218045 0
380 0.7196456666670941 2.333763333333089 0
381 0.5732663333337245 2.417476666666443 0
382 0.7928353333332943 2.291906666666689 0
383 0.646456000000634 2.375619999999637 0
384 0.500076666666972 2.459333333333158 0
385 0.7197463333338142 2.276106666666392 0
386 0.5734676666670835 2.359763333333095 0
387 0.7928856666669222 2.234278333333187 0
388 0.6466070000003499 2.3179349999998 0
389 0.5003283333335469 2.401591666666545 0
390 0.5761416666661427 0.6457226666663678 0
391 0.72108333333274 0.728382333332995 0
392 0.5036708333331887 0.6043928333332508 0
393 0.6486124999992359 0.6870524999995642 0
394 0.7935541666663508 0.7697121666664866 0
395 0.866025 0.7822619999996263 0
396 0.866025 2.22125 0
397 0.4269479999999998 2.667459999999393 0
398 0.4270089999999999 2.833729999999567 0
399 0.4269174999999998 2.584324999999496 0
400 0.4269784999999994 2.750594999998293 0
401 0.4270394999999999 2.91686499999971 0
402 0.3769553333333333 2.686566666666349 0
403 0.3770126666666665 2.843283333332813 0
404 0.3769266666666666 2.608208333333012 0
405 0.3769839999999997 2.764924999999105 0
406 0.3770413333333332 2.921641666666407 0
407 -0.7225746666670352 2.221183333333548 0
408 -0.5791243333337088 2.137486666666886 0
409 -0.794299833333434 2.263031666666725 0
410 -0.650849500000962 2.179335000000561 0
411 -0.5073991666663853 2.095638333333169 0
412 0.40207 3 0
413 -0.866025 2.275935 0
414 0.7363159999999414 2.381830000000034 0
415 0.6066070000004997 2.456009999999714 0
416 0.8011704999998599 2.34474000000008 0
417 0.6714615000002901 2.418919999999834 0
418 0.5417525000005856 2.493099999999665 0
419 0.4769553333333332 2.686793333333016 0
420 0.4770126666666665 2.843396666666291 0
421 0.4769266666666665 2.608491666666191 0
422 0.4769839999999997 2.765094999999312 0
423 0.4770413333333334 2.921698333333391 0
424 0.45207 3 0
425 0.866025 2.27885 0
426 0.4073463333333338 -2.672926666667216 0
427 0.4072838333333334 -2.593578333333391 0
428 -0.5071396666668033 -2.070073333333413 0
429 -0.5789349999999838 -2.111983333333324 0
430 -0.2668684999996028 -2.124430000000227 0
431 -0.3486166999997883 -2.077745000000121 0
432 -0.7942296666664715 -2.237659999999886 0
433 -0.722479999999892 -2.195776666666604 0
434 -0.01659879999917899 -2.267355000000469 0
435 -0.09834699999912208 -2.220670000000502 0
436 0.4074751666666669 -2.836463333333652 0
437 0.4074126666666671 -2.757115000000607 0
438 0.4072175 -2.50939 0
439 0.3204442000002076 -2.459835000000119 0
440 0.2386960000004177 -2.413150000000239 0
441 0.1519227000006958 -2.363595000000397 0
442 0.4075415000000001 -2.920651666666869 0
443 -0.180095199999378 -2.173985000000355 0
444 -0.650684666666601 -2.153866666666628 0
445 0.07017450000087017 -2.316910000000497 0
446 -0.43539 -2.02819 0
447 0.4575414999999999 -2.920626666666623 0
448 0.7937218333333903 -2.315461666666634 0
449 0.7297558333334863 -2.352311666666579 0
450 0.4572838333333334 -2.593503333333391 0
451 0.4572175 -2.509315 0
452 0.4574126666666665 -2.757064999999812 0
453 0.4573463333333331 -2.672876666666421 0
454 0.4574751666666667 -2.836438333333406 0
455 0.6657898333335276 -2.389161666666554 0
456 0.5934866666671927 -2.43081333333303 0
457 0.5295206666670554 -2.467663333333109 0
458 -0.7942753333334205 -2.179786666666717 0
459 -0.4641697000000058 -1.405669999999055 0
460 -0.463594800000006 -1.499359999999016 0
461 -0.7308883333331491 -2.142784999999892 0
462 -0.4647446000000042 -1.311979999999315 0
463 -0.4653546000000023 -1.212554999999623 0
464 -0.4629848000000061 -1.598784999999007 0
465 -0.4624099000000046 -1.692474999999241 0
466 -0.5372725000002637 -0.9779543333331786 0
467 -0.4665395 -1.01944 0
468 -0.7952920000001884 -0.8266246666665562 0
469 -0.6621301666670587 -0.9047249999997701 0
470 -0.7328631666669834 -0.8632393333331476 0
471 -0.4659295000000011 -1.118864999999813 0
472 -0.6591386666665319 -2.100901666666588 0
473 -0.5957516666666811 -2.063900000000008 0
474 -0.4617999000000029 -1.791899999999523 0
475 -0.5997013333337433 -0.9413396666664262 0
476 -0.5323646666668033 -2.026898333333413 0
477 -0.460615 -1.985015 0
478 -0.4612250000000013 -1.885589999999779 0
479 -0.412410500000002 -1.692269999999671 0
480 -0.4129850000000004 -1.598634999999931 0
481 0.3453787000002075 -2.416495000000118 0
482 0.2635984000004115 -2.369791000000235 0
483 -0.1875141666671444 -0.887261333333609 0
484 -0.1047696666673883 -0.8395008333337498 0
485 -0.4165385 -1.019455 0
486 -0.4159285000000011 -1.118879999999814 0
487 0.5767763333338695 -2.382734999999691 0
488 0.5044551666670554 -2.42439833333311 0
489 -0.4135595000000004 -1.504999999999944 0
490 -0.4153539999999998 -1.212515000000035 0
491 -0.4147440000000017 -1.311939999999727 0
492 -0.4141695000000003 -1.405574999999953 0
493 0.1242546666658476 -0.7073071666671396 0
494 0.2069991666660849 -0.6595466666670025 0
495 0.0511147499990425 -0.7495237500005527 0
496 -0.343398583333443 -0.9772384166667299 0
497 -0.2606540833336452 -0.9294779166668468 0
498 0.6510194999995493 -0.6520159999997386 0
499 0.7226911666662408 -0.693573999999753 0
500 -0.4118005000000003 -1.791694999999953 0
501 -0.07350879999913904 -2.177273000000492 0
502 0.01326450000091012 -2.22682800000052 0
503 -0.410616 -1.984755 0
504 -0.3238426999997883 -2.034310000000121 0
505 0.5793573333329238 -0.6104634999997625 0
506 -0.155289099999443 -2.130569000000318 0
507 0.432152 -2.46605 0
508 0.09504480000092111 -2.273532000000526 0
509 0.6490795000002043 -2.341083333333215 0
510 0.7214006666669411 -2.299419999999842 0
511 -0.4112260000000014 -1.885329999999779 0
512 0.1768251000006895 -2.320236000000394 0
513 -0.03162975000094856 -0.7972842500005475 0
514 0.7937038333335509 -2.257768333333208 0
515 0.2801390833329097 -0.6173300833335779 0
516 -0.2420623999996678 -2.08101400000019 0
517 0.507685666666478 -0.5689054999998906 0
518 0.4360235 -0.527353 0
519 0.3628835833331274 -0.5695695833334522 0
520 0.7943533333331372 -0.7351264999998863 0
521 0.407501699999997 0.2290081333339495 0
522 0.4070934499999982 0.3126704666670334 0
523 -0.4415265 -0.9761465 0
524 -0.3683865833334429 -0.9339299166667299 0
525 0.4109815 -0.484076 0
526 0.4105732499999989 -0.4004136666664349 0
527 0.4092415999999954 -0.1275339333323844 0
528 0.4088333499999943 -0.0438715999988199 0
529 -0.6537589999999699 -0.851669833333351 0
530 -0.5830260000000451 -0.8931554999999736 0
531 0.2382136999995675 0.5871203000002476 0
532 0.3197154999997701 0.5404638000001316 0
533 0.4083716499999944 0.05073710000113993 0
534 -0.7219585000003714 0.8041914999997839 0
535 -0.6499083333337083 0.8461123333331151 0
536 0.4079633999999956 0.1343994333342237 0
537 -0.7939748333335224 0.7622903333332234 0
538 -0.01129790000086187 0.7299556000004933 0
539 -0.09780590000085637 0.7794779000004902 0
540 0.07020389999910748 0.6832991000005109 0
541 0.4101115499999975 -0.3058049666661702 0
542 0.4097032999999967 -0.2221426333326489 0
543 0.09923426666656127 -0.6640175666667275 0
544 0.1819679666663305 -0.6162633666668608 0
545 0.3378415833331274 -0.5262925833334522 0
546 0.2551078833331552 -0.5740467833334362 0
547 0.1517056999993393 0.6366426000003782 0
548 0.4066317499999993 0.4072791666668186 0
549 0.4062235 0.4909415 0
550 -0.1297792666666525 -0.7962049333333252 0
551 -0.2125129666668616 -0.8439591333334459 0
552 -0.3473175000002034 0.9223132000001164 0
553 -0.4338255 0.9718355 0
554 -0.05663935000021281 -0.7539883500001228 0
555 -0.5058418333335124 0.9299343333332291 0
556 -0.7952584999997286 -0.7686788333334925 0
557 -0.7245254999999171 -0.8101645000000486 0
558 0.02609434999975621 -0.7062341500001407 0
559 -0.2658157000003522 0.8756567000002016 0
560 -0.5778920000003718 0.8880134999997837 0
561 -0.1793077000006013 0.8261344000003442 0
562 -0.5122595000002637 -0.9346608333331787 0
563 -0.2856528833333624 -0.8861757166666835 0
564 0.7935463333335362 0.683368333333449 0
565 0.6653030000002855 0.6102316666668295 0
566 0.5928243333336171 0.5688975000001619 0
567 0.4566322499999992 0.4073326666668186 0
568 0.4570939499999981 0.3127229666670626 0
569 0.5287026666668678 0.5323291666667814 0
570 0.456224 0.490995 0
571 0.7294246666670188 0.6468000000002008 0
572 0.4575021999999969 0.2290606333339787 0
573 0.4592420999999953 -0.1274834333323737 0
574 0.4597037999999967 -0.2220931333326427 0
575 0.4588338499999942 -0.04382109999880915 0
576 0.4583721499999942 0.05078860000118227 0
577 0.4579638999999954 0.1344509333342661 0
578 0.4601120499999976 -0.3057554666661639 0
579 0.7310106666661993 -0.6406008333330623 0
580 0.6593484999995738 -0.5990483333330862 0
581 0.4605737499999989 -0.4003651666664349 0
582 0.5959963333329734 -0.5623141666664579 0
583 0.7943628333331035 -0.6773349999998667 0
584 0.5326441666664781 -0.5255799999998906 0
585 0.460982 -0.4840275 0
586 -0.7942911666668473 2.176191666666772 0
587 -0.4604280000000005 1.881983000000291 0
588 -0.460268300000001 1.788213000000559 0
589 -0.4592807000000009 1.208352000000525 0
590 -0.4594502000000014 1.307869000000798 0
591 -0.5946426666666895 0.9361156666666535 0
592 -0.6583175000000091 0.8990674999999948 0
593 -0.5309678333335125 0.9731638333332291 0
594 -0.4589515 1.015065 0
595 -0.4591210000000004 1.11458200000023 0
596 -0.4600988000000013 1.688696000000724 0
597 -0.4599391000000017 1.594926000000993 0
598 -0.4596099000000018 1.401639000001049 0
599 -0.4597794000000017 1.501156000001002 0
600 -0.7940086666668491 0.8201181666665606 0
601 -0.6591486666670485 2.097343333333556 0
602 -0.5957400000002757 2.060348333333494 0
603 -0.5323313333335111 2.023353333333437 0
604 -0.4605975 1.9815 0
605 -0.7308825000003847 2.139196666666891 0
606 -0.7303338333333457 0.8571663333333261 0
607 0.0951252999990988 0.7266460000005158 0
608 0.1766428999993167 0.6799803000003911 0
609 -0.07554329999930831 2.177855000000405 0
610 -0.1568194999990367 2.130237000000564 0
611 -0.324346599999757 2.032087000000142 0
612 -0.4105975 1.981555 0
613 0.7928856666669071 2.263078333333196 0
614 -0.4089515 1.01521 0
615 -0.4091210000000004 1.11472700000023 0
616 -0.4096099000000019 1.401748000001102 0
617 -0.4094502000000014 1.30799600000082 0
618 -0.2430703999991624 2.079705000000491 0
619 0.00573290000071458 2.225473000000418 0
620 0.09198380000074172 2.276005000000435 0
621 0.573367000000404 2.388619999999769 0
622 0.5002276666668622 2.430448333333222 0
623 0.7196960000004542 2.30493499999974 0
624 0.6465566666670888 2.346763333333092 0
625 -0.4092807000000009 1.208479000000547 0
626 -0.4097794000000018 1.501265000001054 0
627 0.6486046666666077 0.6582681666666329 0
628 0.7210754999999063 0.6995979999999464 0
629 -0.1544179000006572 0.8694997000003761 0
630 -0.2409259000004081 0.9190220000002336 0
631 0.1732600000009675 2.323623000000567 0
632 -0.4100988000000011 1.688769000000659 0
633 -0.4099391000000017 1.595017000001015 0
634 -0.3224435000002034 0.9656877000001165 0
635 0.2631508999995448 0.6304580000002606 0
636 0.3446684999997701 0.5837923000001316 0
637 -0.4102683000000008 1.788286000000495 0
638 0.0136076999991098 0.7733117000005095 0
639 -0.07290030000088471 0.8228340000005064 0
640 0.3407871000001791 2.421773000000105 0
641 0.2595109000007507 2.37415500000044 0
642 0.427038 2.472305 0
643 0.5036551666668678 0.5756041666667814 0
644 0.5761259999999392 0.6169339999999652 0
645 0.4311765 0.53427 0
646 0.79355416666637 0.7409321666664974 0
647 -0.4104280000000005 1.882038000000291 0
648 0.4019229999999999 2.598654999999696 0
649 0.4019516666666665 2.677013333332871 0
650 -0.1818889999998136 2.173500000000109 0
651 -0.2681398999999394 2.122968000000036 0
652 0.234384399999973 2.417381999999984 0
653 0.1481335000001897 2.366850000000111 0
654 -0.1006318000000566 2.221105999999967 0
655 -0.01438090000002942 2.271637999999983 0
656 0.06687629999993736 2.319243999999963 0
657 0.4018925 2.51552 0
658 0.3156416000001792 2.464988000000105 0
659 -0.5791070000003655 2.10853166666688 0
660 -0.5073818333335112 2.066683333333437 0
661 -0.435648 2.02483 0
662 -0.349397099999757 2.075362000000142 0
663 0.4020413333333333 2.921641666666407 0
664 -0.6508408333337017 2.150385000000215 0
665 0.4019821666666665 2.760148333332958 0
666 0.4020108333333332 2.83850666666619 0
667 -0.7225660000003649 2.192233333333546 0
668 -0.7942998333335176 2.234086666666774 0
669 0.4519821666666666 2.760261666666291 0
670 0.4520108333333332 2.838563333332929 0
671 0.7928353333335471 2.320706666666545 0
672 0.4519229999999999 2.598824999999696 0
673 0.4519516666666665 2.677126666666204 0
674 0.4520413333333333 2.921698333333145 0
675 0.4518925 2.51569 0
676 0.7279808333335177 2.357796666666562 0
677 0.5899366666671121 2.436743333333078 0
678 0.6631263333337969 2.394886666666402 0
679 0.5250821666668622 2.473833333333221 0
$EndNodes
$Elements
288
1 15 2 1 378517 33
2 15 2 2 381529 36
3 15 2 3 385544 39
4 15 2 4 411641 58
5 8 2 4 6999 33 35 276
6 8 2 1 7000 36 34 277
7 8 2 1 7004 34 38 293
8 8 2 2 7005 39 37 294
9 8 2 4 7009 33 42 310
10 8 2 4 7010 41 40 311
11 8 2 2 7014 43 44 327
12 8 2 2 7015 45 37 328
13 8 2 4 7019 40 48 344
14 8 2 4 7020 47 46 345
15 8 2 2 7024 43 51 361
16 8 2 2 7025 50 49 362
17 8 2 4 7029 46 53 378
18 8 2 4 7030 54 52 379
19 8 2 2 7034 49 57 395
20 8 2 2 7035 56 55 396
21 8 2 3 7039 58 59 412
22 8 2 4 7040 60 52 413
23 8 2 3 7043 58 62 424
24 8 2 2 7044 61 55 425
25 9 2 11 812 272 262 9 426 427 275
26 9 2 11 812 266 10 256 268 428 429
27 9 2 11 812 75 66 10 430 431 80
28 9 2 11 812 33 267 257 432 433 260
29 9 2 11 812 73 65 74 434 435 78
30 9 2 11 812 271 261 272 436 437 274
31 9 2 11 812 9 8 63 438 67 439
32 9 2 11 812 72 63 64 440 68 441
33 9 2 11 812 34 261 271 263 436 442
34 9 2 11 812 9 63 72 439 440 76
35 9 2 11 812 74 65 75 435 443 79
36 9 2 11 812 262 8 9 265 438 427
37 9 2 11 812 261 262 272 264 426 437
38 9 2 11 812 267 266 257 269 444 433
39 9 2 11 812 72 64 73 441 445 77
40 9 2 11 812 36 34 271 277 442 273
41 9 2 11 812 35 267 33 270 432 276
42 9 2 11 812 256 10 6 428 446 258
43 9 2 11 812 73 64 65 445 69 434
44 9 2 11 812 66 6 10 71 446 431
45 9 2 11 812 257 266 256 444 429 259
46 9 2 11 812 65 66 75 70 430 443
47 9 2 11 813 38 284 34 287 447 293
48 9 2 11 813 288 39 278 290 448 449
49 9 2 11 813 262 11 8 450 451 265
50 9 2 11 813 261 283 262 452 453 264
51 9 2 11 813 34 284 261 447 454 263
52 9 2 11 813 278 39 37 448 294 280
53 9 2 11 813 283 11 262 285 450 453
54 9 2 11 813 289 278 279 455 281 456
55 9 2 11 813 289 288 278 291 449 455
56 9 2 11 813 284 283 261 286 452 454
57 9 2 11 813 11 279 8 457 282 451
58 9 2 11 813 11 289 279 292 456 457
59 9 2 11 814 33 42 257 310 458 260
60 9 2 11 814 92 91 82 96 459 460
61 9 2 11 814 42 306 257 309 461 458
62 9 2 11 814 82 90 81 462 463 86
63 9 2 11 814 93 92 83 97 464 465
64 9 2 11 814 83 92 82 464 460 87
65 9 2 11 814 12 296 7 466 299 467
66 9 2 11 814 295 41 40 468 311 297
67 9 2 11 814 296 300 295 469 470 298
68 9 2 11 814 300 41 295 302 468 470
69 9 2 11 814 90 12 81 94 471 463
70 9 2 11 814 81 12 7 471 467 85
71 9 2 11 814 91 90 82 95 462 459
72 9 2 11 814 257 306 256 461 472 259
73 9 2 11 814 306 305 256 308 473 472
74 9 2 11 814 84 93 83 474 465 88
75 9 2 11 814 12 301 296 304 475 466
76 9 2 11 814 301 300 296 303 469 475
77 9 2 11 814 256 13 6 476 477 258
78 9 2 11 814 13 93 84 98 474 478
79 9 2 11 814 256 305 13 473 307 476
80 9 2 11 814 6 13 84 477 478 89
81 9 2 11 815 119 83 120 479 480 124
82 9 2 11 815 14 63 110 481 482 114
83 9 2 11 815 128 100 129 483 484 133
84 9 2 11 815 81 7 16 85 485 486
85 9 2 11 815 14 323 279 326 487 488
86 9 2 11 815 83 121 120 489 125 480
87 9 2 11 815 82 81 122 86 490 491
88 9 2 11 815 121 82 122 492 491 126
89 9 2 11 815 130 102 131 493 494 135
90 9 2 11 815 101 102 130 107 493 495
91 9 2 11 815 16 99 128 496 497 132
92 9 2 11 815 318 317 313 320 498 499
93 9 2 11 815 84 83 119 88 479 500
94 9 2 11 815 16 7 99 485 104 496
95 9 2 11 815 64 65 112 69 501 502
96 9 2 11 815 83 82 121 87 492 489
97 9 2 11 815 66 6 15 71 503 504
98 9 2 11 815 313 317 312 498 505 315
99 9 2 11 815 65 113 112 506 117 501
100 9 2 11 815 8 63 14 67 481 507
101 9 2 11 815 64 112 111 502 116 508
102 9 2 11 815 279 323 278 487 509 281
103 9 2 11 815 323 322 278 325 510 509
104 9 2 11 815 15 84 119 511 500 123
105 9 2 11 815 122 81 16 490 486 127
106 9 2 11 815 110 64 111 512 508 115
107 9 2 11 815 129 100 101 484 106 513
108 9 2 11 815 322 45 37 324 328 514
109 9 2 11 815 129 101 130 513 495 134
110 9 2 11 815 102 103 131 108 515 494
111 9 2 11 815 66 15 113 504 118 516
112 9 2 11 815 65 66 113 70 516 506
113 9 2 11 815 312 17 5 517 518 314
114 9 2 11 815 317 17 312 319 517 505
115 9 2 11 815 103 5 17 109 518 519
116 9 2 11 815 131 103 17 515 519 136
117 9 2 11 815 128 99 100 497 105 483
118 9 2 11 815 63 64 110 68 512 482
119 9 2 11 815 278 322 37 510 514 280
120 9 2 11 815 44 318 43 321 520 327
121 9 2 11 815 43 318 313 520 499 316
122 9 2 11 815 8 14 279 507 488 282
123 9 2 11 815 6 84 15 89 511 503
124 9 2 11 816 147 166 146 521 522 152
125 9 2 11 816 7 21 99 523 524 104
126 9 2 11 816 5 20 150 525 526 156
127 9 2 11 816 149 168 148 527 528 154
128 9 2 11 816 296 295 339 298 529 530
129 9 2 11 816 19 160 140 165 531 532
130 9 2 11 816 168 167 148 172 533 528
131 9 2 11 816 334 329 335 534 535 337
132 9 2 11 816 148 167 147 533 536 153
133 9 2 11 816 167 166 147 171 521 536
134 9 2 11 816 47 46 334 345 537 336
135 9 2 11 816 139 158 138 538 539 143
136 9 2 11 816 159 158 139 163 538 540
137 9 2 11 816 150 169 149 541 542 155
138 9 2 11 816 102 176 175 543 180 544
139 9 2 11 816 103 20 5 545 525 109
140 9 2 11 816 102 175 103 544 546 108
141 9 2 11 816 160 159 139 164 540 547
142 9 2 11 816 46 329 334 331 534 537
143 9 2 11 816 146 19 2 548 549 151
144 9 2 11 816 178 177 100 182 550 551
145 9 2 11 816 137 18 1 552 553 141
146 9 2 11 816 100 177 101 550 554 106
147 9 2 11 816 330 1 18 333 553 555
148 9 2 11 816 340 40 48 556 344 343
149 9 2 11 816 339 295 340 529 557 342
150 9 2 11 816 20 169 150 174 541 526
151 9 2 11 816 101 176 102 558 543 107
152 9 2 11 816 19 140 2 532 145 549
153 9 2 11 816 160 139 140 547 144 531
154 9 2 11 816 103 175 20 546 179 545
155 9 2 11 816 157 18 137 161 552 559
156 9 2 11 816 335 330 18 560 555 338
157 9 2 11 816 177 176 101 181 558 554
158 9 2 11 816 295 40 340 297 556 557
159 9 2 11 816 138 157 137 561 559 142
160 9 2 11 816 329 330 335 332 560 535
161 9 2 11 816 21 296 339 562 530 341
162 9 2 11 816 158 157 138 162 561 539
163 9 2 11 816 99 178 100 563 551 105
164 9 2 11 816 21 178 99 183 563 524
165 9 2 11 816 7 296 21 299 562 523
166 9 2 11 816 166 19 146 170 548 522
167 9 2 11 816 169 168 149 173 527 542
168 9 2 11 817 346 50 49 564 362 348
169 9 2 11 817 352 346 347 565 349 566
170 9 2 11 817 184 22 146 188 567 568
171 9 2 11 817 22 347 2 569 350 570
172 9 2 11 817 352 351 346 354 571 565
173 9 2 11 817 147 184 146 572 568 152
174 9 2 11 817 146 22 2 567 570 151
175 9 2 11 817 187 186 149 191 573 574
176 9 2 11 817 149 186 148 573 575 154
177 9 2 11 817 148 185 147 576 577 153
178 9 2 11 817 185 184 147 189 572 577
179 9 2 11 817 150 187 149 578 574 155
180 9 2 11 817 186 185 148 190 576 575
181 9 2 11 817 313 357 312 579 580 315
182 9 2 11 817 22 352 347 355 566 569
183 9 2 11 817 23 187 150 192 578 581
184 9 2 11 817 357 356 312 359 582 580
185 9 2 11 817 351 50 346 353 564 571
186 9 2 11 817 51 357 313 360 579 583
187 9 2 11 817 43 51 313 361 583 316
188 9 2 11 817 312 23 5 584 585 314
189 9 2 11 817 312 356 23 582 358 584
190 9 2 11 817 5 23 150 585 581 156
191 9 2 11 818 363 54 52 586 379 365
192 9 2 11 818 202 24 193 206 587 588
193 9 2 11 818 196 205 195 589 590 200
194 9 2 11 818 369 368 330 371 591 592
195 9 2 11 818 330 368 25 591 370 593
196 9 2 11 818 330 25 1 593 594 333
197 9 2 11 818 1 25 196 594 595 201
198 9 2 11 818 203 202 194 207 596 597
199 9 2 11 818 195 204 194 598 599 199
200 9 2 11 818 46 53 329 378 600 331
201 9 2 11 818 205 204 195 209 598 590
202 9 2 11 818 374 373 364 376 601 602
203 9 2 11 818 24 364 4 603 367 604
204 9 2 11 818 194 202 193 596 588 198
205 9 2 11 818 373 54 363 375 586 605
206 9 2 11 818 364 373 363 601 605 366
207 9 2 11 818 193 24 4 587 604 197
208 9 2 11 818 24 374 364 377 602 603
209 9 2 11 818 53 369 329 372 606 600
210 9 2 11 818 204 203 194 208 597 599
211 9 2 11 818 329 369 330 606 592 332
212 9 2 11 818 25 205 196 210 589 595
213 9 2 11 819 241 240 139 245 607 608
214 9 2 11 819 223 222 213 227 609 610
215 9 2 11 819 27 214 4 611 219 612
216 9 2 11 819 56 55 385 396 613 387
217 9 2 11 819 1 28 196 614 615 201
218 9 2 11 819 232 231 195 236 616 617
219 9 2 11 819 27 223 214 228 618 611
220 9 2 11 819 213 221 212 619 620 217
221 9 2 11 819 386 381 26 621 622 389
222 9 2 11 819 385 380 386 623 624 388
223 9 2 11 819 196 232 195 625 617 200
224 9 2 11 819 195 231 194 616 626 199
225 9 2 11 819 390 346 391 627 628 393
226 9 2 11 819 55 380 385 382 623 613
227 9 2 11 819 138 238 137 629 630 142
228 9 2 11 819 221 220 212 225 631 620
229 9 2 11 819 222 221 213 226 619 609
230 9 2 11 819 230 229 194 234 632 633
231 9 2 11 819 231 230 194 235 633 626
232 9 2 11 819 28 232 196 237 625 615
233 9 2 11 819 223 213 214 610 218 618
234 9 2 11 819 137 238 28 630 242 634
235 9 2 11 819 29 241 140 246 635 636
236 9 2 11 819 194 229 193 632 637 198
237 9 2 11 819 139 240 239 607 244 638
238 9 2 11 819 139 239 138 638 639 143
239 9 2 11 819 220 26 211 224 640 641
240 9 2 11 819 381 3 26 384 642 622
241 9 2 11 819 29 347 390 643 644 392
242 9 2 11 819 2 347 29 350 643 645
243 9 2 11 819 2 29 140 645 636 145
244 9 2 11 819 140 241 139 635 608 144
245 9 2 11 819 347 346 390 349 627 644
246 9 2 11 819 138 239 238 639 243 629
247 9 2 11 819 211 26 3 640 642 215
248 9 2 11 819 380 381 386 383 621 624
249 9 2 11 819 212 220 211 631 641 216
250 9 2 11 819 346 49 391 348 646 628
251 9 2 11 819 391 49 57 646 395 394
252 9 2 11 819 229 27 193 233 647 637
253 9 2 11 819 193 27 4 647 612 197
254 9 2 11 819 137 28 1 634 614 141
255 9 2 11 820 31 397 402 648 649 404
256 9 2 11 820 214 213 247 218 650 651
257 9 2 11 820 212 211 250 216 652 653
258 9 2 11 820 247 213 248 650 654 252
259 9 2 11 820 248 212 249 655 656 253
260 9 2 11 820 211 3 31 215 657 658
261 9 2 11 820 30 408 364 411 659 660
262 9 2 11 820 4 30 364 661 660 367
263 9 2 11 820 30 214 247 662 651 251
264 9 2 11 820 211 31 250 658 255 652
265 9 2 11 820 403 58 59 663 412 406
266 9 2 11 820 364 408 363 659 664 366
267 9 2 11 820 402 398 403 665 666 405
268 9 2 11 820 397 398 402 400 665 649
269 9 2 11 820 408 407 363 410 667 664
270 9 2 11 820 3 397 31 399 648 657
271 9 2 11 820 398 58 403 401 663 666
272 9 2 11 820 4 214 30 219 662 661
273 9 2 11 820 363 407 52 667 668 365
274 9 2 11 820 213 212 248 217 655 654
275 9 2 11 820 407 60 52 409 413 668
276 9 2 11 820 212 250 249 653 254 656
277 9 2 11 821 419 398 420 669 670 422
278 9 2 11 821 55 380 61 382 671 425
279 9 2 11 821 32 397 419 672 673 421
280 9 2 11 821 420 58 62 674 424 423
281 9 2 11 821 3 397 32 399 672 675
282 9 2 11 821 61 380 414 671 676 416
283 9 2 11 821 398 58 420 401 674 670
284 9 2 11 821 380 381 415 383 677 678
285 9 2 11 821 381 3 32 384 675 679
286 9 2 11 821 380 415 414 678 417 676
287 9 2 11 821 381 32 415 679 418 677
288 9 2 11 821 397 398 419 400 669 673
$EndElements
