mm = 1.;
l = 1*mm;
t = 0.025*l;
lsca = 1*t;

Mesh.RecombineAll=0;

x[0] =0; 									y[0] =0;
x[1] =l*Sqrt(3.)/4+x[0]; 		y[1] =y[0];
x[2] =x[1]; 							y[2] =y[1]+0.5*l;
x[3] =x[0]; 							y[3] =y[2]+0.25*l;
x[4] =x[1]+l*Sqrt(3.)/2;	y[4] =y[2]+0.5*l;
x[5] =x[4]+l*Sqrt(3.)/4;  y[5] =y[3];
x[6] =x[4];								y[6] =y[4]+l;
x[7] =x[5];								y[7] =y[5]+1.5*l;
x[8] =x[1];								y[8] =y[2]+2.*l;
x[9] =x[3];								y[9] =y[7];
x[10]=x[1];								y[10]=y[8]+0.5*l;

x[11]=x[1]-t; y[11]=y[1];
x[12]=x[1]+t; y[12]=y[1];
x[13]=x[12];  y[13]=y[12]+0.5*l-t/Sqrt(3.);
x[14]=x[4];		y[14]=y[4]-2.*t/Sqrt(3.);
x[15]=x[5];		y[15]=y[5]-2.*t/Sqrt(3.);
x[16]=x[15];	y[16]=y[5]+2.*t/Sqrt(3.);
x[17]=x[4]+t; y[17]=y[4]+t/Sqrt(3.);
x[18]=x[17];	y[18]=y[6]-t/Sqrt(3.);
x[19]=x[7];		y[19]=y[7]-2.*t/Sqrt(3.);
x[20]=x[7];		y[20]=y[7]+2.*t/Sqrt(3.);
x[21]=x[6];		y[21]=y[6]+2.*t/Sqrt(3.);
x[22]=x[8]+t;	y[22]=y[8]+t/Sqrt(3.);
x[23]=x[22];	y[23]=y[10];
x[24]=x[10]-t;y[24]=y[10];
x[25]=x[24];	y[25]=y[22];
x[26]=x[9];		y[26]=y[20];
x[27]=x[26];  y[27]=y[19];
x[28]=x[8];		y[28]=y[8]-2.*t/Sqrt(3.);
x[29]=x[18]-2*t; y[29]=y[18];
x[30]=x[29]; y[30]=y[17];
x[31]=x[2]; y[31]=y[2]+2.*t/Sqrt(3.);
x[32]=x[3];	y[32]=y[16];
x[33]=x[32]; y[33]=y[15];
x[34]=x[11]; y[34]=y[13];


For i In {1:34}
	Point(i)={x[i],y[i],0,lsca};
EndFor



Line(1) = {11, 12};
Line(2) = {12, 13};
Line(3) = {13, 34};
Line(4) = {34, 11};
Line(5) = {34, 31};
Line(6) = {31, 13};
Line(7) = {13, 14};
Line(8) = {14, 30};
Line(9) = {30, 31};
Line(10) = {31, 32};
Line(11) = {32, 33};
Line(12) = {33, 34};
Line(13) = {30, 17};
Line(14) = {17, 14};
Line(15) = {14, 15};
Line(16) = {15, 16};
Line(17) = {16, 17};
Line(18) = {17, 18};
Line(19) = {18, 19};
Line(20) = {19, 20};
Line(21) = {20, 21};
Line(22) = {21, 18};
Line(23) = {18, 29};
Line(24) = {29, 21};
Line(25) = {29, 30};
Line(26) = {21, 22};
Line(27) = {29, 28};
Line(28) = {28, 22};
Line(29) = {22, 25};
Line(30) = {25, 28};
Line(31) = {25, 26};
Line(32) = {28, 27};
Line(33) = {27, 26};
Line(34) = {24, 23};
Line(35) = {23, 22};
Line(36) = {24, 25};
Line Loop(37) = {34, 35, 29, -36};
Plane Surface(38) = {37};
Line Loop(39) = {31, -33, -32, -30};
Plane Surface(40) = {39};
Line Loop(41) = {29, 30, 28};
Plane Surface(42) = {41};
Line Loop(43) = {26, -28, -27, 24};
Plane Surface(44) = {43};
Line Loop(45) = {22, 23, 24};
Plane Surface(46) = {45};
Line Loop(47) = {22, 19, 20, 21};
Plane Surface(48) = {47};
Line Loop(49) = {23, 25, 13, 18};
Plane Surface(50) = {49};
Line Loop(51) = {14, 8, 13};
Plane Surface(52) = {51};
Line Loop(53) = {17, 14, 15, 16};
Plane Surface(54) = {53};
Line Loop(55) = {8, 9, 6, 7};
Plane Surface(56) = {55};
Line Loop(57) = {6, 3, 5};
Plane Surface(58) = {57};
Line Loop(59) = {3, 4, 1, 2};
Plane Surface(60) = {59};
Line Loop(61) = {10, 11, 12, 5};
Plane Surface(62) = {61};
Coherence;
Translate {0, 3*l, 0} {
  Duplicata { Surface{62, 60, 58, 56, 54, 52, 50, 48, 46, 44, 42, 40, 38}; }
}
Translate {0, 6*l, 0} {
  Duplicata { Surface{60, 62, 58, 56, 52, 54, 40, 42, 44, 50, 46, 38, 48, 68, 63, 73, 77, 87, 82, 114, 110, 105, 91, 101, 119, 96}; }
}
Translate {0, 6*l, 0} {
  Duplicata { Surface{161, 166, 171, 175, 180, 185, 190, 195, 199, 204, 208, 213, 218, 222, 227, 232, 236, 241, 124, 129, 134, 138, 143, 147, 152, 157}; }
}
Coherence;
Translate {Sqrt(3)*l, 0, 0} {
  Duplicata { Surface{236, 232, 227, 222, 218, 213, 208, 204, 199, 195, 190, 185, 180, 175, 171, 166, 161, 157, 152, 147, 143, 138, 134, 129, 124, 119, 114, 364, 359, 354, 350, 345, 341, 336, 331, 326, 321, 317, 312, 307, 303, 298, 293, 289, 284, 280, 275, 270, 265, 260, 256, 251, 246, 241, 110, 105, 101, 96, 91, 87, 82, 77, 73, 68, 63, 62, 60, 58, 56, 54, 52, 50, 48, 46, 44, 42, 40, 38}; }
}
Coherence;
Translate {Sqrt(3)*l, 0, 0} {
  Duplicata { Surface{600, 595, 590, 585, 580, 576, 571, 567, 562, 557, 553, 548, 543, 539, 534, 529, 524, 519, 515, 510, 506, 501, 496, 492, 487, 482, 726, 721, 717, 712, 708, 703, 698, 694, 689, 684, 680, 675, 670, 665, 660, 656, 651, 646, 642, 637, 632, 628, 623, 619, 614, 609, 604, 477, 472, 468, 463, 459, 454, 449, 445, 440, 435, 431, 426, 421, 416, 411, 407, 402, 398, 393, 388, 384, 379, 374, 370, 365}; }
}
Translate {Sqrt(3)*l, 0, 0} {
  Duplicata { Surface{773, 796, 778, 782, 750, 755, 792, 745, 834, 759, 801, 735, 839, 787, 764, 768, 970, 811, 816, 731, 806, 1069, 820, 740, 1092, 1074, 975, 825, 829, 1078, 1046, 1051, 1088, 1041, 1008, 1055, 965, 1031, 1013, 1083, 1060, 1064, 1017, 985, 990, 1027, 980, 843, 994, 1036, 848, 961, 1022, 999, 1003, 956, 914, 924, 952, 919, 858, 928, 947, 853, 863, 942, 938, 933, 867, 909, 900, 872, 904, 895, 876, 881, 886, 890}; }
}
Translate {Sqrt(3)*l, 0, 0} {
  Duplicata { Surface{1102, 1107, 1097, 1111, 1144, 1125, 1158, 1163, 1167, 1139, 1116, 1121, 1129, 1149, 1154, 1134, 1172, 1205, 1186, 1219, 1224, 1228, 1200, 1177, 1182, 1190, 1210, 1215, 1195, 1233, 1266, 1247, 1280, 1285, 1289, 1261, 1243, 1251, 1271, 1276, 1294, 1327, 1308, 1341, 1346, 1350, 1322, 1355, 1388, 1369, 1402, 1407, 1411, 1383, 1416, 1444, 1430, 1449, 1454, 1458, 1439, 1238, 1256, 1299, 1304, 1312, 1332, 1337, 1317, 1360, 1365, 1373, 1393, 1398, 1378, 1421, 1426, 1434}; }
}
Translate {Sqrt(3)*l, 0, 0} {
  Duplicata { Surface{1463, 1468, 1472, 1477, 1482, 1487, 1491, 1496, 1500, 1505, 1510, 1515, 1519, 1524, 1529, 1533, 1538, 1543, 1548, 1552, 1557, 1561, 1566, 1571, 1576, 1580, 1585, 1590, 1594, 1599, 1604, 1609, 1613, 1618, 1622, 1627, 1749, 1632, 1636, 1641, 1646, 1754, 1650, 1655, 1660, 1664, 1669, 1673, 1678, 1764, 1768, 1773, 1778, 1683, 1688, 1693, 1697, 1702, 1706, 1711, 1792, 1796, 1716, 1721, 1726, 1730, 1735, 1739, 1744, 1759, 1782, 1787, 1801, 1806, 1810, 1815, 1820, 1824}; }
}
Physical Line(246) = {1, 678, 907, 1437, 1827, 2193};
Physical Line(248) = {2146, 2127, 2104, 2085, 2053, 2034, 1992, 1973, 1931, 1912, 1870, 1851};
Physical Line(247) = {1830, 1464, 1103, 797, 535, 322};
Physical Line(249) = {300, 277, 361, 338, 215, 192, 154, 131, 116, 65, 33, 11};
Physical Surface(250) = {60, 58, 62, 675, 680, 56, 670, 54, 904, 900, 52, 684, 909, 689, 1434, 1426, 694, 895, 1421, 890, 1824, 1820, 886, 1439, 1815, 1458, 2190, 2186, 1454, 1744, 50, 46, 2181, 48, 44, 40, 1739, 1735, 2147, 698, 708, 42, 703, 712, 721, 2142, 2138, 881, 872, 717, 876, 867, 38, 858, 1449, 1430, 863, 1444, 1416, 726, 1378, 1730, 1726, 1398, 68, 73, 63, 1721, 1716, 853, 1810, 2133, 2129, 1806, 660, 656, 77, 665, 2124, 2119, 1393, 2176, 82, 2172, 919, 924, 87, 651, 914, 1801, 646, 1373, 1365, 642, 928, 1360, 2167, 933, 1796, 1792, 938, 1383, 1787, 1411, 2114, 2110, 1711, 1407, 91, 101, 2162, 96, 105, 114, 1706, 1702, 2105, 637, 628, 110, 632, 623, 487, 2100, 2096, 942, 952, 619, 947, 956, 119, 843, 1402, 1369, 961, 1388, 1355, 482, 1317, 1697, 1693, 1337, 124, 134, 129, 1688, 1683, 848, 1782, 2091, 2087, 1778, 477, 468, 138, 472, 2082, 2077, 1332, 2157, 147, 2073, 980, 990, 143, 463, 985, 1773, 454, 1312, 1304, 459, 994, 1299, 2068, 1003, 1768, 1764, 999, 1322, 1759, 1350, 2063, 2059, 1678, 1346, 166, 171, 2152, 180, 161, 152, 1673, 1669, 2054, 435, 431, 157, 421, 440, 449, 2049, 2045, 1022, 1027, 445, 1036, 1017, 175, 1008, 1341, 1308, 1013, 1327, 1294, 426, 1256, 1664, 1660, 1276, 185, 195, 190, 1655, 1650, 1031, 1754, 2040, 2036, 1646, 416, 407, 199, 411, 2026, 2031, 2021, 1271, 208, 2017, 1041, 1051, 204, 402, 1046, 1641, 393, 1251, 1243, 398, 1055, 1238, 2012, 1064, 1636, 1632, 1261, 1060, 1749, 1289, 2007, 2003, 1285, 1627, 227, 232, 1998, 241, 213, 222, 1622, 1618, 1993, 374, 370, 218, 614, 379, 388, 1988, 1984, 1083, 1088, 384, 965, 1078, 236, 1069, 1280, 1247, 1074, 1266, 365, 1233, 1195, 1613, 1609, 1215, 331, 341, 336, 1599, 1604, 1594, 1092, 1979, 1975, 1590, 524, 515, 345, 519, 1970, 1965, 1210, 1960, 354, 1956, 806, 816, 510, 350, 811, 1585, 501, 1190, 1182, 820, 506, 1177, 1951, 829, 1580, 1576, 825, 1200, 1571, 1228, 1946, 1942, 1566, 1224, 251, 256, 1937, 265, 246, 359, 1561, 1557, 1932, 604, 600, 364, 590, 609, 496, 1927, 1923, 975, 731, 492, 740, 970, 260, 834, 1219, 1186, 839, 1172, 1205, 1134, 595, 1552, 1548, 1154, 270, 280, 275, 1543, 735, 1538, 1533, 1918, 1914, 1529, 585, 576, 284, 580, 1904, 1909, 1149, 1899, 293, 1895, 745, 755, 571, 289, 750, 1524, 562, 1129, 1121, 567, 759, 1116, 1890, 768, 1519, 1515, 1139, 764, 1510, 1167, 1885, 1881, 1163, 1505, 312, 317, 1876, 326, 307, 298, 1500, 1496, 1871, 543, 539, 303, 529, 548, 557, 1866, 1862, 787, 792, 553, 782, 801, 321, 773, 1158, 1125, 778, 1144, 534, 1111, 1097, 1491, 1487, 1107, 1482, 1477, 796, 1472, 1857, 1853, 1468, 1848, 1102, 1843, 1838, 1834, 1463, 1829};
Physical Point(2195) = {828};
