mm = 1.;
l = 1*mm;
t = 0.025*l;
lsca = t;

Mesh.RecombineAll=0;

x[0] =0; 									y[0] =0;
x[1] =l*Sqrt(3.)/4+x[0]; 		y[1] =y[0];
x[2] =x[1]; 							y[2] =y[1]+0.5*l;
x[3] =x[0]; 							y[3] =y[2]+0.25*l;
x[4] =x[1]+l*Sqrt(3.)/2;	y[4] =y[2]+0.5*l;
x[5] =x[4]+l*Sqrt(3.)/4;  y[5] =y[3];
x[6] =x[4];								y[6] =y[4]+l;
x[7] =x[5];								y[7] =y[5]+1.5*l;
x[8] =x[1];								y[8] =y[2]+2.*l;
x[9] =x[3];								y[9] =y[7];
x[10]=x[1];								y[10]=y[8]+0.5*l;

x[11]=x[1]-t; y[11]=y[1];
x[12]=x[1]+t; y[12]=y[1];
x[13]=x[12];  y[13]=y[12]+0.5*l-t/Sqrt(3.);
x[14]=x[4];		y[14]=y[4]-2.*t/Sqrt(3.);
x[15]=x[5];		y[15]=y[5]-2.*t/Sqrt(3.);
x[16]=x[15];	y[16]=y[5]+2.*t/Sqrt(3.);
x[17]=x[4]+t; y[17]=y[4]+t/Sqrt(3.);
x[18]=x[17];	y[18]=y[6]-t/Sqrt(3.);
x[19]=x[7];		y[19]=y[7]-2.*t/Sqrt(3.);
x[20]=x[7];		y[20]=y[7]+2.*t/Sqrt(3.);
x[21]=x[6];		y[21]=y[6]+2.*t/Sqrt(3.);
x[22]=x[8]+t;	y[22]=y[8]+t/Sqrt(3.);
x[23]=x[22];	y[23]=y[10];
x[24]=x[10]-t;y[24]=y[10];
x[25]=x[24];	y[25]=y[22];
x[26]=x[9];		y[26]=y[20];
x[27]=x[26];  y[27]=y[19];
x[28]=x[8];		y[28]=y[8]-2.*t/Sqrt(3.);
x[29]=x[18]-2*t; y[29]=y[18];
x[30]=x[29]; y[30]=y[17];
x[31]=x[2]; y[31]=y[2]+2.*t/Sqrt(3.);
x[32]=x[3];	y[32]=y[16];
x[33]=x[32]; y[33]=y[15];
x[34]=x[11]; y[34]=y[13];


For i In {1:34}
	Point(i)={x[i],y[i],0,lsca};
EndFor



Line(1) = {11, 12};
Line(2) = {12, 13};
Line(3) = {13, 34};
Line(4) = {34, 11};
Line(5) = {34, 31};
Line(6) = {31, 13};
Line(7) = {13, 14};
Line(8) = {14, 30};
Line(9) = {30, 31};
Line(10) = {31, 32};
Line(11) = {32, 33};
Line(12) = {33, 34};
Line(13) = {30, 17};
Line(14) = {17, 14};
Line(15) = {14, 15};
Line(16) = {15, 16};
Line(17) = {16, 17};
Line(18) = {17, 18};
Line(19) = {18, 19};
Line(20) = {19, 20};
Line(21) = {20, 21};
Line(22) = {21, 18};
Line(23) = {18, 29};
Line(24) = {29, 21};
Line(25) = {29, 30};
Line(26) = {21, 22};
Line(27) = {29, 28};
Line(28) = {28, 22};
Line(29) = {22, 25};
Line(30) = {25, 28};
Line(31) = {25, 26};
Line(32) = {28, 27};
Line(33) = {27, 26};
Line(34) = {24, 23};
Line(35) = {23, 22};
Line(36) = {24, 25};
Line Loop(37) = {34, 35, 29, -36};
Plane Surface(38) = {37};
Line Loop(39) = {31, -33, -32, -30};
Plane Surface(40) = {39};
Line Loop(41) = {29, 30, 28};
Plane Surface(42) = {41};
Line Loop(43) = {26, -28, -27, 24};
Plane Surface(44) = {43};
Line Loop(45) = {22, 23, 24};
Plane Surface(46) = {45};
Line Loop(47) = {22, 19, 20, 21};
Plane Surface(48) = {47};
Line Loop(49) = {23, 25, 13, 18};
Plane Surface(50) = {49};
Line Loop(51) = {14, 8, 13};
Plane Surface(52) = {51};
Line Loop(53) = {17, 14, 15, 16};
Plane Surface(54) = {53};
Line Loop(55) = {8, 9, 6, 7};
Plane Surface(56) = {55};
Line Loop(57) = {6, 3, 5};
Plane Surface(58) = {57};
Line Loop(59) = {3, 4, 1, 2};
Plane Surface(60) = {59};
Line Loop(61) = {10, 11, 12, 5};
Plane Surface(62) = {61};
Coherence;
Translate {0, 3*l, 0} {
  Duplicata { Surface{62, 60, 58, 56, 54, 52, 50, 48, 46, 44, 42, 40, 38}; }
}
Translate {0, 6*l, 0} {
  Duplicata { Surface{60, 62, 58, 56, 52, 54, 40, 42, 44, 50, 46, 38, 48, 68, 63, 73, 77, 87, 82, 114, 110, 105, 91, 101, 119, 96}; }
}

Translate {0, 12, 0} {
  Duplicata { Surface{60, 58, 62, 56, 54, 52, 50, 46, 48, 44, 40, 42, 38, 68, 73, 63, 77, 82, 87, 91, 101, 96, 105, 114, 110, 119, 124, 134, 129, 138, 147, 143, 166, 171, 180, 161, 152, 157, 175, 185, 195, 190, 199, 208, 204, 227, 232, 241, 222, 213, 218, 236}; }
}

Translate {l*Sqrt(3.), 0, 0} {
  Duplicata { Surface{241, 246, 251, 255, 260, 265, 270, 274, 279, 283, 288, 293, 298, 302, 307, 312, 316, 157, 161, 166, 171, 175, 180, 185, 190, 195, 199, 204, 208, 213, 218, 222, 227, 232, 236, 405, 410, 415, 420, 424, 429, 434, 438, 443, 448, 453, 457, 462, 466, 471, 476, 481, 485, 321, 326, 331, 335, 340, 344, 349, 354, 359, 363, 368, 373, 377, 382, 387, 392, 396, 401, 73, 77, 82, 87, 91, 96, 101, 105, 110, 114, 119, 124, 129, 134, 138, 143, 147, 152, 38, 40, 42, 44, 46, 48, 50, 52, 54, 56, 58, 60, 62, 63, 68}; }
}
Translate {2*l*Sqrt(3), 0, 0} {
  Duplicata { Surface{476, 485, 481, 438, 434, 471, 415, 429, 424, 420, 443, 377, 462, 373, 457, 466, 453, 410, 354, 368, 363, 359, 448, 725, 382, 401, 316, 734, 730, 312, 396, 405, 392, 349, 687, 293, 307, 302, 298, 683, 387, 720, 664, 678, 321, 340, 255, 673, 669, 692, 335, 251, 344, 331, 288, 795, 711, 213, 246, 236, 218, 791, 706, 715, 326, 702, 659, 772, 786, 260, 279, 190, 781, 777, 697, 800, 274, 195, 283, 270, 222, 565, 819, 152, 185, 175, 157, 561, 814, 654, 810, 265, 767, 542, 556, 199, 232, 129, 551, 547, 805, 739, 134, 227, 241, 204, 161, 758, 504, 114, 124, 119, 110, 753, 762, 500, 749, 208, 537, 626, 495, 138, 63, 171, 649, 631, 744, 509, 73, 166, 180, 143, 105, 528, 603, 40, 68, 38, 42, 523, 532, 608, 147, 519, 635, 902, 598, 77, 101, 62, 588, 570, 514, 612, 91, 58, 87, 96, 44, 879, 645, 60, 884, 640, 82, 617, 490, 574, 864, 874, 56, 869, 46, 860, 621, 888, 50, 48, 52, 968, 584, 579, 823, 593, 893, 54, 855, 912, 973, 907, 917, 897, 827, 963, 851, 841, 954, 837, 846, 921, 958, 832, 949, 926, 935, 940, 930, 944}; }
}
Translate {4*l*Sqrt(3), 0, 0} {
  Duplicata { Surface{476, 485, 481, 438, 434, 471, 415, 429, 424, 420, 443, 377, 462, 373, 457, 466, 453, 410, 354, 368, 363, 359, 448, 725, 382, 316, 734, 401, 730, 312, 396, 405, 392, 349, 687, 293, 307, 302, 298, 683, 387, 720, 664, 678, 321, 255, 673, 340, 669, 692, 251, 335, 344, 331, 288, 795, 711, 213, 246, 236, 218, 791, 706, 715, 702, 326, 659, 772, 786, 260, 190, 279, 781, 777, 697, 978, 800, 195, 274, 283, 270, 222, 819, 565, 152, 983, 988, 185, 175, 157, 561, 814, 654, 810, 265, 767, 992, 542, 556, 199, 129, 232, 551, 547, 997, 805, 1001, 1006, 1011, 739, 134, 227, 241, 204, 161, 758, 504, 1016, 114, 1021, 124, 119, 110, 1025, 500, 753, 762, 749, 208, 537, 1030, 1035, 626, 495, 138, 171, 63, 649, 631, 1039, 1043, 1048, 1053, 744, 1057, 1062, 1067, 509, 73, 166, 180, 143, 105, 603, 528, 1072, 40, 1077, 68, 1081, 1086, 38, 42, 1091, 523, 608, 532, 519, 147, 635, 1100, 1096, 1105, 902, 1110, 77, 598, 62, 101, 588, 570, 1114, 1118, 1123, 1128, 514, 1132, 1137, 1142, 1147, 612, 58, 91, 96, 87, 44, 879, 645, 1152, 1157, 60, 1161, 1165, 1170, 1175, 1185, 1180, 884, 640, 490, 82, 617, 574, 1194, 1190, 864, 1199, 1204, 874, 56, 46, 869, 860, 1208, 1218, 1213, 1222, 1227, 1231, 621, 1236, 1241, 1245, 888, 1250, 48, 50, 52, 584, 968, 1255, 1260, 1264, 1268, 1273, 1283, 1278, 1287, 1292, 1302, 1297, 823, 579, 54, 893, 593, 855, 1307, 1311, 1316, 912, 973, 1321, 1325, 907, 917, 1330, 1335, 1340, 1344, 1349, 897, 1353, 1358, 1363, 1367, 1372, 827, 1377, 851, 963, 1382, 1386, 1390, 1395, 1400, 1404, 1409, 1414, 1419, 1424, 841, 954, 837, 846, 921, 1429, 1433, 1438, 1443, 958, 1447, 1452, 1461, 1457, 1471, 1466, 1475, 832, 1484, 1480, 1489, 1494, 949, 926, 1499, 1504, 1518, 1508, 1513, 1522, 1526, 1531, 1536, 1541, 1546, 935, 930, 940, 1556, 1551, 1560, 1565, 1569, 1574, 1579, 1583, 1593, 1588, 1597, 944, 1606, 1602, 1611, 1616, 1621, 1626, 1640, 1635, 1630, 1644, 1649, 1653, 1658, 1663, 1668, 1677, 1673, 1687, 1682, 1691, 1696, 1706, 1701, 1714, 1710, 1719, 1724, 1729, 1733, 1738, 1742, 1756, 1761, 1752, 1747, 1766, 1776, 1771, 1786, 1781, 1790, 1794, 1799, 1804, 1809, 1814, 1818, 1823, 1832, 1827, 1836, 1850, 1845, 1841, 1855, 1860, 1865, 1870, 1874, 1879, 1889, 1884, 1898, 1906, 1893, 1902, 1911, 1916, 1921, 1926, 1931, 1944, 1940, 1935, 1949}; }
}
Translate {8*l*Sqrt(3.), 0, 0} {
  Duplicata { Surface{62, 60, 58, 40, 42, 56, 63, 38, 68, 73, 44, 52, 114, 50, 54, 110, 46, 77, 129, 119, 124, 134, 48, 963, 105, 958, 87, 954, 152, 91, 82, 157, 101, 912, 138, 190, 175, 185, 195, 917, 949, 96, 968, 907, 161, 973, 143, 823, 213, 921, 166, 147, 218, 171, 940, 864, 199, 255, 236, 246, 935, 944, 251, 860, 926, 827, 180, 879, 869, 222, 874, 204, 884, 293, 930, 1677, 855, 227, 208, 298, 1733, 232, 837, 1706, 902, 260, 316, 302, 307, 841, 832, 312, 570, 851, 1611, 888, 241, 603, 588, 288, 598, 270, 608, 1626, 354, 1776, 846, 1551, 1621, 574, 274, 265, 359, 1616, 279, 893, 1579, 626, 321, 377, 363, 1719, 368, 579, 373, 897, 631, 584, 1814, 1489, 612, 283, 504, 649, 349, 495, 331, 1804, 500, 1845, 1504, 415, 1786, 1668, 593, 1433, 1499, 635, 335, 326, 420, 1494, 340, 617, 1457, 542, 382, 1809, 438, 424, 1884, 1597, 429, 640, 621, 434, 547, 1916, 645, 1710, 1898, 1367, 509, 344, 565, 551, 410, 556, 392, 1701, 1747, 561, 1382, 476, 1673, 1855, 1546, 490, 1311, 1377, 537, 396, 387, 481, 1372, 401, 519, 1340, 1870, 772, 443, 1926, 1714, 485, 1818, 1865, 1475, 523, 514, 777, 1860, 528, 1593, 1832, 1245, 739, 405, 795, 781, 471, 1911, 786, 453, 1583, 1644, 791, 1260, 1556, 1940, 1766, 1424, 532, 1194, 1255, 767, 457, 448, 1250, 462, 749, 1935, 1949, 1218, 1790, 664, 1931, 1879, 1588, 1724, 1781, 1353, 753, 744, 669, 1771, 758, 1471, 1738, 1142, 800, 466, 1944, 687, 673, 2785, 1850, 678, 1461, 683, 1526, 1157, 2892, 1429, 1902, 2851, 1658, 1302, 762, 1100, 1152, 659, 1147, 810, 1893, 1921, 1114, 1687, 725, 1889, 2686, 1799, 1466, 1606, 1682, 1231, 814, 805, 730, 1663, 819, 1349, 1640, 2715, 1062, 692, 2982, 1906, 734, 2592, 2710, 1761, 1335, 1404, 1077, 2695, 1307, 1841, 2649, 1536, 1185, 654, 1030, 1072, 720, 2869, 1067, 702, 1827, 1874, 1039, 1565, 1823, 3067, 2508, 1696, 1344, 1484, 1560, 1132, 706, 697, 1541, 711, 1227, 3062, 3141, 1518, 2527, 1006, 2987, 2775, 1836, 2424, 2522, 1653, 1213, 1278, 1021, 2517, 1190, 1752, 2471, 1414, 1091, 715, 3057, 992, 1016, 3268, 2667, 1011, 1742, 1794, 997, 1443, 3361, 1729, 2865, 3325, 2348, 1574, 1222, 1358, 1438, 1057, 1419, 1128, 2855, 1386, 2940, 2372, 978, 2790, 3174, 2583, 1756, 2283, 2367, 1531, 1118, 1165, 988, 2362, 1096, 1649, 2316, 3198, 1292, 1025, 3423, 2860, 983, 3075, 3193, 2489, 1630, 1691, 1321, 3179, 1602, 2663, 3132, 2221, 1452, 1123, 1236, 1316, 1001, 3338, 1297, 1053, 2653, 2742, 1264, 2236, 2588, 3494, 2963, 2419, 1635, 2166, 2231, 1409, 1043, 1081, 2226, 1035, 1522, 3484, 3549, 2189, 2996, 1175, 3428, 3254, 2658, 2874, 2991, 2334, 1508, 1569, 1204, 2977, 1480, 2485, 2926, 2118, 1330, 1048, 3489, 1137, 1199, 3625, 3155, 1180, 2475, 2554, 1161, 2133, 3685, 2429, 3329, 3653, 2766, 2278, 1513, 2072, 2128, 1287, 2123, 1400, 3320, 3399, 2090, 2799, 1086, 3264, 3563, 3047, 2480, 2672, 2794, 2207, 1390, 1447, 1110, 2780, 1363, 2330, 2729, 3578, 2038, 1208, 3723, 3333, 1105, 3502, 3573, 2949, 2320, 2394, 2053, 3568, 2288, 3146, 3526, 2573, 2161, 1395, 2006, 2048, 1170, 3671, 2043, 1283, 3136, 3225, 2015, 2602, 3071, 3766, 3413, 2846, 2325, 2498, 2597, 2108, 1268, 1325, 2578, 1241, 2203, 3756, 2536, 3798, 3437, 1982, 3733, 3620, 3150, 3347, 3432, 2747, 2193, 2258, 1997, 3418, 2176, 2945, 3381, 2409, 2067, 1273, 3761, 1968, 1992, 3840, 3544, 1987, 2930, 3028, 1973, 2438, 3868, 2879, 3667, 3845, 3244, 2644, 2198, 2343, 2433, 2033, 2414, 2104, 3657, 3713, 2376, 3273, 1954, 3630, 3807, 3479, 2935, 3164, 3259, 2559, 2094, 2141, 1964, 3249, 2082, 2738, 3212, 3822, 2268, 2001, 3878, 3662, 1959, 3770, 3817, 3394, 2724, 2821, 2297, 3812, 2677, 3535, 3779, 3042, 2466, 2099, 2212, 2292, 1977, 3863, 2273, 2029, 3530, 2240, 3596, 3085, 3498, 3892, 3718, 3315, 2733, 2954, 3080, 2399, 2019, 2057, 3052, 2011, 2550, 3896, 3005, 3901, 3742, 2151, 3883, 3831, 3539, 3676, 3737, 3230, 2540, 2624, 2180, 3728, 2494, 3385, 3690, 2836, 2311, 2024, 3887, 2113, 2171, 3793, 2156, 3376, 3459, 2137, 2888, 3343, 3859, 3610, 3122, 2545, 2752, 2883, 2263, 2841, 2390, 3854, 3873, 2803, 2062, 3634, 3836, 3751, 3389, 3554, 3638, 3023, 2380, 2446, 2086, 3615, 2339, 3221, 3582, 2634, 2184, 3849, 2077, 3704, 3207, 3295, 2691, 3160, 3803, 3469, 2916, 2385, 2564, 2681, 2146, 2639, 2254, 3783, 3826, 2606, 3512, 3775, 3648, 3216, 3404, 3507, 2826, 2244, 2301, 3474, 2217, 3019, 3441, 2456, 3788, 3605, 3009, 3107, 2513, 2959, 3709, 3305, 2719, 2249, 2404, 2503, 2461, 3694, 2442, 3746, 3357, 3681, 3521, 3014, 3235, 3352, 2629, 3310, 2817, 3277, 2306, 3699, 3464, 2807, 2901, 2358, 2757, 3601, 3117, 2531, 2353, 3591, 3643, 3184, 3559, 3371, 2812, 3033, 3169, 2451, 3127, 2620, 3089, 3586, 3300, 2610, 2700, 2569, 3455, 2911, 3445, 3516, 2973, 3409, 3202, 2615, 2831, 2968, 2921, 2897, 3450, 3112, 3291, 2705, 3281, 3366, 2771, 3240, 3000, 2761, 3286, 2906, 3103, 3093, 3188, 3038, 3098}; }
}
Physical Surface(250) = {4611, 4606, 4601, 4596, 4591, 4586, 4581, 4576, 4572, 4567, 4563, 4558, 4554, 4549, 4545, 4540, 4535, 4530, 4525, 4520, 4515, 4510, 4506, 4502, 4498, 4493, 4489, 4484, 4479, 4474, 4469, 4464, 4760, 4756, 4751, 4746, 4742, 4737, 4732, 4727, 4722, 4717, 4712, 4707, 4703, 4699, 4695, 4690, 4686, 4682, 4677, 4672, 4667, 4662, 4657, 4652, 4647, 4642, 4637, 4632, 4628, 4624, 4620, 4615, 4304, 4299, 4295, 4291, 4287, 4282, 4278, 4273, 4268, 4263, 4258, 4253, 4248, 4244, 4240, 4235, 4230, 4225, 4220, 4215, 4210, 4206, 4202, 4198, 4193, 4188, 4183, 4178, 4173, 4168, 4163, 4159, 4459, 4454, 4450, 4446, 4442, 4437, 4433, 4428, 4423, 4418, 4413, 4408, 4403, 4398, 4393, 4389, 4309, 4314, 4319, 4324, 4329, 4334, 4338, 4342, 4346, 4351, 4356, 4361, 4366, 4371, 4376, 4381, 4385, 5215, 5210, 5205, 5200, 5195, 5191, 5187, 5183, 5178, 5174, 5169, 5165, 5160, 5155, 5150, 5145, 5140, 5135, 5130, 5125, 5120, 5115, 5111, 5107, 5103, 5098, 5094, 5089, 5084, 5079, 5074, 5069, 5371, 5366, 5361, 5356, 5351, 5346, 5341, 5336, 5331, 5326, 5322, 5318, 5314, 5310, 5305, 5301, 5220, 5225, 5230, 5234, 5239, 5244, 5248, 5252, 5257, 5261, 5266, 5271, 5276, 5281, 5286, 5291, 5296, 4909, 4905, 4901, 4897, 4892, 4888, 4883, 4878, 4873, 4868, 4863, 4858, 4853, 4848, 4843, 4838, 4834, 4830, 4826, 4822, 4817, 4813, 4808, 4803, 4798, 4793, 4788, 4783, 4778, 4773, 4769, 4764, 5064, 5059, 5055, 5050, 5046, 5042, 5037, 5032, 5028, 5024, 5019, 5014, 5009, 5004, 4999, 4994, 4914, 4919, 4924, 4929, 4934, 4939, 4944, 4949, 4953, 4958, 4963, 4967, 4971, 4975, 4979, 4984, 4989, 3394, 3389, 3385, 3381, 3376, 3371, 3366, 3361, 3357, 3352, 3347, 3343, 3338, 3333, 3329, 3325, 3320, 3315, 3310, 3305, 3300, 3295, 3291, 3286, 3281, 3277, 3273, 3268, 3264, 3259, 3254, 3249, 3544, 3539, 3535, 3530, 3526, 3521, 3516, 3512, 3507, 3502, 3498, 3494, 3489, 3484, 3479, 3474, 3469, 3464, 3459, 3455, 3450, 3445, 3441, 3437, 3432, 3428, 3423, 3418, 3413, 3409, 3404, 3399, 3089, 3085, 3080, 3075, 3071, 3067, 3062, 3057, 3052, 3047, 3042, 3038, 3033, 3028, 3023, 3019, 3014, 3009, 3005, 3000, 2996, 2991, 2987, 2982, 2977, 2973, 2968, 2963, 2959, 2954, 2949, 2945, 3244, 3240, 3235, 3230, 3225, 3221, 3216, 3212, 3207, 3202, 3198, 3193, 3188, 3184, 3179, 3174, 3093, 3098, 3103, 3107, 3112, 3117, 3122, 3127, 3132, 3136, 3141, 3146, 3150, 3155, 3160, 3164, 3169, 4000, 3995, 3990, 3985, 3981, 3977, 3972, 3967, 3962, 3958, 3953, 3949, 3944, 3939, 3934, 3929, 3925, 3920, 3916, 3911, 3906, 3901, 3896, 3892, 3887, 3883, 3878, 3873, 3868, 3863, 3859, 3854, 4155, 4151, 4146, 4141, 4136, 4131, 4127, 4123, 4118, 4113, 4108, 4103, 4098, 4093, 4089, 4085, 4005, 4009, 4014, 4019, 4024, 4029, 4033, 4037, 4042, 4047, 4052, 4056, 4060, 4065, 4070, 4075, 4080, 3694, 3690, 3685, 3681, 3676, 3671, 3667, 3662, 3657, 3653, 3648, 3643, 3638, 3634, 3630, 3625, 3620, 3615, 3610, 3605, 3601, 3596, 3591, 3586, 3582, 3578, 3573, 3568, 3563, 3559, 3554, 3549, 3849, 3845, 3840, 3836, 3831, 3826, 3822, 3817, 3812, 3807, 3803, 3798, 3793, 3788, 3783, 3779, 3699, 3704, 3709, 3713, 3718, 3723, 3728, 3733, 3737, 3742, 3746, 3751, 3756, 3761, 3766, 3770, 3775, 7046, 7041, 7036, 7031, 7026, 7021, 7016, 7011, 7007, 7002, 6998, 6993, 6989, 6984, 6980, 6976, 6971, 6966, 6961, 6956, 6951, 6946, 6941, 6936, 6931, 6927, 6923, 6919, 6914, 6910, 6905, 6901, 7195, 7191, 7186, 7182, 7177, 7172, 7168, 7163, 7158, 7153, 7148, 7143, 7138, 7133, 7129, 7125, 7121, 7117, 7112, 7107, 7102, 7097, 7092, 7087, 7082, 7077, 7072, 7067, 7063, 7059, 7055, 7050, 6740, 6735, 6730, 6725, 6721, 6716, 6712, 6708, 6703, 6698, 6694, 6689, 6684, 6679, 6674, 6669, 6664, 6659, 6655, 6651, 6647, 6642, 6638, 6634, 6629, 6624, 6619, 6614, 6609, 6604, 6599, 6594, 6896, 6891, 6886, 6881, 6876, 6871, 6866, 6861, 6857, 6853, 6849, 6844, 6840, 6835, 6830, 6825, 6745, 6750, 6755, 6760, 6765, 6769, 6774, 6778, 6782, 6786, 6790, 6795, 6800, 6805, 6810, 6815, 6820, 7650, 7646, 7642, 7637, 7632, 7627, 7622, 7617, 7612, 7608, 7604, 7599, 7594, 7589, 7584, 7579, 7575, 7571, 7567, 7562, 7557, 7552, 7547, 7542, 7538, 7534, 7529, 7524, 7519, 7514, 7509, 7504, 7805, 7801, 7796, 7791, 7787, 7782, 7777, 7772, 7767, 7763, 7759, 7754, 7749, 7744, 7740, 7735, 7655, 7660, 7665, 7670, 7674, 7678, 7683, 7688, 7693, 7697, 7701, 7706, 7711, 7716, 7721, 7726, 7730, 7346, 7341, 7337, 7332, 7327, 7322, 7317, 7312, 7307, 7302, 7298, 7294, 7290, 7285, 7280, 7275, 7270, 7265, 7260, 7255, 7251, 7247, 7243, 7238, 7234, 7229, 7224, 7219, 7214, 7209, 7204, 7199, 7500, 7496, 7491, 7487, 7482, 7477, 7472, 7467, 7462, 7457, 7452, 7448, 7444, 7440, 7435, 7430, 7351, 7355, 7359, 7363, 7368, 7373, 7378, 7383, 7388, 7393, 7398, 7403, 7407, 7411, 7415, 7420, 7425, 5824, 5819, 5814, 5810, 5806, 5802, 5798, 5793, 5789, 5784, 5779, 5774, 5769, 5764, 5759, 5754, 5749, 5745, 5740, 5736, 5731, 5727, 5722, 5718, 5713, 5708, 5703, 5698, 5693, 5688, 5683, 5679, 5980, 5975, 5970, 5965, 5960, 5955, 5951, 5947, 5943, 5939, 5934, 5929, 5925, 5920, 5915, 5910, 5829, 5834, 5839, 5844, 5849, 5854, 5859, 5864, 5868, 5873, 5877, 5881, 5885, 5890, 5895, 5900, 5905, 5520, 5516, 5512, 5507, 5502, 5497, 5492, 5487, 5482, 5477, 5472, 5467, 5463, 5459, 5455, 5451, 5446, 5441, 5437, 5432, 5427, 5422, 5417, 5412, 5407, 5402, 5397, 5393, 5389, 5385, 5380, 5376, 5675, 5671, 5666, 5662, 5658, 5653, 5648, 5643, 5638, 5633, 5628, 5623, 5618, 5613, 5608, 5603, 5525, 5530, 5534, 5538, 5543, 5547, 5552, 5557, 5562, 5567, 5572, 5577, 5582, 5586, 5591, 5595, 5599, 6435, 6431, 6427, 6422, 6417, 6413, 6408, 6403, 6398, 6393, 6388, 6383, 6378, 6373, 6369, 6365, 6361, 6356, 6352, 6347, 6342, 6337, 6332, 6327, 6322, 6317, 6312, 6307, 6302, 6298, 6294, 6290, 6589, 6584, 6579, 6575, 6571, 6567, 6562, 6558, 6553, 6548, 6543, 6538, 6533, 6528, 6523, 6519, 6439, 6443, 6448, 6453, 6458, 6463, 6468, 6473, 6478, 6483, 6488, 6492, 6496, 6501, 6505, 6510, 6514, 6131, 6126, 6121, 6116, 6111, 6106, 6101, 6096, 6091, 6087, 6083, 6079, 6074, 6070, 6065, 6060, 6055, 6050, 6045, 6040, 6035, 6031, 6026, 6022, 6018, 6013, 6008, 6004, 6000, 5995, 5990, 5985, 6286, 6281, 6277, 6272, 6267, 6262, 6257, 6252, 6247, 6242, 6237, 6233, 6228, 6224, 6220, 6215, 6136, 6141, 6146, 6150, 6154, 6159, 6163, 6167, 6171, 6176, 6181, 6186, 6191, 6196, 6201, 6206, 6210, 349, 344, 340, 335, 331, 326, 321, 316, 312, 307, 302, 298, 293, 288, 283, 279, 274, 270, 265, 260, 255, 251, 246, 241, 236, 232, 227, 222, 218, 213, 208, 204, 504, 500, 495, 490, 485, 481, 476, 471, 466, 462, 457, 453, 448, 443, 438, 434, 354, 359, 363, 368, 373, 377, 382, 387, 392, 396, 401, 405, 410, 415, 420, 424, 429, 56, 54, 52, 50, 48, 46, 44, 42, 40, 38, 199, 195, 190, 185, 180, 175, 171, 166, 161, 157, 152, 147, 143, 138, 134, 129, 58, 60, 62, 63, 68, 73, 77, 82, 87, 91, 96, 101, 105, 110, 114, 119, 124, 2180, 2176, 2171, 2166, 2161, 2156, 2151, 2146, 2141, 2137, 2133, 2128, 2123, 2118, 2113, 2108, 2104, 2099, 2094, 2090, 2086, 2082, 2077, 2072, 2067, 2062, 2057, 2053, 2048, 2043, 2038, 2033, 2330, 2325, 2320, 2316, 2311, 2306, 2301, 2297, 2292, 2288, 2283, 2278, 2273, 2268, 2263, 2258, 2254, 2249, 2244, 2240, 2236, 2231, 2226, 2221, 2217, 2212, 2207, 2203, 2198, 2193, 2189, 2184, 1874, 1870, 1865, 1860, 1855, 1850, 1845, 1841, 1836, 1832, 1827, 1823, 1818, 1814, 1809, 1804, 1799, 1794, 1790, 1786, 1781, 1776, 1771, 1766, 1761, 1756, 1752, 1747, 1742, 1738, 1733, 1729, 2029, 2024, 2019, 2015, 2011, 2006, 2001, 1997, 1992, 1987, 1982, 1977, 1973, 1968, 1964, 1959, 1879, 1884, 1889, 1893, 1898, 1902, 1906, 1911, 1916, 1921, 1926, 1931, 1935, 1940, 1944, 1949, 1954, 2785, 2780, 2775, 2771, 2766, 2761, 2757, 2752, 2747, 2742, 2738, 2733, 2729, 2724, 2719, 2715, 2710, 2705, 2700, 2695, 2691, 2686, 2681, 2677, 2672, 2667, 2663, 2658, 2653, 2649, 2644, 2639, 2940, 2935, 2930, 2926, 2921, 2916, 2911, 2906, 2901, 2897, 2892, 2888, 2883, 2879, 2874, 2869, 2790, 2794, 2799, 2803, 2807, 2812, 2817, 2821, 2826, 2831, 2836, 2841, 2846, 2851, 2855, 2860, 2865, 2480, 2475, 2471, 2466, 2461, 2456, 2451, 2446, 2442, 2438, 2433, 2429, 2424, 2419, 2414, 2409, 2404, 2399, 2394, 2390, 2385, 2380, 2376, 2372, 2367, 2362, 2358, 2353, 2348, 2343, 2339, 2334, 2634, 2629, 2624, 2620, 2615, 2610, 2606, 2602, 2597, 2592, 2588, 2583, 2578, 2573, 2569, 2564, 2485, 2489, 2494, 2498, 2503, 2508, 2513, 2517, 2522, 2527, 2531, 2536, 2540, 2545, 2550, 2554, 2559, 958, 954, 949, 944, 940, 935, 930, 926, 921, 917, 912, 907, 902, 897, 893, 888, 884, 879, 874, 869, 864, 860, 855, 851, 846, 841, 837, 832, 827, 823, 819, 814, 1114, 1110, 1105, 1100, 1096, 1091, 1086, 1081, 1077, 1072, 1067, 1062, 1057, 1053, 1048, 1043, 963, 968, 973, 978, 983, 988, 992, 997, 1001, 1006, 1011, 1016, 1021, 1025, 1030, 1035, 1039, 654, 649, 645, 640, 635, 631, 626, 621, 617, 612, 608, 603, 598, 593, 588, 584, 579, 574, 570, 565, 561, 556, 551, 547, 542, 537, 532, 528, 523, 519, 514, 509, 810, 805, 800, 795, 791, 786, 781, 777, 772, 767, 762, 758, 753, 749, 744, 739, 659, 664, 669, 673, 678, 683, 687, 692, 697, 702, 706, 711, 715, 720, 725, 730, 734, 1569, 1565, 1560, 1556, 1551, 1546, 1541, 1536, 1531, 1526, 1522, 1518, 1513, 1508, 1504, 1499, 1494, 1489, 1484, 1480, 1475, 1471, 1466, 1461, 1457, 1452, 1447, 1443, 1438, 1433, 1429, 1424, 1724, 1719, 1714, 1710, 1706, 1701, 1696, 1691, 1687, 1682, 1677, 1673, 1668, 1663, 1658, 1653, 1574, 1579, 1583, 1588, 1593, 1597, 1602, 1606, 1611, 1616, 1621, 1626, 1630, 1635, 1640, 1644, 1649, 1264, 1260, 1255, 1250, 1245, 1241, 1236, 1231, 1227, 1222, 1218, 1213, 1208, 1204, 1199, 1194, 1190, 1185, 1180, 1175, 1170, 1165, 1161, 1157, 1152, 1147, 1142, 1137, 1132, 1128, 1123, 1118, 1419, 1414, 1409, 1404, 1400, 1395, 1390, 1386, 1382, 1377, 1372, 1367, 1363, 1358, 1353, 1349, 1268, 1273, 1278, 1283, 1287, 1292, 1297, 1302, 1307, 1311, 1316, 1321, 1325, 1330, 1335, 1340, 1344};
Physical Line(246) = {1, 961, 1736, 1919, 2895, 3364, 3688, 3871, 3914, 4027, 4285, 4693, 5181, 5669, 6157, 6645};
Physical Line(248) = {6997, 7085, 7181, 7268, 7350, 7423, 7495, 7550, 7603, 7653, 7692, 7733, 7758, 7780, 7800, 7808};
Physical Line(247) = {7773, 7590, 7271, 6811, 6323, 5835, 5347, 4859, 2762, 2354, 2078, 1960, 1106, 984, 735, 486};
Physical Line(249) = {478, 440, 417, 379, 356, 318, 295, 257, 215, 192, 154, 131, 116, 65, 33, 11};
Translate {-8.*Sqrt(3.), -12., 0} {
  Surface{4611, 4606, 4601, 4596, 4591, 4586, 4581, 4576, 4572, 4567, 4563, 4558, 4554, 4549, 4545, 4540, 4535, 4530, 4525, 4520, 4515, 4510, 4506, 4502, 4498, 4493, 4489, 4484, 4479, 4474, 4469, 4464, 4760, 4756, 4751, 4746, 4742, 4737, 4732, 4727, 4722, 4717, 4712, 4707, 4703, 4699, 4695, 4690, 4686, 4682, 4677, 4672, 4667, 4662, 4657, 4652, 4647, 4642, 4637, 4632, 4628, 4624, 4620, 4615, 4304, 4299, 4295, 4291, 4287, 4282, 4278, 4273, 4268, 4263, 4258, 4253, 4248, 4244, 4240, 4235, 4230, 4225, 4220, 4215, 4210, 4206, 4202, 4198, 4193, 4188, 4183, 4178, 4173, 4168, 4163, 4159, 4459, 4454, 4450, 4446, 4442, 4437, 4433, 4428, 4423, 4418, 4413, 4408, 4403, 4398, 4393, 4389, 4309, 4314, 4319, 4324, 4329, 4334, 4338, 4342, 4346, 4351, 4356, 4361, 4366, 4371, 4376, 4381, 4385, 5215, 5210, 5205, 5200, 5195, 5191, 5187, 5183, 5178, 5174, 5169, 5165, 5160, 5155, 5150, 5145, 5140, 5135, 5130, 5125, 5120, 5115, 5111, 5107, 5103, 5098, 5094, 5089, 5084, 5079, 5074, 5069, 5371, 5366, 5361, 5356, 5351, 5346, 5341, 5336, 5331, 5326, 5322, 5318, 5314, 5310, 5305, 5301, 5220, 5225, 5230, 5234, 5239, 5244, 5248, 5252, 5257, 5261, 5266, 5271, 5276, 5281, 5286, 5291, 5296, 4909, 4905, 4901, 4897, 4892, 4888, 4883, 4878, 4873, 4868, 4863, 4858, 4853, 4848, 4843, 4838, 4834, 4830, 4826, 4822, 4817, 4813, 4808, 4803, 4798, 4793, 4788, 4783, 4778, 4773, 4769, 4764, 5064, 5059, 5055, 5050, 5046, 5042, 5037, 5032, 5028, 5024, 5019, 5014, 5009, 5004, 4999, 4994, 4914, 4919, 4924, 4929, 4934, 4939, 4944, 4949, 4953, 4958, 4963, 4967, 4971, 4975, 4979, 4984, 4989, 3394, 3389, 3385, 3381, 3376, 3371, 3366, 3361, 3357, 3352, 3347, 3343, 3338, 3333, 3329, 3325, 3320, 3315, 3310, 3305, 3300, 3295, 3291, 3286, 3281, 3277, 3273, 3268, 3264, 3259, 3254, 3249, 3544, 3539, 3535, 3530, 3526, 3521, 3516, 3512, 3507, 3502, 3498, 3494, 3489, 3484, 3479, 3474, 3469, 3464, 3459, 3455, 3450, 3445, 3441, 3437, 3432, 3428, 3423, 3418, 3413, 3409, 3404, 3399, 3089, 3085, 3080, 3075, 3071, 3067, 3062, 3057, 3052, 3047, 3042, 3038, 3033, 3028, 3023, 3019, 3014, 3009, 3005, 3000, 2996, 2991, 2987, 2982, 2977, 2973, 2968, 2963, 2959, 2954, 2949, 2945, 3244, 3240, 3235, 3230, 3225, 3221, 3216, 3212, 3207, 3202, 3198, 3193, 3188, 3184, 3179, 3174, 3093, 3098, 3103, 3107, 3112, 3117, 3122, 3127, 3132, 3136, 3141, 3146, 3150, 3155, 3160, 3164, 3169, 4000, 3995, 3990, 3985, 3981, 3977, 3972, 3967, 3962, 3958, 3953, 3949, 3944, 3939, 3934, 3929, 3925, 3920, 3916, 3911, 3906, 3901, 3896, 3892, 3887, 3883, 3878, 3873, 3868, 3863, 3859, 3854, 4155, 4151, 4146, 4141, 4136, 4131, 4127, 4123, 4118, 4113, 4108, 4103, 4098, 4093, 4089, 4085, 4005, 4009, 4014, 4019, 4024, 4029, 4033, 4037, 4042, 4047, 4052, 4056, 4060, 4065, 4070, 4075, 4080, 3694, 3690, 3685, 3681, 3676, 3671, 3667, 3662, 3657, 3653, 3648, 3643, 3638, 3634, 3630, 3625, 3620, 3615, 3610, 3605, 3601, 3596, 3591, 3586, 3582, 3578, 3573, 3568, 3563, 3559, 3554, 3549, 3849, 3845, 3840, 3836, 3831, 3826, 3822, 3817, 3812, 3807, 3803, 3798, 3793, 3788, 3783, 3779, 3699, 3704, 3709, 3713, 3718, 3723, 3728, 3733, 3737, 3742, 3746, 3751, 3756, 3761, 3766, 3770, 3775, 7046, 7041, 7036, 7031, 7026, 7021, 7016, 7011, 7007, 7002, 6998, 6993, 6989, 6984, 6980, 6976, 6971, 6966, 6961, 6956, 6951, 6946, 6941, 6936, 6931, 6927, 6923, 6919, 6914, 6910, 6905, 6901, 7195, 7191, 7186, 7182, 7177, 7172, 7168, 7163, 7158, 7153, 7148, 7143, 7138, 7133, 7129, 7125, 7121, 7117, 7112, 7107, 7102, 7097, 7092, 7087, 7082, 7077, 7072, 7067, 7063, 7059, 7055, 7050, 6740, 6735, 6730, 6725, 6721, 6716, 6712, 6708, 6703, 6698, 6694, 6689, 6684, 6679, 6674, 6669, 6664, 6659, 6655, 6651, 6647, 6642, 6638, 6634, 6629, 6624, 6619, 6614, 6609, 6604, 6599, 6594, 6896, 6891, 6886, 6881, 6876, 6871, 6866, 6861, 6857, 6853, 6849, 6844, 6840, 6835, 6830, 6825, 6745, 6750, 6755, 6760, 6765, 6769, 6774, 6778, 6782, 6786, 6790, 6795, 6800, 6805, 6810, 6815, 6820, 7650, 7646, 7642, 7637, 7632, 7627, 7622, 7617, 7612, 7608, 7604, 7599, 7594, 7589, 7584, 7579, 7575, 7571, 7567, 7562, 7557, 7552, 7547, 7542, 7538, 7534, 7529, 7524, 7519, 7514, 7509, 7504, 7805, 7801, 7796, 7791, 7787, 7782, 7777, 7772, 7767, 7763, 7759, 7754, 7749, 7744, 7740, 7735, 7655, 7660, 7665, 7670, 7674, 7678, 7683, 7688, 7693, 7697, 7701, 7706, 7711, 7716, 7721, 7726, 7730, 7346, 7341, 7337, 7332, 7327, 7322, 7317, 7312, 7307, 7302, 7298, 7294, 7290, 7285, 7280, 7275, 7270, 7265, 7260, 7255, 7251, 7247, 7243, 7238, 7234, 7229, 7224, 7219, 7214, 7209, 7204, 7199, 7500, 7496, 7491, 7487, 7482, 7477, 7472, 7467, 7462, 7457, 7452, 7448, 7444, 7440, 7435, 7430, 7351, 7355, 7359, 7363, 7368, 7373, 7378, 7383, 7388, 7393, 7398, 7403, 7407, 7411, 7415, 7420, 7425, 5824, 5819, 5814, 5810, 5806, 5802, 5798, 5793, 5789, 5784, 5779, 5774, 5769, 5764, 5759, 5754, 5749, 5745, 5740, 5736, 5731, 5727, 5722, 5718, 5713, 5708, 5703, 5698, 5693, 5688, 5683, 5679, 5980, 5975, 5970, 5965, 5960, 5955, 5951, 5947, 5943, 5939, 5934, 5929, 5925, 5920, 5915, 5910, 5829, 5834, 5839, 5844, 5849, 5854, 5859, 5864, 5868, 5873, 5877, 5881, 5885, 5890, 5895, 5900, 5905, 5520, 5516, 5512, 5507, 5502, 5497, 5492, 5487, 5482, 5477, 5472, 5467, 5463, 5459, 5455, 5451, 5446, 5441, 5437, 5432, 5427, 5422, 5417, 5412, 5407, 5402, 5397, 5393, 5389, 5385, 5380, 5376, 5675, 5671, 5666, 5662, 5658, 5653, 5648, 5643, 5638, 5633, 5628, 5623, 5618, 5613, 5608, 5603, 5525, 5530, 5534, 5538, 5543, 5547, 5552, 5557, 5562, 5567, 5572, 5577, 5582, 5586, 5591, 5595, 5599, 6435, 6431, 6427, 6422, 6417, 6413, 6408, 6403, 6398, 6393, 6388, 6383, 6378, 6373, 6369, 6365, 6361, 6356, 6352, 6347, 6342, 6337, 6332, 6327, 6322, 6317, 6312, 6307, 6302, 6298, 6294, 6290, 6589, 6584, 6579, 6575, 6571, 6567, 6562, 6558, 6553, 6548, 6543, 6538, 6533, 6528, 6523, 6519, 6439, 6443, 6448, 6453, 6458, 6463, 6468, 6473, 6478, 6483, 6488, 6492, 6496, 6501, 6505, 6510, 6514, 6131, 6126, 6121, 6116, 6111, 6106, 6101, 6096, 6091, 6087, 6083, 6079, 6074, 6070, 6065, 6060, 6055, 6050, 6045, 6040, 6035, 6031, 6026, 6022, 6018, 6013, 6008, 6004, 6000, 5995, 5990, 5985, 6286, 6281, 6277, 6272, 6267, 6262, 6257, 6252, 6247, 6242, 6237, 6233, 6228, 6224, 6220, 6215, 6136, 6141, 6146, 6150, 6154, 6159, 6163, 6167, 6171, 6176, 6181, 6186, 6191, 6196, 6201, 6206, 6210, 349, 344, 340, 335, 331, 326, 321, 316, 312, 307, 302, 298, 293, 288, 283, 279, 274, 270, 265, 260, 255, 251, 246, 241, 236, 232, 227, 222, 218, 213, 208, 204, 504, 500, 495, 490, 485, 481, 476, 471, 466, 462, 457, 453, 448, 443, 438, 434, 354, 359, 363, 368, 373, 377, 382, 387, 392, 396, 401, 405, 410, 415, 420, 424, 429, 56, 54, 52, 50, 48, 46, 44, 42, 40, 38, 199, 195, 190, 185, 180, 175, 171, 166, 161, 157, 152, 147, 143, 138, 134, 129, 58, 60, 62, 63, 68, 73, 77, 82, 87, 91, 96, 101, 105, 110, 114, 119, 124, 2180, 2176, 2171, 2166, 2161, 2156, 2151, 2146, 2141, 2137, 2133, 2128, 2123, 2118, 2113, 2108, 2104, 2099, 2094, 2090, 2086, 2082, 2077, 2072, 2067, 2062, 2057, 2053, 2048, 2043, 2038, 2033, 2330, 2325, 2320, 2316, 2311, 2306, 2301, 2297, 2292, 2288, 2283, 2278, 2273, 2268, 2263, 2258, 2254, 2249, 2244, 2240, 2236, 2231, 2226, 2221, 2217, 2212, 2207, 2203, 2198, 2193, 2189, 2184, 1874, 1870, 1865, 1860, 1855, 1850, 1845, 1841, 1836, 1832, 1827, 1823, 1818, 1814, 1809, 1804, 1799, 1794, 1790, 1786, 1781, 1776, 1771, 1766, 1761, 1756, 1752, 1747, 1742, 1738, 1733, 1729, 2029, 2024, 2019, 2015, 2011, 2006, 2001, 1997, 1992, 1987, 1982, 1977, 1973, 1968, 1964, 1959, 1879, 1884, 1889, 1893, 1898, 1902, 1906, 1911, 1916, 1921, 1926, 1931, 1935, 1940, 1944, 1949, 1954, 2785, 2780, 2775, 2771, 2766, 2761, 2757, 2752, 2747, 2742, 2738, 2733, 2729, 2724, 2719, 2715, 2710, 2705, 2700, 2695, 2691, 2686, 2681, 2677, 2672, 2667, 2663, 2658, 2653, 2649, 2644, 2639, 2940, 2935, 2930, 2926, 2921, 2916, 2911, 2906, 2901, 2897, 2892, 2888, 2883, 2879, 2874, 2869, 2790, 2794, 2799, 2803, 2807, 2812, 2817, 2821, 2826, 2831, 2836, 2841, 2846, 2851, 2855, 2860, 2865, 2480, 2475, 2471, 2466, 2461, 2456, 2451, 2446, 2442, 2438, 2433, 2429, 2424, 2419, 2414, 2409, 2404, 2399, 2394, 2390, 2385, 2380, 2376, 2372, 2367, 2362, 2358, 2353, 2348, 2343, 2339, 2334, 2634, 2629, 2624, 2620, 2615, 2610, 2606, 2602, 2597, 2592, 2588, 2583, 2578, 2573, 2569, 2564, 2485, 2489, 2494, 2498, 2503, 2508, 2513, 2517, 2522, 2527, 2531, 2536, 2540, 2545, 2550, 2554, 2559, 958, 954, 949, 944, 940, 935, 930, 926, 921, 917, 912, 907, 902, 897, 893, 888, 884, 879, 874, 869, 864, 860, 855, 851, 846, 841, 837, 832, 827, 823, 819, 814, 1114, 1110, 1105, 1100, 1096, 1091, 1086, 1081, 1077, 1072, 1067, 1062, 1057, 1053, 1048, 1043, 963, 968, 973, 978, 983, 988, 992, 997, 1001, 1006, 1011, 1016, 1021, 1025, 1030, 1035, 1039, 654, 649, 645, 640, 635, 631, 626, 621, 617, 612, 608, 603, 598, 593, 588, 584, 579, 574, 570, 565, 561, 556, 551, 547, 542, 537, 532, 528, 523, 519, 514, 509, 810, 805, 800, 795, 791, 786, 781, 777, 772, 767, 762, 758, 753, 749, 744, 739, 659, 664, 669, 673, 678, 683, 687, 692, 697, 702, 706, 711, 715, 720, 725, 730, 734, 1569, 1565, 1560, 1556, 1551, 1546, 1541, 1536, 1531, 1526, 1522, 1518, 1513, 1508, 1504, 1499, 1494, 1489, 1484, 1480, 1475, 1471, 1466, 1461, 1457, 1452, 1447, 1443, 1438, 1433, 1429, 1424, 1724, 1719, 1714, 1710, 1706, 1701, 1696, 1691, 1687, 1682, 1677, 1673, 1668, 1663, 1658, 1653, 1574, 1579, 1583, 1588, 1593, 1597, 1602, 1606, 1611, 1616, 1621, 1626, 1630, 1635, 1640, 1644, 1649, 1264, 1260, 1255, 1250, 1245, 1241, 1236, 1231, 1227, 1222, 1218, 1213, 1208, 1204, 1199, 1194, 1190, 1185, 1180, 1175, 1170, 1165, 1161, 1157, 1152, 1147, 1142, 1137, 1132, 1128, 1123, 1118, 1419, 1414, 1409, 1404, 1400, 1395, 1390, 1386, 1382, 1377, 1372, 1367, 1363, 1358, 1353, 1349, 1268, 1273, 1278, 1283, 1287, 1292, 1297, 1302, 1307, 1311, 1316, 1321, 1325, 1330, 1335, 1340, 1344};
}
Physical Point(7810) = {33};
Physical Point(7811) = {1343};
