m = 0.05;

r1 = 0.2;

x1 = 0;
x2 = 0.5;
x3 = 0.5;

x4 = -1;
x5 = 1.5;
x6 = 1.5;

y1 = 0;
y2 = -r1-0.05;
y3 = r1+0.05;
y4 = 0;
y5 = -r1-0.2;
y6 = r1+0.2;

p = newp;
Point(p) = {x1, y1, 0, m};
Point(p+1) = {x1, y1, r1, m};
Point(p+2) = {x1, y1, -r1, m};
Point(p+3) = {x1, y1+r1, 0, m};
Point(p+4) = {x1, y1-r1, 0, m};
l = newl;
Circle(l+1) = {p+1, p, p+4};
Circle(l+2) = {p+4, p, p+2};
Circle(l+3) = {p+2, p, p+3};
Circle(l+4) = {p+3, p, p+1};

p = newp;
Point(p) = {x2, y2, 0, m};
Point(p+1) = {x2, y2, r1, m};
Point(p+2) = {x2, y2, -r1, m};
Point(p+3) = {x2, y2+r1, 0, m};
Point(p+4) = {x2, y2-r1, 0, m};
l = newl;
Circle(l+1) = {p+1, p, p+4};
Circle(l+2) = {p+4, p, p+2};
Circle(l+3) = {p+2, p, p+3};
Circle(l+4) = {p+3, p, p+1};

p = newp;
Point(p) = {x3, y3, 0, m};
Point(p+1) = {x3, y3, r1, m};
Point(p+2) = {x3, y3, -r1, m};
Point(p+3) = {x3, y3+r1, 0, m};
Point(p+4) = {x3, y3-r1, 0, m};
l = newl;
Circle(l+1) = {p+1, p, p+4};
Circle(l+2) = {p+4, p, p+2};
Circle(l+3) = {p+2, p, p+3};
Circle(l+4) = {p+3, p, p+1};
Line(16) = {12, 2};
Line(17) = {3, 13};
Line(18) = {4, 14};
Line(19) = {5, 10};
Line(20) = {7, 2};
Line(21) = {8, 3};
Line(22) = {15, 9};
Line(23) = {15, 2};
Line(24) = {9, 2};
Line(25) = {15, 3};
Line(26) = {9, 3};
Line Loop(27) = {18, 15, 16, -5};
Ruled Surface(28) = {27};
Line Loop(29) = {4, 18, -14, -17};
Ruled Surface(30) = {29};
Line Loop(31) = {16, -23, -12};
Ruled Surface(32) = {31};
Line Loop(33) = {17, -13, 25};
Ruled Surface(34) = {33};
Line Loop(35) = {25, -26, -22};
Ruled Surface(36) = {35};
Line Loop(37) = {22, 24, -23};
Ruled Surface(38) = {37};
Line Loop(39) = {24, -20, -10};
Ruled Surface(40) = {39};
Line Loop(41) = {26, -21, 9};
Ruled Surface(42) = {41};
Line Loop(43) = {3, -21, -8, -19};
Ruled Surface(44) = {43};
Line Loop(45) = {2, 19, -7, 20};
Ruled Surface(46) = {45};

p = newp;
Point(p) = {x4, y4, 0, m};
Point(p+1) = {x4, y4, r1, m};
Point(p+2) = {x4, y4, -r1, m};
Point(p+3) = {x4, y4+r1, 0, m};
Point(p+4) = {x4, y4-r1, 0, m};
l = newl;
Circle(l+1) = {p+1, p, p+4};
Circle(l+2) = {p+4, p, p+2};
Circle(l+3) = {p+2, p, p+3};
Circle(l+4) = {p+3, p, p+1};
p = newp;
Point(p) = {x5, y5, 0, m};
Point(p+1) = {x5, y5, r1, m};
Point(p+2) = {x5, y5, -r1, m};
Point(p+3) = {x5, y5+r1, 0, m};
Point(p+4) = {x5, y5-r1, 0, m};
l = newl;
Circle(l+1) = {p+1, p, p+4};
Circle(l+2) = {p+4, p, p+2};
Circle(l+3) = {p+2, p, p+3};
Circle(l+4) = {p+3, p, p+1};
p = newp;
Point(p) = {x6, y6, 0, m};
Point(p+1) = {x6, y6, r1, m};
Point(p+2) = {x6, y6, -r1, m};
Point(p+3) = {x6, y6+r1, 0, m};
Point(p+4) = {x6, y6-r1, 0, m};
l = newl;
Circle(l+1) = {p+1, p, p+4};
Circle(l+2) = {p+4, p, p+2};
Circle(l+3) = {p+2, p, p+3};
Circle(l+4) = {p+3, p, p+1};
Line(62) = {14, 29};
Line(63) = {27, 12};
Line(64) = {13, 28};
Line(65) = {30, 15};
Line(66) = {9, 24};
Line(67) = {22, 7};
Line(68) = {8, 23};
Line(69) = {25, 10};
Line(70) = {17, 2};
Line(71) = {4, 19};
Line(72) = {20, 5};
Line(73) = {3, 18};
Line Loop(74) = {71, 51, 70, -5};
Ruled Surface(75) = {74};
Line Loop(76) = {70, 2, -72, -48};
Ruled Surface(77) = {76};
Line Loop(78) = {3, 73, -49, 72};
Ruled Surface(79) = {78};
Line Loop(80) = {71, -50, -73, 4};
Ruled Surface(81) = {80};
Line Loop(82) = {64, 60, -62, -14};
Ruled Surface(83) = {82};
Line Loop(84) = {59, -64, -13, -65};
Ruled Surface(85) = {84};
Line Loop(86) = {62, 61, 63, -15};
Ruled Surface(87) = {86};
Line Loop(88) = {12, -65, -58, 63};
Ruled Surface(89) = {88};
Line Loop(90) = {66, 56, 67, -10};
Ruled Surface(91) = {90};
Line Loop(92) = {67, 7, -69, -53};
Ruled Surface(93) = {92};
Line Loop(94) = {8, 68, -54, 69};
Ruled Surface(95) = {94};
Line Loop(96) = {9, 66, -55, -68};
Ruled Surface(97) = {96};

SURFACE = 2;
BOUNDARY = 3;
Physical Line(BOUNDARY) = {60, 61, 58, 59, 55, 56, 53, 54, 50, 51, 48, 49};
Physical Surface(SURFACE) = {83, 85, 89, 30, 28, 81, 75, 77, 79, 44, 46, 97, 91, 93, 95, 36, 38, 40, 32, 34, 42, 87};

Cohomology(1) {{SURFACE},{}};
Cohomology(1) {{SURFACE},{BOUNDARY}};
