
pi = 3.14159265;
Field[1]=MathEval;
Field[1].F="50e3";
Plugin(GSHHS).InFileName="gshhs_f.b";
Plugin(GSHHS).OutFileName="world_bnd.geo";
Plugin(GSHHS).iField=1;
Plugin(GSHHS).MinStraitsFactor=0.5;
Plugin(GSHHS).WritePolarSphere=-2;
Plugin(GSHHS).Run;
