LcCoast=50e3;
LcFar=200e3;

pi = 3.14159265;
Field[20]=MathEval;
Field[20].F="(4 * 6371e3* 6371e3 * x) / (4 * 6371e3*6371e3 + x*x + y*y)";
Field[21]=MathEval;
Field[21].F="(4 * 6371e3*6371e3 * y) / (4 * 6371e3*6371e3 + x*x + y*y)";
Field[22]=MathEval;
Field[22].F=" 6371e3* (4 * 6371e3*6371e3 - x*x - y*y) / (4 * 6371e3*6371e3 + x*x + y*y)";
Merge "world_bnd.geo";
Physical Line("Coast")={ IL:IL+120 };

nloop=newll;
Plane Surface(1)={1:nloop-1};
Physical Surface("Domain")={1};
//Recombine Surface{1};
Mesh.RecombinationAlgorithm = 1;
Mesh.Algorithm=5;
Mesh.LcIntegrationPrecision=1e-4;
Mesh.CharacteristicLengthExtendFromBoundary = 0;

Field[4] = Threshold;
Field[4].DistMax = 2*LcFar;
Field[4].DistMin = 2*LcCoast;
Field[4].IField = 3;
Field[4].LcMax = LcFar;
Field[4].LcMin = 2*LcCoast;
Field[4].Sigmoid = 0;
Field[5] = Structured;
Field[5].FileName = "etopo2.bin";
Field[6] = LonLat;
Field[6].FromStereo = 1;
Field[6].IField = 5;
Field[7] = MathEval;
Field[7].F = "Sqrt(Fabs(F6))";
Field[8] = Threshold;
Field[8].DistMax = 100;
Field[8].LcMax = LcFar;
Field[8].LcMin = 1.5*LcCoast;
Field[8].DistMin = 10;
Field[8].IField = 7;
Field[8].Sigmoid = 1;
Field[9] = Min;
Field[9].FieldsList = {8, 4};
Field[1000]=MathEval;
Field[1000].F = "(4 * 6371e3^2)/(4*6371e3^2 + x*x + y*y)";
Field[100] = MathEval;
Field[100].F="F9*F105/F1000";
Background Field = 100;

//Hessian(H)
Field[103]=MaxEigenHessian;
Field[103].Delta = 80000;
Field[103].IField = 6;
Field[102]=Threshold;
Field[102].IField = 103;
Field[102].LcMax=1;
Field[102].LcMin=1e-6;
Field[102].DistMax=1;
Field[102].DistMin=1e-6;
Field[104]=MathEval;
Field[104].F = "1/Sqrt(F102)";
Field[105] = Threshold;
Field[105].IField = 104;
Field[105].LcMax = 0.5;
Field[105].LcMin = 1;
Field[105].DistMin = 1e4;
Field[105].DistMax = 2000;

