nbx=6;
nby=6;
Point(1) = {0, 0, 0};
Point(2) = {1000, 0, 0};
Point(3) = {1000, 1000, 0};
Point(4) = {0, 1000, 0};
Line(1) = {1, 2};
Line(2) = {2, 3};
Line(3) = {3, 4};
Line(4) = {4, 1};
Line Loop(5) = {1, 2, 3, 4};
Plane Surface(6) = {5};
Transfinite Line {1,3} = nbx+1;
Transfinite Line {2,4} = nby+1;
Transfinite Surface {6} =  {1,2,3,4};
Recombine Surface "*";
Physical Surface("bottom_surf") = {6};
Physical Surface("left") = {27};
Physical Surface("right") = {15};
Physical Surface("top") = {19};
Physical Surface("bottom") = {23};
