$MeshFormat
2.2 0 8
$EndMeshFormat
$Nodes
347
1 -0.428712 1.00004 0
2 0.42907 0.50035 0
3 0.430773 -0.499608 0
4 -0.437929 -1.00309 0
5 -0.487883 -1.03202 0
6 -0.387883 -1.03188 0
7 0.430779 -0.557396 0
8 -0.438011 -0.945347 0
9 0.380724 -0.470825 0
10 0.379119 0.471583 0
11 -0.428936 0.9423049999999999 0
12 0.480724 -0.470761 0
13 0.479119 0.47138 0
14 -0.47879 1.02899 0
15 -0.378789 1.02882 0
16 0.429295 0.558084 0
17 -0.437144 -1.5 0
18 -0.866025 -0.756596 0
19 -0.487144 -1.5 0
20 -0.866025 -0.814292 0
21 0.866025 -0.751759 0
22 -0.387144 -1.5 0
23 0.866025 -0.809544 0
24 -0.866025 0.749808 0
25 -0.866025 -0.6989 0
26 -0.866025 0.692201 0
27 0.866025 0.750353 0
28 0.866025 -0.693975 0
29 0.866025 0.692748 0
30 -0.43006 1.5 0
31 -0.480061 1.5 0
32 -0.866025 0.807415 0
33 -0.38006 1.5 0
34 0.866025 0.807958 0
35 -0.2931453333336171 -0.9191763333334978 0
36 -0.1483616666673716 -0.8352626666670753 0
37 -0.003578000001083104 -0.7513490000006278 0
38 0.1412056666659275 -0.6674353333337618 0
39 0.2859893333329488 -0.5835216666668895 0
40 -0.3655371666668116 -0.9611331666667506 0
41 -0.2207535000005213 -0.8772195000003022 0
42 -0.07596983333426344 -0.7933058333338725 0
43 0.06881383333245883 -0.7093921666671736 0
44 0.2135974999994477 -0.6254785000003202 0
45 0.3583811666664281 -0.5415648333334717 0
46 -0.2241506000003026 -0.9369832000001753 0
47 -0.0604182000008105 -0.8420864000004697 0
48 0.1033141999991515 -0.7471896000004917 0
49 0.267046599999594 -0.6522928000002353 0
50 -0.3060168000001335 -0.9844316000000773 0
51 -0.142284400000604 -0.88953480000035 0
52 0.02144799999892699 -0.7946380000006219 0
53 0.185180399999393 -0.6997412000003518 0
54 0.3489127999998132 -0.6048444000001083 0
55 0.4304324000000008 -0.2996164000004274 0
56 0.4300918000000018 -0.09962480000106083 0
57 0.4297512000000019 0.1003667999988933 0
58 0.429410600000001 0.3003583999994483 0
59 0.4306027000000003 -0.3996122000001961 0
60 0.4302621000000013 -0.199620600000715 0
61 0.4299215000000023 0.0003709999986480916 0
62 0.4295809000000015 0.2003625999991334 0
63 0.4292403000000004 0.4003541999997752 0
64 0.2575136000004045 0.6002879999997643 0
65 0.08595720000083223 0.7002259999995152 0
66 -0.08559919999906035 0.8001639999994525 0
67 -0.2571555999996245 0.9001019999997812 0
68 0.3432918000001644 0.5503189999999042 0
69 0.1717354000006343 0.6502569999996305 0
70 0.000179000001141072 0.7501949999993353 0
71 -0.1713773999993827 0.8501329999996403 0
72 -0.3429337999997843 0.9500709999998744 0
73 -0.2742640000003962 -0.8504426000002296 0
74 -0.1105170000008925 -0.7555382000005173 0
75 0.05322999999905631 -0.6606338000005469 0
76 0.216976999999529 -0.5657294000002731 0
77 -0.3561375000001645 -0.8978948000000954 0
78 -0.1923905000005914 -0.8029904000003428 0
79 -0.0286435000011836 -0.708086000000686 0
80 0.1351034999993088 -0.6131816000004007 0
81 0.2988504999997252 -0.5182772000001593 0
82 0.3804030000000008 -0.2823434000004964 0
83 0.3800820000000017 -0.09386180000098171 0
84 0.3797610000000017 0.0946197999990161 0
85 0.3794400000000007 0.2831013999996017 0
86 0.3805635000000004 -0.3765842000002528 0
87 0.3802425000000012 -0.1881026000007004 0
88 0.3799215000000023 0.0003789999986588688 0
89 0.3796005000000012 0.1888605999992578 0
90 0.3792795000000003 0.3773421999998417 0
91 0.2175080000003463 0.5657273999997983 0
92 0.05589700000081826 0.6598717999995233 0
93 -0.1057139999991566 0.7540161999995086 0
94 -0.267324999999586 0.8481605999997588 0
95 0.2983135000001322 0.5186551999999229 0
96 0.1367025000005935 0.6127995999996542 0
97 -0.02490849999896044 0.7069439999993944 0
98 -0.1865194999993945 0.8010883999996472 0
99 -0.3481304999998095 0.895232799999889 0
100 0.4804030000000007 -0.2823328000004359 0
101 0.4800820000000016 -0.09390460000096479 0
102 0.4797610000000017 0.0945235999990417 0
103 0.4794400000000008 0.2829517999995215 0
104 0.4805635000000003 -0.3765469000001946 0
105 0.4802425000000012 -0.1881187000007109 0
106 0.4799215000000021 0.0003094999987945379 0
107 0.4796005000000012 0.1887376999993291 0
108 0.4792795000000004 0.3771658999998037 0
109 -0.2171722000003351 0.9346728000001953 0
110 -0.0555554000008488 0.8405256000004945 0
111 0.1060613999991264 0.7463784000005089 0
112 0.2676781999995684 0.6522312000002515 0
113 -0.2979806000001385 0.9817464000000807 0
114 -0.1363638000005787 0.8875992000003372 0
115 0.02525299999890979 0.7934520000006351 0
116 0.1868697999994163 0.6993048000003401 0
117 0.3484865999998685 0.6051576000000767 0
118 -0.4374056666666657 -1.334363333333926 0
119 -0.4376673333333326 -1.168726666667129 0
120 -0.437274833333333 -1.417181666666875 0
121 -0.437536499999999 -1.251545000000629 0
122 -0.4377981666666663 -1.085908333333541 0
123 -0.5806276666662233 -0.9209253333335886 0
124 -0.7233263333329365 -0.8387606666668952 0
125 -0.5092783333331831 -0.9620076666667532 0
126 -0.6519769999993974 -0.879843000000347 0
127 -0.7946756666665488 -0.7976783333334013 0
128 -0.487390333333333 -1.344006666666854 0
129 -0.4876366666666667 -1.188013333333304 0
130 -0.4872671666666665 -1.422003333333427 0
131 -0.4875134999999997 -1.266010000000179 0
132 -0.4877598333333334 -1.110016666666652 0
133 -0.6139303333331065 -0.9594440000001305 0
134 -0.7399776666664419 -0.8868680000001294 0
135 -0.5509066666665783 -0.9957320000000509 0
136 -0.6769539999996034 -0.9231560000002283 0
137 -0.8030013333332769 -0.8505800000000325 0
138 -0.866025 -0.785444 0
139 -0.4621440000002051 -1.5 0
140 0.5758569999996003 -0.5836583333331018 0
141 0.7209409999996619 -0.6677086666664707 0
142 0.5033149999999618 -0.5416331666666445 0
143 0.6483989999993856 -0.6256834999996439 0
144 0.793482999999761 -0.7097338333331948 0
145 -0.3873903333333331 -1.343960000000159 0
146 -0.3876366666666665 -1.187920000000101 0
147 -0.3872671666666666 -1.42198000000008 0
148 -0.3875134999999993 -1.265940000000425 0
149 -0.3877598333333332 -1.109900000000089 0
150 0.5758609999995961 -0.6414453333330993 0
151 0.7209429999995534 -0.7254946666664079 0
152 0.5033199999999918 -0.5994206666666619 0
153 0.6484019999993786 -0.6834699999996401 0
154 0.79348399999974 -0.7675193333331827 0
155 0.866025 -0.7806514999999538 0
156 -0.412144 -1.5 0
157 -0.5744829999996438 0.9166293333335372 0
158 -0.7202539999996058 0.8332186666668923 0
159 -0.5015974999997956 0.9583346666667837 0
160 -0.6473684999995372 0.8749240000002649 0
161 -0.7931394999998614 0.7915133333334127 0
162 -0.723353666667094 -0.781048999999754 0
163 -0.5806823333337061 -0.8631979999997854 0
164 -0.7946893333334645 -0.7399744999999245 0
165 -0.6520180000005122 -0.8221234999997051 0
166 -0.5093466666668904 -0.9042724999998711 0
167 -0.574632333333015 0.8589370000001821 0
168 -0.7203286666663702 0.7755690000001696 0
169 -0.5017841666666736 0.900620999999996 0
170 -0.6474804999994481 0.8172530000003158 0
171 -0.793176833333225 0.733885000000062 0
172 -0.866025 0.7210045 0
173 -0.866025 -0.727748 0
174 0.5747216666663747 0.5836843333331663 0
175 0.7203733333329675 0.6670186666664574 0
176 0.5018958333331801 0.542017166666579 0
177 0.647547499999421 0.6253514999996687 0
178 0.7931991666666766 0.708685833333339 0
179 0.7375913333336837 -0.6195703333335363 0
180 0.6091576666669278 -0.545165666666818 0
181 0.8018081666667923 -0.6567726666667395 0
182 0.6733745000005271 -0.5823680000003053 0
183 0.5449408333336365 -0.507963333333509 0
184 0.6080876666663928 0.5451693333331766 0
185 0.7370563333330011 0.6189586666664766 0
186 0.5436033333332083 0.5082746666665952 0
187 0.6725719999994562 0.5820639999996888 0
188 0.8015406666665241 0.6558533333332517 0
189 0.866025 0.7215505000000001 0
190 0.866025 -0.7228669999997118 0
191 -0.4296106666666683 1.333346666667274 0
192 -0.4291613333333347 1.16669333333384 0
193 -0.4298353333333332 1.416673333333307 0
194 -0.4293860000000019 1.250020000000712 0
195 -0.4289366666666672 1.083366666666882 0
196 -0.4796373333333344 1.342996666667072 0
197 -0.479213666666668 1.185993333333825 0
198 -0.4798491666666668 1.421498333333384 0
199 -0.4794255000000032 1.264495000001173 0
200 -0.4790018333333334 1.107491666666689 0
201 -0.6078683333330441 0.9551316666668322 0
202 -0.7369466666663252 0.8812733333335288 0
203 -0.543329166666509 0.9920608333334235 0
204 -0.6724074999994393 0.9182025000003209 0
205 -0.8014858333331589 0.8443441666667665 0
206 -0.866025 0.7786115 0
207 -0.4550605000001925 1.5 0
208 -0.3796363333333347 1.34294000000052 0
209 -0.3792126666666676 1.185880000000347 0
210 -0.379848166666667 1.421470000000136 0
211 -0.3794245000000006 1.264410000000203 0
212 -0.3790008333333335 1.107350000000072 0
213 0.5748716666663423 0.6413753333331478 0
214 0.7204483333328495 0.7246666666663899 0
215 0.5020833333330816 0.5997296666665227 0
216 0.647659999999403 0.6830209999996584 0
217 0.7932366666663943 0.7663123333331774 0
218 0.866025 0.7791555 0
219 -0.40506 1.5 0
220 -0.5972789999996649 -0.9401846666668596 0
221 -0.6686283333330215 -0.8991023333335129 0
222 -0.4622671666666665 -1.422003333333427 0
223 -0.5342553333331117 -0.9764726666667942 0
224 -0.4626519999999997 -1.178370000000217 0
225 -0.4627751666666663 -1.100373333333565 0
226 -0.4623979999999994 -1.33918500000039 0
227 -0.4625211666666662 -1.261188333333615 0
228 -0.7316519999996892 -0.8628143333335123 0
229 -0.7946756666664683 -0.8265263333334476 0
230 -0.462906 -1.017555 0
231 0.7934839999997767 -0.738626833333204 0
232 0.7209419999996076 -0.6966016666664393 0
233 0.2765179666662714 -0.6179072333335625 0
234 0.2041261333327608 -0.6598640666669986 0
235 0.1222599333325395 -0.7073124666671268 0
236 0.648400999999629 -0.654576999999785 0
237 0.5758589999995982 -0.6125518333331006 0
238 -0.4126519999999996 -1.178323333333615 0
239 -0.4125211666666661 -1.261141666667014 0
240 -0.412906 -1.017485 0
241 -0.3405141666668086 -0.9755281666667488 0
242 0.3583841666664744 -0.5704588333334448 0
243 -0.4122671666666665 -1.42198000000008 0
244 -0.4127751666666663 -1.100303333333565 0
245 -0.4123979999999994 -1.339161666667043 0
246 0.04986809999903422 -0.7492693000005597 0
247 -0.1043899333340911 -0.8386745333337725 0
248 -0.0319981000009468 -0.7967177000005488 0
249 0.5033179999998001 -0.5705271666665509 0
250 0.430776 -0.528502 0
251 -0.2586479666669599 -0.9280797666668366 0
252 -0.1862561333338371 -0.8861229333336254 0
253 -0.7931768333331851 0.7626885000000848 0
254 0.0972178333324919 -0.6640345666671543 0
255 0.0248259999989866 -0.7059914000005874 0
256 -0.05704750000098782 -0.7534436000005725 0
257 0.4049166000000018 0.003252499998955771 0
258 0.4050869000000017 -0.09674330000102127 0
259 0.2375108000003754 0.5830076999997813 0
260 0.1517326000005893 0.6329766999996567 0
261 -0.2622402999996053 0.87413129999977 0
262 -0.3430457999998122 0.9212034999998906 0
263 -0.6474431666663104 0.8460778333335373 0
264 -0.720291333332988 0.804393833333531 0
265 0.07092710000082525 0.6800488999995192 0
266 -0.3655781666668085 -0.9322616666667489 0
267 -0.43797 -0.9742185000000001 0
268 -0.00987839999916218 0.7271210999995119 0
269 -0.5806549999999647 -0.892061666666687 0
270 -0.5093193333331116 -0.9331361666667943 0
271 0.4044253000000008 0.291729899999525 0
272 0.4042648000000005 0.3859706999997241 0
273 0.3183163000002023 0.5359354999998822 0
274 -0.7233400000000152 -0.8099048333333245 0
275 -0.794689333333547 -0.768822499999877 0
276 0.4040945 0.4859665 0
277 0.4052474000000013 -0.1909841000007786 0
278 0.4054177000000008 -0.2909799000004619 0
279 -0.09565659999910847 0.7770900999994805 0
280 -0.1764620999993232 0.8241622999996057 0
281 0.4047561000000018 0.09749329999895467 0
282 0.1790913333327282 -0.6165823666670174 0
283 0.3333566666664745 -0.5271733333334447 0
284 0.2514831666662389 -0.5746255333335812 0
285 -0.501709499999822 0.9294671666667687 0
286 -0.5745576666663295 0.8877831666668596 0
287 -0.1294393333341321 -0.7954004333337963 0
288 -0.2837046666670067 -0.8848094666668638 0
289 -0.2113128333338839 -0.8428526333336525 0
290 0.4055782000000004 -0.3852207000002137 0
291 0.4057485 -0.4852165 0
292 0.4045956000000013 0.1917340999992475 0
293 -0.6520043333333213 -0.8509793333333403 0
294 -0.428824 0.9711725 0
295 0.4544253000000009 0.2916550999994849 0
296 0.4542648000000005 0.3858691999997241 0
297 0.6567241666666419 -0.601614333333319 0
298 0.7292661666666728 -0.6436395000000035 0
299 0.4549264000000017 -0.002550600001009568 0
300 0.4550869000000017 -0.09676470000101281 0
301 0.4547561000000018 0.09744519999896747 0
302 0.6642304999996802 0.6060939999998169 0
303 0.7287148333329843 0.642988666666467 0
304 0.4555782000000004 -0.3851887000002137 0
305 0.4554177000000008 -0.2909746000004316 0
306 0.793482999999831 -0.6808418333332353 0
307 0.4540945 0.485865 0
308 0.5269203333331873 0.5275321666665831 0
309 0.5914046666663837 0.5644268333331715 0
310 0.4557485 -0.4851845 0
311 0.5282904999998002 -0.5272096666665509 0
312 0.592507333333264 -0.5644119999999599 0
313 0.7931991666664837 0.6798833333332287 0
314 0.4545956000000013 0.1916592999992074 0
315 0.4552474000000013 -0.1909788000007483 0
316 -0.453751 1.014515 0
317 -0.4539756666666673 1.09784166666692 0
318 -0.4546240000000014 1.338171666667173 0
319 -0.4548486666666672 1.421498333333536 0
320 -0.5911756666663439 0.9358805000001847 0
321 -0.5266364999998219 0.9728096666667687 0
322 -0.4544121666666682 1.259670000000549 0
323 -0.4541875000000013 1.176343333333832 0
324 -0.7931394999998029 0.8203168333334461 0
325 -0.7286003333329656 0.8572460000002105 0
326 -0.664061166666325 0.8941751666668623 0
327 0.2625958999999864 0.6262596000000079 0
328 0.1768177000002003 0.6762285999998834 0
329 0.6476224999996549 0.6541969999998025 0
330 0.7204108333329085 0.6958426666664237 0
331 -0.4046235000000015 1.338143333333897 0
332 -0.4044116666666679 1.25961333333381 0
333 -0.4041870000000011 1.176286666667093 0
334 -0.4039751666666673 1.09775666666692 0
335 0.4291825 0.529217 0
336 0.3434043000002023 0.5791859999998822 0
337 0.09600929999997934 0.723302200000012 0
338 0.01023110000003305 0.7732711999999807 0
339 0.5020083333331873 0.5708841666665831 0
340 0.5747966666663584 0.612529833333157 0
341 -0.07057729999995457 0.8203447999999736 0
342 -0.1513856999996977 0.867418399999824 0
343 0.7932366666664248 0.737509833333195 0
344 -0.2371638999999798 0.9173873999999882 0
345 -0.3179722999998122 0.9644609999998907 0
346 -0.4048481666666673 1.42147000000026 0
347 -0.4037505 1.01443 0
$EndNodes
$Elements
150
1 15 2 2 342629 18
2 15 2 1 343633 19
3 15 2 3 346644 21
4 15 2 4 359693 31
5 8 2 4 9192 18 20 138
6 8 2 1 9193 19 17 139
7 8 2 2 9197 21 23 155
8 8 2 1 9198 22 17 156
9 8 2 4 9202 24 26 172
10 8 2 4 9203 25 18 173
11 8 2 2 9207 27 29 189
12 8 2 2 9208 28 21 190
13 8 2 4 9212 24 32 206
14 8 2 3 9213 31 30 207
15 8 2 2 9216 27 34 218
16 8 2 3 9217 33 30 219
17 9 2 11 1035 133 123 124 220 126 221
18 9 2 11 1035 19 17 128 139 222 130
19 9 2 11 1035 5 123 133 223 220 135
20 9 2 11 1035 129 119 5 224 225 132
21 9 2 11 1035 128 118 129 226 227 131
22 9 2 11 1035 133 124 134 221 228 136
23 9 2 11 1035 134 124 20 228 229 137
24 9 2 11 1035 5 4 123 230 125 223
25 9 2 11 1035 17 118 128 120 226 222
26 9 2 11 1035 124 18 20 127 138 229
27 9 2 11 1035 118 119 129 121 224 227
28 9 2 11 1035 119 4 5 122 230 225
29 9 2 11 1036 21 151 141 231 232 144
30 9 2 11 1036 38 39 49 44 233 234
31 9 2 11 1036 48 38 49 235 234 53
32 9 2 11 1036 23 151 21 154 231 155
33 9 2 11 1036 141 150 140 236 237 143
34 9 2 11 1036 118 119 146 121 238 239
35 9 2 11 1036 6 4 35 240 40 241
36 9 2 11 1036 49 39 7 233 242 54
37 9 2 11 1036 22 17 145 156 243 147
38 9 2 11 1036 146 119 6 238 244 149
39 9 2 11 1036 145 118 146 245 239 148
40 9 2 11 1036 37 38 48 43 235 246
41 9 2 11 1036 119 4 6 122 240 244
42 9 2 11 1036 47 36 37 247 42 248
43 9 2 11 1036 140 7 3 249 250 142
44 9 2 11 1036 17 118 145 120 245 243
45 9 2 11 1036 46 35 36 251 41 252
46 9 2 11 1036 6 35 46 241 251 50
47 9 2 11 1036 46 36 47 252 247 51
48 9 2 11 1036 39 3 7 45 250 242
49 9 2 11 1036 47 37 48 248 246 52
50 9 2 11 1036 151 150 141 153 236 232
51 9 2 11 1036 150 7 140 152 249 237
52 9 2 11 1037 26 168 24 171 253 172
53 9 2 11 1037 37 38 75 43 254 255
54 9 2 11 1037 74 37 75 256 255 79
55 9 2 11 1037 56 57 83 61 257 258
56 9 2 11 1037 91 64 65 259 69 260
57 9 2 11 1037 94 67 11 261 262 99
58 9 2 11 1037 168 167 158 170 263 264
59 9 2 11 1037 91 65 92 260 265 96
60 9 2 11 1037 4 35 8 40 266 267
61 9 2 11 1037 24 168 158 253 264 161
62 9 2 11 1037 92 65 93 265 268 97
63 9 2 11 1037 8 163 123 166 269 270
64 9 2 11 1037 85 58 10 271 272 90
65 9 2 11 1037 10 64 91 273 259 95
66 9 2 11 1037 124 162 18 274 275 127
67 9 2 11 1037 10 2 64 276 68 273
68 9 2 11 1037 55 56 82 60 277 278
69 9 2 11 1037 93 66 94 279 280 98
70 9 2 11 1037 83 57 84 257 281 88
71 9 2 11 1037 38 76 75 282 80 254
72 9 2 11 1037 39 9 76 283 81 284
73 9 2 11 1037 167 11 157 169 285 286
74 9 2 11 1037 36 37 74 42 256 287
75 9 2 11 1037 82 56 83 277 258 87
76 9 2 11 1037 4 8 123 267 270 125
77 9 2 11 1037 162 25 18 164 173 275
78 9 2 11 1037 8 35 73 266 288 77
79 9 2 11 1037 35 36 73 41 289 288
80 9 2 11 1037 9 55 82 290 278 86
81 9 2 11 1037 3 55 9 59 290 291
82 9 2 11 1037 84 57 85 281 292 89
83 9 2 11 1037 163 162 124 165 274 293
84 9 2 11 1037 66 67 94 71 261 280
85 9 2 11 1037 157 11 1 285 294 159
86 9 2 11 1037 158 167 157 263 286 160
87 9 2 11 1037 67 1 11 72 294 262
88 9 2 11 1037 38 39 76 44 284 282
89 9 2 11 1037 39 3 9 45 291 283
90 9 2 11 1037 58 2 10 63 276 272
91 9 2 11 1037 65 66 93 70 279 268
92 9 2 11 1037 123 163 124 269 293 126
93 9 2 11 1037 57 58 85 62 271 292
94 9 2 11 1037 73 36 74 289 287 78
95 9 2 11 1038 103 58 13 295 296 108
96 9 2 11 1038 141 140 179 143 297 298
97 9 2 11 1038 56 102 101 299 106 300
98 9 2 11 1038 56 57 102 61 301 299
99 9 2 11 1038 184 175 185 302 303 187
100 9 2 11 1038 12 55 100 304 305 104
101 9 2 11 1038 28 141 179 306 298 181
102 9 2 11 1038 13 2 174 307 176 308
103 9 2 11 1038 13 174 184 308 309 186
104 9 2 11 1038 3 55 12 59 304 310
105 9 2 11 1038 140 12 180 311 183 312
106 9 2 11 1038 179 140 180 297 312 182
107 9 2 11 1038 140 3 12 142 310 311
108 9 2 11 1038 185 175 29 303 313 188
109 9 2 11 1038 102 57 103 301 314 107
110 9 2 11 1038 184 174 175 309 177 302
111 9 2 11 1038 175 27 29 178 189 313
112 9 2 11 1038 58 2 13 63 307 296
113 9 2 11 1038 100 56 101 315 300 105
114 9 2 11 1038 21 141 28 144 306 190
115 9 2 11 1038 57 58 103 62 295 314
116 9 2 11 1038 55 56 100 60 315 305
117 9 2 11 1039 1 14 192 316 317 195
118 9 2 11 1039 191 196 30 318 319 193
119 9 2 11 1039 157 201 14 320 203 321
120 9 2 11 1039 197 196 191 199 318 322
121 9 2 11 1039 196 31 30 198 207 319
122 9 2 11 1039 192 197 191 323 322 194
123 9 2 11 1039 24 32 158 206 324 161
124 9 2 11 1039 32 202 158 205 325 324
125 9 2 11 1039 14 197 192 200 323 317
126 9 2 11 1039 157 14 1 321 316 159
127 9 2 11 1039 158 202 201 325 204 326
128 9 2 11 1039 158 201 157 326 320 160
129 9 2 11 1040 64 112 65 327 328 69
130 9 2 11 1040 213 175 214 329 330 216
131 9 2 11 1040 209 208 191 211 331 332
132 9 2 11 1040 15 209 192 212 333 334
133 9 2 11 1040 2 16 64 335 336 68
134 9 2 11 1040 16 112 64 117 327 336
135 9 2 11 1040 65 111 66 337 338 70
136 9 2 11 1040 16 174 213 339 340 215
137 9 2 11 1040 66 110 109 341 114 342
138 9 2 11 1040 175 27 214 178 343 330
139 9 2 11 1040 214 27 34 343 218 217
140 9 2 11 1040 67 109 15 344 113 345
141 9 2 11 1040 111 110 66 115 341 338
142 9 2 11 1040 2 174 16 176 339 335
143 9 2 11 1040 112 111 65 116 337 328
144 9 2 11 1040 208 33 30 210 219 346
145 9 2 11 1040 174 175 213 177 329 340
146 9 2 11 1040 192 209 191 333 332 194
147 9 2 11 1040 191 208 30 331 346 193
148 9 2 11 1040 66 109 67 342 344 71
149 9 2 11 1040 67 15 1 345 347 72
150 9 2 11 1040 1 15 192 347 334 195
$EndElements
