$MeshFormat
2.2 0 8
$EndMeshFormat
$Nodes
343
1 -0.429224 -1.00152 0
2 0.428527 -0.499204 0
3 0.426563 0.4945 0
4 -0.434103 0.995856 0
5 -0.479255 -1.03056 0
6 -0.379254 -1.0302 0
7 0.428843 -0.556962 0
8 0.37847 -0.470575 0
9 -0.42957 -0.94378 0
10 -0.434396 0.9381620000000001 0
11 0.37662 0.465728 0
12 0.47847 -0.470145 0
13 0.47662 0.465797 0
14 -0.484047 1.02496 0
15 0.42656 0.552366 0
16 -0.384047 1.02456 0
17 -0.42975 -1.5 0
18 -0.866025 -0.752703 0
19 -0.47975 -1.5 0
20 -0.866025 -0.810246 0
21 0.866025 -0.749019 0
22 -0.37975 -1.5 0
23 0.866025 -0.806596 0
24 -0.866025 0.750085 0
25 -0.866025 -0.695159 0
26 -0.866025 0.692558 0
27 0.866025 0.750549 0
28 0.866025 -0.691442 0
29 0.866025 0.692681 0
30 -0.433129 1.5 0
31 -0.48313 1.5 0
32 -0.866025 0.807613 0
33 0.866025 0.8084170000000001 0
34 -0.383129 1.5 0
35 -0.2576738000004078 -0.9010568000002388 0
36 -0.0861236000008857 -0.8005936000005186 0
37 0.08542659999905561 -0.700130400000553 0
38 0.2569767999995122 -0.5996672000002856 0
39 -0.3434489000001986 -0.9512884000001163 0
40 -0.1718987000006423 -0.8508252000003761 0
41 -0.0003485000010892136 -0.7503620000006378 0
42 0.171201699999277 -0.6498988000004233 0
43 0.3427518999997447 -0.5494356000001495 0
44 -0.2176346000003544 -0.9355524000002076 0
45 -0.05601520000089893 -0.8409048000005264 0
46 0.1056041999991115 -0.7462572000005203 0
47 0.2672235999995535 -0.6516096000002614 0
48 -0.2984443000001364 -0.9828762000000799 0
49 -0.1368249000005279 -0.8882286000003092 0
50 0.02479449999893901 -0.7935810000006214 0
51 0.1864138999992543 -0.6989334000004366 0
52 0.3480332999998305 -0.6042858000000992 0
53 -0.2619698000003715 0.8955848000002163 0
54 -0.08983660000085697 0.7953136000004992 0
55 0.08229659999907368 0.6950424000005396 0
56 0.2544297999995286 0.5947712000002746 0
57 -0.3480364000001405 0.9457204000000818 0
58 -0.1759032000006125 0.8454492000003568 0
59 -0.003770000001224794 0.7451780000007135 0
60 0.1683631999992606 0.6449068000004308 0
61 0.3404963999997316 0.5446356000001564 0
62 0.4269557999999992 0.2957592000004163 0
63 0.4273485999999981 0.09701840000097578 0
64 0.4277413999999979 -0.1017223999989679 0
65 0.428134199999999 -0.3004631999994838 0
66 0.4267593999999997 0.395129600000178 0
67 0.4271521999999986 0.1963888000007109 0
68 0.4275449999999975 -0.00235199999874891 0
69 0.4279377999999985 -0.2010927999992481 0
70 0.4283305999999994 -0.3998335999996872 0
71 0.2168620000004283 -0.5652159999997491 0
72 0.05525400000089264 -0.6598569999994772 0
73 -0.1063539999990892 -0.7544979999994665 0
74 -0.2679619999995493 -0.849138999999736 0
75 0.2976660000002055 -0.5178954999998796 0
76 0.1360580000006659 -0.61253649999961 0
77 -0.02554999999882468 -0.7071774999993117 0
78 -0.1871579999993284 -0.8018184999996066 0
79 -0.3487659999997637 -0.8964594999998615 0
80 -0.2721928000003688 0.8436752000002149 0
81 -0.1099896000008254 0.7491884000004808 0
82 0.05221359999913522 0.6547016000005037 0
83 0.2144167999995668 0.5602148000002524 0
84 -0.3532944000001118 0.8909186000000652 0
85 -0.1910912000005862 0.7964318000003414 0
86 -0.0288880000010634 0.7019450000006194 0
87 0.1333151999993392 0.607458200000385 0
88 0.2955183999997859 0.5129714000001246 0
89 0.3769899999999992 0.2784674000004317 0
90 0.377359999999998 0.09120680000101494 0
91 0.3777299999999979 -0.09605379999893709 0
92 0.3780999999999988 -0.283314399999379 0
93 0.3768049999999995 0.3720977000002571 0
94 0.3771749999999986 0.1848371000007035 0
95 0.3775449999999973 -0.002423499998643663 0
96 0.3779149999999982 -0.1896840999990796 0
97 0.3782849999999994 -0.3769446999996894 0
98 0.4781000000000008 -0.2829566000003971 0
99 0.4777300000000019 -0.09576820000094804 0
100 0.4773600000000018 0.09142019999906253 0
101 0.476990000000001 0.2786085999994771 0
102 0.4782850000000005 -0.3765508000002182 0
103 0.4779150000000013 -0.1893624000006693 0
104 0.4775450000000025 -0.002174000001251564 0
105 0.4771750000000013 0.1850143999993319 0
106 0.4768050000000005 0.3722027999997293 0
107 0.2644386000003612 0.6468047999997896 0
108 0.1023172000008281 0.7412435999995176 0
109 -0.05980419999914699 0.835682399999503 0
110 -0.2219255999996211 0.9301211999997792 0
111 0.3454993000001454 0.5995853999999153 0
112 0.1833779000005947 0.6940241999996536 0
113 0.0212565000010676 0.7884629999993781 0
114 -0.1408648999993631 0.8829017999996289 0
115 -0.302986299999813 0.977340599999891 0
116 -0.429574666666667 -1.333840000000376 0
117 -0.4293993333333337 -1.167680000000404 0
118 -0.4296623333333335 -1.416920000000188 0
119 -0.4294870000000006 -1.250760000000584 0
120 -0.429311666666667 -1.084600000000354 0
121 -0.574824333332963 -0.9185810000002109 0
122 -0.7204246666663057 -0.8356420000002056 0
123 -0.5020241666665018 -0.9600505000000938 0
124 -0.6476244999993781 -0.8771115000003542 0
125 -0.7932248333331595 -0.7941725000000991 0
126 -0.4795850000000005 -1.343520000000535 0
127 -0.4794200000000005 -1.187040000000419 0
128 -0.4796675000000005 -1.421760000000442 0
129 -0.4795025000000006 -1.265280000000597 0
130 -0.4793374999999999 -1.108799999999878 0
131 -0.6081783333329944 -0.957122000000193 0
132 -0.737101666666295 -0.8836840000002117 0
133 -0.5437166666666615 -0.9938410000000029 0
134 -0.6726399999993933 -0.9204030000003456 0
135 -0.801563333333122 -0.8469650000001204 0
136 -0.866025 -0.7814744999998963 0
137 -0.45475 -1.5 0
138 0.5743596666662997 -0.5824756666664571 0
139 0.7201923333329836 -0.6657473333331336 0
140 0.5014433333331625 -0.5408398333332357 0
141 0.6472759999993022 -0.6241114999996015 0
142 0.7931086666664782 -0.707383166666559 0
143 -0.3795846666666668 -1.34340000000013 0
144 -0.3794193333333334 -1.18680000000013 0
145 -0.3796673333333331 -1.421699999999808 0
146 -0.3795020000000003 -1.265100000000324 0
147 -0.3793366666666669 -1.108500000000233 0
148 0.5745703333328646 -0.6401733333330656 0
149 0.720297666666228 -0.7233846666664161 0
150 0.501706666666576 -0.5985676666666149 0
151 0.6474339999993448 -0.6817789999996259 0
152 0.79316133333326 -0.7649903333332915 0
153 0.866025 -0.7778074999997949 0
154 -0.40475 -1.5 0
155 -0.7220510000002175 0.8320086666665429 0
156 -0.5780770000004103 0.9139323333330999 0
157 -0.7940380000000776 0.7910468333332892 0
158 -0.6500640000003693 0.8729704999997898 0
159 -0.5060900000001052 0.9548941666666068 0
160 -0.5750549999997545 -0.8609063333334731 0
161 -0.7205399999996949 -0.7780326666668405 0
162 -0.5023125000000062 -0.9023431666666631 0
163 -0.6477974999995403 -0.8194695000002619 0
164 -0.7932824999999442 -0.7365958333333651 0
165 -0.7221486666671355 0.7744259999997333 0
166 -0.5782723333337123 0.8562939999997844 0
167 -0.7940868333334676 0.7334919999999236 0
168 -0.6502105000006205 0.8153599999996469 0
169 -0.5063341666668986 0.8972279999998681 0
170 -0.866025 -0.723931 0
171 -0.866025 0.7213214999999999 0
172 0.5730503333329912 0.5798496666664673 0
173 0.7195376666662547 0.6651993333330933 0
174 0.4998066666665363 0.5371748333332573 0
175 0.6462939999993631 0.6225244999996289 0
176 0.7927813333330851 0.707874166666522 0
177 0.7368400000003278 -0.6176763333335205 0
178 0.6076550000003247 -0.5439106666668521 0
179 0.801432499999908 -0.6545591666666141 0
180 0.6722475000004733 -0.5807935000002702 0
181 0.54306250000006 -0.5070278333333675 0
182 0.6064216666663536 0.5414249999998175 0
183 0.7362233333329407 0.6170529999997711 0
184 0.5415208333332547 0.5036109999999542 0
185 0.6713224999995308 0.5792389999997266 0
186 0.8011241666665592 0.6548669999999374 0
187 0.866025 0.7216150000003737 0
188 0.866025 -0.7202304999997949 0
189 -0.4334536666666661 1.331952000000289 0
190 -0.4337783333333324 1.163904000000506 0
191 -0.4332913333333328 1.415976000000269 0
192 -0.433615999999999 1.24792800000053 0
193 -0.4339406666666664 1.079880000000168 0
194 -0.4834356666666658 1.341653333333782 0
195 -0.4837413333333324 1.183306666667173 0
196 -0.4832828333333324 1.420826666667173 0
197 -0.4835884999999988 1.262480000000645 0
198 -0.483894166666666 1.104133333333711 0
199 -0.6113729999997202 0.9525110000001593 0
200 -0.7386989999996687 0.8800620000001885 0
201 -0.5477099999997885 0.9887355000001204 0
202 -0.6750359999996478 0.9162865000002005 0
203 -0.8023619999996623 0.8438375000001922 0
204 -0.866025 0.778849 0
205 -0.4581295000001925 1.5 0
206 0.7195366666670524 0.7230666666668915 0
207 0.5730483333337428 0.6377163333335719 0
208 0.7927808333336263 0.765741833333504 0
209 0.646292500000677 0.6803915000003945 0
210 0.4998041666668983 0.5950411666668016 0
211 -0.3837410000000007 1.183039999999639 0
212 -0.383435000000001 1.341519999999508 0
213 -0.3838940000000005 1.103799999999739 0
214 -0.3835880000000011 1.262279999999449 0
215 -0.3832820000000006 1.420759999999716 0
216 -0.408129 1.5 0
217 0.866025 0.7794830000003737 0
218 -0.4545798333333338 -1.338680000000455 0
219 -0.4546675000000003 -1.421760000000267 0
220 -0.4542395 -1.01604 0
221 -0.5270396666664815 -0.9745705000001055 0
222 -0.66430149999965 -0.8963820000001993 0
223 -0.7287631666663004 -0.8596630000002087 0
224 -0.4544096666666671 -1.177360000000412 0
225 -0.4543271666666668 -1.099120000000202 0
226 -0.4544973333333338 -1.260440000000397 0
227 -0.7932248333331529 -0.8229440000001028 0
228 -0.5915013333329787 -0.9378515000002019 0
229 0.793161333333114 -0.7362018333332081 0
230 -0.07106940000089232 -0.8207492000005225 0
231 0.009740299999112911 -0.7734254000005194 0
232 0.7202449999996058 -0.6945659999997749 0
233 0.09551539999908357 -0.7231938000005367 0
234 0.2621001999995328 -0.6256384000002735 0
235 0.3429098999997561 -0.5783146000001428 0
236 0.1763250999993045 -0.6758700000004072 0
237 -0.15187910000062 -0.8680730000003631 0
238 -0.4046673333333334 -1.421700000000065 0
239 -0.4044093333333336 -1.177240000000267 0
240 -0.4044970000000002 -1.260320000000253 0
241 -0.4045796666666669 -1.338620000000253 0
242 -0.3184639000002039 -0.9656284000001194 0
243 -0.2376542000003811 -0.9183046000002232 0
244 -0.404239 -1.01586 0
245 -0.4043266666666668 -1.098940000000202 0
246 0.6473813333329241 -0.6529603333330996 0
247 0.5744649999995821 -0.6113244999997614 0
248 0.428685 -0.528083 0
249 0.5016013333331498 -0.5697188333332286 0
250 0.4031170999999989 -0.2918887999994314 0
251 0.4029206999999984 -0.1925183999991734 0
252 0.4017878999999996 0.3807436000002081 0
253 0.4019728999999992 0.287113300000424 0
254 -0.5021971666664815 -0.9311805000001054 0
255 -0.5749396666663588 -0.889743666666842 0
256 -0.7220998333336766 0.8032173333331381 0
257 -0.650161666666965 0.8441513333331636 0
258 0.4027356999999979 -0.09888809999895248 0
259 0.402539299999998 0.0004823000010193423 0
260 -0.1810147000006129 0.819494400000357 0
261 -0.2670813000003702 0.8696300000002156 0
262 -0.7932824999998475 -0.7653678333334202 0
263 -0.7204823333330003 -0.806837333333523 0
264 -0.01384650000087584 0.7221154000005102 0
265 -0.09991310000084117 0.7722510000004901 0
266 -0.7940868333335678 0.7622554999998666 0
267 0.2344232999995477 0.5774930000002635 0
268 0.3155248999997643 0.5302496000001373 0
269 -0.09623879999998747 -0.7775457999999926 0
270 -0.1770428000002175 -0.8248663000001273 0
271 0.4015915 0.480114 0
272 0.4033020999999994 -0.3855190999997419 0
273 0.06725509999910445 0.6748720000005217 0
274 0.1483566999993202 0.627628600000396 0
275 0.4023542999999981 0.09411260000099536 0
276 0.4021692999999986 0.1877429000007037 0
277 -0.2628178999999785 -0.8750978999999874 0
278 -0.01046370000001681 -0.7273142000000098 0
279 -0.4342495 0.967009 0
280 -0.5062365000002051 0.92604716666655 0
281 0.3177233999997561 -0.5351211000001428 0
282 0.4034985 -0.4848895 0
283 -0.3481829000001858 0.9168734000001082 0
284 -0.5781746666670613 0.8851131666664421 0
285 -0.6477398333330301 -0.8482741666668394 0
286 -0.429397 -0.97265 0
287 -0.3436219000002039 -0.9224184000001194 0
288 0.07034029999997413 -0.6799937000000151 0
289 0.1511442999997419 -0.6326732000001511 0
290 0.2369193999999702 -0.5824416000000174 0
291 0.7927813333331274 0.6789401666665467 0
292 0.4515915 0.4801485 0
293 0.4517878999999996 0.3807781000002082 0
294 0.4529206999999994 -0.1923394999996825 0
295 0.4531170999999999 -0.2917098999999405 0
296 0.4533020999999995 -0.3853040999997419 0
297 0.4534985 -0.4846745 0
298 0.4527356999999999 -0.09874529999995796 0
299 0.7931086666664918 -0.6785946666665668 0
300 0.7285161666666558 -0.641711833333327 0
301 0.7278804999995977 0.6411261666664323 0
302 0.654636833332966 0.5984513333331192 0
303 0.4519729000000001 0.2871838999999467 0
304 0.4521692999999996 0.1878135000002265 0
305 0.6639236666666541 -0.6048289999999928 0
306 0.5248351666664955 0.5228233333332337 0
307 0.5264148333331499 -0.5263103333332285 0
308 0.5910073333333121 -0.5631931666666545 0
309 0.5897359999996723 0.5606373333331425 0
310 0.4525393 0.0006251000000138673 0
311 0.4523543 0.09421930000001916 0
312 -0.7940380000001088 0.8198108333332714 0
313 -0.7303749999999432 0.8560353333333657 0
314 -0.4582823333333329 1.420826666666891 0
315 -0.6667119999999689 0.8922598333333511 0
316 -0.5947250000000652 0.9332216666666295 0
317 -0.5310620000002051 0.9694461666665499 0
318 -0.4587598333333324 1.173605333333839 0
319 -0.4585974999999992 1.257629333333731 0
320 -0.459075 1.010408 0
321 -0.4589126666666662 1.094432000000253 0
322 -0.4584446666666659 1.336802666667035 0
323 -0.4089126666666662 1.094232000000253 0
324 -0.4087596666666665 1.173472000000072 0
325 -0.4085973333333334 1.257495999999964 0
326 0.1733675999997175 0.6709236000001646 0
327 0.09230689999995087 0.7181430000000286 0
328 0.7195371666666536 0.6941329999999923 0
329 0.7927808333335262 0.7368078333334458 0
330 0.3404948999997643 0.5735686000001373 0
331 0.4265615 0.523433 0
332 0.4998051666664955 0.5661078333332337 0
333 0.006240299999985544 0.7682786000000084 0
334 0.5730493333333671 0.6087830000000196 0
335 -0.2419476999999963 0.9128529999999977 0
336 -0.155881100000239 0.8627174000001392 0
337 -0.3230084000001858 0.9600724000001082 0
338 0.2594341999999449 0.6207880000000321 0
339 -0.07482040000000198 0.8154980000000012 0
340 -0.4084443333333335 1.336735999999899 0
341 -0.409075 1.010208 0
342 -0.4082820000000005 1.420759999999754 0
343 0.6462929999999988 0.6514578333333326 0
$EndNodes
$Elements
148
1 15 2 2 464189 18
2 15 2 1 465193 19
3 15 2 3 468204 21
4 15 2 4 481253 31
5 8 2 4 12265 18 20 136
6 8 2 1 12266 19 17 137
7 8 2 2 12270 21 23 153
8 8 2 1 12271 22 17 154
9 8 2 4 12275 18 25 170
10 8 2 4 12276 26 24 171
11 8 2 2 12280 27 29 187
12 8 2 2 12281 28 21 188
13 8 2 4 12285 24 32 204
14 8 2 3 12286 31 30 205
15 8 2 3 12289 30 34 216
16 8 2 2 12290 33 27 217
17 9 2 11 1372 17 116 126 118 218 219
18 9 2 11 1372 5 1 121 220 123 221
19 9 2 11 1372 19 17 126 137 219 128
20 9 2 11 1372 131 122 132 222 223 134
21 9 2 11 1372 127 117 5 224 225 130
22 9 2 11 1372 126 116 127 218 226 129
23 9 2 11 1372 132 122 20 223 227 135
24 9 2 11 1372 131 121 122 228 124 222
25 9 2 11 1372 116 117 127 119 224 226
26 9 2 11 1372 117 1 5 120 220 225
27 9 2 11 1372 5 121 131 221 228 133
28 9 2 11 1372 122 18 20 125 136 227
29 9 2 11 1373 23 149 21 152 229 153
30 9 2 11 1373 45 36 46 230 231 50
31 9 2 11 1373 21 149 139 229 232 142
32 9 2 11 1373 36 37 46 41 233 231
33 9 2 11 1373 47 38 7 234 235 52
34 9 2 11 1373 46 37 47 233 236 51
35 9 2 11 1373 44 36 45 237 230 49
36 9 2 11 1373 37 38 47 42 234 236
37 9 2 11 1373 22 17 143 154 238 145
38 9 2 11 1373 116 117 144 119 239 240
39 9 2 11 1373 143 116 144 241 240 146
40 9 2 11 1373 6 35 44 242 243 48
41 9 2 11 1373 6 1 35 244 39 242
42 9 2 11 1373 117 1 6 120 244 245
43 9 2 11 1373 139 148 138 246 247 141
44 9 2 11 1373 17 116 143 118 241 238
45 9 2 11 1373 144 117 6 239 245 147
46 9 2 11 1373 38 2 7 43 248 235
47 9 2 11 1373 44 35 36 243 40 237
48 9 2 11 1373 138 7 2 249 248 140
49 9 2 11 1373 149 148 139 151 246 232
50 9 2 11 1373 148 7 138 150 249 247
51 9 2 11 1374 65 92 64 250 251 69
52 9 2 11 1374 89 11 62 93 252 253
53 9 2 11 1374 9 121 160 254 255 162
54 9 2 11 1374 165 155 166 256 257 168
55 9 2 11 1374 64 91 63 258 259 68
56 9 2 11 1374 54 80 53 260 261 58
57 9 2 11 1374 122 18 161 125 262 263
58 9 2 11 1374 55 81 54 264 265 59
59 9 2 11 1374 26 24 165 171 266 167
60 9 2 11 1374 11 83 56 88 267 268
61 9 2 11 1374 74 73 36 78 269 270
62 9 2 11 1374 62 11 3 252 271 66
63 9 2 11 1374 24 155 165 157 256 266
64 9 2 11 1374 8 92 65 97 250 272
65 9 2 11 1374 83 82 55 87 273 274
66 9 2 11 1374 91 90 63 95 275 259
67 9 2 11 1374 81 80 54 85 260 265
68 9 2 11 1374 11 56 3 268 61 271
69 9 2 11 1374 161 18 25 262 170 164
70 9 2 11 1374 90 89 63 94 276 275
71 9 2 11 1374 35 74 36 277 270 40
72 9 2 11 1374 36 73 37 269 278 41
73 9 2 11 1374 156 4 10 159 279 280
74 9 2 11 1374 38 8 2 281 282 43
75 9 2 11 1374 53 10 4 283 279 57
76 9 2 11 1374 155 156 166 158 284 257
77 9 2 11 1374 121 122 160 124 285 255
78 9 2 11 1374 1 9 35 286 287 39
79 9 2 11 1374 1 121 9 123 254 286
80 9 2 11 1374 92 91 64 96 258 251
81 9 2 11 1374 73 72 37 77 288 278
82 9 2 11 1374 9 74 35 79 277 287
83 9 2 11 1374 160 122 161 285 263 163
84 9 2 11 1374 2 8 65 282 272 70
85 9 2 11 1374 37 71 38 289 290 42
86 9 2 11 1374 166 156 10 284 280 169
87 9 2 11 1374 80 10 53 84 283 261
88 9 2 11 1374 37 72 71 288 76 289
89 9 2 11 1374 38 71 8 290 75 281
90 9 2 11 1374 82 81 55 86 264 273
91 9 2 11 1374 63 89 62 276 253 67
92 9 2 11 1374 83 55 56 274 60 267
93 9 2 11 1375 173 27 29 176 187 291
94 9 2 11 1375 62 3 13 66 292 293
95 9 2 11 1375 65 64 98 69 294 295
96 9 2 11 1375 2 65 12 70 296 297
97 9 2 11 1375 98 64 99 294 298 103
98 9 2 11 1375 28 139 177 299 300 179
99 9 2 11 1375 12 65 98 296 295 102
100 9 2 11 1375 172 173 183 175 301 302
101 9 2 11 1375 21 139 28 142 299 188
102 9 2 11 1375 63 62 101 67 303 304
103 9 2 11 1375 139 178 177 305 180 300
104 9 2 11 1375 13 3 172 292 174 306
105 9 2 11 1375 101 62 13 303 293 106
106 9 2 11 1375 138 2 12 140 297 307
107 9 2 11 1375 139 138 178 141 308 305
108 9 2 11 1375 138 12 178 307 181 308
109 9 2 11 1375 13 172 182 306 309 184
110 9 2 11 1375 182 172 183 309 302 185
111 9 2 11 1375 99 63 100 310 311 104
112 9 2 11 1375 100 63 101 311 304 105
113 9 2 11 1375 64 63 99 68 310 298
114 9 2 11 1375 183 173 29 301 291 186
115 9 2 11 1376 24 32 155 204 312 157
116 9 2 11 1376 32 200 155 203 313 312
117 9 2 11 1376 194 31 30 196 205 314
118 9 2 11 1376 155 199 156 315 316 158
119 9 2 11 1376 156 199 14 316 201 317
120 9 2 11 1376 190 195 189 318 319 192
121 9 2 11 1376 4 14 190 320 321 193
122 9 2 11 1376 195 194 189 197 322 319
123 9 2 11 1376 189 194 30 322 314 191
124 9 2 11 1376 14 195 190 198 318 321
125 9 2 11 1376 156 14 4 317 320 159
126 9 2 11 1376 155 200 199 313 202 315
127 9 2 11 1377 16 190 211 323 324 213
128 9 2 11 1377 190 189 211 192 325 324
129 9 2 11 1377 107 55 108 326 327 112
130 9 2 11 1377 173 206 27 328 329 176
131 9 2 11 1377 3 56 15 61 330 331
132 9 2 11 1377 3 15 172 331 332 174
133 9 2 11 1377 55 54 108 59 333 327
134 9 2 11 1377 15 207 172 210 334 332
135 9 2 11 1377 54 53 110 58 335 336
136 9 2 11 1377 53 16 110 337 115 335
137 9 2 11 1377 15 56 107 330 338 111
138 9 2 11 1377 108 54 109 333 339 113
139 9 2 11 1377 206 33 27 208 217 329
140 9 2 11 1377 211 189 212 325 340 214
141 9 2 11 1377 4 190 16 193 323 341
142 9 2 11 1377 53 4 16 57 341 337
143 9 2 11 1377 189 30 212 191 342 340
144 9 2 11 1377 56 55 107 60 326 338
145 9 2 11 1377 54 110 109 336 114 339
146 9 2 11 1377 212 30 34 342 216 215
147 9 2 11 1377 207 206 173 209 328 343
148 9 2 11 1377 172 207 173 334 343 175
$EndElements
