$MeshFormat
2.2 0 8
$EndMeshFormat
$Nodes
351
1 -0.429806 -1.0019 0
2 0.43228 -0.505479 0
3 0.433475 0.499758 0
4 -0.435703 0.999788 0
5 -0.47998 -1.03054 0
6 0.432322 -0.563152 0
7 -0.37998 -1.03091 0
8 -0.429662 -0.94412 0
9 0.382314 -0.476554 0
10 0.383441 0.470859 0
11 -0.435538 0.942009 0
12 0.483441 0.47082 0
13 0.482314 -0.476544 0
14 -0.485729 1.0285 0
15 -0.385729 1.02872 0
16 0.433474 0.557442 0
17 -0.432814 -1.5 0
18 -0.866025 -0.747812 0
19 -0.482815 -1.5 0
20 -0.866025 -0.8056759999999999 0
21 0.866025 -0.754396 0
22 0.866025 -0.812045 0
23 -0.382813 -1.5 0
24 -0.866025 0.748943 0
25 -0.866025 -0.689949 0
26 -0.866025 0.691068 0
27 0.866025 0.748614 0
28 0.866025 0.690929 0
29 0.866025 -0.696748 0
30 -0.436149 1.5 0
31 -0.486149 1.5 0
32 -0.866025 0.806818 0
33 -0.386149 1.5 0
34 0.866025 0.806298 0
35 0.2598628000004108 -0.6047631999997635 0
36 0.08744560000090179 -0.7040473999994807 0
37 -0.08497159999906878 -0.8033315999994637 0
38 -0.2573887999995459 -0.9026157999997385 0
39 0.3460714000001506 -0.5551210999999133 0
40 0.1736542000006456 -0.6544052999996283 0
41 0.001237000001126698 -0.7536894999993512 0
42 -0.1711801999993074 -0.8529736999996012 0
43 -0.3435973999997888 -0.9522578999998783 0
44 0.2698616000003953 -0.6567035999997723 0
45 0.1074012000008557 -0.7502551999995072 0
46 -0.05505919999917352 -0.843806799999524 0
47 -0.2175195999995732 -0.9373583999997542 0
48 0.3510918000001423 -0.609927799999918 0
49 0.188631400000603 -0.7034793999996527 0
50 0.02617100000107475 -0.7970309999993811 0
51 -0.1362893999993479 -0.8905825999996244 0
52 -0.2987497999998445 -0.9841341999999105 0
53 0.4324791666666663 -0.337939500000325 0
54 0.4326783333333323 -0.1704000000008308 0
55 0.4328774999999984 -0.002860500001322319 0
56 0.4330766666666656 0.1646789999991332 0
57 0.4332758333333328 0.3322184999995451 0
58 0.4323795833333332 -0.4217092500001546 0
59 0.4325787499999993 -0.2541697500005497 0
60 0.4327779166666654 -0.08663025000107649 0
61 0.432977083333332 0.08090924999888816 0
62 0.4331762499999992 0.2484487499993391 0
63 0.4333754166666663 0.4159882499997245 0
64 0.2886120000003874 0.5830963333331104 0
65 0.1437490000007113 0.6664346666662574 0
66 -0.001113999998884396 0.7497729999993581 0
67 -0.1459769999992616 0.8331113333329085 0
68 -0.2908399999996027 0.916449666666438 0
69 0.3610435000001648 0.5414271666665719 0
70 0.2161805000005148 0.6247654999997039 0
71 0.07131750000091225 0.7081038333328085 0
72 -0.07354549999908894 0.7914421666661424 0
73 -0.2184084999994383 0.8747804999996769 0
74 -0.3632714999997544 0.958118833333192 0
75 -0.2672668000003874 -0.850606800000223 0
76 -0.1048716000008229 -0.7570936000004738 0
77 0.05752359999915102 -0.6635804000004888 0
78 0.2199187999995671 -0.5700672000002494 0
79 -0.3484644000001294 -0.8973634000000745 0
80 -0.1860692000006275 -0.8038502000003613 0
81 -0.02367400000104414 -0.7103370000006013 0
82 0.1387211999993606 -0.6168238000003682 0
83 0.3011163999997986 -0.523310600000116 0
84 0.3825393999999994 -0.2870714000004595 0
85 0.3827647999999987 -0.09758880000103809 0
86 0.3829901999999987 0.09189379999892505 0
87 0.3832155999999993 0.2813763999994539 0
88 0.3824266999999997 -0.381812700000201 0
89 0.3826520999999991 -0.1923301000007759 0
90 0.3828774999999984 -0.002847500001367631 0
91 0.383102899999999 0.1866350999992102 0
92 0.3833282999999997 0.3761176999997679 0
93 0.2196452000003896 0.5650889999997759 0
94 0.05584940000084193 0.6593189999995157 0
95 -0.1079463999991149 0.7535489999994909 0
96 -0.2717421999995933 0.847778999999766 0
97 0.3015431000001943 0.5179739999998882 0
98 0.1377473000006278 0.6122039999996389 0
99 -0.02604849999889719 0.7064339999993656 0
100 -0.1898442999994147 0.8006639999996633 0
101 -0.353640099999725 0.8948939999998418 0
102 0.4832156000000005 0.2813472000004426 0
103 0.4829902000000011 0.09187440000096114 0
104 0.4827648000000012 -0.09759839999901088 0
105 0.4825394000000006 -0.2870711999995055 0
106 0.4833283000000002 0.3760836000000995 0
107 0.4831029000000008 0.1866108000006728 0
108 0.4828775000000014 -0.002861999998818476 0
109 0.4826521000000008 -0.1923347999993352 0
110 0.4824267000000002 -0.3818075999998187 0
111 -0.2218884000003497 0.9344644000002013 0
112 -0.05804780000083493 0.8402088000004804 0
113 0.1057927999991491 0.7459532000004896 0
114 0.2696333999995661 0.6516976000002497 0
115 -0.3038087000002118 0.9815922000001219 0
116 -0.1399681000006431 0.8873366000003701 0
117 0.02387249999889296 0.793081000000637 0
118 0.1877130999992804 0.6988254000004139 0
119 0.3515536999998015 0.6045698000001143 0
120 -0.4318113333333358 -1.333966666667072 0
121 -0.4308086666666694 -1.167933333333796 0
122 -0.4323126666666667 -1.416983333333342 0
123 -0.4313100000000044 -1.250950000000721 0
124 -0.4303073333333352 -1.084916666666967 0
125 -0.5752123333329333 -0.9172040000002331 0
126 -0.7206186666663573 -0.8325080000001802 0
127 -0.5025091666665118 -0.9595520000000902 0
128 -0.6479154999994789 -0.8748560000003035 0
129 -0.7933218333331565 -0.790160000000103 0
130 -0.4818700000000025 -1.343513333333738 0
131 -0.4809250000000027 -1.187026666667101 0
132 -0.4823425000000021 -1.421756666667018 0
133 -0.4813975000000041 -1.265270000000681 0
134 -0.4804525000000019 -1.10878333333365 0
135 -0.6086616666663663 -0.9555853333335083 0
136 -0.7373433333329649 -0.8806306666668813 0
137 -0.5443208333332096 -0.9930626666667387 0
138 -0.6730024999995374 -0.9181080000002695 0
139 -0.8016841666665768 -0.8431533333333857 0
140 -0.866025 -0.7767439999999537 0
141 -0.457814499999924 -1.5 0
142 0.7214433333336533 -0.6714236666668503 0
143 0.5768616666670541 -0.5884513333335557 0
144 0.7937341666667972 -0.7129098333334082 0
145 0.6491525000004242 -0.6299375000002434 0
146 0.5045708333335586 -0.5469651666667958 0
147 0.7214573333337037 -0.7290806666668792 0
148 0.576889666667022 -0.6461163333335372 0
149 0.7937411666667776 -0.7705628333333969 0
150 0.6491735000005341 -0.6875985000003064 0
151 0.5046058333333643 -0.6046341666666845 0
152 -0.3809243333333308 -1.187273333332914 0
153 -0.3818686666666646 -1.34363666666632 0
154 -0.3804521666666656 -1.109091666666493 0
155 -0.3813964999999958 -1.26545499999931 0
156 -0.3823408333333323 -1.42181833333316 0
157 -0.4078135 -1.5 0
158 0.866025 -0.7832205000004101 0
159 -0.5791436666663101 0.9161730000002078 0
160 -0.7225843333329265 0.8325580000002373 0
161 -0.5074233333331774 0.9579805000000909 0
162 -0.6508639999993042 0.8743655000004056 0
163 -0.79430466666642 0.7907505000001438 0
164 -0.7205706666668241 -0.774672666666575 0
165 -0.5751163333334188 -0.8593963333332836 0
166 -0.7932978333333968 -0.7323108333332964 0
167 -0.6478435000003421 -0.8170344999998007 0
168 -0.5023891666667439 -0.9017581666666217 0
169 -0.5790336666663597 0.8583620000001789 0
170 -0.7225293333329438 0.7747150000002271 0
171 -0.5072858333333973 0.9001854999999627 0
172 -0.6507814999994661 0.8165385000003113 0
173 -0.7942771666666284 0.7328915000000223 0
174 -0.866025 0.7200055000001868 0
175 -0.866025 -0.7188805 0
176 0.721841666667067 0.6656620000002302 0
177 0.5776583333337009 0.5827100000002114 0
178 0.7939333333334543 0.7071380000000695 0
179 0.6497500000007332 0.6241860000004218 0
180 0.5055666666667913 0.5412340000000716 0
181 0.7384970000002896 0.6175593333335 0
182 0.610969000000317 0.5441896666668491 0
183 0.802261000000182 0.6542441666667713 0
184 0.6747330000003599 0.580874500000207 0
185 0.5472050000001378 0.5075048333334127 0
186 0.6102176666663486 -0.5499453333331509 0
187 0.7381213333329943 -0.6233466666664721 0
188 0.5462658333332695 -0.51324466666663 0
189 0.6741694999994834 -0.5866459999997035 0
190 0.8020731666666849 -0.6600473333333439 0
191 0.866025 -0.725572 0
192 0.866025 0.7197715 0
193 -0.4360003333333337 1.333262666667101 0
194 -0.4358516666666671 1.166525333333768 0
195 -0.4360746666666669 1.416631333333636 0
196 -0.4359260000000006 1.249894000000695 0
197 -0.4357773333333335 1.083156666666884 0
198 -0.4860090000000002 1.342833333333565 0
199 -0.4858690000000004 1.185666666667158 0
200 -0.4860790000000002 1.421416666666907 0
201 -0.4859390000000008 1.264250000000863 0
202 -0.4857990000000003 1.107083333333579 0
203 -0.6124943333330091 0.954606000000189 0
204 -0.7392596666663118 0.8807120000002069 0
205 -0.5491116666665363 0.991553000000076 0
206 -0.6758769999995577 0.9176590000002578 0
207 -0.8026423333333486 0.8437649999999912 0
208 -0.866025 0.7778804999998132 0
209 -0.461149 1.5 0
210 -0.3860090000000004 1.3429066666671 0
211 -0.3858690000000005 1.185813333333854 0
212 -0.3860790000000002 1.421453333333553 0
213 -0.3859390000000008 1.264360000000891 0
214 -0.3857990000000003 1.107266666667019 0
215 0.5776576666663571 0.6403939999998219 0
216 0.7218413333329152 0.7233459999997595 0
217 0.5055658333333172 0.5989179999999906 0
218 0.6497494999993073 0.6818699999996014 0
219 0.7939331666663179 0.7648219999997993 0
220 0.866025 0.7774559999999999 0
221 -0.411149 1.5 0
222 -0.4558668333333361 -1.177480000000448 0
223 -0.4563681666666692 -1.260496666667086 0
224 -0.454893 -1.01622 0
225 -0.4553943333333347 -1.099236666666898 0
226 -0.5275961666664667 -0.9738720000001165 0
227 -0.5919369999996498 -0.9363946666668707 0
228 -0.6562778333329491 -0.8989173333335572 0
229 -0.4568406666666691 -1.338740000000405 0
230 -0.728980999999661 -0.8565693333335307 0
231 -0.7933218333331786 -0.8190920000000901 0
232 -0.4573420000000012 -1.421756666666869 0
233 0.01121480000089348 -0.7767933999994854 0
234 -0.07001539999912115 -0.8235691999994939 0
235 0.3460924000002054 -0.5839575999998817 0
236 0.2648622000004031 -0.630733399999768 0
237 -0.151245599999321 -0.8703449999996089 0
238 0.7214503333336785 -0.7002521666668647 0
239 0.7937411666668519 -0.7417383333334395 0
240 0.432301 -0.5343154999999999 0
241 0.5045918333335271 -0.5758016666667778 0
242 0.576875666667038 -0.6172838333335464 0
243 0.6491665000003377 -0.6587700000001937 0
244 -0.4053943333333347 -1.099421666666898 0
245 -0.4058665000000001 -1.177603333333355 0
246 -0.4063678333333333 -1.260619999999993 0
247 0.09742340000087876 -0.727151299999494 0
248 -0.2374541999995595 -0.9199870999997464 0
249 -0.3186843999997729 -0.9667628999998692 0
250 -0.4073413333333323 -1.42181833333316 0
251 -0.4068400000000002 -1.338801666666696 0
252 -0.404893 -1.016405 0
253 0.1786536000006486 -0.6803754999996265 0
254 0.09979920000077663 0.6628768333328865 0
255 0.02736770000097877 0.7045459999994369 0
256 -0.3435253999997729 -0.9233678999998692 0
257 -0.429734 -0.9730099999999999 0
258 -0.7205946666665908 -0.8035903333333776 0
259 -0.7932978333334121 -0.7612423333332875 0
260 0.2541286000003885 0.5740926666664432 0
261 0.1816971000005505 0.6157618333330166 0
262 -0.5024371666664667 -0.9306620000001165 0
263 0.407297 -0.4910165 0
264 0.3210884000002054 -0.5406585999998818 0
265 -0.5751643333331761 -0.8883001666667583 0
266 0.4080334333333322 0.1282863999990291 0
267 0.4079338499999986 0.04451664999880137 0
268 -0.1269616999991882 0.7933301666661997 0
269 -0.2088595999994274 0.8404451666663373 0
270 -0.7942771666664719 0.7618290000001136 0
271 -0.7225568333329351 0.8036365000002321 0
272 0.4073965833333332 -0.4072467500001625 0
273 0.4075092833333329 -0.3125054500003923 0
274 0.4081461333333325 0.2230276999992935 0
275 0.4076088666666658 -0.2287357000006451 0
276 -0.05453019999899963 0.7516609999994245 0
277 0.4077215666666655 -0.1339944000009344 0
278 0.408458 0.4853085 0
279 0.3360265000001937 0.5269776666665552 0
280 -0.2623277999999667 -0.8766112999999808 0
281 -0.4356205 0.9708985 0
282 -0.3631889999998014 0.929229333333219 0
283 -0.281291099999598 0.8821143333331021 0
284 -0.6478674999998881 -0.8459521666667319 0
285 0.2398907999999889 -0.5874152000000064 0
286 0.1536822000002344 -0.637057299999865 0
287 0.4078211499999986 -0.0502246500011802 0
288 -0.1761191999997281 -0.8269691999998434 0
289 -0.09492159999994582 -0.7802125999999687 0
290 -0.00871299999996053 -0.7305704999999773 0
291 -0.6508089999996431 0.8454600000002082 0
292 0.4082457166666661 0.3067974499994995 0
293 -0.5790886666663349 0.8872675000001934 0
294 0.07248460000002641 -0.6838138999999848 0
295 -0.5073408333331551 0.9290910000001039 0
296 0.4083584166666664 0.4015387499997726 0
297 0.7939333333335334 0.6782955000001152 0
298 0.7301693333336783 0.6416106666668651 0
299 0.4583584166666664 0.4015192499997726 0
300 0.4582457166666667 0.3067828499999938 0
301 0.4575092833333335 -0.3125053499999152 0
302 0.4576088666666664 -0.2287356000001681 0
303 0.4579338499999998 0.04450694999981941 0
304 0.4580334333333334 0.1282767000000472 0
305 0.4577215666666667 -0.1339991999999208 0
306 0.6664053333336919 0.6049258333335397 0
307 0.458458 0.485289 0
308 0.7297823333333238 -0.6473851666666612 0
309 0.6658305000000009 -0.6106845000000005 0
310 0.4573965833333332 -0.4072417500001625 0
311 0.4578211499999998 -0.0502294500001666 0
312 0.5935396666667013 -0.5691983333333532 0
313 0.7937341666668267 -0.6840858333334252 0
314 0.5295878333335271 -0.5324976666667779 0
315 0.457297 -0.4910115 0
316 0.4581461333333331 0.2230130999997879 0
317 0.5943136666670089 0.5634498333335303 0
318 0.5305496666668504 0.5267650000001057 0
319 -0.5324363333331551 0.9723365000001039 0
320 -0.460716 1.014144 0
321 -0.5958189999996596 0.9353895000001984 0
322 -0.659201666666311 0.8984425000002074 0
323 -0.7309219999996192 0.8566350000002221 0
324 -0.7943046666664633 0.8196880000001187 0
325 -0.4610790000000001 1.421416666666782 0
326 -0.461004666666667 1.338048000000333 0
327 -0.4608603333333338 1.176096000000463 0
328 -0.460934666666667 1.259464666667129 0
329 -0.4607903333333335 1.097512666666884 0
330 -0.4108603333333338 1.176169333333811 0
331 -0.4107903333333335 1.097622666666884 0
332 -0.4109346666666671 1.259538000000477 0
333 0.4334745 0.5286 0
334 0.3610430000001937 0.5702691666665551 0
335 -0.2563641999999762 0.9254570333333196 0
336 -0.3382844999998014 0.972584833333219 0
337 0.5055661666668505 0.5700760000001057 0
338 -0.411004666666667 1.3380846666671 0
339 -0.4110790000000002 1.42145333333355 0
340 0.649749666666712 0.6530280000000261 0
341 0.7218414999999911 0.6945039999999949 0
342 0.7939331666664576 0.7359799999998797 0
343 -0.1020124000000482 0.8366600666666945 0
344 -0.1839326999998056 0.8837878666665548 0
345 -0.02958089999985966 0.7949908999999192 0
346 -0.410716 1.014254 0
347 0.05233940000013235 0.7478630999999238 0
348 0.577658000000029 0.6115520000000167 0
349 0.2791226999999768 0.6173969666666801 0
350 0.1247708999999302 0.7061939333333735 0
351 0.2066912000001387 0.6590661333332535 0
$EndNodes
$Elements
152
1 15 2 4 3013397 18
2 15 2 2 3014401 19
3 15 2 3 3018416 22
4 15 2 1 3030461 31
5 8 2 4 76378 18 20 140
6 8 2 1 76379 19 17 141
7 8 2 1 76383 17 23 157
8 8 2 2 76384 22 21 158
9 8 2 4 76388 24 26 174
10 8 2 4 76389 25 18 175
11 8 2 2 76393 21 29 191
12 8 2 2 76394 28 27 192
13 8 2 4 76398 24 32 208
14 8 2 3 76399 31 30 209
15 8 2 2 76402 27 34 220
16 8 2 3 76403 33 30 221
17 9 2 11 8405 120 121 131 123 222 223
18 9 2 11 8405 121 1 5 124 224 225
19 9 2 11 8405 5 1 125 224 127 226
20 9 2 11 8405 135 125 136 227 228 138
21 9 2 11 8405 131 121 5 222 225 134
22 9 2 11 8405 130 120 131 229 223 133
23 9 2 11 8405 125 126 136 128 230 228
24 9 2 11 8405 136 126 20 230 231 139
25 9 2 11 8405 19 17 130 141 232 132
26 9 2 11 8405 17 120 130 122 229 232
27 9 2 11 8405 5 125 135 226 227 137
28 9 2 11 8405 126 18 20 129 140 231
29 9 2 11 8406 46 45 37 50 233 234
30 9 2 11 8406 44 6 35 48 235 236
31 9 2 11 8406 47 46 37 51 234 237
32 9 2 11 8406 21 142 147 144 238 239
33 9 2 11 8406 143 2 6 146 240 241
34 9 2 11 8406 142 143 148 145 242 243
35 9 2 11 8406 147 142 148 238 243 150
36 9 2 11 8406 152 7 121 154 244 245
37 9 2 11 8406 120 152 121 246 245 123
38 9 2 11 8406 37 45 36 233 247 41
39 9 2 11 8406 7 47 38 52 248 249
40 9 2 11 8406 17 23 153 157 156 250
41 9 2 11 8406 153 152 120 155 246 251
42 9 2 11 8406 121 7 1 244 252 124
43 9 2 11 8406 22 21 147 158 239 149
44 9 2 11 8406 45 44 36 49 253 247
45 9 2 11 8406 7 38 1 249 43 252
46 9 2 11 8406 17 153 120 250 251 122
47 9 2 11 8406 47 37 38 237 42 248
48 9 2 11 8406 148 143 6 242 241 151
49 9 2 11 8406 36 44 35 253 236 40
50 9 2 11 8406 35 6 2 235 240 39
51 9 2 11 8407 94 65 66 254 71 255
52 9 2 11 8407 1 38 8 43 256 257
53 9 2 11 8407 126 164 18 258 259 129
54 9 2 11 8407 93 64 65 260 70 261
55 9 2 11 8407 1 8 125 257 262 127
56 9 2 11 8407 35 2 9 39 263 264
57 9 2 11 8407 8 165 125 168 265 262
58 9 2 11 8407 55 56 86 61 266 267
59 9 2 11 8407 95 67 96 268 269 100
60 9 2 11 8407 24 170 160 270 271 163
61 9 2 11 8407 9 53 84 272 273 88
62 9 2 11 8407 86 56 87 266 274 91
63 9 2 11 8407 53 54 84 59 275 273
64 9 2 11 8407 94 66 95 255 276 99
65 9 2 11 8407 26 170 24 173 270 174
66 9 2 11 8407 93 65 94 261 254 98
67 9 2 11 8407 66 67 95 72 268 276
68 9 2 11 8407 164 25 18 166 175 259
69 9 2 11 8407 84 54 85 275 277 89
70 9 2 11 8407 10 3 64 278 69 279
71 9 2 11 8407 8 38 75 256 280 79
72 9 2 11 8407 68 4 11 74 281 282
73 9 2 11 8407 67 68 96 73 283 269
74 9 2 11 8407 125 165 126 265 284 128
75 9 2 11 8407 36 35 78 40 285 286
76 9 2 11 8407 54 55 85 60 287 277
77 9 2 11 8407 2 53 9 58 272 263
78 9 2 11 8407 75 37 76 288 289 80
79 9 2 11 8407 10 64 93 279 260 97
80 9 2 11 8407 37 36 76 41 290 289
81 9 2 11 8407 170 169 160 172 291 271
82 9 2 11 8407 56 57 87 62 292 274
83 9 2 11 8407 160 169 159 291 293 162
84 9 2 11 8407 38 37 75 42 288 280
85 9 2 11 8407 35 9 78 264 83 285
86 9 2 11 8407 36 78 77 286 82 294
87 9 2 11 8407 169 11 159 171 295 293
88 9 2 11 8407 96 68 11 283 282 101
89 9 2 11 8407 159 11 4 295 281 161
90 9 2 11 8407 87 57 10 292 296 92
91 9 2 11 8407 57 3 10 63 278 296
92 9 2 11 8407 165 164 126 167 258 284
93 9 2 11 8407 76 36 77 290 294 81
94 9 2 11 8407 85 55 86 287 267 90
95 9 2 11 8408 181 28 176 183 297 298
96 9 2 11 8408 102 12 57 106 299 300
97 9 2 11 8408 53 105 54 301 302 59
98 9 2 11 8408 55 103 56 303 304 61
99 9 2 11 8408 105 104 54 109 305 302
100 9 2 11 8408 182 181 176 184 298 306
101 9 2 11 8408 57 12 3 299 307 63
102 9 2 11 8408 142 187 186 308 189 309
103 9 2 11 8408 13 105 53 110 301 310
104 9 2 11 8408 54 104 55 305 311 60
105 9 2 11 8408 104 103 55 108 303 311
106 9 2 11 8408 142 186 143 309 312 145
107 9 2 11 8408 21 29 142 191 313 144
108 9 2 11 8408 29 187 142 190 308 313
109 9 2 11 8408 143 186 13 312 188 314
110 9 2 11 8408 2 13 53 315 310 58
111 9 2 11 8408 143 13 2 314 315 146
112 9 2 11 8408 176 28 27 297 192 178
113 9 2 11 8408 56 102 57 316 300 62
114 9 2 11 8408 182 176 177 306 179 317
115 9 2 11 8408 12 177 3 318 180 307
116 9 2 11 8408 12 182 177 185 317 318
117 9 2 11 8408 103 102 56 107 316 304
118 9 2 11 8409 159 14 4 319 320 161
119 9 2 11 8409 204 203 159 206 321 322
120 9 2 11 8409 32 204 160 207 323 324
121 9 2 11 8409 198 31 30 200 209 325
122 9 2 11 8409 160 204 159 323 322 162
123 9 2 11 8409 159 203 14 321 205 319
124 9 2 11 8409 193 198 30 326 325 195
125 9 2 11 8409 194 199 193 327 328 196
126 9 2 11 8409 199 198 193 201 326 328
127 9 2 11 8409 24 32 160 208 324 163
128 9 2 11 8409 4 14 194 320 329 197
129 9 2 11 8409 14 199 194 202 327 329
130 9 2 11 8410 15 211 194 214 330 331
131 9 2 11 8410 194 211 193 330 332 196
132 9 2 11 8410 3 16 64 333 334 69
133 9 2 11 8410 68 111 15 335 115 336
134 9 2 11 8410 3 177 16 180 337 333
135 9 2 11 8410 193 210 30 338 339 195
136 9 2 11 8410 215 176 216 340 341 218
137 9 2 11 8410 216 27 34 342 220 219
138 9 2 11 8410 67 112 111 343 116 344
139 9 2 11 8410 66 112 67 345 343 72
140 9 2 11 8410 67 111 68 344 335 73
141 9 2 11 8410 68 15 4 336 346 74
142 9 2 11 8410 113 112 66 117 345 347
143 9 2 11 8410 16 177 215 337 348 217
144 9 2 11 8410 176 27 216 178 342 341
145 9 2 11 8410 211 210 193 213 338 332
146 9 2 11 8410 16 114 64 119 349 334
147 9 2 11 8410 65 113 66 350 347 71
148 9 2 11 8410 177 176 215 179 340 348
149 9 2 11 8410 114 113 65 118 350 351
150 9 2 11 8410 210 33 30 212 221 339
151 9 2 11 8410 4 15 194 346 331 197
152 9 2 11 8410 64 114 65 349 351 70
$EndElements
