$MeshFormat
2.2 0 8
$EndMeshFormat
$Nodes
351
1 0.438913 0.498783 0
2 -0.433797 1.00494 0
3 0.436514 -0.500385 0
4 -0.436871 -1.00197 0
5 -0.486763 -1.03083 0
6 0.436393 -0.558114 0
7 -0.386762 -1.03085 0
8 0.386583 -0.471401 0
9 -0.436745 -0.9442390000000001 0
10 -0.433705 0.947086 0
11 0.388844 0.470021 0
12 0.486583 -0.471622 0
13 0.488844 0.469859 0
14 -0.483742 1.03367 0
15 0.438984 0.556543 0
16 -0.383742 1.03371 0
17 -0.435001 -1.5 0
18 -0.866025 -0.753005 0
19 -0.485002 -1.5 0
20 -0.866025 -0.81081 0
21 0.866025 -0.749463 0
22 0.866025 -0.807263 0
23 -0.385001 -1.5 0
24 -0.866025 0.752417 0
25 -0.866025 -0.695201 0
26 -0.866025 0.69451 0
27 0.866025 0.745102 0
28 0.866025 -0.6916639999999999 0
29 0.866025 0.687383 0
30 -0.432856 1.5 0
31 -0.482856 1.5 0
32 -0.866025 0.810325 0
33 0.866025 0.802821 0
34 -0.382856 1.5 0
35 0.2909498333335633 -0.583982499999868 0
36 0.1453856666673081 -0.6675799999996316 0
37 -0.0001784999989542513 -0.7511774999993994 0
38 -0.1457426666660042 -0.8347749999996195 0
39 -0.2913068333330232 -0.9183724999998218 0
40 0.3637319166667743 -0.5421837499999382 0
41 0.2181677500004544 -0.6257812499997391 0
42 0.07260358333412542 -0.7093787499995451 0
43 -0.07296058333247352 -0.7929762499995061 0
44 -0.2185247499995253 -0.8765737499997274 0
45 -0.3640889166664369 -0.960171249999868 0
46 0.2717620000005306 -0.6526611999996953 0
47 0.10713100000104 -0.7472083999994027 0
48 -0.05749999999895367 -0.8417555999993991 0
49 -0.2221309999994378 -0.9363027999996771 0
50 0.3540775000002548 -0.6053875999998536 0
51 0.1894465000007524 -0.6999347999995679 0
52 0.0248155000012717 -0.7944819999992697 0
53 -0.1398154999991952 -0.8890291999995379 0
54 -0.3044464999996737 -0.9835763999998126 0
55 -0.2883453333336274 0.9205805000001706 0
56 -0.1428936666674229 0.8362210000004385 0
57 0.002557999998831106 0.7518615000006779 0
58 0.1480096666658357 0.6675020000004819 0
59 0.29346133333299 0.5831425000001991 0
60 -0.361071166666828 0.9627602500000936 0
61 -0.215619500000538 0.878400750000312 0
62 -0.070167833334291 0.7940412500005554 0
63 0.07528383333229305 0.7096817500006033 0
64 0.2207354999993849 0.6253222500003567 0
65 0.3661871666665252 0.540962750000082 0
66 0.4384332000000011 0.2989494000004684 0
67 0.4379534000000025 0.09911580000103881 0
68 0.4374736000000026 -0.1007177999989378 0
69 0.4369938000000012 -0.3005513999995149 0
70 0.4386731000000003 0.3988662000001187 0
71 0.4381933000000019 0.1990326000007926 0
72 0.4377135000000032 -0.0008009999986646199 0
73 0.4372337000000014 -0.2006345999994127 0
74 0.4367539000000005 -0.4004681999998049 0
75 0.2219174000004649 -0.565968599999733 0
76 0.05725180000111801 -0.660536199999358 0
77 -0.1074137999989444 -0.7551037999993938 0
78 -0.2720793999994581 -0.8496713999996888 0
79 0.3042502000002391 -0.5186847999998627 0
80 0.1395846000007743 -0.6132523999995554 0
81 -0.02508099999866165 -0.7078199999992314 0
82 -0.1897465999991331 -0.8023875999995022 0
83 -0.3544121999997667 -0.8969551999998661 0
84 -0.2691952000003848 0.8516730000002232 0
85 -0.1046854000008274 0.7562600000004799 0
86 0.05982439999913697 0.6608470000005006 0
87 0.2243341999995206 0.565434000000278 0
88 -0.3514501000001388 0.8993795000000805 0
89 -0.1869403000005768 0.8039665000003345 0
90 -0.0224305000010423 0.7085535000006045 0
91 0.1420792999993348 0.6131405000003858 0
92 0.3065890999998537 0.5177275000000848 0
93 0.3883918000000011 0.2817366000004486 0
94 0.3879396000000023 0.09345220000095156 0
95 0.3874874000000024 -0.09483219999900294 0
96 0.3870352000000011 -0.2831165999995476 0
97 0.3886179000000005 0.375878800000177 0
98 0.3881657000000017 0.1875944000007133 0
99 0.387713500000003 -0.000689999998748192 0
100 0.3872613000000019 -0.1889743999992251 0
101 0.3868091000000006 -0.3772587999997364 0
102 0.487035199999999 -0.283325800000412 0
103 0.4874873999999977 -0.09502960000095406 0
104 0.4879395999999976 0.09326659999900733 0
105 0.4883917999999988 0.2815627999995021 0
106 0.4868090999999996 -0.3774739000001686 0
107 0.4872612999999983 -0.1891777000006795 0
108 0.487713499999997 -0.0008815000012455942 0
109 0.4881656999999986 0.1874146999994108 0
110 0.4886178999999995 0.3757108999997818 0
111 0.274438800000338 0.6519763999998039 0
112 0.1098936000008245 0.7474097999995217 0
113 -0.05465159999914798 0.8428431999995059 0
114 -0.2191967999995388 0.9382765999997325 0
115 0.3567114000001165 0.6042596999999325 0
116 0.1921662000006089 0.6996930999996468 0
117 0.02762100000109913 0.7951264999993625 0
118 -0.1369241999994209 0.890559899999664 0
119 -0.3014693999998232 0.9859932999998973 0
120 -0.4362476666666667 -1.16798 0
121 -0.4356243333333333 -1.33399 0
122 -0.4365593333333336 -1.084974999999931 0
123 -0.4359360000000019 -1.250984999999491 0
124 -0.4353126666666667 -1.416995 0
125 -0.7229736666670317 -0.8359933333331216 0
126 -0.5799223333337131 -0.9189816666664463 0
127 -0.7944993333335202 -0.7944991666665584 0
128 -0.6514480000005369 -0.8774874999996886 0
129 -0.5083966666668644 -0.9604758333332186 0
130 -0.4861760000000009 -1.187219999999769 0
131 -0.4855890000000013 -1.343609999999638 0
132 -0.4864695000000004 -1.109024999999884 0
133 -0.4858825000000022 -1.265414999999408 0
134 -0.4852955000000007 -1.421804999999819 0
135 -0.7396043333335455 -0.884149999999877 0
136 -0.6131836666669915 -0.9574899999998114 0
137 -0.8028146666667402 -0.8474799999999574 0
138 -0.6763940000004482 -0.92081999999974 0
139 -0.5499733333334582 -0.9941599999999275 0
140 -0.4600015 -1.5 0
141 -0.866025 -0.7819075000000001 0
142 0.722854666667031 -0.6664370000002113 0
143 0.5796843333336917 -0.5834110000002077 0
144 0.7944398333334711 -0.7079500000000799 0
145 0.6512695000006963 -0.6249240000004037 0
146 0.508099166666911 -0.5418980000001417 0
147 0.7228143333336725 -0.72421333333353 0
148 0.5796036666670059 -0.6411636666668634 0
149 0.794419666666706 -0.7657381666666894 0
150 0.6512090000004138 -0.68268850000024 0
151 0.5079983333334932 -0.599638833333426 0
152 -0.3861750000000017 -1.187233333332871 0
153 -0.3855880000000015 -1.343616666666262 0
154 -0.3864685000000009 -1.109041666666436 0
155 -0.3858815000000028 -1.265424999999248 0
156 -0.385294500000001 -1.421808333333062 0
157 -0.410001 -1.5 0
158 0.866025 -0.7783630000001868 0
159 -0.7219490000003819 0.8365913333331102 0
160 -0.5778730000003791 0.9207656666664451 0
161 -0.7939870000001639 0.794504166666571 0
162 -0.6499110000004595 0.8786784999997315 0
163 -0.5058350000001187 0.962852833333264 0
164 -0.5798383333330174 -0.8612263333335166 0
165 -0.7229316666662968 -0.7782136666668812 0
166 -0.5082916666665395 -0.9027326666667406 0
167 -0.6513849999995008 -0.8197200000002896 0
168 -0.794478333333243 -0.7367073333333857 0
169 -0.7219183333337099 0.77870199999978 0
170 -0.5778116666670932 0.8628939999997508 0
171 -0.7939716666666842 0.7366059999999898 0
172 -0.6498650000006149 0.8207979999996408 0
173 -0.5057583333335915 0.9049899999998492 0
174 -0.866025 -0.7241030000000001 0
175 -0.866025 0.7234635 0
176 0.5812836666662575 0.5808893333330974 0
177 0.7236543333329815 0.6629956666664638 0
178 0.5100983333332647 0.539836166666627 0
179 0.6524689999994501 0.6219424999996829 0
180 0.7948396666664297 0.7040488333331967 0
181 0.7395443333335959 -0.6183166666668189 0
182 0.6130636666669624 -0.5449693333335048 0
183 0.8027846666668828 -0.6549903333334586 0
184 0.6763040000004317 -0.5816430000002503 0
185 0.5498233333334961 -0.508295666666761 0
186 0.6145709999997202 0.5423669999998386 0
187 0.7402979999996364 0.6148749999997902 0
188 0.5517074999998187 0.5061129999998955 0
189 0.6774344999993663 0.5786209999996346 0
190 0.8031614999998362 0.6511289999999055 0
191 0.866025 0.7162425 0
192 0.866025 -0.7205634999999537 0
193 -0.433169666666666 1.334980000000376 0
194 -0.4334833333333324 1.169960000000491 0
195 -0.4330128333333332 1.417490000000083 0
196 -0.4333264999999991 1.25247000000049 0
197 -0.4336401666666655 1.087450000000622 0
198 -0.4831513333333325 1.344556666667071 0
199 -0.4834466666666658 1.189113333333796 0
200 -0.4830036666666661 1.422278333333622 0
201 -0.4832989999999983 1.266835000000913 0
202 -0.4835943333333333 1.111391666666652 0
203 -0.6111696666663842 0.9592216666668317 0
204 -0.7385973333330553 0.8847733333334957 0
205 -0.5474558333331899 0.9964458333334172 0
206 -0.6748834999995048 0.9219975000002893 0
207 -0.8023111666665321 0.8475491666667453 0
208 -0.866025 0.7813709999998132 0
209 -0.457856 1.5 0
210 0.7236780000003433 0.7207283333335313 0
211 0.5813310000003967 0.6386356666668954 0
212 0.7948515000000884 0.7617746666667177 0
213 0.6525045000005913 0.6796820000003411 0
214 0.5101575000001262 0.5975893333334061 0
215 -0.3834466666666675 1.189139999999566 0
216 -0.3831513333333341 1.344569999999595 0
217 -0.3835943333333336 1.111424999999852 0
218 -0.3832990000000006 1.266854999999705 0
219 -0.3830036666666674 1.422284999999591 0
220 -0.4078560000002051 1.5 0
221 0.866025 0.7739615000000001 0
222 -0.6597633333336292 -0.9015658333331616 0
223 -0.5965530000003523 -0.9382358333331289 0
224 -0.5333426666668566 -0.9749058333332231 0
225 -0.461817 -1.0164 0
226 -0.4602950000000007 -1.421804999999819 0
227 -0.4615053333333333 -1.099405 0
228 -0.4612118333333338 -1.177599999999884 0
229 -0.7312890000002885 -0.8600716666664994 0
230 -0.4609001666666671 -1.260604999999884 0
231 -0.4606066666666673 -1.338799999999819 0
232 -0.7944993333335159 -0.8234016666665609 0
233 -0.4115048333333333 -1.099415 0
234 -0.4112113333333342 -1.177606666666435 0
235 -0.4108996666666676 -1.260611666666435 0
236 -0.02883924999895396 -0.7964665499993993 0
237 -0.1016213333324789 -0.8382652999995093 0
238 0.5796440000003489 -0.6122873333335356 0
239 0.6512291666670185 -0.6538003333335374 0
240 0.4364535 -0.5292494999999999 0
241 0.5080386666668458 -0.5707625000001039 0
242 -0.4102945000000008 -1.421808333333131 0
243 -0.3390344166665116 -0.9746112499999109 0
244 -0.4118165 -1.01641 0
245 -0.183936833332721 -0.8855388999996483 0
246 0.05347625000104289 -0.749192949999401 0
247 -0.2567189166662305 -0.9273376499997494 0
248 0.3636714166667816 -0.571048249999934 0
249 0.281355916667047 -0.6183218499997816 0
250 0.7228345000003518 -0.6953251666668707 0
251 0.7944196666668363 -0.7368381666667649 0
252 0.2085738333339194 -0.6601205999996634 0
253 -0.4106061666666674 -1.338803333333131 0
254 0.1262583333341741 -0.7073941999995171 0
255 -0.05106370000099814 0.7540607500005789 0
256 -0.1237895333341252 0.7962405000004592 0
257 -0.6514060000000246 -0.8486098333333192 0
258 -0.5798803333333653 -0.8901039999999815 0
259 -0.7229526666666642 -0.8071035000000014 0
260 -0.7944783333331484 -0.7656093333334406 0
261 -0.7219336666670459 0.807646666666445 0
262 -0.6498803333337375 0.8497426666664305 0
263 -0.5083336666668565 -0.9316103333332232 0
264 0.2564336166670141 -0.5749755499998005 0
265 0.3387664166667816 -0.527691749999934 0
266 -0.2816931166662406 -0.8840219499997553 0
267 -0.2089110333327311 -0.8422231999996541 0
268 0.1039170333324863 0.6641745000004913 0
269 0.1861719333326782 0.6164680000003799 0
270 0.2588977666662553 0.5742882500002385 0
271 -0.793971666666855 0.76555949999989 0
272 -0.1265782333324743 -0.7949393999995067 0
273 0.4124805000000025 -0.09777499999897038 0
274 0.4122544000000018 -0.1919171999992427 0
275 0.341152666666495 0.5265817500000995 0
276 0.03119119999898404 0.7063542500005893 0
277 0.4131726000000018 0.1904262000007437 0
278 0.4129465000000024 0.09628400000099518 0
279 0.4138785 0.484402 0
280 -0.3640259166665116 -0.9313057499999109 0
281 0.4120145000000011 -0.2918339999995312 0
282 0.4117884000000006 -0.3859761999997574 0
283 0.4136386000000006 0.3844852000002342 0
284 0.1836515333338865 -0.6167742999996824 0
285 0.4115485 -0.485893 0
286 0.4134125000000011 0.2903430000004585 0
287 0.4127066000000025 -0.00363279999899313 0
288 -0.2060444333339038 0.8439470000003308 0
289 -0.436808 -0.9731045 0
290 0.02853665000108188 -0.7058568499993787 0
291 -0.05379614999894933 -0.7531406499993967 0
292 -0.3610251666668137 0.9338332500000852 0
293 -0.2787702666670061 0.8861267500001968 0
294 -0.5778423333337361 0.891829833333098 0
295 -0.5057890000001896 0.9339258333332225 0
296 -0.433751 0.976013 0
297 0.1013187333342131 -0.6640580999994947 0
298 0.4638785 0.484321 0
299 0.5350638333331288 0.5253741666665488 0
300 0.4627204000000001 0.002043100000042375 0
301 0.4624805000000001 -0.09787369999994594 0
302 0.4634125 0.2902560999999853 0
303 0.4636386000000006 0.3844042000002342 0
304 0.4629465 0.09619120000002307 0
305 0.4631726000000007 0.1903393000002704 0
306 0.7944398333335155 -0.6790505000001057 0
307 0.7311995000003135 -0.6423768333335151 0
308 0.4622544000000008 -0.1920217999996749 0
309 0.4620145000000001 -0.2919385999999634 0
310 0.5979273333329889 0.561628166666468 0
311 0.7319761666663089 0.638935333333127 0
312 0.660790833332947 0.5978821666664438 0
313 0.5331336666668458 -0.5275165000001039 0
314 0.596374000000327 -0.5641901666668563 0
315 0.4617884000000005 -0.3860866999997574 0
316 0.4615485 -0.4860035 0
317 0.7948396666664908 0.6751893333332319 0
318 0.6596143333336438 -0.6008638333335133 0
319 -0.5945213333333816 0.9399936666666384 0
320 -0.5308075000001895 0.9772178333332227 0
321 -0.4587695 1.019305 0
322 -0.4581604999999992 1.339768333333724 0
323 -0.4580036666666663 1.422278333333536 0
324 -0.4586126666666662 1.101815000000246 0
325 -0.4584649999999991 1.179536666667144 0
326 -0.6582351666667172 0.9027694999999705 0
327 -0.793987000000191 0.823458166666555 0
328 -0.7302731666667186 0.8606823333333029 0
329 -0.4583081666666659 1.262046666667086 0
330 -0.4083081666666667 1.262059999999971 0
331 -0.408465 1.179550000000029 0
332 0.3662226666664949 0.5698427500000995 0
333 0.4389485 0.527663 0
334 -0.4080036666666671 1.422284999999798 0
335 0.7236661666666624 0.6918619999999975 0
336 0.652492666666689 0.6508156666666796 0
337 0.5813073333333272 0.6097624999999964 0
338 0.05622579999982782 0.7496356500000998 0
339 0.1289516333333301 0.7074559000000018 0
340 0.2112242333330868 0.659739200000143 0
341 0.7948515000001717 0.7329151666667657 0
342 -0.09877263333328545 0.8395320999999722 0
343 -0.02604680000015844 0.7973523500000919 0
344 -0.2537710666665831 0.9294285499999515 0
345 -0.1810452333334809 0.8872488000000855 0
346 0.283950066666664 0.6175594500000015 0
347 0.5101338333331288 0.5687161666665488 0
348 -0.3360436666668137 0.9771452500000852 0
349 -0.4087695 1.019325 0
350 -0.4086126666666662 1.101835000000246 0
351 -0.4081605 1.339774999999986 0
$EndNodes
$Elements
152
1 15 2 2 736194 17
2 15 2 1 739206 20
3 15 2 3 742217 22
4 15 2 4 754262 31
5 8 2 1 19119 17 19 140
6 8 2 4 19120 20 18 141
7 8 2 1 19124 17 23 157
8 8 2 2 19125 22 21 158
9 8 2 4 19129 18 25 174
10 8 2 4 19130 26 24 175
11 8 2 2 19134 27 29 191
12 8 2 2 19135 28 21 192
13 8 2 4 19139 24 32 208
14 8 2 3 19140 31 30 209
15 8 2 3 19143 30 34 220
16 8 2 2 19144 33 27 221
17 9 2 11 2124 136 135 126 138 222 223
18 9 2 11 2124 5 126 4 224 129 225
19 9 2 11 2124 19 131 17 134 226 140
20 9 2 11 2124 130 5 120 132 227 228
21 9 2 11 2124 126 135 125 222 229 128
22 9 2 11 2124 131 130 121 133 230 231
23 9 2 11 2124 125 20 18 232 141 127
24 9 2 11 2124 5 136 126 139 223 224
25 9 2 11 2124 17 131 121 226 231 124
26 9 2 11 2124 135 20 125 137 232 229
27 9 2 11 2124 121 130 120 230 228 123
28 9 2 11 2124 120 5 4 227 225 122
29 9 2 11 2125 152 7 120 154 233 234
30 9 2 11 2125 121 152 120 235 234 123
31 9 2 11 2125 48 37 38 236 43 237
32 9 2 11 2125 142 143 148 145 238 239
33 9 2 11 2125 143 3 6 146 240 241
34 9 2 11 2125 17 23 153 157 156 242
35 9 2 11 2125 7 39 4 243 45 244
36 9 2 11 2125 49 48 38 53 237 245
37 9 2 11 2125 48 47 37 52 246 236
38 9 2 11 2125 49 38 39 245 44 247
39 9 2 11 2125 148 143 6 238 241 151
40 9 2 11 2125 46 6 35 50 248 249
41 9 2 11 2125 35 6 3 248 240 40
42 9 2 11 2125 21 142 147 144 250 251
43 9 2 11 2125 36 46 35 252 249 41
44 9 2 11 2125 120 7 4 233 244 122
45 9 2 11 2125 17 153 121 242 253 124
46 9 2 11 2125 37 47 36 246 254 42
47 9 2 11 2125 153 152 121 155 235 253
48 9 2 11 2125 7 49 39 54 247 243
49 9 2 11 2125 147 142 148 250 239 150
50 9 2 11 2125 22 21 147 158 251 149
51 9 2 11 2125 47 46 36 51 252 254
52 9 2 11 2126 57 85 56 255 256 62
53 9 2 11 2126 126 125 164 128 257 258
54 9 2 11 2126 164 125 165 257 259 167
55 9 2 11 2126 125 18 165 127 260 259
56 9 2 11 2126 169 159 170 261 262 172
57 9 2 11 2126 9 126 164 263 258 166
58 9 2 11 2126 35 75 8 264 79 265
59 9 2 11 2126 39 78 38 266 267 44
60 9 2 11 2126 87 86 58 91 268 269
61 9 2 11 2126 87 58 59 269 64 270
62 9 2 11 2126 26 24 169 175 271 171
63 9 2 11 2126 78 77 38 82 272 267
64 9 2 11 2126 96 95 68 100 273 274
65 9 2 11 2126 11 87 59 92 270 275
66 9 2 11 2126 86 57 58 276 63 268
67 9 2 11 2126 94 93 67 98 277 278
68 9 2 11 2126 11 59 1 275 65 279
69 9 2 11 2126 9 78 39 83 266 280
70 9 2 11 2126 8 96 69 101 281 282
71 9 2 11 2126 66 11 1 283 279 70
72 9 2 11 2126 36 75 35 284 264 41
73 9 2 11 2126 35 8 3 265 285 40
74 9 2 11 2126 165 18 25 260 174 168
75 9 2 11 2126 3 8 69 285 282 74
76 9 2 11 2126 67 93 66 277 286 71
77 9 2 11 2126 68 94 67 287 278 72
78 9 2 11 2126 85 84 56 89 288 256
79 9 2 11 2126 4 9 39 289 280 45
80 9 2 11 2126 77 76 37 81 290 291
81 9 2 11 2126 24 159 169 161 261 271
82 9 2 11 2126 84 10 55 88 292 293
83 9 2 11 2126 170 160 10 294 295 173
84 9 2 11 2126 160 2 10 163 296 295
85 9 2 11 2126 36 76 75 297 80 284
86 9 2 11 2126 37 76 36 290 297 42
87 9 2 11 2126 55 10 2 292 296 60
88 9 2 11 2126 56 84 55 288 293 61
89 9 2 11 2126 159 160 170 162 294 262
90 9 2 11 2126 69 96 68 281 274 73
91 9 2 11 2126 86 85 57 90 255 276
92 9 2 11 2126 93 11 66 97 283 286
93 9 2 11 2126 68 95 94 273 99 287
94 9 2 11 2126 4 126 9 129 263 289
95 9 2 11 2126 38 77 37 272 291 43
96 9 2 11 2127 13 1 176 298 178 299
97 9 2 11 2127 68 67 103 72 300 301
98 9 2 11 2127 105 66 13 302 303 110
99 9 2 11 2127 104 67 105 304 305 109
100 9 2 11 2127 66 1 13 70 298 303
101 9 2 11 2127 28 142 181 306 307 183
102 9 2 11 2127 103 67 104 300 304 108
103 9 2 11 2127 69 68 102 73 308 309
104 9 2 11 2127 13 176 186 299 310 188
105 9 2 11 2127 176 177 187 179 311 312
106 9 2 11 2127 143 12 182 313 185 314
107 9 2 11 2127 3 69 12 74 315 316
108 9 2 11 2127 12 69 102 315 309 106
109 9 2 11 2127 143 3 12 146 316 313
110 9 2 11 2127 186 176 187 310 312 189
111 9 2 11 2127 67 66 105 71 302 305
112 9 2 11 2127 177 27 29 180 191 317
113 9 2 11 2127 187 177 29 311 317 190
114 9 2 11 2127 21 142 28 144 306 192
115 9 2 11 2127 142 143 181 145 318 307
116 9 2 11 2127 181 143 182 318 314 184
117 9 2 11 2127 102 68 103 308 301 107
118 9 2 11 2128 160 203 14 319 205 320
119 9 2 11 2128 160 14 2 320 321 163
120 9 2 11 2128 193 198 30 322 323 195
121 9 2 11 2128 2 14 194 321 324 197
122 9 2 11 2128 14 199 194 202 325 324
123 9 2 11 2128 204 203 160 206 319 326
124 9 2 11 2128 24 32 159 208 327 161
125 9 2 11 2128 32 204 159 207 328 327
126 9 2 11 2128 199 198 193 201 322 329
127 9 2 11 2128 198 31 30 200 209 323
128 9 2 11 2128 194 199 193 325 329 196
129 9 2 11 2128 159 204 160 328 326 162
130 9 2 11 2129 194 193 215 196 330 331
131 9 2 11 2129 1 59 15 65 332 333
132 9 2 11 2129 216 30 34 334 220 219
133 9 2 11 2129 211 210 177 213 335 336
134 9 2 11 2129 176 211 177 337 336 179
135 9 2 11 2129 58 57 112 63 338 339
136 9 2 11 2129 111 58 112 340 339 116
137 9 2 11 2129 210 33 27 212 221 341
138 9 2 11 2129 57 56 113 62 342 343
139 9 2 11 2129 112 57 113 338 343 117
140 9 2 11 2129 56 55 114 61 344 345
141 9 2 11 2129 177 210 27 335 341 180
142 9 2 11 2129 15 59 111 332 346 115
143 9 2 11 2129 15 211 176 214 337 347
144 9 2 11 2129 55 16 114 348 119 344
145 9 2 11 2129 55 2 16 60 349 348
146 9 2 11 2129 2 194 16 197 350 349
147 9 2 11 2129 193 30 216 195 334 351
148 9 2 11 2129 215 193 216 330 351 218
149 9 2 11 2129 59 58 111 64 340 346
150 9 2 11 2129 56 114 113 345 118 342
151 9 2 11 2129 16 194 215 350 331 217
152 9 2 11 2129 1 15 176 333 347 178
$EndElements
