$MeshFormat
2.2 0 8
$EndMeshFormat
$Nodes
351
1 0.439937 0.496538 0
2 -0.43356 0.996238 0
3 0.440329 -0.500327 0
4 -0.434598 -0.999323 0
5 -0.484523 -1.02819 0
6 -0.384522 -1.02832 0
7 0.440009 -0.55807 0
8 -0.434406 -0.941653 0
9 0.390318 -0.47129 0
10 0.389948 0.467531 0
11 -0.433412 0.93855 0
12 0.490318 -0.471646 0
13 0.489948 0.467864 0
14 -0.483471 1.02512 0
15 0.43966 0.5543 0
16 -0.38347 1.02519 0
17 -0.433294 -1.5 0
18 -0.866025 -0.749439 0
19 -0.483294 -1.5 0
20 -0.866025 -0.807221 0
21 0.866025 -0.749403 0
22 -0.383294 -1.5 0
23 0.866025 -0.807333 0
24 -0.866025 0.745879 0
25 -0.866025 -0.691658 0
26 -0.866025 0.688105 0
27 0.866025 0.745747 0
28 0.866025 -0.691474 0
29 0.866025 0.687823 0
30 -0.432004 1.5 0
31 -0.482004 1.5 0
32 -0.866025 0.803653 0
33 0.866025 0.803671 0
34 -0.382004 1.5 0
35 -0.2887768333335959 -0.9161570000001498 0
36 -0.1429556666674079 -0.8329910000004227 0
37 0.002865499998889409 -0.7498250000006333 0
38 0.1486866666657256 -0.6666590000005367 0
39 0.2945078333330408 -0.5834930000001668 0
40 -0.361687416666774 -0.9577400000000612 0
41 -0.2158662500005144 -0.8745740000002933 0
42 -0.07004508333428361 -0.7914080000005419 0
43 0.0757760833323014 -0.7082420000005885 0
44 0.2215972499993702 -0.6250760000003592 0
45 0.3674184166665395 -0.5419100000000725 0
46 -0.2196158000003024 -0.9342700000001724 0
47 -0.05470960000075836 -0.8402200000004324 0
48 0.1101965999991631 -0.7461700000004772 0
49 0.2751027999995752 -0.6521200000002423 0
50 -0.3020689000001041 -0.9812950000000593 0
51 -0.1371627000005599 -0.8872450000003193 0
52 0.02774349999900205 -0.7931950000005691 0
53 0.1926496999993353 -0.699145000000379 0
54 0.357555899999722 -0.6050950000001585 0
55 0.4402506000000002 -0.3009540000004054 0
56 0.4401722000000003 -0.1015810000008865 0
57 0.4400938000000003 0.09779199999922417 0
58 0.4400154000000002 0.2971649999994278 0
59 0.4402898000000001 -0.4006405000002045 0
60 0.4402114000000003 -0.2012675000006273 0
61 0.4401330000000006 -0.001894500001300981 0
62 0.4400546000000003 0.1974784999993624 0
63 0.4399762000000002 0.3968514999997139 0
64 0.2943541666670733 0.5798213333331007 0
65 0.1487713333341735 0.6631046666661861 0
66 0.003188500001254868 0.7463879999992822 0
67 -0.1423943333326545 0.8296713333329451 0
68 -0.2879771666661467 0.9129546666663692 0
69 0.3671455833335158 0.5381796666665623 0
70 0.2215627500006345 0.6214629999996371 0
71 0.07597991666771753 0.7047463333327322 0
72 -0.06960291666574725 0.7880296666661406 0
73 -0.215185749999371 0.8713129999996402 0
74 -0.3607685833330935 0.9545963333331962 0
75 -0.2694612000003408 -0.8475804000001943 0
76 -0.1045164000008446 -0.7535078000004817 0
77 0.06042839999914185 -0.6594352000004894 0
78 0.2253731999995598 -0.565362600000251 0
79 -0.3519336000001552 -0.8946167000000884 0
80 -0.1869888000006127 -0.8005441000003495 0
81 -0.02204400000109047 -0.7064715000006219 0
82 0.1429007999993697 -0.6123989000003595 0
83 0.3078455999997875 -0.5183263000001213 0
84 0.3902440000000001 -0.2835258000004121 0
85 0.3901700000000003 -0.09576160000092376 0
86 0.3900960000000004 0.09200259999908511 0
87 0.3900220000000002 0.2797667999995217 0
88 0.390281 -0.3774079000001254 0
89 0.3902070000000003 -0.1896437000006934 0
90 0.3901330000000005 -0.001879500001231715 0
91 0.3900590000000003 0.1858846999993536 0
92 0.3899850000000001 0.3736488999996991 0
93 0.225276000000402 0.5617347999997701 0
94 0.0606040000009116 0.6559385999994785 0
95 -0.104067999999078 0.7501423999994725 0
96 -0.2687399999995676 0.8443461999997526 0
97 0.3076120000001499 0.5146328999999142 0
98 0.1429400000006243 0.6088366999996428 0
99 -0.02173199999886194 0.7030404999993489 0
100 -0.1864039999993085 0.7972442999996043 0
101 -0.3510759999997423 0.8914480999998525 0
102 0.4902440000000001 -0.2837440000004315 0
103 0.4901700000000003 -0.09584200000093901 0
104 0.4900960000000004 0.09205999999901071 0
105 0.4900220000000002 0.2799619999994959 0
106 0.4902810000000001 -0.3776950000002157 0
107 0.4902070000000002 -0.1897930000006507 0
108 0.4901330000000005 -0.001891000001212395 0
109 0.4900590000000003 0.1860109999992418 0
110 0.4899850000000001 0.3739129999996862 0
111 0.2750340000003255 0.6484779999998138 0
112 0.1104080000007618 0.7426559999995642 0
113 -0.05421799999917298 0.8368339999995269 0
114 -0.2188439999996007 0.9310119999997717 0
115 0.3573470000001776 0.6013889999998985 0
116 0.192721000000534 0.6955669999996945 0
117 0.02809500000096493 0.789744999999448 0
118 -0.136530999999378 0.8839229999996442 0
119 -0.3011569999997309 0.9781009999998462 0
120 -0.4337286666666656 -1.333107666667072 0
121 -0.4341633333333321 -1.166215333333796 0
122 -0.433511333333334 -1.416553833333073 0
123 -0.4339459999999986 -1.249661500000526 0
124 -0.4343806666666658 -1.082769166666995 0
125 -0.5784069999997061 -0.9160283333335035 0
126 -0.7222159999996107 -0.8327336666668922 0
127 -0.5065024999998421 -0.9576756666667581 0
128 -0.650311499999527 -0.874381000000274 0
129 -0.794120500000207 -0.7910863333332134 0
130 -0.4837036666666658 -1.342730000000347 0
131 -0.4841133333333322 -1.185460000000419 0
132 -0.4834988333333338 -1.421364999999812 0
133 -0.4839084999999982 -1.264095000000678 0
134 -0.4843181666666664 -1.106825000000085 0
135 -0.611690333333062 -0.9545336666668238 0
136 -0.7388576666663593 -0.8808773333335113 0
137 -0.5481066666666412 -0.991361833333348 0
138 -0.6752739999995712 -0.9177055000002483 0
139 -0.802441333333229 -0.844049166666727 0
140 -0.866025 -0.77833 0
141 -0.458294 -1.5 0
142 0.5822276666663933 -0.5833523333331733 0
143 0.7241263333330573 -0.6663776666665051 0
144 0.5112783333332791 -0.541839666666635 0
145 0.6531769999994103 -0.6248649999996549 0
146 0.7950756666664133 -0.7078903333331851 0
147 -0.383703333333333 -1.342773333333463 0
148 -0.3841126666666657 -1.185546666667042 0
149 -0.3834986666666668 -1.42138666666661 0
150 -0.3839079999999991 -1.264160000000335 0
151 -0.3843173333333328 -1.106933333333505 0
152 0.5820143333329348 -0.6411576666664335 0
153 0.7240196666662921 -0.7242453333331141 0
154 0.5110116666663939 -0.5996138333331736 0
155 0.6530169999995136 -0.6827014999997154 0
156 0.7950223333330968 -0.7657891666665282 0
157 0.866025 -0.7783679999999999 0
158 -0.408294 -1.5 0
159 -0.5777149999996494 0.9127850000002029 0
160 -0.7218699999996125 0.8293320000002242 0
161 -0.5056374999998592 0.9545115000000814 0
162 -0.6497924999992857 0.8710585000004135 0
163 -0.7939474999998778 0.7876055000000707 0
164 -0.7221520000003716 -0.7749896666664514 0
165 -0.5782790000003932 -0.8583213333331056 0
166 -0.7940885000001401 -0.7333238333332521 0
167 -0.6502155000005871 -0.8166554999996599 0
168 -0.5063425000001998 -0.8999871666665509 0
169 -0.5776163333329656 0.8550683333335463 0
170 -0.7218206666663538 0.7715866666668478 0
171 -0.5055141666665058 0.8968091666667598 0
172 -0.6497184999994563 0.8133275000003147 0
173 -0.7939228333330299 0.7298458333335089 0
174 -0.866025 0.7169920000003737 0
175 -0.866025 -0.7205484999998962 0
176 0.5819663333329999 0.5796076666664716 0
177 0.7239956666665517 0.6626773333332661 0
178 0.5109516666664563 0.5380728333332103 0
179 0.652980999999548 0.6211424999997356 0
180 0.7950103333330985 0.7042121666665293 0
181 0.7407893333336482 -0.6181980000001842 0
182 0.615553666667 -0.5449220000001951 0
183 0.8034071666668807 -0.6548360000001253 0
184 0.678171500000446 -0.581560000000261 0
185 0.5529358333336374 -0.5082840000001779 0
186 0.615306999999632 0.5411836666664515 0
187 0.7406659999996801 0.6145033333331462 0
188 0.5526274999998141 0.5045238333332246 0
189 0.6779864999994614 0.5778434999996849 0
190 0.8033454999998979 0.6511631666666069 0
191 0.866025 0.7167850000000463 0
192 0.866025 -0.7204384999997443 0
193 -0.4325226666666654 1.332079333333752 0
194 -0.4330413333333318 1.164158666667144 0
195 -0.4322633333333333 1.416039666666681 0
196 -0.4327819999999977 1.248119000000754 0
197 -0.4333006666666671 1.080198333333198 0
198 -0.4824929999999987 1.341706666667086 0
199 -0.4829819999999988 1.183413333333723 0
200 -0.482248499999999 1.420853333333657 0
201 -0.4827374999999985 1.262560000000474 0
202 -0.4832264999999996 1.104266666666779 0
203 -0.6109889999996556 0.9512976666668661 0
204 -0.7385069999997192 0.8774753333334958 0
205 -0.5472299999998984 0.9882088333333922 0
206 -0.6747479999995303 0.9143865000002719 0
207 -0.8022659999998721 0.8405641666667407 0
208 -0.866025 0.7747659999996263 0
209 -0.457004 1.5 0
210 0.723903333333587 0.7205473333334818 0
211 0.5817816666669895 0.6374236666668556 0
212 0.7949641666667295 0.7621091666667035 0
213 0.6528425000005202 0.6789855000003042 0
214 0.5107208333335508 0.5958618333334605 0
215 -0.3829813333333343 1.183459999999668 0
216 -0.3824926666666676 1.341729999999696 0
217 -0.3832256666666659 1.104325000000247 0
218 -0.3827370000000009 1.262594999999706 0
219 -0.3822483333333324 1.4208650000003 0
220 -0.407004 1.5 0
221 0.866025 0.7747090000002052 0
222 -0.5314649999998531 -0.9721091666667517 0
223 -0.5950486666663841 -0.9352810000001637 0
224 -0.730536833332985 -0.8568055000002017 0
225 -0.6586323333330327 -0.8984528333335073 0
226 -0.4584988333333329 -1.421365000000173 0
227 -0.4591383333333322 -1.175837666667108 0
228 -0.4593431666666661 -1.097202666666898 0
229 -0.4587161666666657 -1.337918833333709 0
230 -0.4589209999999989 -1.259283833333745 0
231 -0.7941204999998054 -0.8199773333334461 0
232 -0.4595605 -1.0137565 0
233 0.5111183333331966 -0.5707111666665866 0
234 0.582120999999664 -0.6122549999998034 0
235 -0.40956 -1.0138215 0
236 -0.4093426666666661 -1.097267666666898 0
237 -0.4091379999999989 -1.175881000000419 0
238 0.7950223333331461 -0.7368241666665571 0
239 0.7240729999996747 -0.6953114999998096 0
240 0.6530703333329961 -0.6537676666664693 0
241 0.284805316666308 -0.6178065000002045 0
242 0.2118947333326504 -0.6593895000003895 0
243 -0.2541963166669492 -0.9252135000001611 0
244 -0.1812857333338551 -0.8836305000002975 0
245 -0.09883263333408313 -0.8366055000004275 0
246 -0.4089206666666656 -1.259327166667057 0
247 -0.4084986666666665 -1.421386666666732 0
248 -0.3366494166667979 -0.9722385000000748 0
249 0.1294416333324443 -0.7064145000005069 0
250 0.05653104999902625 -0.7479975000005552 0
251 -0.4087159999999993 -1.337940500000267 0
252 0.440169 -0.5291984999999999 0
253 0.3672584166665204 -0.5707815000000833 0
254 -0.02592205000093448 -0.7950225000005329 0
255 0.4152081000000002 -0.1925534000006493 0
256 0.4151711000000003 -0.09867130000090513 0
257 -0.2062084333338743 -0.8402857000003086 0
258 -0.2791190166669684 -0.881868700000172 0
259 0.4150187000000002 0.2884658999994748 0
260 0.4149817000000001 0.3823479999997139 0
261 -0.1237360333341262 -0.7932494000004522 0
262 0.1870236666672877 0.6124197333329781 0
263 0.1046876666675425 0.6595216333328322 0
264 -0.7939228333331769 0.7587328333334239 0
265 0.1045575333324337 -0.663047100000513 0
266 0.03164694999901563 -0.7046301000005614 0
267 -0.7221839999999912 -0.8038616666666718 0
268 -0.650247500000002 -0.8455274999999989 0
269 -0.5783430000000497 -0.8871748333333045 0
270 -0.3615914166667979 -0.9289050000000749 0
271 -0.434502 -0.970488 0
272 0.4151319000000003 0.001015199999150201 0
273 0.4150949000000004 0.09489729999915464 0
274 -0.1232311666658662 0.7899068666662088 0
275 -0.2055671666661111 0.8370087666663488 0
276 -0.7218453333329832 0.800459333333536 0
277 0.3421510833335367 0.5236761666665504 0
278 0.2598150833337377 0.5707780666664354 0
279 0.4149425 0.4820345 0
280 0.4150579000000003 0.1887793999993729 0
281 -0.5064064999998531 -0.9288406666667517 0
282 -0.05043974999891154 0.7482651999993774 0
283 0.1870299333326427 -0.6160108000003939 0
284 0.3424129166665204 -0.5273915000000834 0
285 0.2599405166663003 -0.5744278000002089 0
286 0.03189625000108323 0.7011632999993803 0
287 0.4152473000000002 -0.2922399000004088 0
288 -0.7940885000001858 -0.7622143333332256 0
289 -0.6497431666662891 0.8422001666668852 0
290 0.4152843000000001 -0.3861220000002027 0
291 -0.5055634999998246 0.9256675000001015 0
292 -0.5776656666663075 0.8839266666668746 0
293 -0.2783585833328571 0.8786504333330609 0
294 -0.3606945833330734 0.9257523333331845 0
295 -0.433486 0.967394 0
296 0.4153235 -0.4858085 0
297 -0.05082545000097757 -0.7516664000005575 0
298 0.7323308333331159 0.6385903333332061 0
299 0.66131616666634 0.5970554999998089 0
300 0.4652081000000002 -0.192662500000659 0
301 0.4651711000000003 -0.09871150000091275 0
302 0.7950103333332759 0.6752501666666331 0
303 0.4650949000000003 0.09492599999911744 0
304 0.4651341000000003 -0.004760500000937889 0
305 0.4650187000000002 0.2885634999994618 0
306 0.4650579000000002 0.18887699999936 0
307 0.6615085000000207 -0.6007751666666787 0
308 0.5988906666666967 -0.5641371666666841 0
309 0.4652473000000001 -0.2923490000004185 0
310 0.4649425 0.482201 0
311 0.4649817000000001 0.3825144999997139 0
312 0.7324578333333527 -0.6422878333333446 0
313 0.7950756666665286 -0.6789258333332526 0
314 0.5359571666665 0.5237358333332358 0
315 0.4652843000000001 -0.3863000000002027 0
316 0.4653235 -0.4859865 0
317 0.5362728333331966 -0.5274991666665867 0
318 0.5986366666663159 0.5603956666664616 0
319 -0.5943519999996525 0.9320413333335344 0
320 -0.6581109999996844 0.8951301666668494 0
321 -0.4572484999999993 1.420853333333543 0
322 -0.457507833333332 1.336893000000419 0
323 -0.4577523333333321 1.257746333333738 0
324 -0.4580116666666653 1.173786000000433 0
325 -0.4582561666666659 1.094639333333572 0
326 -0.730188499999666 0.8534036666668601 0
327 -0.4585155 1.010679 0
328 -0.7939474999998063 0.8164925000001121 0
329 -0.5305929999998247 0.9689525000001015 0
330 0.2119026666672495 0.6557913333329999 0
331 0.1295896666674677 0.7028803333328751 0
332 0.2846940833336994 0.6141496666664572 0
333 -0.4082556666666659 1.094674333333572 0
334 -0.4080113333333331 1.173809333333406 0
335 0.3670070833335367 0.5670606666665503 0
336 0.4397985 0.525419 0
337 0.05679825000100835 0.7445219999994233 0
338 -0.02551474999895906 0.7916109999994045 0
339 0.7949641666667935 0.7331471666667408 0
340 -0.1806191666661276 0.8803416666663584 0
341 -0.09830616666591374 0.833252666666236 0
342 -0.408515 1.010714 0
343 -0.3357235833330733 0.9690723333331845 0
344 -0.4072483333333338 1.420864999999848 0
345 0.7239495000000693 0.6916123333333739 0
346 0.5818739999999947 0.6085156666666636 0
347 0.5108131666664999 0.5669538333332358 0
348 -0.4077519999999999 1.25776966666671 0
349 -0.4075076666666665 1.336904666666724 0
350 0.6528886666667706 0.6500505000000608 0
351 -0.2534105833328737 0.9219833333330705 0
$EndNodes
$Elements
152
1 15 2 2 1071102 18
2 15 2 1 1072106 19
3 15 2 3 1075117 21
4 15 2 4 1088166 31
5 8 2 4 27523 18 20 140
6 8 2 1 27524 19 17 141
7 8 2 2 27528 21 23 157
8 8 2 1 27529 22 17 158
9 8 2 4 27533 24 26 174
10 8 2 4 27534 25 18 175
11 8 2 2 27538 27 29 191
12 8 2 2 27539 28 21 192
13 8 2 4 27543 24 32 208
14 8 2 3 27544 31 30 209
15 8 2 3 27547 30 34 220
16 8 2 2 27548 33 27 221
17 9 2 11 3046 5 125 135 222 223 137
18 9 2 11 3046 125 126 136 128 224 225
19 9 2 11 3046 19 17 130 141 226 132
20 9 2 11 3046 131 121 5 227 228 134
21 9 2 11 3046 130 120 131 229 230 133
22 9 2 11 3046 135 125 136 223 225 138
23 9 2 11 3046 136 126 20 224 231 139
24 9 2 11 3046 5 4 125 232 127 222
25 9 2 11 3046 17 120 130 122 229 226
26 9 2 11 3046 126 18 20 129 140 231
27 9 2 11 3046 120 121 131 123 227 230
28 9 2 11 3046 121 4 5 124 232 228
29 9 2 11 3047 152 7 142 154 233 234
30 9 2 11 3047 121 4 6 124 235 236
31 9 2 11 3047 148 121 6 237 236 151
32 9 2 11 3047 21 153 143 238 239 146
33 9 2 11 3047 143 152 142 240 234 145
34 9 2 11 3047 38 39 49 44 241 242
35 9 2 11 3047 46 35 36 243 41 244
36 9 2 11 3047 46 36 47 244 245 51
37 9 2 11 3047 120 121 148 123 237 246
38 9 2 11 3047 22 17 147 158 247 149
39 9 2 11 3047 6 4 35 235 40 248
40 9 2 11 3047 37 38 48 43 249 250
41 9 2 11 3047 17 120 147 122 251 247
42 9 2 11 3047 153 152 143 155 240 239
43 9 2 11 3047 48 38 49 249 242 53
44 9 2 11 3047 39 3 7 45 252 253
45 9 2 11 3047 147 120 148 251 246 150
46 9 2 11 3047 6 35 46 248 243 50
47 9 2 11 3047 47 36 37 245 42 254
48 9 2 11 3047 23 153 21 156 238 157
49 9 2 11 3047 47 37 48 254 250 52
50 9 2 11 3047 49 39 7 241 253 54
51 9 2 11 3047 142 7 3 233 252 144
52 9 2 11 3048 84 56 85 255 256 89
53 9 2 11 3048 35 36 75 41 257 258
54 9 2 11 3048 87 58 10 259 260 92
55 9 2 11 3048 75 36 76 257 261 80
56 9 2 11 3048 93 65 94 262 263 98
57 9 2 11 3048 26 170 24 173 264 174
58 9 2 11 3048 37 38 77 43 265 266
59 9 2 11 3048 165 164 126 167 267 268
60 9 2 11 3048 125 165 126 269 268 128
61 9 2 11 3048 4 35 8 40 270 271
62 9 2 11 3048 85 57 86 272 273 90
63 9 2 11 3048 95 67 96 274 275 100
64 9 2 11 3048 24 170 160 264 276 163
65 9 2 11 3048 10 64 93 277 278 97
66 9 2 11 3048 58 1 10 63 279 260
67 9 2 11 3048 86 57 87 273 280 91
68 9 2 11 3048 8 165 125 168 269 281
69 9 2 11 3048 66 67 95 72 274 282
70 9 2 11 3048 57 58 87 62 259 280
71 9 2 11 3048 93 64 65 278 70 262
72 9 2 11 3048 38 78 77 283 82 265
73 9 2 11 3048 39 9 78 284 83 285
74 9 2 11 3048 94 66 95 286 282 99
75 9 2 11 3048 4 8 125 271 281 127
76 9 2 11 3048 55 56 84 60 255 287
77 9 2 11 3048 126 164 18 267 288 129
78 9 2 11 3048 8 35 75 270 258 79
79 9 2 11 3048 164 25 18 166 175 288
80 9 2 11 3048 94 65 66 263 71 286
81 9 2 11 3048 170 169 160 172 289 276
82 9 2 11 3048 9 55 84 290 287 88
83 9 2 11 3048 169 11 159 171 291 292
84 9 2 11 3048 96 68 11 293 294 101
85 9 2 11 3048 159 11 2 291 295 161
86 9 2 11 3048 39 3 9 45 296 284
87 9 2 11 3048 38 39 78 44 285 283
88 9 2 11 3048 68 2 11 74 295 294
89 9 2 11 3048 67 68 96 73 293 275
90 9 2 11 3048 160 169 159 289 292 162
91 9 2 11 3048 36 37 76 42 297 261
92 9 2 11 3048 10 1 64 279 69 277
93 9 2 11 3048 76 37 77 297 266 81
94 9 2 11 3048 3 55 9 59 290 296
95 9 2 11 3048 56 57 85 61 272 256
96 9 2 11 3049 176 177 187 179 298 299
97 9 2 11 3049 102 56 103 300 301 107
98 9 2 11 3049 187 177 29 298 302 190
99 9 2 11 3049 56 57 104 61 303 304
100 9 2 11 3049 56 104 103 304 108 301
101 9 2 11 3049 57 58 105 62 305 306
102 9 2 11 3049 181 142 182 307 308 184
103 9 2 11 3049 55 56 102 60 300 309
104 9 2 11 3049 104 57 105 303 306 109
105 9 2 11 3049 58 1 13 63 310 311
106 9 2 11 3049 143 142 181 145 307 312
107 9 2 11 3049 28 143 181 313 312 183
108 9 2 11 3049 13 1 176 310 178 314
109 9 2 11 3049 12 55 102 315 309 106
110 9 2 11 3049 142 3 12 144 316 317
111 9 2 11 3049 142 12 182 317 185 308
112 9 2 11 3049 3 55 12 59 315 316
113 9 2 11 3049 186 176 187 318 299 189
114 9 2 11 3049 177 27 29 180 191 302
115 9 2 11 3049 105 58 13 305 311 110
116 9 2 11 3049 21 143 28 146 313 192
117 9 2 11 3049 13 176 186 314 318 188
118 9 2 11 3050 204 203 159 206 319 320
119 9 2 11 3050 198 31 30 200 209 321
120 9 2 11 3050 199 198 193 201 322 323
121 9 2 11 3050 14 199 194 202 324 325
122 9 2 11 3050 160 204 159 326 320 162
123 9 2 11 3050 194 199 193 324 323 196
124 9 2 11 3050 2 14 194 327 325 197
125 9 2 11 3050 24 32 160 208 328 163
126 9 2 11 3050 193 198 30 322 321 195
127 9 2 11 3050 32 204 160 207 326 328
128 9 2 11 3050 159 14 2 329 327 161
129 9 2 11 3050 159 203 14 319 205 329
130 9 2 11 3051 111 65 112 330 331 116
131 9 2 11 3051 64 65 111 70 330 332
132 9 2 11 3051 16 194 215 333 334 217
133 9 2 11 3051 1 64 15 69 335 336
134 9 2 11 3051 112 66 113 337 338 117
135 9 2 11 3051 210 33 27 212 221 339
136 9 2 11 3051 67 114 113 340 118 341
137 9 2 11 3051 68 2 16 74 342 343
138 9 2 11 3051 216 30 34 344 220 219
139 9 2 11 3051 66 67 113 72 341 338
140 9 2 11 3051 177 210 27 345 339 180
141 9 2 11 3051 65 66 112 71 337 331
142 9 2 11 3051 15 64 111 335 332 115
143 9 2 11 3051 15 211 176 214 346 347
144 9 2 11 3051 215 193 216 348 349 218
145 9 2 11 3051 176 211 177 346 350 179
146 9 2 11 3051 211 210 177 213 345 350
147 9 2 11 3051 193 30 216 195 344 349
148 9 2 11 3051 2 194 16 197 333 342
149 9 2 11 3051 68 16 114 343 119 351
150 9 2 11 3051 67 68 114 73 351 340
151 9 2 11 3051 1 15 176 336 347 178
152 9 2 11 3051 194 193 215 196 348 334
$EndElements
