$MeshFormat
2.2 0 8
$EndMeshFormat
$Nodes
351
1 0.436137 0.496791 0
2 0.435223 -0.504209 0
3 -0.433996 0.994821 0
4 -0.437941 -1.00392 0
5 -0.487989 -1.03254 0
6 -0.38799 -1.03294 0
7 0.434957 -0.56197 0
8 -0.437637 -0.946137 0
9 -0.433871 0.9371390000000001 0
10 0.386111 0.467814 0
11 0.385249 -0.4752 0
12 0.486111 0.46791 0
13 0.485249 -0.475537 0
14 -0.483981 1.02368 0
15 0.436027 0.554465 0
16 -0.383981 1.0238 0
17 -0.866025 -0.75292 0
18 -0.438775 -1.5 0
19 -0.866025 -0.810881 0
20 -0.488775 -1.5 0
21 0.866025 -0.75605 0
22 -0.388775 -1.5 0
23 0.866025 -0.813967 0
24 -0.866025 0.745058 0
25 -0.866025 -0.694959 0
26 -0.866025 0.687304 0
27 0.866025 0.745025 0
28 0.866025 0.687288 0
29 0.866025 -0.698134 0
30 -0.433726 1.5 0
31 -0.483726 1.5 0
32 -0.866025 0.802812 0
33 0.866025 0.802762 0
34 -0.383726 1.5 0
35 -0.2924136666670288 -0.9206348333335406 0
36 -0.1468863333340533 -0.8373496666670787 0
37 -0.001359000001185995 -0.7540645000006787 0
38 0.1441683333325473 -0.6707793333337831 0
39 0.2896956666662707 -0.5874941666668934 0
40 -0.3651773333335048 -0.9622774166667647 0
41 -0.2196500000005603 -0.8789922500003206 0
42 -0.07412266666760436 -0.79570708333387 0
43 0.07140466666562939 -0.7124219166672603 0
44 0.2169319999994352 -0.6291367500003232 0
45 0.3624593333331608 -0.5458515833334321 0
46 -0.223400600000372 -0.9387460000002128 0
47 -0.05881120000088658 -0.8445520000005073 0
48 0.1057781999991098 -0.7503580000005095 0
49 0.2703675999995855 -0.6561640000002371 0
50 -0.3056953000001155 -0.9858430000000661 0
51 -0.1411059000006046 -0.891649000000346 0
52 0.02348349999894228 -0.7974550000006053 0
53 0.1880728999993845 -0.7032610000003522 0
54 0.3526622999997641 -0.609067000000135 0
55 -0.2889738333335373 0.9118160000001166 0
56 -0.143951666667197 0.8288110000003035 0
57 0.001070499999151542 0.7458060000004856 0
58 0.1460926666660847 0.662801000000333 0
59 0.2911148333330588 0.5797960000001572 0
60 -0.3614849166667924 0.9533185000000719 0
61 -0.216462750000359 0.8703135000002055 0
62 -0.07144058333401415 0.7873085000003897 0
63 0.07358158333256654 0.7043035000004388 0
64 0.2186037499995659 0.6212985000002484 0
65 0.3636259166665171 0.5382935000000857 0
66 0.4359542000000004 0.2965910000004642 0
67 0.435771400000001 0.09639100000104578 0
68 0.435588600000001 -0.1038089999989111 0
69 0.4354058000000006 -0.3040089999994231 0
70 0.4360456000000001 0.3966910000001751 0
71 0.4358628000000007 0.196491000000755 0
72 0.4356800000000013 -0.003708999998574547 0
73 0.4354972000000008 -0.2039089999991671 0
74 0.4353144000000003 -0.4041089999997323 0
75 -0.26987460000036 0.8432740000002061 0
76 -0.1058782000008555 0.7494090000004896 0
77 0.0581181999990899 0.6555440000005209 0
78 0.2221145999995258 0.5616790000002715 0
79 -0.3518728000001211 0.8902065000000694 0
80 -0.1878764000004908 0.7963415000002809 0
81 -0.02388000000116908 0.7024765000006692 0
82 0.1401163999993028 0.6086115000003991 0
83 0.3041127999996751 0.514746500000186 0
84 0.3859386000000004 0.2792112000003905 0
85 0.3857662000000009 0.09060840000096509 0
86 0.3855938000000009 -0.09799439999898901 0
87 0.3854214000000005 -0.2865971999995175 0
88 0.3860248000000001 0.3735126000000845 0
89 0.3858524000000006 0.1849098000006674 0
90 0.3856800000000012 -0.003692999998696822 0
91 0.3855076000000007 -0.1922957999992137 0
92 0.3853352000000002 -0.3808985999997745 0
93 0.2206718000003535 -0.5693873999997977 0
94 0.05609460000083311 -0.6635747999995232 0
95 -0.108482599999106 -0.7577621999994884 0
96 -0.2730597999995713 -0.8519495999997546 0
97 0.3029604000001099 -0.5222936999999371 0
98 0.1383832000006144 -0.6164810999996484 0
99 -0.02619399999889654 -0.7106684999993684 0
100 -0.1907711999993649 -0.8048558999996366 0
101 -0.3553483999997467 -0.899043299999855 0
102 0.4854213999999996 -0.2868476000004269 0
103 0.4855937999999991 -0.09815820000101644 0
104 0.485766199999999 0.09053119999892933 0
105 0.4859385999999996 0.2792205999994755 0
106 0.4853351999999998 -0.3811923000002241 0
107 0.4855075999999994 -0.1925029000007019 0
108 0.4856799999999988 -0.003813500001254688 0
109 0.4858523999999992 0.184875899999165 0
110 0.4860247999999998 0.3735652999997283 0
111 0.2720254000003965 0.648331999999773 0
112 0.1080238000008591 0.7421989999995082 0
113 -0.05597779999911884 0.8360659999994957 0
114 -0.219979399999576 0.9299329999997573 0
115 0.3540262000001163 0.6013984999999334 0
116 0.1900246000006293 0.6952654999996398 0
117 0.02602300000113655 0.7891324999993494 0
118 -0.1379785999993651 0.8829994999996366 0
119 -0.3019801999998424 0.9768664999999098 0
120 -0.7233303333336856 -0.8365866666664602 0
121 -0.5806356666670558 -0.9202533333331051 0
122 -0.79467766666678 -0.7947533333332669 0
123 -0.6519830000003308 -0.878419999999806 0
124 -0.5092883333334274 -0.9620866666666115 0
125 -0.4382189999999997 -1.169279999999812 0
126 -0.4384969999999992 -1.334639999999509 0
127 -0.43808 -1.086599999999968 0
128 -0.4383579999999989 -1.25195999999933 0
129 -0.4386359999999995 -1.417319999999699 0
130 -0.7400130000003546 -0.8847673333331254 0
131 -0.6140010000003512 -0.9586536666664608 0
132 -0.8030190000000856 -0.8478241666666164 0
133 -0.6770070000006128 -0.9217104999996407 0
134 -0.5509950000000775 -0.9955968333332879 0
135 -0.4882509999999993 -1.188359999999595 0
136 -0.4885129999999993 -1.344179999999595 0
137 -0.4881199999999997 -1.110449999999815 0
138 -0.4883819999999987 -1.266269999999208 0
139 -0.4886439999999997 -1.422089999999798 0
140 -0.463775 -1.5 0
141 -0.866025 -0.7819005000004662 0
142 0.5788236666665838 -0.5881559999999515 0
143 0.7224243333332135 -0.67210299999993 0
144 0.5070233333333802 -0.5461825000000274 0
145 0.6506239999995816 -0.6301294999997554 0
146 0.7942246666666699 -0.7140765000000018 0
147 -0.3885133333333335 -1.344313333333463 0
148 -0.3882516666666671 -1.188626666666883 0
149 -0.3886441666666663 -1.422156666666437 0
150 -0.3883825000000006 -1.266470000000341 0
151 -0.3881208333333329 -1.110783333333076 0
152 0.5786463333329963 -0.645968999999803 0
153 0.7223356666662153 -0.7299679999997362 0
154 0.5068016666664702 -0.6039694999998851 0
155 0.6504909999992461 -0.6879684999995592 0
156 0.7941803333330774 -0.7719674999998503 0
157 0.866025 -0.7850085 0
158 -0.4137749999997949 -1.5 0
159 -0.7220153333334305 0.8283123333332771 0
160 -0.5780056666667952 0.9115666666665923 0
161 -0.7940201666665776 0.7866851666667182 0
162 -0.6500105000002373 0.8699394999998629 0
163 -0.5060008333334279 0.9531938333332786 0
164 -0.5804329999996659 -0.8624110000001959 0
165 -0.7232289999996193 -0.7786850000002232 0
166 -0.5090349999998204 -0.9042740000001053 0
167 -0.6518309999993913 -0.8205480000003569 0
168 -0.7946269999999027 -0.736822000000057 0
169 -0.7219736666670269 0.7705823333331251 0
170 -0.5779223333336925 0.8538606666664591 0
171 -0.793999333333409 0.728943166666623 0
172 -0.649948000000506 0.8122214999997075 0
173 -0.5058966666668745 0.8954998333332133 0
174 -0.866025 -0.7239395 0
175 -0.866025 0.7161810000002051 0
176 0.5794329999997669 0.5795356666665321 0
177 0.7227289999996724 0.6622803333331442 0
178 0.5077849999999509 0.5381633333333049 0
179 0.6510809999995018 0.6209079999997124 0
180 0.7943769999997279 0.7036526666665095 0
181 0.6127489999996827 0.5410359999998168 0
182 0.739386999999636 0.6141619999997898 0
183 0.549429999999768 0.5044729999998661 0
184 0.6760679999994893 0.5775989999997051 0
185 0.8027059999998594 0.6507249999999187 0
186 0.7390996666669696 -0.6239350000001771 0
187 0.6121743333336818 -0.5497360000002036 0
188 0.8025623333333497 -0.6610345000000095 0
189 0.6756370000005651 -0.5868355000003304 0
190 0.5487116666667908 -0.5126365000000727 0
191 0.866025 0.7161565000002051 0
192 0.866025 -0.727092 0
193 -0.4338159999999998 1.331607000000375 0
194 -0.4339059999999998 1.163214000000274 0
195 -0.4337709999999999 1.415803500000251 0
196 -0.4338609999999997 1.24741050000048 0
197 -0.4339509999999999 1.079017500000274 0
198 -0.4838109999999998 1.341226666667043 0
199 -0.4838959999999998 1.182453333333738 0
200 -0.4837684999999999 1.420613333333442 0
201 -0.4838534999999995 1.261840000000908 0
202 -0.4839384999999999 1.103066666666869 0
203 -0.61132899999971 0.950057333333501 0
204 -0.7386769999996569 0.876434666666865 0
205 -0.5476549999998783 0.986868666666737 0
206 -0.6750029999994968 0.9132460000002909 0
207 -0.802350999999855 0.8396233333334171 0
208 -0.866025 0.7739349999997949 0
209 -0.458726 1.5 0
210 0.7226923333336525 0.7199963333335175 0
211 0.5793596666670651 0.6372306666668967 0
212 0.7943586666668713 0.7613791666667847 0
213 0.6510260000005037 0.6786135000002909 0
214 0.5076933333335072 0.5958478333334337 0
215 -0.3838960000000002 1.182533333332914 0
216 -0.3838110000000002 1.341266666666305 0
217 -0.3839385000000001 1.103166666666494 0
218 -0.3838535000000002 1.261899999999634 0
219 -0.3837685000000001 1.420633333333222 0
220 -0.408726 1.5 0
221 0.866025 0.7738935 0
222 -0.7946776666668428 -0.82373383333323 0
223 -0.4631039999999998 -1.100909999999906 0
224 -0.4632349999999995 -1.178819999999704 0
225 -0.4633739999999993 -1.261499999999552 0
226 -0.4635049999999993 -1.339409999999552 0
227 -0.5343123333335279 -0.9763966666665526 0
228 -0.462965 -1.01823 0
229 -0.7316716666670201 -0.8606769999997927 0
230 -0.5973183333337035 -0.939453499999783 0
231 -0.6603243333337052 -0.9025103333331153 0
232 -0.4636439999999997 -1.422089999999798 0
233 -0.4132353333333334 -1.178953333333348 0
234 -0.4131044999999999 -1.101109999999906 0
235 -0.1028487666674699 -0.8409508333337929 0
236 -0.03008510000103629 -0.799308250000593 0
237 0.650535333333105 -0.6590359999998665 0
238 0.7223799999997145 -0.7010354999998331 0
239 0.7941803333331077 -0.7430089999998681 0
240 -0.4133743333333331 -1.261633333333196 0
241 0.1249732666658286 -0.7105686666671462 0
242 0.05220959999896191 -0.7522112500005941 0
243 0.2800316333329281 -0.6218290833335652 0
244 0.3623263333331354 -0.5747320833334466 0
245 -0.1851434666672127 -0.8880478333336457 0
246 -0.4135051666666664 -1.339476666666486 0
247 -0.4129655 -1.01843 0
248 -0.3402018333335144 -0.9767874166667703 0
249 -0.4136441666666668 -1.422156666666732 0
250 -0.2579071333337004 -0.9296904166668767 0
251 0.2072679666660664 -0.6634716666670102 0
252 0.43509 -0.5330895 0
253 0.5068903333332919 -0.5750629999999757 0
254 0.5787349999997901 -0.6170624999998773 0
255 -0.2827367333333001 -0.8862922166666476 0
256 -0.2099730666668123 -0.8446496333334166 0
257 0.4110326000000002 0.3822025000002321 0
258 0.4109464000000004 0.2879011000004273 0
259 0.02736779999982356 -0.7088196500001009 0
260 -0.05492080000014601 -0.7559133500000835 0
261 -0.1276844666665797 -0.7975559333332836 0
262 0.1021054333325873 0.6591725000004269 0
263 0.1841036333328052 0.6122400000003023 0
264 0.410677400000001 -0.006600299998973019 0
265 0.4107688000000009 0.09349970000100544 0
266 0.4105912000000009 -0.1009016999989501 0
267 0.410236 -0.4897045 0
268 0.4103274000000003 -0.3896044999997116 0
269 -0.7946269999998097 -0.7658025000001116 0
270 -0.6518816666666758 -0.849498833333328 0
271 -0.5805343333333608 -0.8913321666666505 0
272 -0.7232796666666524 -0.8076358333333418 0
273 0.3386129166665294 0.5238050000000786 0
274 0.411124 0.4823025 0
275 -0.5091363333335279 -0.9331951666665526 0
276 0.4104136000000005 -0.2953030999994704 0
277 0.2566147166662923 0.5707375000002144 0
278 -0.437789 -0.9750285 0
279 -0.3650253333335144 -0.9333859166667703 0
280 0.4105050000000007 -0.1952030999992143 0
281 -0.7219945000002287 0.7994473333332011 0
282 -0.7939993333335135 0.7578201666665625 0
283 -0.05240385000085196 0.7476075000004876 0
284 -0.1249149333340262 0.7891100000003965 0
285 0.02959434999912072 0.7006750000005033 0
286 -0.6499688333335615 0.8410864999998682 0
287 0.1001314666666902 -0.6671770666666532 0
288 0.1824200666664504 -0.6200833666667904 0
289 0.2551837333333121 -0.5784407833333456 0
290 0.3374723333331353 -0.5313470833334467 0
291 0.4108550000000006 0.1878011000007181 0
292 -0.3614224166667687 0.9244775000000583 0
293 -0.2794242166669486 0.8775450000001614 0
294 -0.5779640000002438 0.8827136666665256 0
295 -0.5059383333333975 0.9243528333332962 0
296 -0.4339335 0.9659800000000001 0
297 -0.2069131333337785 0.8360425000002548 0
298 0.7310579999996543 0.638221166666467 0
299 0.7943769999998362 0.6747841666665721 0
300 0.5327719999998834 0.5237228333332661 0
301 0.5960909999997248 0.5602858333331744 0
302 0.6589616666667767 -0.6060455000000643 0
303 0.5954990000001328 -0.5689460000000776 0
304 0.7307620000000916 -0.6480190000000535 0
305 0.4609464 0.2879057999999698 0
306 0.4610326000000002 0.3822505000002321 0
307 0.4607688 0.09346109999998756 0
308 0.4606774 -0.006638899999990899 0
309 0.4608550000000002 0.1878058000002606 0
310 0.461124 0.4823505 0
311 0.7942246666666068 -0.685118499999965 0
312 0.6594099999997014 0.596848833333161 0
313 0.5320363333332919 -0.5318464999999757 0
314 0.4603274000000003 -0.3897729999997115 0
315 0.4604136000000001 -0.295428299999925 0
316 0.460236 -0.489873 0
317 0.4605050000000003 -0.195328299999669 0
318 0.4605912 -0.1009835999999638 0
319 -0.4588134999999998 1.336416833333709 0
320 -0.4588559999999998 1.257030166667057 0
321 -0.4587684999999999 1.420613333333521 0
322 -0.4589009999999998 1.172833666667006 0
323 -0.4589434999999999 1.093447000000137 0
324 -0.5309933333333976 0.9676233333332961 0
325 -0.4589885 1.0092505 0
326 -0.5946673333332526 0.9308120000000466 0
327 -0.658341333333226 0.8940006666667286 0
328 -0.7940201666667153 0.8155621666666386 0
329 -0.7303461666665436 0.8523735000000711 0
330 -0.4089434999999999 1.093507000000137 0
331 -0.4089885 1.0093105 0
332 -0.1819655333333865 0.8793720000000305 0
333 -0.09996473333315792 0.8324384999998996 0
334 -0.4089010000000001 1.172873666666594 0
335 0.579396333333416 0.6083831666667143 0
336 0.6510443333333688 0.6497555000000204 0
337 -0.3364774166667687 0.9678080000000584 0
338 -0.2544766166665566 0.920874499999937 0
339 0.05454715000000532 0.7440024999999969 0
340 0.1270582333334719 0.7024999999999206 0
341 0.5077299999998834 0.567000333333266 0
342 0.7227106666666625 0.6911383333333309 0
343 0.7943586666668263 0.7325106666667588 0
344 -0.02745364999998365 0.7909359999999906 0
345 0.3635709166665294 0.5671305000000786 0
346 0.436082 0.525628 0
347 -0.4087685000000001 1.420633333333153 0
348 0.2090590333332406 0.655566500000053 0
349 -0.408856 1.257070166666645 0
350 0.2815701166667277 0.6140639999999651 0
351 -0.4088135 1.336436833333341 0
$EndNodes
$Elements
152
1 15 2 2 1040732 18
2 15 2 1 1041736 19
3 15 2 3 1044747 21
4 15 2 4 1057796 31
5 8 2 1 26757 18 20 140
6 8 2 4 26758 19 17 141
7 8 2 2 26762 21 23 157
8 8 2 1 26763 22 18 158
9 8 2 4 26767 17 25 174
10 8 2 4 26768 26 24 175
11 8 2 2 26772 27 28 191
12 8 2 2 26773 29 21 192
13 8 2 4 26777 24 32 208
14 8 2 3 26778 31 30 209
15 8 2 3 26781 30 34 220
16 8 2 2 26782 33 27 221
17 9 2 11 2962 120 19 17 222 141 122
18 9 2 11 2962 135 5 125 137 223 224
19 9 2 11 2962 136 135 126 138 225 226
20 9 2 11 2962 5 121 4 227 124 228
21 9 2 11 2962 126 135 125 225 224 128
22 9 2 11 2962 130 19 120 132 222 229
23 9 2 11 2962 5 131 121 134 230 227
24 9 2 11 2962 121 130 120 231 229 123
25 9 2 11 2962 125 5 4 223 228 127
26 9 2 11 2962 18 20 136 140 139 232
27 9 2 11 2962 18 136 126 232 226 129
28 9 2 11 2962 131 130 121 133 231 230
29 9 2 11 2963 148 125 6 233 234 151
30 9 2 11 2963 47 36 37 235 42 236
31 9 2 11 2963 153 152 143 155 237 238
32 9 2 11 2963 21 153 143 239 238 146
33 9 2 11 2963 126 125 148 128 233 240
34 9 2 11 2963 37 38 48 43 241 242
35 9 2 11 2963 49 39 7 243 244 54
36 9 2 11 2963 46 36 47 245 235 51
37 9 2 11 2963 147 126 148 246 240 150
38 9 2 11 2963 6 4 35 247 40 248
39 9 2 11 2963 22 18 147 158 249 149
40 9 2 11 2963 23 153 21 156 239 157
41 9 2 11 2963 6 35 46 248 250 50
42 9 2 11 2963 48 38 49 241 251 53
43 9 2 11 2963 46 35 36 250 41 245
44 9 2 11 2963 47 37 48 236 242 52
45 9 2 11 2963 18 126 147 129 246 249
46 9 2 11 2963 125 4 6 127 247 234
47 9 2 11 2963 39 2 7 45 252 244
48 9 2 11 2963 38 39 49 44 243 251
49 9 2 11 2963 142 7 2 253 252 144
50 9 2 11 2963 143 152 142 237 254 145
51 9 2 11 2963 152 7 142 154 253 254
52 9 2 11 2964 35 96 36 255 256 41
53 9 2 11 2964 84 10 66 88 257 258
54 9 2 11 2964 95 94 37 99 259 260
55 9 2 11 2964 96 95 36 100 261 256
56 9 2 11 2964 78 77 58 82 262 263
57 9 2 11 2964 68 85 67 264 265 72
58 9 2 11 2964 68 86 85 266 90 264
59 9 2 11 2964 2 11 69 267 268 74
60 9 2 11 2964 165 17 25 269 174 168
61 9 2 11 2964 121 120 164 123 270 271
62 9 2 11 2964 164 120 165 270 272 167
63 9 2 11 2964 10 59 1 273 65 274
64 9 2 11 2964 8 121 164 275 271 166
65 9 2 11 2964 11 87 69 92 276 268
66 9 2 11 2964 10 78 59 83 277 273
67 9 2 11 2964 4 8 35 278 279 40
68 9 2 11 2964 69 87 68 276 280 73
69 9 2 11 2964 24 159 169 161 281 282
70 9 2 11 2964 57 76 56 283 284 62
71 9 2 11 2964 77 76 57 81 283 285
72 9 2 11 2964 169 159 170 281 286 172
73 9 2 11 2964 87 86 68 91 266 280
74 9 2 11 2964 77 57 58 285 63 262
75 9 2 11 2964 78 58 59 263 64 277
76 9 2 11 2964 38 94 93 287 98 288
77 9 2 11 2964 39 93 11 289 97 290
78 9 2 11 2964 37 94 38 259 287 43
79 9 2 11 2964 8 96 35 101 255 279
80 9 2 11 2964 120 17 165 122 269 272
81 9 2 11 2964 85 84 67 89 291 265
82 9 2 11 2964 67 84 66 291 258 71
83 9 2 11 2964 66 10 1 257 274 70
84 9 2 11 2964 4 121 8 124 275 278
85 9 2 11 2964 75 9 55 79 292 293
86 9 2 11 2964 170 160 9 294 295 173
87 9 2 11 2964 55 9 3 292 296 60
88 9 2 11 2964 39 11 2 290 267 45
89 9 2 11 2964 38 93 39 288 289 44
90 9 2 11 2964 160 3 9 163 296 295
91 9 2 11 2964 159 160 170 162 294 286
92 9 2 11 2964 56 75 55 297 293 61
93 9 2 11 2964 36 95 37 261 260 42
94 9 2 11 2964 76 75 56 80 297 284
95 9 2 11 2964 26 24 169 175 282 171
96 9 2 11 2965 182 177 28 298 299 185
97 9 2 11 2965 12 176 181 300 301 183
98 9 2 11 2965 186 142 187 302 303 189
99 9 2 11 2965 143 142 186 145 302 304
100 9 2 11 2965 105 66 12 305 306 110
101 9 2 11 2965 68 67 104 72 307 308
102 9 2 11 2965 104 67 105 307 309 109
103 9 2 11 2965 66 1 12 70 310 306
104 9 2 11 2965 29 143 186 311 304 188
105 9 2 11 2965 21 143 29 146 311 192
106 9 2 11 2965 12 1 176 310 178 300
107 9 2 11 2965 176 177 182 179 298 312
108 9 2 11 2965 142 13 187 313 190 303
109 9 2 11 2965 13 69 102 314 315 106
110 9 2 11 2965 2 69 13 74 314 316
111 9 2 11 2965 142 2 13 144 316 313
112 9 2 11 2965 181 176 182 301 312 184
113 9 2 11 2965 69 68 102 73 317 315
114 9 2 11 2965 102 68 103 317 318 107
115 9 2 11 2965 67 66 105 71 305 309
116 9 2 11 2965 177 27 28 180 191 299
117 9 2 11 2965 68 104 103 308 108 318
118 9 2 11 2966 199 198 193 201 319 320
119 9 2 11 2966 193 198 30 319 321 195
120 9 2 11 2966 194 199 193 322 320 196
121 9 2 11 2966 14 199 194 202 322 323
122 9 2 11 2966 160 14 3 324 325 163
123 9 2 11 2966 204 203 160 206 326 327
124 9 2 11 2966 24 32 159 208 328 161
125 9 2 11 2966 3 14 194 325 323 197
126 9 2 11 2966 32 204 159 207 329 328
127 9 2 11 2966 198 31 30 200 209 321
128 9 2 11 2966 159 204 160 329 327 162
129 9 2 11 2966 160 203 14 326 205 324
130 9 2 11 2967 3 194 16 197 330 331
131 9 2 11 2967 56 114 113 332 118 333
132 9 2 11 2967 16 194 215 330 334 217
133 9 2 11 2967 176 211 177 335 336 179
134 9 2 11 2967 55 16 114 337 119 338
135 9 2 11 2967 58 57 112 63 339 340
136 9 2 11 2967 15 211 176 214 335 341
137 9 2 11 2967 177 210 27 342 343 180
138 9 2 11 2967 57 56 113 62 333 344
139 9 2 11 2967 56 55 114 61 338 332
140 9 2 11 2967 1 59 15 65 345 346
141 9 2 11 2967 216 30 34 347 220 219
142 9 2 11 2967 111 58 112 348 340 116
143 9 2 11 2967 112 57 113 339 344 117
144 9 2 11 2967 210 33 27 212 221 343
145 9 2 11 2967 1 15 176 346 341 178
146 9 2 11 2967 194 193 215 196 349 334
147 9 2 11 2967 15 59 111 345 350 115
148 9 2 11 2967 59 58 111 64 348 350
149 9 2 11 2967 215 193 216 349 351 218
150 9 2 11 2967 55 3 16 60 331 337
151 9 2 11 2967 193 30 216 195 347 351
152 9 2 11 2967 211 210 177 213 342 336
$EndElements
