$MeshFormat
2.2 0 8
$EndMeshFormat
$Nodes
351
1 0.433357 -0.496235 0
2 0.436611 0.493503 0
3 -0.437612 -1.00277 0
4 -0.439324 1.00051 0
5 -0.487389 -1.03179 0
6 0.433319 -0.554098 0
7 -0.387389 -1.0314 0
8 -0.437723 -0.944994 0
9 0.383451 -0.467418 0
10 0.386516 0.464727 0
11 -0.439225 0.942681 0
12 0.483452 -0.467572 0
13 0.486516 0.464674 0
14 -0.489262 1.02926 0
15 -0.389261 1.0293 0
16 0.436562 0.551303 0
17 -0.866025 -0.755816 0
18 -0.433765 -1.5 0
19 -0.866025 -0.813528 0
20 -0.483767 -1.5 0
21 0.866025 -0.748633 0
22 0.866025 -0.806519 0
23 -0.383764 -1.5 0
24 -0.866025 0.751572 0
25 -0.866025 0.693685 0
26 -0.866025 -0.6981039999999999 0
27 0.866025 0.743038 0
28 0.866025 -0.690748 0
29 0.866025 0.685209 0
30 -0.438238 1.5 0
31 -0.866025 0.809459 0
32 -0.488238 1.5 0
33 -0.388238 1.5 0
34 0.866025 0.800867 0
35 0.2881955000003297 -0.5806574999998082 0
36 0.1430340000006901 -0.6650799999995987 0
37 -0.002127499998859583 -0.7495024999993367 0
38 -0.1472889999992389 -0.8339249999995573 0
39 -0.2924504999996157 -0.9183474999997765 0
40 0.3607762500001354 -0.5384462499999212 0
41 0.2156147500004765 -0.6228687499997229 0
42 0.0704532500009406 -0.7072912499994529 0
43 -0.07470824999899384 -0.7917137499994148 0
44 -0.2198697499994363 -0.8761362499996721 0
45 -0.3650312499998433 -0.9605587499999089 0
46 0.2691774000003377 -0.6495583999998036 0
47 0.1050358000008571 -0.7450187999995016 0
48 -0.0591057999991203 -0.8404791999994885 0
49 -0.2232473999995944 -0.9359395999997642 0
50 0.3512482000001083 -0.6018281999999371 0
51 0.1871066000006167 -0.6972885999996413 0
52 0.02296500000109342 -0.7927489999993642 0
53 -0.1411765999994172 -0.8882093999996612 0
54 -0.3053181999999013 -0.9836697999999426 0
55 0.4340077999999985 -0.2982874000004514 0
56 0.4346585999999966 -0.100339800001031 0
57 0.4353093999999965 0.09760779999891889 0
58 0.4359601999999983 0.2955553999994692 0
59 0.4336823999999993 -0.3972612000002153 0
60 0.4343331999999977 -0.1993136000007073 0
61 0.4349839999999957 -0.001366000001308598 0
62 0.4356347999999974 0.1965815999991941 0
63 0.4362855999999992 0.3945291999997553 0
64 0.290621833333659 0.5780041666664781 0
65 0.1446326666674318 0.6625053333328905 0
66 -0.001356499998807714 0.7470064999993099 0
67 -0.1473456666658824 0.8315076666662127 0
68 -0.2933348333329558 0.9160088333331149 0
69 0.3636164166668261 0.5357535833332411 0
70 0.2176272500005604 0.6202547499996757 0
71 0.07163808333435734 0.704755916666074 0
72 -0.07435108333237644 0.7892570833327794 0
73 -0.220340249999408 0.8737582499996573 0
74 -0.3663294166664666 0.9582594166665509 0
75 -0.2734882000003044 -0.8494788000001771 0
76 -0.1092534000008826 -0.7539636000005133 0
77 0.05498139999904889 -0.6584484000005532 0
78 0.2192161999995146 -0.5629332000002822 0
79 -0.355605600000112 -0.8972364000000651 0
80 -0.1913708000006429 -0.8017212000003739 0
81 -0.02713600000116451 -0.7062060000006772 0
82 0.1370987999992711 -0.6106908000004239 0
83 0.3013335999996879 -0.5151756000001815 0
84 0.3840639999999986 -0.2809890000004162 0
85 0.3846769999999968 -0.09456000000096504 0
86 0.3852899999999967 0.09186899999901565 0
87 0.3859029999999984 0.2782979999995188 0
88 0.3837574999999996 -0.3742035000001288 0
89 0.3843704999999975 -0.1877745000007635 0
90 0.3849834999999959 -0.001345500001244893 0
91 0.3855964999999978 0.1850834999993185 0
92 0.3862094999999994 0.3715124999998088 0
93 0.221367800000392 0.560317799999773 0
94 0.05621960000087212 0.6559085999994951 0
95 -0.1089285999991344 0.751499399999499 0
96 -0.2740767999995473 0.847090199999738 0
97 0.3039419000001626 0.5125223999999059 0
98 0.1387937000006468 0.6081131999996257 0
99 -0.02635449999891276 0.7037039999993707 0
100 -0.191502699999358 0.7992947999996285 0
101 -0.3566508999998013 0.894885599999885 0
102 0.4840647999999989 -0.2811228000003514 0
103 0.4846775999999971 -0.09467360000087616 0
104 0.4852903999999968 0.09177559999904572 0
105 0.4859031999999985 0.2782247999995445 0
106 0.4837583999999994 -0.3743474000001658 0
107 0.4843711999999981 -0.1878982000005882 0
108 0.4849839999999962 -0.001449000001163714 0
109 0.4855967999999976 0.1850001999992554 0
110 0.4862095999999991 0.3714493999997418 0
111 -0.2240964000004191 0.9337006000002426 0
112 -0.05893180000090131 0.8381012000005217 0
113 0.1062327999991357 0.7425018000005003 0
114 0.2713973999993632 0.6469024000003685 0
115 -0.3066787000002068 0.9815003000001198 0
116 -0.14151410000064 0.8859009000003705 0
117 0.02365049999891433 0.7903015000006284 0
118 0.1888150999991999 0.6947021000004631 0
119 0.3539796999996991 0.5991027000001742 0
120 -0.723220666667 -0.8381339999998079 0
121 -0.5804163333337173 -0.9204519999997787 0
122 -0.7946228333333893 -0.7969749999999678 0
123 -0.6518185000005667 -0.8792929999996734 0
124 -0.5090141666668608 -0.961610999999888 0
125 -0.4363296666666708 -1.168513333332798 0
126 -0.4350473333333358 -1.334256666666349 0
127 -0.4369708333333371 -1.085641666666176 0
128 -0.4356885000000073 -1.251384999999067 0
129 -0.4344061666666674 -1.417128333333234 0
130 -0.7398130000000944 -0.8862819999999456 0
131 -0.613601000000354 -0.9590359999997959 0
132 -0.8029189999999462 -0.8499050000000311 0
133 -0.676707000000432 -0.922658999999751 0
134 -0.5504950000002486 -0.9954129999998567 0
135 -0.4861816666666672 -1.187859999999928 0
136 -0.4849743333333396 -1.34392999999919 0
137 -0.4867853333333318 -1.109825000000197 0
138 -0.4855780000000039 -1.265894999999498 0
139 -0.4843706666666678 -1.421964999999858 0
140 -0.4587659999998547 -1.5 0
141 -0.866025 -0.784672 0
142 0.7218023333336819 -0.6645003333335366 0
143 0.5775796666670028 -0.5803676666668628 0
144 0.7939136666668158 -0.7065666666667536 0
145 0.6496910000005663 -0.6224340000003303 0
146 0.5054683333335845 -0.5383013333334798 0
147 0.7217896666670398 -0.7223786666668843 0
148 0.5775543333337382 -0.6382383333335695 0
149 0.7939073333334319 -0.7644488333333908 0
150 0.6496720000005909 -0.6803085000003446 0
151 0.5054366666668233 -0.596168166666758 0
152 -0.3861806666666682 -1.187599999999798 0
153 -0.3849723333333411 -1.343799999998988 0
154 -0.3867848333333333 -1.1095 0
155 -0.3855765000000026 -1.265699999999665 0
156 -0.3843681666666706 -1.421899999999494 0
157 -0.4087645000001925 -1.5 0
158 0.866025 -0.7775760000003918 0
159 -0.5815576666663455 0.9175306666668541 0
160 -0.7237913333329609 0.8345513333335506 0
161 -0.5104408333332141 0.9590203333334029 0
162 -0.6526744999995461 0.8760410000002649 0
163 -0.7949081666665327 0.7930616666667448 0
164 -0.5814916666665382 0.8596823333334083 0
165 -0.7237583333331921 0.776683666666749 0
166 -0.5103583333332975 0.9011816666666875 0
167 -0.6526249999997259 0.81818300000016 0
168 -0.7948916666664267 0.7351843333334733 0
169 -0.7232576666670162 -0.7804006666664651 0
170 -0.5804903333337454 -0.8626973333330957 0
171 -0.7946413333334567 -0.7392523333332622 0
172 -0.6518740000006834 -0.8215489999996061 0
173 -0.5091066666669049 -0.9038456666665293 0
174 -0.866025 0.7226285000004101 0
175 -0.866025 -0.7269599999998132 0
176 0.5797489999996277 0.576681333333117 0
177 0.7228869999995873 0.6598596666664268 0
178 0.5081799999999943 0.5350921666666634 0
179 0.6513179999993246 0.6182704999996075 0
180 0.7944559999997385 0.7014488333331813 0
181 0.7385006666670013 -0.6163560000001953 0
182 0.6109763333335998 -0.5419640000001554 0
183 0.8022628333332745 -0.6535519999999657 0
184 0.6747385000004442 -0.5791600000002591 0
185 0.5472141666668601 -0.5047680000001128 0
186 0.6130189999997494 0.538185666666521 0
187 0.7395219999996887 0.6116973333331525 0
188 0.5497674999998929 0.5014298333332711 0
189 0.6762704999996405 0.5749414999997911 0
190 0.8027734999998921 0.6484531666666039 0
191 0.866025 0.7141235000002051 0
192 0.866025 -0.7196905 0
193 -0.4389620000000011 1.167006666666146 0
194 -0.438600000000001 1.333503333332871 0
195 -0.4391430000000003 1.083758333333174 0
196 -0.4387810000000018 1.250254999999179 0
197 -0.4384190000000006 1.416751666666409 0
198 -0.7404373333336512 0.8827259999998146 0
199 -0.6148496666669419 0.9559929999998396 0
200 -0.8032311666668296 0.846092499999905 0
201 -0.6776435000004704 0.9193594999997257 0
202 -0.5520558333335376 0.9926264999998808 0
203 -0.4889206666666674 1.186173333333001 0
204 -0.4885793333333342 1.343086666666276 0
205 -0.4890913333333337 1.107716666666501 0
206 -0.4887500000000011 1.264629999999483 0
207 -0.4884086666666663 1.421543333333525 0
208 -0.463238 1.5 0
209 -0.866025 0.7805155000004101 0
210 -0.388578999999999 1.343100000000463 0
211 -0.3889199999999989 1.186200000000492 0
212 -0.3884084999999997 1.42155000000017 0
213 -0.388749499999998 1.264650000000953 0
214 -0.3890905 1.107750000000008 0
215 0.5797163333329358 0.634490999999769 0
216 0.7228706666662252 0.7176789999997434 0
217 0.5081391666664713 0.5928969999998864 0
218 0.651293499999488 0.6760849999997025 0
219 0.7944478333329397 0.7592729999997712 0
220 0.866025 0.7719524999997949 0
221 -0.413238 1.5 0
222 -0.7946228333335 -0.8258309999999039 0
223 -0.4593696666666698 -1.421964999999595 0
224 -0.4600108333333377 -1.33909333333277 0
225 -0.6601146666669059 -0.9033669999998621 0
226 -0.5970086666670357 -0.9397439999997873 0
227 -0.5339026666668587 -0.9761209999998893 0
228 -0.4625005 -1.01728 0
229 -0.4606145000000015 -1.261058333333138 0
230 -0.4612556666666691 -1.178186666666363 0
231 -0.7315168333335472 -0.8622079999998767 0
232 -0.4618593333333354 -1.100151666666399 0
233 0.2061057000005139 -0.6573191999997011 0
234 0.1240349000007736 -0.7050493999995502 0
235 -0.03061664999898994 -0.7949908499994126 0
236 -0.1031973999991796 -0.8372020999995229 0
237 -0.410614000000002 -1.260928333333073 0
238 -0.4112551666666695 -1.178056666666298 0
239 -0.4118593333333354 -1.099956666666399 0
240 -0.4125005 -1.017085 0
241 0.2786864500003337 -0.6151079499998059 0
242 -0.4093686666666706 -1.421899999999494 0
243 -0.4100098333333385 -1.339028333332668 0
244 0.7217960000003609 -0.6934395000002105 0
245 0.6496783333337101 -0.6513693333335531 0
246 0.05145415000099876 -0.7472606499994192 0
247 0.7939073333335199 -0.7355058333334421 0
248 -0.2578489499996051 -0.9271435499997703 0
249 -0.3399197499998078 -0.9748737499998883 0
250 -0.1852681999994167 -0.8849322999996607 0
251 0.5775670000003705 -0.6093030000002162 0
252 0.5054493333335014 -0.5672328333334313 0
253 0.3607572500001648 -0.5673777499999041 0
254 0.433338 -0.5251665 0
255 0.4093612999999976 -0.1906644000007236 0
256 0.4090358999999986 -0.2896382000004338 0
257 -0.7948916666665961 0.7641278333333745 0
258 -0.7232391666670082 -0.8092673333331365 0
259 -0.6518555000003727 -0.8504156666664517 0
260 -0.5804533333337314 -0.8915746666664373 0
261 0.4096677999999967 -0.09744990000099804 0
262 -0.5090696666668586 -0.9327229999998894 0
263 -0.05569044999987108 -0.7517330499999251 0
264 -0.1282712000000608 -0.7939443000000352 0
265 0.1830002333339119 0.6114115666663318 0
266 0.100426133334152 0.6592069666661928 0
267 -0.6526414999997495 0.8471168333334794 0
268 -0.5815246666664418 0.8886065000001312 0
269 -0.2103885999997717 -0.8417018999998671 0
270 -0.28296934999996 -0.8839131499999768 0
271 0.4087293999999992 -0.3828527000002257 0
272 0.4109315999999984 0.286926699999494 0
273 0.4106061999999975 0.1879528999992188 0
274 0.4115635 0.479115 0
275 0.3385689166668295 0.5213655833332391 0
276 0.4102996999999966 0.09473839999896727 0
277 -0.7237748333330765 0.8056175000001498 0
278 -0.1281371333325084 0.7915035333328558 0
279 -0.05514254999897106 0.7492529499994045 0
280 0.4099742999999967 -0.004235400001007694 0
281 -0.3650867499998078 -0.9316707499998882 0
282 -0.4376675 -0.9738819999999999 0
283 0.4112380999999992 0.3801411999997346 0
284 0.2559948166670255 0.5691609833331256 0
285 0.3358232500001648 -0.524037749999904 0
286 0.2537058499999221 -0.5717953500000452 0
287 -0.2837058166662516 0.8815495166664264 0
288 -0.2107112333327149 0.8392989333329753 0
289 0.09900769999986947 -0.6617642000000759 0
290 0.02642695000009465 -0.7039754499999449 0
291 -0.7946413333335081 -0.7681083333332326 0
292 0.0274315500010322 0.7014575499994025 0
293 0.408404 -0.4818265 0
294 0.1811251000001023 -0.6140065999999405 0
295 -0.5103913333331727 0.9301058333334271 0
296 -0.4392745 0.9715955000000001 0
297 -0.3662799166664779 0.9293449166665575 0
298 0.731204499999638 0.6357784999997896 0
299 0.7944559999997937 0.6725343333332134 0
300 0.4599934999999968 0.001467099999021365 0
301 0.4596680999999969 -0.0975067000009536 0
302 0.658040166667002 -0.598361833333529 0
303 0.7301515000003416 -0.640428166666866 0
304 0.5942780000003013 -0.5611658333335091 0
305 0.4602998999999967 0.0946916999989823 0
306 0.4606062999999975 0.1879162999992317 0
307 0.4615635 0.4790885 0
308 0.4612380999999992 0.3801146999997346 0
309 0.7939136666668409 -0.6776241666667684 0
310 0.4593616999999978 -0.1907313000006912 0
311 0.4590362999999987 -0.2897051000004014 0
312 0.5963839999996885 0.5574334999998189 0
313 0.6596354999996582 0.5941893333331347 0
314 0.5305158333335014 -0.5239698333334314 0
315 0.4587298999999992 -0.3829297000002257 0
316 0.4584045 -0.4819035 0
317 0.4609316999999984 0.2868900999995069 0
318 0.5331324999998138 0.5206776666665585 0
319 -0.4637603333333342 1.259838333332936 0
320 -0.4639413333333343 1.176589999999573 0
321 -0.4634086666666671 1.421543333333138 0
322 -0.4641120000000005 1.098133333333073 0
323 -0.464293 1.014885 0
324 -0.4635896666666676 1.338294999999573 0
325 -0.5354098333331727 0.9733953333334271 0
326 -0.5982036666666437 0.9367618333333468 0
327 -0.6609974999999984 0.9001283333333343 0
328 -0.7949081666664805 0.8220051666667754 0
329 -0.732114333333306 0.8586386666666825 0
330 0.5081554999998139 0.5639921666665585 0
331 0.4365865 0.522403 0
332 -0.413941 1.176603333333319 0
333 -0.41376 1.259851666666681 0
334 0.2810096166665111 0.6124532833334233 0
335 0.2080150333333975 0.6547038666666295 0
336 -0.1857210333331507 0.8826041333332276 0
337 -0.2587156166666874 0.9248547166666787 0
338 -0.4141115000000006 1.098153333333073 0
339 0.3635919166668296 0.5646535833332391 0
340 -0.3412979166664779 0.9726544166665575 0
341 -0.4142925 1.014905 0
342 0.1254327333332838 0.7025035666666954 0
343 0.052438150000164 0.7447541499999051 0
344 -0.03014414999985451 0.7925538499999158 0
345 0.7944478333331126 0.7303584999998717 0
346 -0.4135895 1.338301666666667 0
347 -0.4134084999999995 1.421550000000231 0
348 0.5797326666662818 0.605586166666443 0
349 -0.1031387333333919 0.8348044333333672 0
350 0.7228788333329063 0.6887693333330851 0
351 0.6513016666662615 0.6471753333330978 0
$EndNodes
$Elements
152
1 15 2 2 1313744 18
2 15 2 1 1314748 19
3 15 2 3 1318763 22
4 15 2 4 1329804 30
5 8 2 1 33613 18 20 140
6 8 2 4 33614 19 17 141
7 8 2 1 33618 18 23 157
8 8 2 2 33619 22 21 158
9 8 2 4 33623 24 25 174
10 8 2 4 33624 26 17 175
11 8 2 2 33628 27 29 191
12 8 2 2 33629 28 21 192
13 8 2 3 33633 30 32 208
14 8 2 4 33634 31 24 209
15 8 2 2 33637 27 34 220
16 8 2 3 33638 33 30 221
17 9 2 11 3714 120 19 17 222 141 122
18 9 2 11 3714 18 136 126 223 224 129
19 9 2 11 3714 131 130 121 133 225 226
20 9 2 11 3714 5 121 3 227 124 228
21 9 2 11 3714 126 135 125 229 230 128
22 9 2 11 3714 130 19 120 132 222 231
23 9 2 11 3714 5 131 121 134 226 227
24 9 2 11 3714 125 5 3 232 228 127
25 9 2 11 3714 121 130 120 225 231 123
26 9 2 11 3714 18 20 136 140 139 223
27 9 2 11 3714 136 135 126 138 229 224
28 9 2 11 3714 135 5 125 137 232 230
29 9 2 11 3715 47 46 36 51 233 234
30 9 2 11 3715 48 37 38 235 43 236
31 9 2 11 3715 126 152 125 237 238 128
32 9 2 11 3715 125 7 3 239 240 127
33 9 2 11 3715 36 46 35 233 241 41
34 9 2 11 3715 18 153 126 242 243 129
35 9 2 11 3715 147 142 148 244 245 150
36 9 2 11 3715 37 47 36 246 234 42
37 9 2 11 3715 21 142 147 144 244 247
38 9 2 11 3715 7 49 39 54 248 249
39 9 2 11 3715 7 39 3 249 45 240
40 9 2 11 3715 153 152 126 155 237 243
41 9 2 11 3715 48 47 37 52 246 235
42 9 2 11 3715 49 38 39 250 44 248
43 9 2 11 3715 22 21 147 158 247 149
44 9 2 11 3715 18 23 153 157 156 242
45 9 2 11 3715 49 48 38 53 236 250
46 9 2 11 3715 152 7 125 154 239 238
47 9 2 11 3715 148 143 6 251 252 151
48 9 2 11 3715 142 143 148 145 251 245
49 9 2 11 3715 35 6 1 253 254 40
50 9 2 11 3715 46 6 35 50 253 241
51 9 2 11 3715 143 1 6 146 254 252
52 9 2 11 3716 55 56 84 60 255 256
53 9 2 11 3716 25 165 24 168 257 174
54 9 2 11 3716 170 169 120 172 258 259
55 9 2 11 3716 121 170 120 260 259 123
56 9 2 11 3716 84 56 85 255 261 89
57 9 2 11 3716 8 170 121 173 260 262
58 9 2 11 3716 38 37 76 43 263 264
59 9 2 11 3716 93 65 94 265 266 98
60 9 2 11 3716 160 164 159 267 268 162
61 9 2 11 3716 39 38 75 44 269 270
62 9 2 11 3716 9 55 84 271 256 88
63 9 2 11 3716 57 58 87 62 272 273
64 9 2 11 3716 10 2 64 274 69 275
65 9 2 11 3716 86 57 87 276 273 91
66 9 2 11 3716 24 165 160 257 277 163
67 9 2 11 3716 66 67 95 72 278 279
68 9 2 11 3716 56 86 85 280 90 261
69 9 2 11 3716 56 57 86 61 276 280
70 9 2 11 3716 165 164 160 167 267 277
71 9 2 11 3716 3 39 8 45 281 282
72 9 2 11 3716 58 2 10 63 274 283
73 9 2 11 3716 10 64 93 275 284 97
74 9 2 11 3716 75 38 76 269 264 80
75 9 2 11 3716 93 64 65 284 70 265
76 9 2 11 3716 35 9 78 285 83 286
77 9 2 11 3716 67 68 96 73 287 288
78 9 2 11 3716 37 36 77 42 289 290
79 9 2 11 3716 120 169 17 258 291 122
80 9 2 11 3716 169 26 17 171 175 291
81 9 2 11 3716 76 37 77 263 290 81
82 9 2 11 3716 94 66 95 292 279 99
83 9 2 11 3716 94 65 66 266 71 292
84 9 2 11 3716 87 58 10 272 283 92
85 9 2 11 3716 8 39 75 281 270 79
86 9 2 11 3716 35 1 9 40 293 285
87 9 2 11 3716 36 78 77 294 82 289
88 9 2 11 3716 159 11 4 295 296 161
89 9 2 11 3716 36 35 78 41 286 294
90 9 2 11 3716 68 4 11 74 296 297
91 9 2 11 3716 164 11 159 166 295 268
92 9 2 11 3716 96 68 11 287 297 101
93 9 2 11 3716 95 67 96 278 288 100
94 9 2 11 3716 3 8 121 282 262 124
95 9 2 11 3716 1 55 9 59 271 293
96 9 2 11 3717 187 177 29 298 299 190
97 9 2 11 3717 56 57 103 61 300 301
98 9 2 11 3717 142 143 181 145 302 303
99 9 2 11 3717 181 143 182 302 304 184
100 9 2 11 3717 104 57 105 305 306 109
101 9 2 11 3717 58 2 13 63 307 308
102 9 2 11 3717 21 142 28 144 309 192
103 9 2 11 3717 55 56 102 60 310 311
104 9 2 11 3717 103 57 104 300 305 108
105 9 2 11 3717 186 176 187 312 313 189
106 9 2 11 3717 143 12 182 314 185 304
107 9 2 11 3717 1 55 12 59 315 316
108 9 2 11 3717 12 55 102 315 311 106
109 9 2 11 3717 143 1 12 146 316 314
110 9 2 11 3717 105 58 13 317 308 110
111 9 2 11 3717 57 58 105 62 317 306
112 9 2 11 3717 13 176 186 318 312 188
113 9 2 11 3717 176 177 187 179 298 313
114 9 2 11 3717 102 56 103 310 301 107
115 9 2 11 3717 28 142 181 309 303 183
116 9 2 11 3717 177 27 29 180 191 299
117 9 2 11 3717 13 2 176 307 178 318
118 9 2 11 3718 193 194 203 196 319 320
119 9 2 11 3718 204 30 32 321 208 207
120 9 2 11 3718 4 193 14 195 322 323
121 9 2 11 3718 194 30 204 197 321 324
122 9 2 11 3718 203 194 204 319 324 206
123 9 2 11 3718 159 14 199 325 202 326
124 9 2 11 3718 198 159 199 327 326 201
125 9 2 11 3718 31 160 198 328 329 200
126 9 2 11 3718 14 193 203 322 320 205
127 9 2 11 3718 24 160 31 163 328 209
128 9 2 11 3718 160 159 198 162 327 329
129 9 2 11 3718 159 4 14 161 323 325
130 9 2 11 3719 2 176 16 178 330 331
131 9 2 11 3719 193 211 194 332 333 196
132 9 2 11 3719 64 114 65 334 335 70
133 9 2 11 3719 67 111 68 336 337 73
134 9 2 11 3719 15 211 193 214 332 338
135 9 2 11 3719 2 16 64 331 339 69
136 9 2 11 3719 68 15 4 340 341 74
137 9 2 11 3719 65 113 66 342 343 71
138 9 2 11 3719 113 112 66 117 344 343
139 9 2 11 3719 216 27 34 345 220 219
140 9 2 11 3719 194 210 30 346 347 197
141 9 2 11 3719 16 114 64 119 334 339
142 9 2 11 3719 16 176 215 330 348 217
143 9 2 11 3719 211 210 194 213 346 333
144 9 2 11 3719 67 112 111 349 116 336
145 9 2 11 3719 177 27 216 180 345 350
146 9 2 11 3719 66 112 67 344 349 72
147 9 2 11 3719 176 177 215 179 351 348
148 9 2 11 3719 114 113 65 118 342 335
149 9 2 11 3719 210 33 30 212 221 347
150 9 2 11 3719 4 15 193 341 338 195
151 9 2 11 3719 215 177 216 351 350 218
152 9 2 11 3719 68 111 15 337 115 340
$EndElements
