$MeshFormat
2.2 0 8
$EndMeshFormat
$Nodes
351
1 0.42836 0.5076580000000001 0
2 -0.428013 1.00078 0
3 0.434553 -0.499676 0
4 -0.436808 -1.00189 0
5 -0.486674 -1.03089 0
6 -0.386674 -1.0307 0
7 0.434623 -0.557346 0
8 -0.436835 -0.944195 0
9 0.384375 -0.470886 0
10 0.378537 0.47865 0
11 -0.427994 0.943072 0
12 0.478538 0.4788 0
13 0.484375 -0.470601 0
14 -0.478178 1.02957 0
15 0.428407 0.5653280000000001 0
16 -0.378178 1.02978 0
17 -0.434495 -1.5 0
18 -0.866025 -0.755037 0
19 -0.484496 -1.5 0
20 -0.866025 -0.812716 0
21 0.866025 -0.746973 0
22 -0.384495 -1.5 0
23 0.866025 -0.804603 0
24 -0.866025 0.748185 0
25 -0.866025 -0.697358 0
26 -0.866025 0.6904670000000001 0
27 0.866025 0.758729 0
28 0.866025 0.701086 0
29 0.866025 -0.689343 0
30 -0.430864 1.5 0
31 -0.480865 1.5 0
32 -0.866025 0.805904 0
33 -0.380863 1.5 0
34 0.866025 0.816372 0
35 0.289326166666968 -0.5833783333331597 0
36 0.1440993333341479 -0.6670806666661973 0
37 -0.001127499998766379 -0.750782999999289 0
38 -0.1463543333324865 -0.8344853333328452 0
39 -0.2915811666662452 -0.9181876666664237 0
40 0.361939583333502 -0.5415271666665695 0
41 0.2167127500005034 -0.6252294999997099 0
42 0.07148591666771931 -0.7089318333327266 0
43 -0.07374091666567445 -0.7926341666660948 0
44 -0.2189677499993991 -0.8763364999996537 0
45 -0.3641945833330653 -0.9600388333331787 0
46 0.2703636000003341 -0.6520167999998074 0
47 0.1061042000009025 -0.7466875999994799 0
48 -0.05815519999906943 -0.8413583999994636 0
49 -0.2224145999995794 -0.9360291999997575 0
50 0.3524933000000566 -0.6046813999999674 0
51 0.1882339000006167 -0.6993521999996446 0
52 0.0239745000010867 -0.7940229999993736 0
53 -0.1402848999993122 -0.8886937999996035 0
54 -0.3045442999996852 -0.9833645999998186 0
55 0.433520833333339 -0.3317870000009252 0
56 0.4324886666666781 -0.16389800000185 0
57 0.431456500000017 0.003990999997246836 0
58 0.4304243333333447 0.1718799999981498 0
59 0.4293921666666723 0.3397689999990748 0
60 0.4340369166666695 -0.4157315000004584 0
61 0.4330047500000086 -0.2478425000013948 0
62 0.4319725833333478 -0.07995350000234686 0
63 0.4309404166666806 0.08793549999772898 0
64 0.4299082500000085 0.2558244999986122 0
65 0.428876083333336 0.423713499999564 0
66 0.2570854000003807 0.6062823999997808 0
67 0.08581080000081753 0.7049067999995293 0
68 -0.08546379999908577 0.8035311999994735 0
69 -0.2567383999993895 0.9021555999996484 0
70 0.3427227000001424 0.556970199999918 0
71 0.1714481000005877 0.6555945999996616 0
72 0.0001735000010519294 0.7542189999993942 0
73 -0.1711010999992265 0.8528433999995546 0
74 -0.3423756999996959 0.9514677999998249 0
75 -0.2725930000003366 -0.8495332000001941 0
76 -0.1083510000008066 -0.7548714000004649 0
77 0.05589099999892205 -0.6602096000006212 0
78 0.2201329999995965 -0.5655478000002326 0
79 -0.3547140000001039 -0.8968641000000599 0
80 -0.1904720000005717 -0.8022023000003295 0
81 -0.02623000000120285 -0.7075405000006934 0
82 0.1380119999994314 -0.6128787000003277 0
83 0.3022539999998066 -0.5182169000001114 0
84 0.3832074000000029 -0.2809788000004596 0
85 0.3820398000000062 -0.09107160000100567 0
86 0.3808722000000064 0.09883559999896829 0
87 0.3797046000000031 0.2887427999994971 0
88 0.383791200000001 -0.3759324000001615 0
89 0.3826236000000045 -0.1860252000007327 0
90 0.3814560000000082 0.003881999998662844 0
91 0.3802884000000047 0.1937891999992328 0
92 0.379120800000002 0.3836963999996799 0
93 0.2172308000003464 0.5715343999998006 0
94 0.05592460000088073 0.6644187999994928 0
95 -0.1053815999991277 0.7573031999994977 0
96 -0.2666877999995275 0.8501875999997279 0
97 0.2978839000001224 0.5250921999999295 0
98 0.1365777000005905 0.61797659999966 0
99 -0.02472849999893362 0.710860999999386 0
100 -0.1860346999993909 0.8037453999996493 0
101 -0.3473408999996777 0.8966297999998144 0
102 0.4797053999999971 0.2889198000004684 0
103 0.4808727999999934 0.09903960000106676 0
104 0.4820401999999932 -0.09084059999889493 0
105 0.4832075999999966 -0.2807207999994463 0
106 0.4791216999999988 0.3838599000001984 0
107 0.4802890999999955 0.1939797000007385 0
108 0.4814564999999916 0.00409950000137127 0
109 0.4826238999999947 -0.1857806999991346 0
110 0.4837912999999983 -0.3756608999997232 0
111 0.2670900000003019 0.6582183999998261 0
112 0.1057730000008023 0.7511087999995381 0
113 -0.05554399999920684 0.8439991999995433 0
114 -0.2168609999995934 0.9368895999997657 0
115 0.3477485000000111 0.6117731999999937 0
116 0.1864315000005442 0.7046635999996866 0
117 0.02511450000102683 0.7975539999994087 0
118 -0.1362024999993429 0.8904443999996215 0
119 -0.2975194999997917 0.9833347999998799 0
120 -0.4360370000000017 -1.167926666666305 0
121 -0.4352660000000017 -1.333963333332972 0
122 -0.4364225000000009 -1.084908333333129 0
123 -0.4356515000000045 -1.250944999999021 0
124 -0.4348805000000018 -1.41698166666628 0
125 -0.7229526666670442 -0.8373213333331162 0
126 -0.5798803333337061 -0.9196056666664522 0
127 -0.7944888333333728 -0.7961791666666439 0
128 -0.651416500000626 -0.8784634999996399 0
129 -0.5083441666668377 -0.9607478333332349 0
130 -0.4859480000000029 -1.187259999999364 0
131 -0.4852220000000015 -1.343629999999682 0
132 -0.4863110000000012 -1.109074999999748 0
133 -0.4855850000000042 -1.265444999999092 0
134 -0.4848590000000013 -1.421814999999715 0
135 -0.7395746666669767 -0.8854406666664884 0
136 -0.6131243333336074 -0.9581653333331758 0
137 -0.8027998333334893 -0.8490783333332437 0
138 -0.6763495000005841 -0.9218029999996642 0
139 -0.5498991666667915 -0.994527666666595 0
140 -0.4594955 -1.5 0
141 -0.866025 -0.7838765 0
142 0.7222010000004044 -0.6645406666668984 0
143 0.5783770000003297 -0.5821083333335223 0
144 0.7941130000003254 -0.7057568333335198 0
145 0.6502890000004425 -0.6233245000002536 0
146 0.5064650000001468 -0.5408921666667508 0
147 -0.3859476666666691 -1.187133333332813 0
148 -0.3852213333333354 -1.343566666666233 0
149 -0.3863108333333351 -1.108916666666288 0
150 -0.3855845000000054 -1.265349999998823 0
151 -0.3848581666666675 -1.421783333333149 0
152 0.7222243333335269 -0.7221840000001108 0
153 0.5784236666668958 -0.6397650000001314 0
154 0.7941246666667998 -0.7633935000000762 0
155 0.6503240000004189 -0.6809745000002401 0
156 0.5065233333333304 -0.5985554999999984 0
157 -0.409495 -1.5 0
158 0.866025 -0.7757880000003966 0
159 -0.5740169999995182 0.9165816666669445 0
160 -0.7200209999996137 0.8323833333335562 0
161 -0.5010149999999142 0.9586808333333828 0
162 -0.6470189999994144 0.8744825000003378 0
163 -0.793022999999778 0.7902841666667947 0
164 -0.7229616666670832 -0.7796369999997605 0
165 -0.5798983333336941 -0.8619159999997925 0
166 -0.7944933333336223 -0.7384974999998338 0
167 -0.6514300000006448 -0.8207764999996292 0
168 -0.508366666666786 -0.9030554999999314 0
169 -0.5740043333329304 0.8588703333335657 0
170 -0.7200146666663093 0.7746686666668728 0
171 -0.5009991666665398 0.9009711666667398 0
172 -0.6470094999992262 0.8167695000004463 0
173 -0.793019833333052 0.7325678333334956 0
174 -0.866025 0.719325999999848 0
175 -0.866025 -0.7261974999998132 0
176 0.7201366666670774 0.6750386666669023 0
177 0.5742483333337899 0.5913483333335953 0
178 0.7930808333335252 0.7168838333334434 0
179 0.6471925000005234 0.6331935000003003 0
180 0.5013041666669682 0.5495031666668396 0
181 0.7368626666670067 0.6269906666668618 0
182 0.607700333333657 0.552895333333519 0
183 0.8014438333336138 0.6640383333334942 0
184 0.672281500000641 0.5899430000003677 0
185 0.5431191666668092 0.5158476666667484 0
186 0.6115916666663727 -0.5435149999998314 0
187 0.73880833333304 -0.6164289999998319 0
188 0.5479833333333846 -0.5070580000000293 0
189 0.6751999999994198 -0.5799719999996675 0
190 0.8024166666664511 -0.6528859999998764 0
191 0.866025 -0.7181580000000068 0
192 0.866025 0.7299074999998016 0
193 -0.4299136666666696 1.333593333333854 0
194 -0.4289633333333362 1.167186666667173 0
195 -0.4303888333333347 1.416796666666896 0
196 -0.4294385000000049 1.250390000000853 0
197 -0.4284881666666664 1.083983333333294 0
198 -0.479969333333335 1.343190000000289 0
199 -0.479073666666669 1.186380000000405 0
200 -0.4804171666666662 1.421594999999922 0
201 -0.4795215000000035 1.264785000000609 0
202 -0.4786258333333355 1.107975000000373 0
203 -0.6074603333330784 0.9550146666668138 0
204 -0.7367426666663234 0.8804593333335313 0
205 -0.5428191666666953 0.9922923333333169 0
206 -0.6721014999996542 0.9177370000001995 0
207 -0.8013838333332672 0.8431816666667048 0
208 -0.866025 0.7770444999998132 0
209 -0.4558645000001397 1.5 0
210 -0.3790729999999976 1.186519999999566 0
211 -0.3799679999999975 1.343259999999552 0
212 -0.3786254999999986 1.108149999999745 0
213 -0.3795204999999965 1.264889999999389 0
214 -0.3804154999999966 1.421629999999412 0
215 0.7201523333337978 0.7326906666669331 0
216 0.5742796666670625 0.6490093333335605 0
217 0.7930886666667462 0.7745313333333789 0
218 0.6472160000006471 0.6908500000003712 0
219 0.5013433333334452 0.6071686666667309 0
220 -0.405863499999924 1.5 0
221 0.866025 0.7875505000001983 0
222 -0.7312636666670105 -0.8613809999998023 0
223 -0.6680385000003257 -0.8977433333331459 0
224 -0.5332771666668531 -0.9752478333332262 0
225 -0.461741 -1.01639 0
226 -0.4598585000000007 -1.421814999999841 0
227 -0.4613555000000008 -1.099408333333153 0
228 -0.4609925000000023 -1.177593333332835 0
229 -0.5965023333336568 -0.938885499999814 0
230 -0.4606070000000023 -1.260611666666168 0
231 -0.4602440000000016 -1.338796666666327 0
232 -0.794488833333522 -0.8250186666665581 0
233 -0.102254766665778 -0.8379218666661544 0
234 -0.1843844666660329 -0.8852572666663014 0
235 -0.2569978833329123 -0.9271084333330906 0
236 -0.4098581666666677 -1.421783333333116 0
237 -0.4113555000000009 -1.099313333333153 0
238 -0.411741 -1.016295 0
239 0.361974583333484 -0.5703621666665799 0
240 0.2798448833336511 -0.6176975666664836 0
241 0.5784003333336127 -0.6109366666668268 0
242 0.6503123333336501 -0.6521528333335149 0
243 0.434588 -0.528511 0
244 0.5065000000001648 -0.5697271666667612 0
245 0.05248835000106805 -0.7487352999993844 0
246 -0.0296413499989179 -0.7960706999993763 0
247 -0.4109923333333354 -1.177529999999559 0
248 0.7222126666669657 -0.6933623333335046 0
249 0.207231466667241 -0.6595487333330023 0
250 -0.4106068333333354 -1.260548333332892 0
251 -0.4102436666666686 -1.338764999999603 0
252 0.1251017666675252 -0.7068841333328386 0
253 -0.3391275833331226 -0.9744438333332118 0
254 0.7941246666667634 -0.7345785000000554 0
255 -0.7229571666670637 -0.8084791666664384 0
256 -0.6514255000003691 -0.8496186666664544 0
257 -0.5798893333337001 -0.8907608333331223 0
258 -0.508357666666853 -0.9319003333332261 0
259 -0.6470126666662721 0.8456268333335609 0
260 -0.7200178333329614 0.8035260000002145 0
261 -0.05473924999978647 -0.752827199999877 0
262 0.02738175000007784 -0.7054962999999551 0
263 -0.7944933333335416 -0.7673369999998803 0
264 0.4045483833333378 0.314255899999286 0
265 0.405064466666674 0.2303113999988235 0
266 0.4067481500000116 -0.04354030000187942 0
267 0.4061643500000117 0.05141329999810756 0
268 0.4094640000000001 -0.485281 0
269 0.3368505833334841 -0.5271321666665798 0
270 -0.09542269999910674 0.7804171999994856 0
271 -0.009785399999155092 0.7311049999995135 0
272 0.4089479166666695 -0.4013365000004626 0
273 0.4083641166666709 -0.3063829000006924 0
274 0.4034485 0.493154 0
275 0.3178112000001904 0.5424661999998904 0
276 0.2371581000003635 0.5889083999997907 0
277 -0.3642080833331226 -0.9311913333332118 0
278 -0.2820870833332909 -0.8838604333333089 0
279 -0.7930198333331546 0.7614268333334364 0
280 -0.2094736666664116 -0.8420092666665197 0
281 -0.1273526666666465 -0.794678366666655 0
282 0.1515208000005819 0.638220599999665 0
283 0.4039645833333362 0.4092094999995374 0
284 0.4078480333333405 -0.2224384000011548 0
285 0.4072642333333422 -0.1274848000014278 0
286 0.07086770000084913 0.6846627999995111 0
287 -0.5010054999997591 0.9298268333334723 0
288 -0.5740106666662244 0.8877260000002551 0
289 0.2547295833332822 -0.5744630666666961 0
290 0.1821161666668722 -0.616314233333215 0
291 -0.4368215 -0.9730425 0
292 -0.1760757999993066 0.8268593999996008 0
293 0.4056482666666755 0.1353577999985591 0
294 -0.2617130999994585 0.8761715999996882 0
295 -0.3423661999996948 0.9226137999998243 0
296 -0.4280035 0.9719260000000001 0
297 0.09999516666653496 -0.6636451333334092 0
298 0.5909743333337234 0.5721218333335572 0
299 0.526393166666895 0.5350741666667976 0
300 0.728499666667042 0.651014666666882 0
301 0.6639185000003672 0.6139670000002106 0
302 0.453449 0.493229 0
303 0.4539650833333362 0.4092844999995374 0
304 0.4583642166666678 -0.3062539000001858 0
305 0.4578481333333373 -0.2223094000006481 0
306 0.4572644333333357 -0.1273693000003724 0
307 0.7305046666667222 -0.6404848333333651 0
308 0.6668963333333886 -0.6040278333333648 0
309 0.4567483500000051 -0.04342480000082405 0
310 0.4550648666666709 0.2303998999993091 0
311 0.4556485666666691 0.1354597999996083 0
312 0.4545487833333347 0.3143443999997716 0
313 0.4561646500000052 0.0515152999991568 0
314 0.4589479166666695 -0.4011940000004626 0
315 0.7930808333335387 0.6880623333334511 0
316 0.5949843333333511 -0.5628116666666769 0
317 0.7941130000002022 -0.6769418333334491 0
318 0.5313760000001648 -0.5263546666667611 0
319 0.459464 -0.4851385 0
320 -0.4549415000000023 1.338391666667071 0
321 -0.4554166666666675 1.421595000000145 0
322 -0.4540185000000025 1.176783333333789 0
323 -0.4535706666666681 1.098378333333586 0
324 -0.7930229999998069 0.8191436666667781 0
325 -0.4544936666666693 1.259986666667129 0
326 -0.7283818333329686 0.8564213333335438 0
327 -0.4530955 1.015175 0
328 -0.5260974999997591 0.9730758333334724 0
329 -0.663740666666346 0.893699000000185 0
330 -0.5907386666662983 0.9357981666668791 0
331 -0.1511623999993396 0.8702103999996196 0
332 -0.0705038999991463 0.8237651999995084 0
333 0.7930886666668989 0.7457098333334665 0
334 0.5742640000004262 0.6201788333335778 0
335 0.6472081666670699 0.6620240000002313 0
336 -0.4044933333333336 1.26005666666671 0
337 -0.4049408333333335 1.338426666666703 0
338 0.7201445000004376 0.7038646666669177 0
339 0.4283835 0.5364930000000001 0
340 0.5013276666668949 0.5783381666667977 0
341 0.3427462000001903 0.5858051999998904 0
342 0.1764504000005597 0.6815625999996777 0
343 0.09579190000080989 0.7280077999995337 0
344 0.01015460000085824 0.7773199999995057 0
345 -0.3174581999996947 0.9659677999998242 0
346 -0.2367996999994914 0.9195225999997071 0
347 -0.4054159999999988 1.421629999999776 0
348 0.2620877000003413 0.6322503999998035 0
349 -0.4035706666666681 1.098483333333586 0
350 -0.4040181666666669 1.17685333333337 0
351 -0.4030955 1.01528 0
$EndNodes
$Elements
152
1 15 2 2 1343190 17
2 15 2 3 1346202 20
3 15 2 4 1350217 23
4 15 2 1 1361258 31
5 8 2 1 34388 17 19 140
6 8 2 4 34389 20 18 141
7 8 2 1 34393 17 22 157
8 8 2 2 34394 23 21 158
9 8 2 4 34398 24 26 174
10 8 2 4 34399 25 18 175
11 8 2 2 34403 21 29 191
12 8 2 2 34404 28 27 192
13 8 2 4 34408 24 32 208
14 8 2 3 34409 31 30 209
15 8 2 3 34412 30 33 220
16 8 2 2 34413 34 27 221
17 9 2 11 3799 136 135 125 138 222 223
18 9 2 11 3799 5 126 4 224 129 225
19 9 2 11 3799 19 131 17 134 226 140
20 9 2 11 3799 130 5 120 132 227 228
21 9 2 11 3799 136 125 126 223 128 229
22 9 2 11 3799 131 130 121 133 230 231
23 9 2 11 3799 125 20 18 232 141 127
24 9 2 11 3799 5 136 126 139 229 224
25 9 2 11 3799 17 131 121 226 231 124
26 9 2 11 3799 135 20 125 137 232 222
27 9 2 11 3799 121 130 120 230 228 123
28 9 2 11 3799 120 5 4 227 225 122
29 9 2 11 3800 49 48 38 53 233 234
30 9 2 11 3800 49 38 39 234 44 235
31 9 2 11 3800 22 148 17 151 236 157
32 9 2 11 3800 120 6 4 237 238 122
33 9 2 11 3800 46 7 35 50 239 240
34 9 2 11 3800 142 143 153 145 241 242
35 9 2 11 3800 143 3 7 146 243 244
36 9 2 11 3800 48 47 37 52 245 246
37 9 2 11 3800 147 6 120 149 237 247
38 9 2 11 3800 152 142 153 248 242 155
39 9 2 11 3800 36 46 35 249 240 41
40 9 2 11 3800 35 7 3 239 243 40
41 9 2 11 3800 121 147 120 250 247 123
42 9 2 11 3800 153 143 7 241 244 156
43 9 2 11 3800 148 147 121 150 250 251
44 9 2 11 3800 37 47 36 245 252 42
45 9 2 11 3800 6 49 39 54 235 253
46 9 2 11 3800 6 39 4 253 45 238
47 9 2 11 3800 17 148 121 236 251 124
48 9 2 11 3800 48 37 38 246 43 233
49 9 2 11 3800 23 21 152 158 254 154
50 9 2 11 3800 47 46 36 51 249 252
51 9 2 11 3800 21 142 152 144 248 254
52 9 2 11 3801 165 164 125 167 255 256
53 9 2 11 3801 8 165 126 168 257 258
54 9 2 11 3801 170 169 160 172 259 260
55 9 2 11 3801 76 37 77 261 262 81
56 9 2 11 3801 125 164 18 255 263 127
57 9 2 11 3801 58 59 87 64 264 265
58 9 2 11 3801 85 57 86 266 267 90
59 9 2 11 3801 35 3 9 40 268 269
60 9 2 11 3801 67 68 95 72 270 271
61 9 2 11 3801 9 55 84 272 273 88
62 9 2 11 3801 10 1 66 274 70 275
63 9 2 11 3801 10 66 93 275 276 97
64 9 2 11 3801 8 39 75 277 278 79
65 9 2 11 3801 26 170 24 173 279 174
66 9 2 11 3801 75 38 76 280 281 80
67 9 2 11 3801 93 66 67 276 71 282
68 9 2 11 3801 59 1 10 65 274 283
69 9 2 11 3801 55 56 84 61 284 273
70 9 2 11 3801 84 56 85 284 285 89
71 9 2 11 3801 94 67 95 286 271 99
72 9 2 11 3801 87 59 10 264 283 92
73 9 2 11 3801 169 11 159 171 287 288
74 9 2 11 3801 126 165 125 257 256 128
75 9 2 11 3801 36 35 78 41 289 290
76 9 2 11 3801 4 8 126 291 258 129
77 9 2 11 3801 4 39 8 45 277 291
78 9 2 11 3801 95 68 96 270 292 100
79 9 2 11 3801 38 37 76 43 261 281
80 9 2 11 3801 164 25 18 166 175 263
81 9 2 11 3801 3 55 9 60 272 268
82 9 2 11 3801 57 58 86 63 293 267
83 9 2 11 3801 24 170 160 279 260 163
84 9 2 11 3801 56 57 85 62 266 285
85 9 2 11 3801 96 69 11 294 295 101
86 9 2 11 3801 39 38 75 44 280 278
87 9 2 11 3801 160 169 159 259 288 162
88 9 2 11 3801 159 11 2 287 296 161
89 9 2 11 3801 68 69 96 73 294 292
90 9 2 11 3801 69 2 11 74 296 295
91 9 2 11 3801 37 36 77 42 297 262
92 9 2 11 3801 36 78 77 290 82 297
93 9 2 11 3801 93 67 94 282 286 98
94 9 2 11 3801 86 58 87 293 265 91
95 9 2 11 3801 35 9 78 269 83 289
96 9 2 11 3802 12 182 177 185 298 299
97 9 2 11 3802 182 181 176 184 300 301
98 9 2 11 3802 12 177 1 299 180 302
99 9 2 11 3802 59 12 1 303 302 65
100 9 2 11 3802 55 105 56 304 305 61
101 9 2 11 3802 105 104 56 109 306 305
102 9 2 11 3802 142 187 186 307 189 308
103 9 2 11 3802 56 104 57 306 309 62
104 9 2 11 3802 103 102 58 107 310 311
105 9 2 11 3802 102 12 59 106 303 312
106 9 2 11 3802 57 103 58 313 311 63
107 9 2 11 3802 13 105 55 110 304 314
108 9 2 11 3802 181 28 176 183 315 300
109 9 2 11 3802 104 103 57 108 313 309
110 9 2 11 3802 142 186 143 308 316 145
111 9 2 11 3802 29 187 142 190 307 317
112 9 2 11 3802 143 13 3 318 319 146
113 9 2 11 3802 143 186 13 316 188 318
114 9 2 11 3802 21 29 142 191 317 144
115 9 2 11 3802 3 13 55 319 314 60
116 9 2 11 3802 58 102 59 310 312 64
117 9 2 11 3802 176 28 27 315 192 178
118 9 2 11 3802 182 176 177 301 179 298
119 9 2 11 3803 193 198 30 320 321 195
120 9 2 11 3803 14 199 194 202 322 323
121 9 2 11 3803 24 32 160 208 324 163
122 9 2 11 3803 194 199 193 322 325 196
123 9 2 11 3803 32 204 160 207 326 324
124 9 2 11 3803 2 14 194 327 323 197
125 9 2 11 3803 159 14 2 328 327 161
126 9 2 11 3803 160 204 203 326 206 329
127 9 2 11 3803 160 203 159 329 330 162
128 9 2 11 3803 159 203 14 330 205 328
129 9 2 11 3803 199 198 193 201 320 325
130 9 2 11 3803 198 31 30 200 209 321
131 9 2 11 3804 68 114 113 331 118 332
132 9 2 11 3804 215 34 27 217 221 333
133 9 2 11 3804 177 216 176 334 335 179
134 9 2 11 3804 210 193 211 336 337 213
135 9 2 11 3804 176 215 27 338 333 178
136 9 2 11 3804 1 15 177 339 340 180
137 9 2 11 3804 1 66 15 70 341 339
138 9 2 11 3804 111 67 112 342 343 116
139 9 2 11 3804 15 216 177 219 334 340
140 9 2 11 3804 67 68 112 72 344 343
141 9 2 11 3804 69 16 114 345 119 346
142 9 2 11 3804 68 69 114 73 346 331
143 9 2 11 3804 216 215 176 218 338 335
144 9 2 11 3804 211 30 33 347 220 214
145 9 2 11 3804 15 66 111 341 348 115
146 9 2 11 3804 193 30 211 195 347 337
147 9 2 11 3804 16 194 210 349 350 212
148 9 2 11 3804 194 193 210 196 336 350
149 9 2 11 3804 112 68 113 344 332 117
150 9 2 11 3804 66 67 111 71 342 348
151 9 2 11 3804 2 194 16 197 349 351
152 9 2 11 3804 69 2 16 74 351 345
$EndElements
