$MeshFormat
2.2 0 8
$EndMeshFormat
$Nodes
343
1 -0.436652 0.997158 0
2 0.427862 0.494608 0
3 0.427076 -0.496976 0
4 -0.431562 -1.00091 0
5 -0.481569 -1.02979 0
6 0.427277 -0.554833 0
7 -0.381569 -1.02954 0
8 0.377099 -0.468332 0
9 -0.431783 -0.943064 0
10 -0.436726 0.939367 0
11 0.377839 0.465852 0
12 0.477099 -0.468128 0
13 0.477839 0.465656 0
14 -0.486657 1.02601 0
15 -0.386657 1.02593 0
16 0.428009 0.552357 0
17 -0.431678 -1.5 0
18 -0.866025 -0.750364 0
19 -0.481678 -1.5 0
20 -0.866025 -0.808082 0
21 0.866025 -0.750508 0
22 0.866025 -0.808249 0
23 -0.381678 -1.5 0
24 -0.866025 0.749028 0
25 -0.866025 -0.692646 0
26 -0.866025 0.691279 0
27 0.866025 0.7463419999999999 0
28 0.866025 -0.692767 0
29 0.866025 0.688677 0
30 -0.436746 1.5 0
31 -0.486746 1.5 0
32 -0.866025 0.806776 0
33 -0.386746 1.5 0
34 0.866025 0.804006 0
35 0.2553484000003526 -0.597762799999793 0
36 0.08362080000086392 -0.698549599999493 0
37 -0.08810679999913418 -0.7993363999994918 0
38 -0.2598343999995426 -0.9001231999997314 0
39 0.3412122000001562 -0.5473693999999083 0
40 0.1694846000005893 -0.6481561999996541 0
41 -0.00224299999889449 -0.7489429999993511 0
42 -0.1739705999993384 -0.8497297999996116 0
43 -0.3456981999997708 -0.9505165999998655 0
44 0.2655078000004295 -0.649774399999748 0
45 0.1037386000008925 -0.7447157999994762 0
46 -0.05803059999907678 -0.8396571999994582 0
47 -0.2197997999995135 -0.9345985999997144 0
48 0.3463924000001995 -0.602303699999883 0
49 0.1846232000005995 -0.6972450999996482 0
50 0.02285400000114168 -0.79218649999933 0
51 -0.1389151999992984 -0.8871278999995882 0
52 -0.3006843999996981 -0.9820692999998227 0
53 -0.2637492000004671 0.8966480000002715 0
54 -0.09084640000101052 0.7961380000005874 0
55 0.08205639999893893 0.6956280000006168 0
56 0.2549591999996714 0.595118000000191 0
57 -0.3502006000002017 0.9469030000001173 0
58 -0.1772978000007335 0.8463930000004264 0
59 -0.004395000001274685 0.745883000000741 0
60 0.1685077999993 0.6453730000004068 0
61 0.3414105999998696 0.5448630000000758 0
62 0.4277048000000004 0.2962912000004398 0
63 0.4275476000000009 0.09797440000103369 0
64 0.4273904000000008 -0.1003423999989554 0
65 0.4272332000000004 -0.298659199999454 0
66 0.4277834000000001 0.3954496000001914 0
67 0.4276262000000006 0.1971328000007105 0
68 0.427469000000001 -0.001183999998736307 0
69 0.4273118000000006 -0.199500799999235 0
70 0.4271546000000002 -0.3978175999997201 0
71 0.2153226000003947 -0.5632783999997684 0
72 0.05354620000084137 -0.6582247999995062 0
73 -0.1082301999991505 -0.7531711999995014 0
74 -0.2700065999995946 -0.8481175999997621 0
75 0.2962108000001369 -0.5158051999999197 0
76 0.1344344000006426 -0.6107515999996229 0
77 -0.02734199999887971 -0.7056979999993426 0
78 -0.1891183999993796 -0.8006443999996359 0
79 -0.3508947999998085 -0.8955907999998877 0
80 -0.273813000000384 0.8446640000002232 0
81 -0.1109000000007943 0.7499610000004616 0
82 0.05201299999918668 0.6552580000004727 0
83 0.2149259999996182 0.560555000000222 0
84 -0.3552695000001192 0.8920155000000692 0
85 -0.192356500000561 0.7973125000003261 0
86 -0.02944350000102752 0.7026095000005973 0
87 0.1334694999993694 0.6079065000003665 0
88 0.2963824999998353 0.5132035000000956 0
89 0.3776910000000003 0.2790152000004333 0
90 0.3775430000000008 0.0921784000009751 0
91 0.3773950000000008 -0.09465839999901621 0
92 0.3772470000000004 -0.2814951999994974 0
93 0.3777650000000001 0.3724336000001944 0
94 0.3776170000000005 0.1855968000007042 0
95 0.377469000000001 -0.001239999998758234 0
96 0.3773210000000006 -0.1880767999992568 0
97 0.3771730000000002 -0.3749135999997557 0
98 0.4772469999999996 -0.281371200000425 0
99 0.4773949999999992 -0.0946144000009802 0
100 0.4775429999999992 0.09214239999899776 0
101 0.4776909999999996 0.278899199999509 0
102 0.4771729999999998 -0.3747496000001881 0
103 0.4773209999999995 -0.1879928000006519 0
104 0.477468999999999 -0.001236000001248294 0
105 0.4776169999999994 0.1855207999992625 0
106 0.4777649999999998 0.3722775999997333 0
107 0.2650758000004338 0.6470715999997478 0
108 0.1021426000009517 0.7417861999994467 0
109 -0.06079059999903463 0.8365007999994388 0
110 -0.2237237999995443 0.9312153999997351 0
111 0.3465424000001159 0.5997142999999325 0
112 0.1836092000006414 0.6944288999996271 0
113 0.020676000001152 0.7891434999993303 0
114 -0.1422571999992084 0.8838580999995398 0
115 -0.3051903999996448 0.9785726999997936 0
116 -0.4316006666666666 -1.167273333332871 0
117 -0.4316393333333332 -1.333636666666175 0
118 -0.4315813333333333 -1.084091666666377 0
119 -0.4316199999999998 -1.250454999999357 0
120 -0.4316586666666666 -1.416818333333217 0
121 -0.7212040000002614 -0.8338793333331826 0
122 -0.5763830000002299 -0.9173946666665341 0
123 -0.7936145000001407 -0.7921216666665856 0
124 -0.6487935000004467 -0.8756369999997424 0
125 -0.5039725000000022 -0.9591523333333321 0
126 -0.4816053333333333 -1.186526666666435 0
127 -0.4816416666666666 -1.343263333332885 0
128 -0.4815871666666667 -1.108158333333241 0
129 -0.4816234999999999 -1.264894999999306 0
130 -0.4816598333333332 -1.421631666666187 0
131 -0.7378730000004362 -0.8819846666664151 0
132 -0.6097209999997298 -0.9558873333334891 0
133 -0.8019490000001591 -0.8450333333332416 0
134 -0.6737970000003023 -0.9189359999998257 0
135 -0.5456449999999118 -0.9928386666667175 0
136 -0.456678 -1.5 0
137 -0.866025 -0.779223 0
138 0.7197086666669623 -0.665997333333504 0
139 0.5733923333336183 -0.5814866666668312 0
140 0.7928668333333863 -0.7082526666666972 0
141 0.6465505000004514 -0.6237420000002607 0
142 0.5002341666667889 -0.5392313333334039 0
143 0.719775666667024 -0.7237770000002064 0
144 0.5735263333337325 -0.6393050000002305 0
145 0.7929003333336152 -0.7660130000001628 0
146 0.6466510000005368 -0.6815410000003099 0
147 0.5004016666668358 -0.5970690000000978 0
148 -0.3816053333333332 -1.186359999999538 0
149 -0.3816416666666665 -1.343179999999509 0
150 -0.3815871666666666 -1.107949999999842 0
151 -0.3816234999999999 -1.264769999999492 0
152 -0.3816598333333333 -1.421589999999754 0
153 -0.406678 -1.5 0
154 0.866025 -0.7793785 0
155 -0.7229006666670532 0.8317379999997766 0
156 -0.5797763333337014 0.9144479999997873 0
157 -0.7944628333335753 0.7903829999998602 0
158 -0.6513385000005535 0.8730929999996802 0
159 -0.5082141666667843 0.955802999999932 0
160 -0.5765303333329512 -0.8595913333335538 0
161 -0.721277666666286 -0.7761186666668862 0
162 -0.5041566666666057 -0.9013276666667018 0
163 -0.6489039999995523 -0.8178550000002582 0
164 -0.7936513333331457 -0.7343823333334415 0
165 -0.7229253333335808 0.773974999999857 0
166 -0.5798256666671083 0.8566709999997447 0
167 -0.7944751666667685 0.7326269999999411 0
168 -0.6513755000004964 0.8153229999997131 0
169 -0.5082758333335715 0.8980189999998623 0
170 -0.866025 -0.7215050000000462 0
171 -0.866025 0.7201534999999537 0
172 0.5739163333329611 0.5785193333331194 0
173 0.7199706666662384 0.6624306666664206 0
174 0.5008891666666482 0.536563666666656 0
175 0.6469434999994812 0.6204749999997019 0
176 0.792997833333271 0.7043863333332975 0
177 0.7363830000003457 -0.617887333333533 0
178 0.6067410000003138 -0.543007666666848 0
179 0.8012040000002338 -0.6553271666668017 0
180 0.6715620000006214 -0.5804475000003589 0
181 0.5419200000003745 -0.5055678333335496 0
182 0.6072343333332326 0.5399963333332755 0
183 0.7366296666662784 0.6143366666664436 0
184 0.5425366666666664 0.5028261666666666 0
185 0.6719319999994453 0.5771664999996813 0
186 0.8013273333330887 0.6515068333331927 0
187 0.866025 0.7175095 0
188 0.866025 -0.7216374999999999 0
189 -0.4367146666666668 1.332386000000564 0
190 -0.4366833333333334 1.164772000000549 0
191 -0.4367303333333333 1.416192999999948 0
192 -0.4366990000000001 1.248579000000526 0
193 -0.4366676666666667 1.080965000000231 0
194 -0.4867163333333334 1.34200333333371 0
195 -0.4866866666666668 1.184006666667071 0
196 -0.4867311666666667 1.421001666666615 0
197 -0.4867015000000002 1.263005000000904 0
198 -0.4866718333333334 1.105008333333676 0
199 -0.6131130000001687 0.9529319999999026 0
200 -0.7395689999997286 0.8798540000001569 0
201 -0.5498850000001263 0.989470999999927 0
202 -0.6763409999996022 0.9163930000002301 0
203 -0.8027969999998584 0.843315000000082 0
204 -0.866025 0.7779020000001521 0
205 -0.461746 1.5 0
206 -0.3866866666666666 1.183953333332943 0
207 -0.3867163333333332 1.341976666666247 0
208 -0.3866718333333333 1.104941666666472 0
209 -0.3867014999999999 1.262964999999426 0
210 -0.3867311666666666 1.420988333333306 0
211 0.7200196666669934 0.7201230000001877 0
212 0.5740143333336747 0.6362400000001961 0
213 0.7930223333333812 0.7620645000000275 0
214 0.6470170000006153 0.6781815000003535 0
215 0.5010116666666249 0.5942984999999761 0
216 -0.411746 1.5 0
217 0.866025 0.7751740000002003 0
218 -0.5930519999999799 -0.9366410000000116 0
219 -0.5289760000001149 -0.973592333333267 0
220 -0.4566598333333333 -1.421631666666443 0
221 -0.4566404999999999 -1.33844999999953 0
222 -0.4565848333333333 -1.098531666666435 0
223 -0.4566029999999999 -1.176899999999653 0
224 -0.6654624999999956 -0.8948833333333359 0
225 -0.4566223333333332 -1.260081666666305 0
226 -0.7936145000001307 -0.8209806666665913 0
227 -0.7295385000003488 -0.8579319999997989 0
228 -0.4565655 -1.01535 0
229 -0.07306869999910548 -0.819496799999475 0
230 -0.1539532999993238 -0.8669674999996031 0
231 0.3413127000001763 -0.5762978999998964 0
232 0.2604281000003911 -0.6237685999997704 0
233 0.4271765 -0.5259045 0
234 0.5003346666668091 -0.5681598333334157 0
235 0.7197421666669932 -0.6948871666668552 0
236 0.7929003333335121 -0.7371425000001032 0
237 0.007815900000879145 -0.772026099999484 0
238 0.5734593333336754 -0.6103958333335309 0
239 0.6466175000003473 -0.6526511666668673 0
240 0.1745643000006467 -0.6741619999996205 0
241 -0.4065848333333333 -1.098406666666435 0
242 -0.4065655 -1.015225 0
243 -0.4066223333333332 -1.259998333332856 0
244 -0.4066404999999998 -1.338408333332842 0
245 -0.4066029999999999 -1.176816666666204 0
246 0.09367970000087819 -0.7216326999994847 0
247 -0.239817099999528 -0.9173608999997229 0
248 -0.3207016999997713 -0.9648315999998657 0
249 -0.4066598333333333 -1.421589999999754 0
250 0.4024667000000008 -0.004081999998990143 0
251 0.4025453000000008 0.0950764000010044 0
252 -0.793651333333143 -0.7632413333334431 0
253 -0.7212408333332737 -0.8049990000000344 0
254 0.1484911999992786 0.6280915000004194 0
255 0.2349425999996448 0.5778365000002065 0
256 -0.6488671666666064 -0.8467353333333683 0
257 -0.5764566666665906 -0.8884930000000439 0
258 -0.722913000000317 0.8028564999998168 0
259 -0.6513631666670807 0.8442044999997607 0
260 0.4026193000000006 0.1884948000007335 0
261 0.4026979000000004 0.2876532000004366 0
262 0.3163990999998357 0.5304850000000955 0
263 -0.01442180000092766 0.7227945000005391 0
264 -0.1008732000009024 0.7730495000005245 0
265 0.4023927000000008 -0.0975003999989858 0
266 0.4023187000000006 -0.1909187999992264 0
267 -0.1823297000006973 0.8204010000004054 0
268 0.4028505 0.48023 0
269 0.06703469999906281 0.6754430000005447 0
270 -0.7944751666667904 0.7615014999999286 0
271 -0.2649204999995686 -0.8741203999997468 0
272 -0.3458086999997713 -0.9215935999998657 0
273 0.4022401000000004 -0.2900771999994757 0
274 0.4021661000000002 -0.383495599999727 0
275 0.4027719000000002 0.3810716000002199 0
276 -0.09816849999914234 -0.7762537999994966 0
277 -0.1790566999993644 -0.823726999999627 0
278 -0.2687811000004255 0.8706560000002473 0
279 0.3162237000001763 -0.5330473999998965 0
280 0.4020875 -0.482654 0
281 -0.5798010000004048 0.885559499999766 0
282 -0.3502376000002335 0.9180075000001358 0
283 -0.436689 0.9682625 0
284 -0.0123046999991433 -0.7258603999994973 0
285 0.06858350000085264 -0.6783871999994996 0
286 -0.504083000000115 -0.9302293333332671 0
287 -0.4316725 -0.9719869999999999 0
288 -0.5082511666668507 0.9269074999998936 0
289 0.1494717000006293 -0.6309139999996307 0
290 0.2353355000003737 -0.5805205999997807 0
291 0.5905753333330969 0.5592578333331975 0
292 0.6636024999997355 0.601213499999848 0
293 0.4526979 0.2875951999999744 0
294 0.4526193000000003 0.1884368000002713 0
295 0.7283001666662584 0.6383836666664321 0
296 0.4521661000000002 -0.383393599999727 0
297 0.4522401 -0.2900151999999395 0
298 0.4525453 0.09505840000001572 0
299 0.6632248333336381 -0.604502500000176 0
300 0.728045833333654 -0.6419423333335185 0
301 0.7928668333334812 -0.679382166666752 0
302 0.4520875 -0.482552 0
303 0.4524667 -0.004099999999978815 0
304 0.4523927 -0.0974783999999678 0
305 0.4528505 0.480132 0
306 0.5258776666664806 0.5220876666665597 0
307 0.4523187000000002 -0.1908567999996902 0
308 0.4527719000000002 0.38097360000022 0
309 0.5900666666669661 -0.5622471666668396 0
310 0.5252456666668092 -0.5248073333334156 0
311 0.7929978333331192 0.6755538333332103 0
312 -0.4616850000000001 1.17438933333381 0
313 -0.4617006666666668 1.258196333333818 0
314 -0.4616545 1.011584 0
315 -0.4616701666666667 1.095391000000275 0
316 -0.5332166666668507 0.9702289999998936 0
317 -0.596444666666935 0.9336899999998449 0
318 -0.659672666666715 0.8971509999999721 0
319 -0.7312348333333909 0.8557959999999667 0
320 -0.7944628333335266 0.8192569999998883 0
321 -0.4617311666666667 1.421001666666855 0
322 -0.4617155000000001 1.337194666667137 0
323 0.1735660999996864 0.6713498000001823 0
324 0.2600175000000526 0.6210947999999694 0
325 -0.1572851000002774 0.8636767000001613 0
326 -0.07581850000002258 0.8163194000000131 0
327 0.5739653333333179 0.6073796666666578 0
328 0.5009626666664806 0.5654381666665598 0
329 0.005648099999970596 0.7689621000000171 0
330 0.09209949999994532 0.7187071000000318 0
331 0.3414840999998356 0.5737375000000955 0
332 -0.2437365000000057 0.9139317000000033 0
333 0.4279355 0.5234825 0
334 0.7199951666666159 0.6912768333333041 0
335 0.7930223333334967 0.7332325000000939 0
336 -0.3252031000002336 0.9612890000001357 0
337 0.6469924999999566 0.6493353333333083 0
338 -0.4117311666666666 1.420988333333124 0
339 -0.4117006666666667 1.258169666666753 0
340 -0.411685 1.174362666666746 0
341 -0.4117155 1.337181333333405 0
342 -0.4116545 1.011544 0
343 -0.4116701666666667 1.095351000000275 0
$EndNodes
$Elements
148
1 15 2 2 2223103 17
2 15 2 1 2226115 20
3 15 2 3 2229126 22
4 15 2 4 2241171 31
5 8 2 1 56505 17 19 136
6 8 2 4 56506 20 18 137
7 8 2 1 56510 17 23 153
8 8 2 2 56511 22 21 154
9 8 2 4 56515 18 25 170
10 8 2 4 56516 26 24 171
11 8 2 2 56520 27 29 187
12 8 2 2 56521 28 21 188
13 8 2 4 56525 24 32 204
14 8 2 3 56526 31 30 205
15 8 2 3 56529 30 33 216
16 8 2 2 56530 34 27 217
17 9 2 11 6225 5 132 122 135 218 219
18 9 2 11 6225 19 127 17 130 220 136
19 9 2 11 6225 17 127 117 220 221 120
20 9 2 11 6225 126 5 116 128 222 223
21 9 2 11 6225 132 121 122 224 124 218
22 9 2 11 6225 127 126 117 129 225 221
23 9 2 11 6225 121 20 18 226 137 123
24 9 2 11 6225 132 131 121 134 227 224
25 9 2 11 6225 117 126 116 225 223 119
26 9 2 11 6225 116 5 4 222 228 118
27 9 2 11 6225 5 122 4 219 125 228
28 9 2 11 6225 131 20 121 133 226 227
29 9 2 11 6226 47 46 37 51 229 230
30 9 2 11 6226 44 6 35 48 231 232
31 9 2 11 6226 139 3 6 142 233 234
32 9 2 11 6226 21 138 143 140 235 236
33 9 2 11 6226 46 45 37 50 237 229
34 9 2 11 6226 138 139 144 141 238 239
35 9 2 11 6226 36 44 35 240 232 40
36 9 2 11 6226 116 7 4 241 242 118
37 9 2 11 6226 149 148 117 151 243 244
38 9 2 11 6226 117 148 116 243 245 119
39 9 2 11 6226 37 45 36 237 246 41
40 9 2 11 6226 7 47 38 52 247 248
41 9 2 11 6226 17 23 149 153 152 249
42 9 2 11 6226 148 7 116 150 241 245
43 9 2 11 6226 22 21 143 154 236 145
44 9 2 11 6226 7 38 4 248 43 242
45 9 2 11 6226 45 44 36 49 240 246
46 9 2 11 6226 17 149 117 249 244 120
47 9 2 11 6226 47 37 38 230 42 247
48 9 2 11 6226 144 139 6 238 234 147
49 9 2 11 6226 143 138 144 235 239 146
50 9 2 11 6226 35 6 3 231 233 39
51 9 2 11 6227 64 90 63 250 251 68
52 9 2 11 6227 121 18 161 123 252 253
53 9 2 11 6227 83 55 56 254 60 255
54 9 2 11 6227 122 121 160 124 256 257
55 9 2 11 6227 165 155 166 258 259 168
56 9 2 11 6227 63 89 62 260 261 67
57 9 2 11 6227 11 83 56 88 255 262
58 9 2 11 6227 55 81 54 263 264 59
59 9 2 11 6227 92 91 64 96 265 266
60 9 2 11 6227 81 80 54 85 267 264
61 9 2 11 6227 11 56 2 262 61 268
62 9 2 11 6227 83 82 55 87 269 254
63 9 2 11 6227 90 89 63 94 260 251
64 9 2 11 6227 24 155 165 157 258 270
65 9 2 11 6227 9 74 38 79 271 272
66 9 2 11 6227 8 92 65 97 273 274
67 9 2 11 6227 62 11 2 275 268 66
68 9 2 11 6227 74 73 37 78 276 277
69 9 2 11 6227 160 121 161 256 253 163
70 9 2 11 6227 54 80 53 267 278 58
71 9 2 11 6227 35 8 3 279 280 39
72 9 2 11 6227 155 156 166 158 281 259
73 9 2 11 6227 53 10 1 282 283 57
74 9 2 11 6227 161 18 25 252 170 164
75 9 2 11 6227 37 73 36 276 284 41
76 9 2 11 6227 38 74 37 271 277 42
77 9 2 11 6227 73 72 36 77 285 284
78 9 2 11 6227 9 122 160 286 257 162
79 9 2 11 6227 64 91 90 265 95 250
80 9 2 11 6227 4 122 9 125 286 287
81 9 2 11 6227 3 8 65 280 274 70
82 9 2 11 6227 156 1 10 159 283 288
83 9 2 11 6227 36 71 35 289 290 40
84 9 2 11 6227 166 156 10 281 288 169
85 9 2 11 6227 80 10 53 84 282 278
86 9 2 11 6227 36 72 71 285 76 289
87 9 2 11 6227 35 71 8 290 75 279
88 9 2 11 6227 65 92 64 273 266 69
89 9 2 11 6227 82 81 55 86 263 269
90 9 2 11 6227 4 9 38 287 272 43
91 9 2 11 6227 89 11 62 93 275 261
92 9 2 11 6227 26 24 165 171 270 167
93 9 2 11 6228 182 172 173 291 175 292
94 9 2 11 6228 63 62 101 67 293 294
95 9 2 11 6228 182 173 183 292 295 185
96 9 2 11 6228 12 65 98 296 297 102
97 9 2 11 6228 100 63 101 298 294 105
98 9 2 11 6228 138 178 177 299 180 300
99 9 2 11 6228 28 138 177 301 300 179
100 9 2 11 6228 3 65 12 70 296 302
101 9 2 11 6228 64 100 99 303 104 304
102 9 2 11 6228 13 2 172 305 174 306
103 9 2 11 6228 98 64 99 307 304 103
104 9 2 11 6228 21 138 28 140 301 188
105 9 2 11 6228 62 2 13 66 305 308
106 9 2 11 6228 13 172 182 306 291 184
107 9 2 11 6228 138 139 178 141 309 299
108 9 2 11 6228 139 3 12 142 302 310
109 9 2 11 6228 139 12 178 310 181 309
110 9 2 11 6228 173 27 29 176 187 311
111 9 2 11 6228 64 63 100 68 298 303
112 9 2 11 6228 65 64 98 69 307 297
113 9 2 11 6228 183 173 29 295 311 186
114 9 2 11 6228 101 62 13 293 308 106
115 9 2 11 6229 190 195 189 312 313 192
116 9 2 11 6229 1 14 190 314 315 193
117 9 2 11 6229 156 14 1 316 314 159
118 9 2 11 6229 200 199 156 202 317 318
119 9 2 11 6229 32 200 155 203 319 320
120 9 2 11 6229 194 31 30 196 205 321
121 9 2 11 6229 155 200 156 319 318 158
122 9 2 11 6229 156 199 14 317 201 316
123 9 2 11 6229 24 32 155 204 320 157
124 9 2 11 6229 195 194 189 197 322 313
125 9 2 11 6229 189 194 30 322 321 191
126 9 2 11 6229 14 195 190 198 312 315
127 9 2 11 6230 56 55 107 60 323 324
128 9 2 11 6230 54 110 109 325 114 326
129 9 2 11 6230 16 212 172 215 327 328
130 9 2 11 6230 55 54 108 59 329 330
131 9 2 11 6230 16 56 107 331 324 111
132 9 2 11 6230 54 53 110 58 332 325
133 9 2 11 6230 2 16 172 333 328 174
134 9 2 11 6230 2 56 16 61 331 333
135 9 2 11 6230 173 211 27 334 335 176
136 9 2 11 6230 53 15 110 336 115 332
137 9 2 11 6230 107 55 108 323 330 112
138 9 2 11 6230 108 54 109 329 326 113
139 9 2 11 6230 211 34 27 213 217 335
140 9 2 11 6230 172 212 173 327 337 175
141 9 2 11 6230 207 30 33 338 216 210
142 9 2 11 6230 190 189 206 192 339 340
143 9 2 11 6230 206 189 207 339 341 209
144 9 2 11 6230 189 30 207 191 338 341
145 9 2 11 6230 53 1 15 57 342 336
146 9 2 11 6230 212 211 173 214 334 337
147 9 2 11 6230 1 190 15 193 343 342
148 9 2 11 6230 15 190 206 343 340 208
$EndElements
