$MeshFormat
2.2 0 8
$EndMeshFormat
$Nodes
347
1 0.429232 -0.496811 0
2 -0.435993 -0.995628 0
3 0.434333 0.497862 0
4 -0.438605 1.0025 0
5 -0.485904 -1.02466 0
6 0.429198 -0.554545 0
7 -0.385904 -1.02446 0
8 -0.436074 -0.93796 0
9 0.37938 -0.467837 0
10 0.384185 0.469099 0
11 -0.438632 0.944762 0
12 0.484186 0.469096 0
13 0.47938 -0.468047 0
14 -0.488494 1.03144 0
15 -0.388494 1.03128 0
16 0.434186 0.5557 0
17 -0.434435 -1.5 0
18 -0.866025 -0.749312 0
19 -0.484435 -1.5 0
20 -0.866025 -0.806933 0
21 0.866025 -0.749312 0
22 -0.384435 -1.5 0
23 0.866025 -0.807065 0
24 -0.866025 0.755942 0
25 -0.866025 -0.69169 0
26 -0.866025 0.69822 0
27 0.866025 0.750353 0
28 0.866025 0.692428 0
29 0.866025 -0.691559 0
30 -0.436692 1.5 0
31 -0.866025 0.813665 0
32 -0.486692 1.5 0
33 -0.386692 1.5 0
34 0.866025 0.808277 0
35 0.2561870000003811 -0.5965743999997803 0
36 0.08314200000086797 -0.6963377999994995 0
37 -0.08990299999909851 -0.7961011999994803 0
38 -0.2629479999994562 -0.8958645999996865 0
39 0.3427095000001715 -0.5466926999999011 0
40 0.1696645000006517 -0.6464560999996243 0
41 -0.003380499998787811 -0.7462194999993012 0
42 -0.176425499999295 -0.8459828999995935 0
43 -0.3494704999997816 -0.945746299999874 0
44 0.2661776000003635 -0.6485279999997904 0
45 0.1031572000008595 -0.7425109999995044 0
46 -0.05986319999916423 -0.8364939999995181 0
47 -0.2228835999995937 -0.9304769999997657 0
48 0.3476878000001237 -0.6015364999999286 0
49 0.1846674000006173 -0.695519499999644 0
50 0.02164700000105563 -0.7895024999993914 0
51 -0.141373399999338 -0.8834854999996182 0
52 -0.3043937999997028 -0.9774684999998287 0
53 0.4302521999999977 -0.2978764000004487 0
54 0.4312723999999948 -0.09894180000101471 0
55 0.4322925999999946 0.09999279999893707 0
56 0.4333127999999972 0.2989273999994441 0
57 0.4297420999999988 -0.397343700000233 0
58 0.4307622999999961 -0.1984091000007568 0
59 0.4317824999999931 0.0005254999986543663 0
60 0.4328026999999957 0.1994600999991532 0
61 0.4338228999999985 0.3983946999997009 0
62 0.2888433333335769 0.5819683333331925 0
63 0.1433536666672188 0.6660746666663475 0
64 -0.002135999999139493 0.7501809999995026 0
65 -0.1476256666661154 0.8342873333330146 0
66 -0.2931153333330507 0.9183936666665033 0
67 0.3615881666668065 0.5399151666665859 0
68 0.2160985000003532 0.6240214999997958 0
69 0.0706088333340617 0.7081278333329123 0
70 -0.07488083333264445 0.7922341666662684 0
71 -0.2203704999996136 0.8763404999997766 0
72 -0.3658601666664811 0.9604468333332261 0
73 -0.2729832000003938 -0.843935400000227 0
74 -0.1098924000007618 -0.7499108000004392 0
75 0.05319839999915332 -0.6558862000004881 0
76 0.2162891999995193 -0.5618616000002772 0
77 -0.3545286000001485 -0.8909477000000856 0
78 -0.1914378000005414 -0.7969231000003121 0
79 -0.02834700000106133 -0.7028985000006118 0
80 0.1347437999993414 -0.6088739000003797 0
81 0.2978345999997749 -0.5148493000001297 0
82 0.3803409999999979 -0.280449800000412 0
83 0.3813019999999951 -0.09306260000095423 0
84 0.3822629999999951 0.09432459999903747 0
85 0.3832239999999972 0.2817117999994539 0
86 0.3798604999999989 -0.3741434000002131 0
87 0.3808214999999965 -0.1867562000006728 0
88 0.3817824999999938 0.0006309999987847981 0
89 0.3827434999999961 0.1880181999992457 0
90 0.3837044999999987 0.3754053999997359 0
91 0.2196216000003538 0.5642315999997954 0
92 0.05505820000084899 0.6593641999995092 0
93 -0.109505199999103 0.7544967999994814 0
94 -0.274068599999583 0.8496293999997589 0
95 0.301903300000146 0.5166652999999156 0
96 0.1373399000005569 0.611797899999678 0
97 -0.02722349999888718 0.7069304999993566 0
98 -0.1917868999993686 0.802063099999635 0
99 -0.3563502999997914 0.8971956999998794 0
100 0.483224800000002 0.2816674000003946 0
101 0.4822636000000048 0.09423880000094087 0
102 0.481302400000005 -0.0931897999990246 0
103 0.4803412000000025 -0.2806183999995018 0
104 0.4837054000000006 0.3753817000001138 0
105 0.4827442000000036 0.1879531000007066 0
106 0.4817830000000062 0.0005245000012048529 0
107 0.480821800000004 -0.1869040999992128 0
108 0.4798606000000014 -0.3743326999997298 0
109 -0.2239580000004073 0.9361640000002355 0
110 -0.05942200000081826 0.841048000000473 0
111 0.1051139999991721 0.7459320000004785 0
112 0.2696499999995826 0.6508160000002413 0
113 -0.3062260000002635 0.9837220000001523 0
114 -0.1416900000005911 0.8886060000003417 0
115 0.02284599999886622 0.7934900000006554 0
116 0.1873819999994046 0.6983740000003442 0
117 0.3519179999998787 0.6032580000000701 0
118 -0.4349543333333319 -1.331876000000463 0
119 -0.4354736666666652 -1.163752000000477 0
120 -0.4346946666666662 -1.415938000000162 0
121 -0.4352139999999987 -1.247814000000439 0
122 -0.4357333333333322 -1.079690000000375 0
123 -0.5793369999996182 -0.9135226666668853 0
124 -0.7226809999995993 -0.8314173333335628 0
125 -0.5076649999998397 -0.9545753333334251 0
126 -0.6510089999994513 -0.8724700000003143 0
127 -0.794352999999671 -0.7903646666668551 0
128 -0.4849246666666653 -1.341553333333767 0
129 -0.485414333333332 -1.1831066666671 0
130 -0.4846798333333331 -1.420776666666737 0
131 -0.4851694999999979 -1.262330000000683 0
132 -0.4856591666666669 -1.103883333333257 0
133 -0.6126109999996399 -0.9520843333335396 0
134 -0.7393179999996319 -0.8795086666668775 0
135 -0.5492575000001064 -0.9883721666666057 0
136 -0.6759644999994305 -0.9157965000003262 0
137 -0.8026714999998501 -0.8432208333334192 0
138 -0.866025 -0.7781224999998962 0
139 -0.459435 -1.5 0
140 0.7204273333337931 -0.6651450000002658 0
141 0.5748296666670949 -0.5809780000002476 0
142 0.7932261666670681 -0.7072285000002321 0
143 0.6476285000007768 -0.623061500000449 0
144 0.5020308333332542 -0.5388944999999542 0
145 -0.3854143333333345 -1.182973333332958 0
146 -0.384924666666668 -1.341486666666262 0
147 -0.3856591666666673 -1.103716666666479 0
148 -0.3851695000000017 -1.262229999999455 0
149 -0.3846798333333342 -1.420743333333076 0
150 0.7204160000004148 -0.7228916666669064 0
151 0.5748070000004681 -0.6387183333336039 0
152 0.7932205000001881 -0.7649783333334421 0
153 0.6476115000006253 -0.6808050000003614 0
154 0.5020025000001593 -0.5966316666667587 0
155 -0.409435 -1.5 0
156 0.866025 -0.7781884999999999 0
157 -0.5810783333329237 0.9203140000002363 0
158 -0.7235516666663016 0.8381280000002106 0
159 -0.5098416666663892 0.9614070000001601 0
160 -0.6523149999994727 0.8792210000003041 0
161 -0.7947883333330826 0.7970350000001446 0
162 -0.7227080000003929 -0.773779999999775 0
163 -0.5793910000003439 -0.8558699999998031 0
164 -0.7943665000001069 -0.7327349999999389 0
165 -0.6510495000005001 -0.8148249999997136 0
166 -0.5077325000001861 -0.8969149999998934 0
167 -0.5810963333329956 0.8625813333335282 0
168 -0.7235606666662961 0.7804006666668803 0
169 -0.5098641666666386 0.9036716666666829 0
170 -0.6523284999993847 0.8214910000003549 0
171 -0.7947928333331974 0.7393103333334117 0
172 -0.866025 0.727081 0
173 -0.866025 -0.7205009999999999 0
174 0.7221276666671012 0.6661893333335875 0
175 0.5782303333337611 0.5820256666669168 0
176 0.7940763333334571 0.7082711666667391 0
177 0.6501790000004601 0.6241075000002692 0
178 0.5062816666669356 0.5399438333334906 0
179 0.7387453333337476 0.6179840000002423 0
180 0.6114656666670144 0.5435400000002034 0
181 0.8023851666668523 0.6552060000001086 0
182 0.6751055000004166 0.5807620000002437 0
183 0.5478258333336206 0.506318000000168 0
184 0.6082616666663807 -0.5425509999998347 0
185 0.7371433333330943 -0.6170549999998619 0
186 0.5438208333331649 -0.5052989999999026 0
187 0.6727024999997268 -0.5798029999998421 0
188 0.8015841666665202 -0.6543069999999154 0
189 0.866025 -0.7204355 0
190 0.866025 0.7213904999994862 0
191 -0.437967333333335 1.168333333332914 0
192 -0.4373296666666687 1.334166666666146 0
193 -0.4382861666666669 1.085416666666609 0
194 -0.4376485000000022 1.251249999999449 0
195 -0.4370108333333341 1.417083333333142 0
196 -0.7401813333336635 0.8862566666664762 0
197 -0.6143376666669834 0.9588483333331506 0
198 -0.8031031666668318 0.849960833333238 0
199 -0.6772595000005688 0.9225524999996718 0
200 -0.5514158333333351 0.9951441666666656 0
201 -0.4878933333333346 1.187626666666349 0
202 -0.4872926666666674 1.343813333333131 0
203 -0.4881936666666672 1.109533333333174 0
204 -0.4875930000000019 1.265719999999514 0
205 -0.4869923333333341 1.421906666666464 0
206 -0.461692 1.5 0
207 -0.866025 0.7848035000000463 0
208 -0.3872926666666655 1.343760000000304 0
209 -0.3878933333333315 1.187520000000463 0
210 -0.3869923333333316 1.421880000000444 0
211 -0.3875929999999982 1.265640000000462 0
212 -0.388193666666665 1.109400000000431 0
213 0.5781323333329889 0.6398923333331318 0
214 0.7220786666662917 0.7240846666664473 0
215 0.5061591666664353 0.5977961666665313 0
216 0.650105499999587 0.6819884999997584 0
217 0.7940518333329771 0.7661808333331249 0
218 0.866025 0.7793149999997949 0
219 -0.411692 1.5 0
220 -0.595973999999629 -0.9328035000002124 0
221 -0.6676459999996196 -0.8917508333335512 0
222 -0.4596798333333327 -1.420776666666884 0
223 -0.5326204999998091 -0.9690913333334426 0
224 -0.4604439999999986 -1.173429333333788 0
225 -0.4606888333333326 -1.094206000000238 0
226 -0.4599394999999986 -1.336714666667115 0
227 -0.460184333333332 -1.257491333333781 0
228 -0.7309994999996157 -0.8554630000002201 0
229 -0.7943529999997997 -0.8191751666667815 0
230 -0.4609485 -1.010144 0
231 0.7204216666671039 -0.6940183333335861 0
232 0.7932205000002075 -0.7361018333334532 0
233 0.01163940000085187 -0.7664158999995088 0
234 -0.07488309999913137 -0.8162975999994992 0
235 0.09314960000086372 -0.719424399999502 0
236 -0.3244259999997281 -0.9601622999998431 0
237 -0.4109485 -1.010044 0
238 0.6476171666671307 -0.6519316666669348 0
239 -0.1563932999993461 -0.863289099999623 0
240 -0.242915799999525 -0.9131707999997261 0
241 0.5748183333337815 -0.6098481666669258 0
242 0.5020138333335474 -0.5677615000001237 0
243 -0.4106888333333326 -1.094106000000238 0
244 -0.409679833333334 -1.420743333333131 0
245 -0.4099395 -1.336681333333362 0
246 -0.4101843333333333 -1.25742466666671 0
247 0.1746598000006157 -0.672432899999645 0
248 -0.4104439999999999 -1.173362666666717 0
249 0.3426925000001906 -0.5755596999998902 0
250 0.429215 -0.525678 0
251 0.2611823000003723 -0.6225511999997854 0
252 0.1814876333337863 0.6151531333330715 0
253 0.09920593333403388 0.6627194333329284 0
254 -0.5793639999999811 -0.8846963333333442 0
255 -0.6510359999999716 -0.8436436666666829 0
256 -0.7226944999999961 -0.8025986666666689 0
257 0.4058066999999963 -0.1896958000007133 0
258 0.406287199999995 -0.09600220000098447 0
259 -0.7947928333331481 0.7681713333334401 0
260 0.2542324666669654 0.573099966666494 0
261 0.409259 0.4834805 0
262 0.4087488999999986 0.3840131999997221 0
263 -0.2835919666663168 0.8840115333331311 0
264 -0.2108471333328492 0.8419583666663868 0
265 0.3365141666667885 0.5255336666665963 0
266 0.4082683999999972 0.290319599999449 0
267 0.4077582999999959 0.1908522999991955 0
268 -0.7943665000001965 -0.7615459999998875 0
269 0.4048160999999988 -0.3828567000002244 0
270 0.4052965999999978 -0.2891631000004303 0
271 0.406767699999995 -0.00230860000098862 0
272 -0.6523239999996486 0.8503546666668693 0
273 -0.7235561666662989 0.8092643333335454 0
274 0.4072777999999948 0.09715869999898727 0
275 -0.3495109999997281 -0.9169122999998432 0
276 -0.267965599999925 -0.8698999999999568 0
277 -0.1285654333326092 0.7943920666662481 0
278 -0.05582059999912126 0.752338899999492 0
279 -0.1814430999997462 -0.8200182999998537 0
280 -0.09989769999993015 -0.7730059999999597 0
281 -0.5810873333329596 0.8914476666668822 0
282 -0.4386185 0.9736309999999999 0
283 -0.3658736666665253 0.9315778333332516 0
284 0.2362380999999502 -0.5792180000000288 0
285 0.1497156000001936 -0.6290996999998884 0
286 -0.5098551666664619 0.9325380000001182 0
287 -0.01337519999994691 -0.7231242999999694 0
288 0.06817020000001064 -0.6761119999999938 0
289 -0.5077054999998091 -0.9257413333334427 0
290 -0.4360335 -0.9667939999999999 0
291 0.02646110000085475 0.7047725999995059 0
292 0.404306 -0.482324 0
293 0.3177835000001905 -0.5322056999998902 0
294 0.4587493999999986 0.3840116999997221 0
295 0.4582687999999996 0.2902973999999193 0
296 0.7940763333335505 0.6793086666667938 0
297 0.4562873999999999 -0.09606580000001966 0
298 0.4558067999999986 -0.1897801000002583 0
299 0.7287853333334438 -0.6411000000000638 0
300 0.7932261666668965 -0.6783520000001328 0
301 0.4567974999999998 0.003401499999956231 0
302 0.6643445000000869 -0.6038480000000502 0
303 0.5915456666667378 -0.5617645000000411 0
304 0.4592595 0.483479 0
305 0.4577586999999983 0.1908300999996659 0
306 0.4572780999999997 0.09711579999993897 0
307 0.4552967000000001 -0.2892473999999753 0
308 0.5312081666668805 0.5255608333334584 0
309 0.5271048333335474 -0.5245125000001238 0
310 0.4548160999999988 -0.3829617000002243 0
311 0.454306 -0.482429 0
312 0.5948480000003877 0.5627828333335601 0
313 0.6584878333337543 0.6000048333335796 0
314 0.7304365000004244 0.6420866666669149 0
315 -0.4632306666666675 1.099886666666457 0
316 -0.4629303333333348 1.177979999999631 0
317 -0.4619923333333337 1.421906666666566 0
318 -0.4635495 1.01697 0
319 -0.5347861666664618 0.9758770000001181 0
320 -0.5977079999999535 0.9395811666666934 0
321 -0.6606298333332936 0.9032853333333563 0
322 -0.7947883333331508 0.8258965000001053 0
323 -0.7318664999999825 0.8621923333333434 0
324 -0.4626115000000016 1.260896666666247 0
325 -0.462311166666668 1.338989999999639 0
326 0.5062081666668805 0.5688628333334584 0
327 0.4342595 0.5267809999999999 0
328 -0.1857918333332613 0.8852256666666251 0
329 -0.258536666666729 0.9272788333333695 0
330 0.3615146666667884 0.5688341666665963 0
331 0.1242338333331955 0.706003333333413 0
332 0.05148900000001633 0.7480564999999906 0
333 0.2792466666665798 0.6163921666667169 0
334 -0.3408046666665253 0.9748368333332517 0
335 -0.4135495 1.01689 0
336 0.7940518333331459 0.7372188333332237 0
337 0.7221031666666964 0.6951370000000174 0
338 -0.03077899999997888 0.7956144999999878 0
339 0.2065018333334007 0.6584453333332945 0
340 0.578181333333375 0.6109590000000242 0
341 -0.4123111666666671 1.338963333333225 0
342 -0.4126115000000001 1.260843333333304 0
343 -0.1035238333334668 0.8376676666667437 0
344 -0.4119923333333327 1.421880000000152 0
345 -0.4132306666666675 1.099806666666457 0
346 -0.4129303333333333 1.177926666666688 0
347 0.6501300000000449 0.6530408333333597 0
$EndNodes
$Elements
150
1 15 2 2 221070 18
2 15 2 1 222074 19
3 15 2 3 227093 23
4 15 2 4 237130 30
5 8 2 4 6118 18 20 138
6 8 2 1 6119 19 17 139
7 8 2 1 6123 17 22 155
8 8 2 2 6124 23 21 156
9 8 2 4 6128 24 26 172
10 8 2 4 6129 25 18 173
11 8 2 2 6133 21 29 189
12 8 2 2 6134 28 27 190
13 8 2 3 6138 30 32 206
14 8 2 4 6139 31 24 207
15 8 2 2 6142 27 34 218
16 8 2 3 6143 33 30 219
17 9 2 11 698 133 123 124 220 126 221
18 9 2 11 698 19 17 128 139 222 130
19 9 2 11 698 5 123 133 223 220 135
20 9 2 11 698 129 119 5 224 225 132
21 9 2 11 698 128 118 129 226 227 131
22 9 2 11 698 133 124 134 221 228 136
23 9 2 11 698 134 124 20 228 229 137
24 9 2 11 698 5 2 123 230 125 223
25 9 2 11 698 17 118 128 120 226 222
26 9 2 11 698 124 18 20 127 138 229
27 9 2 11 698 118 119 129 121 224 227
28 9 2 11 698 119 2 5 122 230 225
29 9 2 11 699 21 140 150 142 231 232
30 9 2 11 699 46 36 37 233 41 234
31 9 2 11 699 46 45 36 50 235 233
32 9 2 11 699 7 38 2 236 43 237
33 9 2 11 699 150 140 151 231 238 153
34 9 2 11 699 23 21 150 156 232 152
35 9 2 11 699 47 37 38 239 42 240
36 9 2 11 699 151 141 6 241 242 154
37 9 2 11 699 119 7 2 243 237 122
38 9 2 11 699 17 146 118 244 245 120
39 9 2 11 699 146 145 118 148 246 245
40 9 2 11 699 7 47 38 52 240 236
41 9 2 11 699 22 146 17 149 244 155
42 9 2 11 699 47 46 37 51 234 239
43 9 2 11 699 45 44 36 49 247 235
44 9 2 11 699 118 145 119 246 248 121
45 9 2 11 699 145 7 119 147 243 248
46 9 2 11 699 35 6 1 249 250 39
47 9 2 11 699 36 44 35 247 251 40
48 9 2 11 699 141 1 6 144 250 242
49 9 2 11 699 140 141 151 143 241 238
50 9 2 11 699 44 6 35 48 249 251
51 9 2 11 700 91 63 92 252 253 96
52 9 2 11 700 123 163 124 254 255 126
53 9 2 11 700 163 162 124 165 256 255
54 9 2 11 700 82 54 83 257 258 87
55 9 2 11 700 26 168 24 171 259 172
56 9 2 11 700 91 62 63 260 68 252
57 9 2 11 700 56 3 10 61 261 262
58 9 2 11 700 65 66 94 71 263 264
59 9 2 11 700 10 3 62 261 67 265
60 9 2 11 700 55 56 85 60 266 267
61 9 2 11 700 162 25 18 164 173 268
62 9 2 11 700 9 53 82 269 270 86
63 9 2 11 700 10 62 91 265 260 95
64 9 2 11 700 54 84 83 271 88 258
65 9 2 11 700 168 167 158 170 272 273
66 9 2 11 700 84 55 85 274 267 89
67 9 2 11 700 24 168 158 259 273 161
68 9 2 11 700 8 38 73 275 276 77
69 9 2 11 700 64 65 93 70 277 278
70 9 2 11 700 73 37 74 279 280 78
71 9 2 11 700 124 162 18 256 268 127
72 9 2 11 700 158 167 157 272 281 160
73 9 2 11 700 66 4 11 72 282 283
74 9 2 11 700 36 35 76 40 284 285
75 9 2 11 700 157 11 4 286 282 159
76 9 2 11 700 85 56 10 266 262 90
77 9 2 11 700 53 54 82 58 257 270
78 9 2 11 700 74 36 75 287 288 79
79 9 2 11 700 8 163 123 166 254 289
80 9 2 11 700 54 55 84 59 274 271
81 9 2 11 700 2 8 123 290 289 125
82 9 2 11 700 92 64 93 291 278 97
83 9 2 11 700 92 63 64 253 69 291
84 9 2 11 700 2 38 8 43 275 290
85 9 2 11 700 35 1 9 39 292 293
86 9 2 11 700 94 66 11 263 283 99
87 9 2 11 700 167 11 157 169 286 281
88 9 2 11 700 36 76 75 285 80 288
89 9 2 11 700 35 9 76 293 81 284
90 9 2 11 700 93 65 94 277 264 98
91 9 2 11 700 38 37 73 42 279 276
92 9 2 11 700 1 53 9 57 269 292
93 9 2 11 700 37 36 74 41 287 280
94 9 2 11 701 100 12 56 104 294 295
95 9 2 11 701 174 28 27 296 190 176
96 9 2 11 701 103 102 54 107 297 298
97 9 2 11 701 29 185 140 188 299 300
98 9 2 11 701 54 102 55 297 301 59
99 9 2 11 701 140 184 141 302 303 143
100 9 2 11 701 140 185 184 299 187 302
101 9 2 11 701 56 12 3 294 304 61
102 9 2 11 701 101 100 55 105 305 306
103 9 2 11 701 21 29 140 189 300 142
104 9 2 11 701 53 103 54 307 298 58
105 9 2 11 701 102 101 55 106 306 301
106 9 2 11 701 12 175 3 308 178 304
107 9 2 11 701 141 184 13 303 186 309
108 9 2 11 701 13 103 53 108 307 310
109 9 2 11 701 1 13 53 311 310 57
110 9 2 11 701 141 13 1 309 311 144
111 9 2 11 701 55 100 56 305 295 60
112 9 2 11 701 12 180 175 183 312 308
113 9 2 11 701 180 179 175 182 313 312
114 9 2 11 701 179 28 174 181 296 314
115 9 2 11 701 175 179 174 313 314 177
116 9 2 11 702 14 191 201 315 316 203
117 9 2 11 702 202 30 32 317 206 205
118 9 2 11 702 4 191 14 193 315 318
119 9 2 11 702 157 14 197 319 200 320
120 9 2 11 702 196 157 197 321 320 199
121 9 2 11 702 31 158 196 322 323 198
122 9 2 11 702 158 157 196 160 321 323
123 9 2 11 702 157 4 14 159 318 319
124 9 2 11 702 191 192 201 194 324 316
125 9 2 11 702 201 192 202 324 325 204
126 9 2 11 702 192 30 202 195 317 325
127 9 2 11 702 24 158 31 161 322 207
128 9 2 11 703 3 175 16 178 326 327
129 9 2 11 703 65 109 66 328 329 71
130 9 2 11 703 3 16 62 327 330 67
131 9 2 11 703 63 111 64 331 332 69
132 9 2 11 703 16 112 62 117 333 330
133 9 2 11 703 66 15 4 334 335 72
134 9 2 11 703 174 27 214 176 336 337
135 9 2 11 703 111 110 64 115 338 332
136 9 2 11 703 214 27 34 336 218 217
137 9 2 11 703 62 112 63 333 339 68
138 9 2 11 703 16 175 213 326 340 215
139 9 2 11 703 209 208 192 211 341 342
140 9 2 11 703 65 110 109 343 114 328
141 9 2 11 703 64 110 65 338 343 70
142 9 2 11 703 112 111 63 116 331 339
143 9 2 11 703 208 33 30 210 219 344
144 9 2 11 703 4 15 191 335 345 193
145 9 2 11 703 15 209 191 212 346 345
146 9 2 11 703 192 208 30 341 344 195
147 9 2 11 703 66 109 15 329 113 334
148 9 2 11 703 213 174 214 347 337 216
149 9 2 11 703 191 209 192 346 342 194
150 9 2 11 703 175 174 213 177 347 340
$EndElements
