$MeshFormat
2.2 0 8
$EndMeshFormat
$Nodes
347
1 -0.430034 0.998454 0
2 0.431043 0.501797 0
3 0.435598 -0.498332 0
4 -0.438938 -1.00154 0
5 -0.488978 -1.0303 0
6 -0.388978 -1.03048 0
7 0.435384 -0.556141 0
8 0.385466 -0.469492 0
9 -0.438826 -0.943789 0
10 -0.430131 0.940789 0
11 0.381174 0.47284 0
12 0.481175 0.472991 0
13 0.485468 -0.469586 0
14 -0.480122 1.0274 0
15 0.431043 0.559518 0
16 -0.380121 1.02739 0
17 -0.439622 -1.5 0
18 -0.866025 -0.75358 0
19 -0.489622 -1.5 0
20 -0.866025 -0.811396 0
21 0.866025 -0.750257 0
22 -0.389622 -1.5 0
23 0.866025 -0.808191 0
24 -0.866025 0.748926 0
25 -0.866025 -0.695764 0
26 -0.866025 0.691317 0
27 0.866025 0.7526890000000001 0
28 0.866025 0.694968 0
29 0.866025 -0.692322 0
30 -0.431548 1.5 0
31 -0.481548 1.5 0
32 -0.866025 0.806536 0
33 0.866025 0.81041 0
34 -0.381547 1.5 0
35 -0.2931820000002504 -0.9176720000001442 0
36 -0.1474260000007195 -0.8338040000004141 0
37 -0.001670000001136263 -0.7499360000006539 0
38 0.1440859999992479 -0.6660680000004328 0
39 0.289841999999621 -0.5822000000002181 0
40 -0.3660600000001 -0.9596060000000576 0
41 -0.2203040000004684 -0.8757380000002696 0
42 -0.07454800000088663 -0.7918700000005102 0
43 0.07120799999901856 -0.7080020000005648 0
44 0.2169639999995058 -0.6241340000002844 0
45 0.36271999999987 -0.5402660000000749 0
46 -0.2241056000003084 -0.9356122000001775 0
47 -0.05923320000080873 -0.8407444000004654 0
48 0.1056391999991485 -0.7458766000004899 0
49 0.2705115999995634 -0.6510088000002512 0
50 -0.3065418000001566 -0.9830461000000902 0
51 -0.1416694000005583 -0.8881783000003213 0
52 0.02320299999897729 -0.7933105000005884 0
53 0.1880753999993737 -0.6984427000003604 0
54 0.3529477999997774 -0.6035749000001281 0
55 -0.2578186000003941 0.8991226000002273 0
56 -0.08560320000090937 0.7997912000005245 0
57 0.08661219999916525 0.7004598000004816 0
58 0.2588275999996197 0.6011284000002194 0
59 -0.3439263000001694 0.9487883000000977 0
60 -0.1717109000006441 0.8494569000003716 0
61 0.0005044999989421428 0.7501255000006102 0
62 0.1727198999994017 0.6507941000003451 0
63 0.3449352999997607 0.5514627000001381 0
64 0.4319539999999981 0.3017712000004121 0
65 0.4328649999999954 0.1017454000009979 0
66 0.4337759999999952 -0.09828039999894977 0
67 0.4346869999999976 -0.2983061999994744 0
68 0.4314984999999993 0.4017841000001537 0
69 0.432409499999997 0.2017583000006612 0
70 0.4333204999999938 0.001732500001359383 0
71 0.4342314999999964 -0.1982932999992029 0
72 0.4351424999999988 -0.3983190999997371 0
73 0.2206076000004647 -0.5643513999997326 0
74 0.05574920000091432 -0.6592107999994739 0
75 -0.1091091999990689 -0.7540701999994642 0
76 -0.273967599999586 -0.8489295999997617 0
77 0.3030368000001876 -0.5169216999998921 0
78 0.138178400000688 -0.6117810999996041 0
79 -0.02667999999880105 -0.7066404999993101 0
80 -0.1915383999993256 -0.8014998999996119 0
81 -0.3563967999997745 -0.8963592999998702 0
82 -0.2678700000003625 0.8471992000002091 0
83 -0.1056090000007861 0.7536094000004534 0
84 0.0566519999991914 0.6600196000004663 0
85 0.2189129999996032 0.5664298000002288 0
86 -0.3490005000001569 0.8939941000000905 0
87 -0.1867395000005641 0.8004043000003254 0
88 -0.0244785000010358 0.7068145000005974 0
89 0.1377824999993901 0.6132247000003517 0
90 0.3000434999997016 0.5196349000001721 0
91 0.3820323999999982 0.2843736000004059 0
92 0.3828907999999956 0.09590720000095238 0
93 0.3837491999999953 -0.09255919999898027 0
94 0.3846075999999978 -0.2810255999995142 0
95 0.3816031999999993 0.3786068000001557 0
96 0.3824615999999969 0.1901404000006742 0
97 0.3833199999999943 0.001674000001245179 0
98 0.3841783999999975 -0.186792399999457 0
99 0.3850367999999988 -0.3752587999997442 0
100 0.4820335999999975 0.284475600000555 0
101 0.4828921999999949 0.0959602000011105 0
102 0.483750799999995 -0.09255519999888978 0
103 0.4846093999999975 -0.2810705999994449 0
104 0.4816042999999989 0.3787333000002542 0
105 0.4824628999999963 0.1902179000008178 0
106 0.4833214999999938 0.00170250000136285 0
107 0.4841800999999962 -0.1868128999991673 0
108 0.4850386999999988 -0.3753282999997224 0
109 0.2688102000004454 0.653092399999743 0
110 0.1065774000009897 0.7466667999994292 0
111 -0.05565539999898711 0.8402411999994157 0
112 -0.2178881999992747 0.9338155999995816 0
113 0.3499266000001325 0.6063051999999235 0
114 0.1876938000007116 0.6998795999995895 0
115 0.02546100000118623 0.7934539999993158 0
116 -0.1367717999991455 0.8870283999995071 0
117 -0.2990045999995243 0.9806027999997255 0
118 -0.4393940000000006 -1.333846666667115 0
119 -0.4391660000000004 -1.167693333333666 0
120 -0.4395080000000005 -1.416923333333645 0
121 -0.439280000000001 -1.250770000000728 0
122 -0.4390520000000004 -1.084616666666961 0
123 -0.5813003333330181 -0.9188866666668498 0
124 -0.7236626666662445 -0.8362333333335785 0
125 -0.5101191666667073 -0.9602133333333098 0
126 -0.6524814999994448 -0.8775600000003224 0
127 -0.7948438333331361 -0.7949066666667812 0
128 -0.4894073333333339 -1.343433333333695 0
129 -0.4891926666666672 -1.186866666667028 0
130 -0.489514666666667 -1.421716666666886 0
131 -0.4893000000000009 -1.265150000000646 0
132 -0.4890853333333334 -1.108583333333378 0
133 -0.6146603333330265 -0.9573320000001782 0
134 -0.7403426666663417 -0.8843640000001887 0
135 -0.5518191666665889 -0.9938160000000452 0
136 -0.6775014999994766 -0.9208480000003039 0
137 -0.8031838333331375 -0.8478800000001138 0
138 -0.866025 -0.782488000000205 0
139 -0.464622 -1.5 0
140 0.5790736666662003 -0.582306999999727 0
141 0.7225493333329684 -0.6662819999997864 0
142 0.5073358333331605 -0.5403194999998988 0
143 0.6508114999993985 -0.6242944999996479 0
144 0.7942871666663871 -0.7082694999998362 0
145 -0.3894073333333341 -1.343493333333868 0
146 -0.3891926666666676 -1.186986666667361 0
147 -0.3895146666666669 -1.421746666666809 0
148 -0.3893000000000009 -1.265240000000614 0
149 -0.3890853333333339 -1.108733333333783 0
150 0.5789309999996179 -0.640157666666443 0
151 0.7224779999996152 -0.7241743333331081 0
152 0.5071574999997337 -0.5981493333331774 0
153 0.6507044999993925 -0.6821659999996444 0
154 0.7942514999998362 -0.7661826666665708 0
155 0.866025 -0.7792239999999999 0
156 -0.414622 -1.5 0
157 -0.7206946666670284 0.832101999999793 0
158 -0.5753643333337269 0.9152779999997747 0
159 -0.7933598333335163 0.7905139999998952 0
160 -0.6480295000006796 0.8736899999996111 0
161 -0.5026991666668956 0.956865999999869 0
162 -0.5812256666664377 -0.8611140000001329 0
163 -0.7236253333329932 -0.7784390000001975 0
164 -0.5100258333331513 -0.9024515000001057 0
165 -0.6524254999994954 -0.819776500000293 0
166 -0.79482516666641 -0.7371015000001491 0
167 -0.7207270000003247 0.7744743333331475 0
168 -0.575429000000208 0.8576316666665476 0
169 -0.7933760000000177 0.7328956666666565 0
170 -0.648078000000353 0.816052999999798 0
171 -0.5027800000002532 0.8992103333331884 0
172 -0.866025 -0.724671999999795 0
173 -0.866025 0.7201215 0
174 0.7210310000004022 0.6690583333335653 0
175 0.5760370000003665 0.5854276666668782 0
176 0.7935280000002002 0.7108736666667822 0
177 0.6485340000006045 0.6272430000003487 0
178 0.5035400000001528 0.5436123333334215 0
179 0.7377416666674276 0.6209756666671056 0
180 0.6094583333341443 0.5469833333338011 0
181 0.8018833333336624 0.657971833333523 0
182 0.6736000000009364 0.5839795000005401 0
183 0.5453166666670104 0.5099871666668648 0
184 0.6123203333330475 -0.543831333333166 0
185 0.7391726666663445 -0.6180766666664781 0
186 0.5488941666665552 -0.5067086666666014 0
187 0.6757464999995293 -0.5809539999997244 0
188 0.8025988333332396 -0.6551993333332784 0
189 0.866025 -0.7212894999999794 0
190 0.866025 0.7238285000001589 0
191 -0.4310433333333331 1.332817999999914 0
192 -0.4305386666666677 1.165636000000347 0
193 -0.4312956666666658 1.416408999999709 0
194 -0.430791000000001 1.249227000000332 0
195 -0.4302863333333338 1.082045000000143 0
196 -0.4810726666666666 1.342466666666667 0
197 -0.4805973333333333 1.184933333333333 0
198 -0.481310333333333 1.421233333333233 0
199 -0.4808350000000002 1.263700000000069 0
200 -0.4803596666666669 1.106166666666754 0
201 -0.6087563333330143 0.9537786666668494 0
202 -0.7373906666663725 0.8801573333335018 0
203 -0.5444391666665453 0.9905893333334028 0
204 -0.673073499999611 0.9169680000002227 0
205 -0.8017078333332583 0.8433466666667097 0
206 -0.866025 0.777731 0
207 -0.456548 1.5 0
208 0.7210310000004022 0.7267793333335653 0
209 0.5760370000003665 0.6431486666668781 0
210 0.7935280000002002 0.7685946666667821 0
211 0.6485340000006045 0.6849640000003486 0
212 0.5035400000001528 0.6013333333334214 0
213 -0.3805963333333327 1.184926666666464 0
214 -0.3810716666666651 1.342463333332813 0
215 -0.3803586666666665 1.106158333333263 0
216 -0.3808339999999975 1.263694999999176 0
217 -0.3813093333333321 1.421231666666248 0
218 -0.4065475 1.5 0
219 0.866025 0.7815495 0
220 -0.5351391666665091 -0.9745933333334249 0
221 -0.5979803333330223 -0.938109333333514 0
222 -0.7320026666662931 -0.8602986666668836 0
223 -0.66082149999968 -0.9016253333335192 0
224 -0.464514666666667 -1.421716666666847 0
225 -0.4641793333333338 -1.177280000000347 0
226 -0.4640720000000003 -1.098996666666833 0
227 -0.4644006666666672 -1.338640000000405 0
228 -0.4642933333333339 -1.260356666667072 0
229 -0.7948438333331223 -0.8238146666667893 0
230 -0.463958 -1.01592 0
231 -0.414179333333334 -1.177340000000513 0
232 -0.4140720000000002 -1.099086666666833 0
233 -0.2586438000002794 -0.9266421000001608 0
234 -0.185765800000514 -0.8847081000002959 0
235 0.7942514999998076 -0.737215666666554 0
236 0.1248625999991982 -0.7059723000004614 0
237 0.05198459999900612 -0.7479063000005719 0
238 -0.413958 -1.01601 0
239 0.6507401666662932 -0.6532198333331147 0
240 0.5790023333329091 -0.611232333333085 0
241 0.5072288333331001 -0.5692239999998635 0
242 -0.3410800000001252 -0.9740760000000721 0
243 -0.4144006666666674 -1.338670000000491 0
244 -0.414514666666667 -1.421746666666934 0
245 0.7225136666662918 -0.6952281666664473 0
246 -0.4142933333333341 -1.260416666667238 0
247 0.2072987999994056 -0.658538400000342 0
248 -0.0304516000009725 -0.7953402000005596 0
249 -0.1033296000007641 -0.8372742000004397 0
250 0.2801767999995922 -0.6166044000002346 0
251 0.3626129999998104 -0.569170500000109 0
252 0.435491 -0.5272365 0
253 -0.6524441666663411 -0.8486736666668557 0
254 -0.5812629999997279 -0.8900003333334914 0
255 0.1527625999993842 0.6334448000003552 0
256 0.2388702999996114 0.5837791000002241 0
257 -0.7236439999996188 -0.807336166666888 0
258 0.02703959999988903 -0.7045734000000639 0
259 -0.0553896000001026 -0.7520031000000591 0
260 -0.7933760000001624 0.7617001666665737 0
261 0.410532 -0.483912 0
262 0.4100764999999988 -0.3838990999997372 0
263 -0.7207108333336766 0.8032881666664702 0
264 -0.6480618333336182 0.8448668333331703 0
265 -0.09560610000084774 0.776700300000489 0
266 -0.01447560000085898 0.7299054000004954 0
267 -0.1767366000006359 0.8234952000003668 0
268 0.406563999999999 0.3873056000002061 0
269 0.4069931999999982 0.293072400000409 0
270 0.4078778999999956 0.09882630000097514 0
271 0.4083070999999954 0.004593100001008821 0
272 -0.438882 -0.9726645 0
273 -0.3660040000001252 -0.9307305000000721 0
274 0.4061085 0.4873185 0
275 0.3200007999998098 0.5369842000001097 0
276 -0.5100631666665091 -0.9313378333334249 0
277 0.4096472999999977 -0.2896658999994943 0
278 -0.1282675999998942 -0.7939370999999391 0
279 0.07163209999917833 0.680239700000474 0
280 0.4074486999999968 0.1930595000007019 0
281 0.4087625999999953 -0.09541979999896502 0
282 -0.3439748000001971 0.9199558000001136 0
283 -0.2628443000003783 0.8731609000002182 0
284 0.09991760000008112 -0.6626393999999534 0
285 0.1823467999998563 -0.6152097000000827 0
286 -0.5753966666669674 0.8864548333331611 0
287 -0.5027476666668634 0.9280334999998874 0
288 -0.2835747999999182 -0.8833007999999529 0
289 -0.2106968000001528 -0.8413668000000879 0
290 0.4091917999999965 -0.189652999999232 0
291 -0.7948251666664966 -0.7660095000000988 0
292 0.2552248000000428 -0.5732756999999753 0
293 0.3376539999998105 -0.5258460000001091 0
294 -0.4300825 0.9696214999999999 0
295 0.6652446666672733 0.6080208333336832 0
296 0.5927476666672554 0.5662055000003396 0
297 0.4583340999999951 -0.001160099998919639 0
298 0.4578785999999952 0.0988528000010542 0
299 0.4596481999999975 -0.2896883999994596 0
300 0.4600774999999988 -0.3839460999997372 0
301 0.7308609999996565 -0.6421793333331323 0
302 0.7942871666664842 -0.6793019999998933 0
303 0.4574492999999965 0.1931105000007765 0
304 0.456564499999999 0.3873811000002061 0
305 0.4569937999999978 0.2931234000004835 0
306 0.456109 0.487394 0
307 0.4587633999999951 -0.09541779999891978 0
308 0.6591231666662725 -0.6001918333331026 0
309 0.7293863333339149 0.6450170000003355 0
310 0.5286060000001833 0.5292093333334391 0
311 0.5322708333331001 -0.5259464999998635 0
312 0.460533 -0.483959 0
313 0.5956969999996239 -0.5630691666664465 0
314 0.7935280000002012 0.6820131666667827 0
315 0.4591926999999963 -0.1896754999991973 0
316 -0.7933598333335142 0.8193189999998964 0
317 -0.455078 1.012927 0
318 -0.4553303333333338 1.096518000000174 0
319 -0.4560579999999999 1.33764233333329 0
320 -0.4558203333333332 1.258875666666623 0
321 -0.4563103333333333 1.421233333333333 0
322 -0.7290426666667005 0.8561296666666474 0
323 -0.6647255000000214 0.8929403333333212 0
324 -0.5920603333333706 0.9345283333333121 0
325 -0.4555680000000005 1.17528466666684 0
326 -0.5277431666668635 0.9713389999998874 0
327 0.1777111999998053 0.6767761000001122 0
328 0.2638189000000326 0.6271103999999812 0
329 -0.4063098333333325 1.421231666666406 0
330 0.7210310000004022 0.6979188333335653 0
331 0.7935280000002012 0.7397341666667827 0
332 0.3449352999998099 0.5803232000001097 0
333 0.431043 0.5306575 0
334 0.5035400000001833 0.572472833333439 0
335 0.01048710000004016 0.7732289999999769 0
336 0.09659480000007747 0.7235632999999554 0
337 0.5760370000003665 0.6142881666668781 0
338 -0.2378533999998344 0.9164690999999044 0
339 -0.151745700000092 0.8668034000000531 0
340 -0.318969800000197 0.9632563000001136 0
341 -0.07062929999994824 0.8200161999999701 0
342 -0.4058198333333329 1.258872333333189 0
343 -0.4055675000000002 1.175281333333406 0
344 0.6485340000003843 0.6561035000002218 0
345 -0.4053298333333338 1.096513000000173 0
346 -0.4060574999999991 1.337640666666363 0
347 -0.4050775 1.012922 0
$EndNodes
$Elements
150
1 15 2 2 2922448 18
2 15 2 1 2923452 19
3 15 2 3 2926463 21
4 15 2 4 2939512 31
5 8 2 4 74098 18 20 138
6 8 2 1 74099 19 17 139
7 8 2 2 74103 21 23 155
8 8 2 1 74104 22 17 156
9 8 2 4 74108 18 25 172
10 8 2 4 74109 26 24 173
11 8 2 2 74113 21 29 189
12 8 2 2 74114 28 27 190
13 8 2 4 74118 24 32 206
14 8 2 3 74119 31 30 207
15 8 2 3 74122 30 34 218
16 8 2 2 74123 33 27 219
17 9 2 11 8155 5 123 133 220 221 135
18 9 2 11 8155 123 124 134 126 222 223
19 9 2 11 8155 19 17 128 139 224 130
20 9 2 11 8155 129 119 5 225 226 132
21 9 2 11 8155 128 118 129 227 228 131
22 9 2 11 8155 133 123 134 221 223 136
23 9 2 11 8155 134 124 20 222 229 137
24 9 2 11 8155 5 4 123 230 125 220
25 9 2 11 8155 17 118 128 120 227 224
26 9 2 11 8155 124 18 20 127 138 229
27 9 2 11 8155 118 119 129 121 225 228
28 9 2 11 8155 119 4 5 122 230 226
29 9 2 11 8156 146 119 6 231 232 149
30 9 2 11 8156 46 35 36 233 41 234
31 9 2 11 8156 23 151 21 154 235 155
32 9 2 11 8156 37 38 48 43 236 237
33 9 2 11 8156 119 4 6 122 238 232
34 9 2 11 8156 141 150 140 239 240 143
35 9 2 11 8156 150 7 140 152 241 240
36 9 2 11 8156 6 35 46 242 233 50
37 9 2 11 8156 17 118 145 120 243 244
38 9 2 11 8156 6 4 35 238 40 242
39 9 2 11 8156 151 150 141 153 239 245
40 9 2 11 8156 118 119 146 121 231 246
41 9 2 11 8156 21 151 141 235 245 144
42 9 2 11 8156 48 38 49 236 247 53
43 9 2 11 8156 47 37 48 248 237 52
44 9 2 11 8156 47 36 37 249 42 248
45 9 2 11 8156 22 17 145 156 244 147
46 9 2 11 8156 145 118 146 243 246 148
47 9 2 11 8156 46 36 47 234 249 51
48 9 2 11 8156 49 39 7 250 251 54
49 9 2 11 8156 39 3 7 45 252 251
50 9 2 11 8156 38 39 49 44 250 247
51 9 2 11 8156 140 7 3 241 252 142
52 9 2 11 8157 123 124 162 126 253 254
53 9 2 11 8157 85 57 58 255 62 256
54 9 2 11 8157 162 124 163 253 257 165
55 9 2 11 8157 75 74 37 79 258 259
56 9 2 11 8157 26 24 167 173 260 169
57 9 2 11 8157 3 8 67 261 262 72
58 9 2 11 8157 167 157 168 263 264 170
59 9 2 11 8157 84 83 56 88 265 266
60 9 2 11 8157 83 82 56 87 267 265
61 9 2 11 8157 91 11 64 95 268 269
62 9 2 11 8157 93 92 65 97 270 271
63 9 2 11 8157 4 9 35 272 273 40
64 9 2 11 8157 24 157 167 159 263 260
65 9 2 11 8157 64 11 2 268 274 68
66 9 2 11 8157 11 85 58 90 256 275
67 9 2 11 8157 9 123 162 276 254 164
68 9 2 11 8157 8 94 67 99 277 262
69 9 2 11 8157 36 75 37 278 259 42
70 9 2 11 8157 84 56 57 266 61 279
71 9 2 11 8157 85 84 57 89 279 255
72 9 2 11 8157 92 91 65 96 280 270
73 9 2 11 8157 66 93 65 281 271 70
74 9 2 11 8157 82 10 55 86 282 283
75 9 2 11 8157 38 74 73 284 78 285
76 9 2 11 8157 168 158 10 286 287 171
77 9 2 11 8157 65 91 64 280 269 69
78 9 2 11 8157 35 76 36 288 289 41
79 9 2 11 8157 4 123 9 125 276 272
80 9 2 11 8157 67 94 66 277 290 71
81 9 2 11 8157 163 18 25 291 172 166
82 9 2 11 8157 9 76 35 81 288 273
83 9 2 11 8157 39 73 8 292 77 293
84 9 2 11 8157 158 1 10 161 294 287
85 9 2 11 8157 39 8 3 293 261 45
86 9 2 11 8157 38 73 39 285 292 44
87 9 2 11 8157 55 10 1 282 294 59
88 9 2 11 8157 157 158 168 160 286 264
89 9 2 11 8157 56 82 55 267 283 60
90 9 2 11 8157 124 18 163 127 291 257
91 9 2 11 8157 11 58 2 275 63 274
92 9 2 11 8157 37 74 38 258 284 43
93 9 2 11 8157 94 93 66 98 281 290
94 9 2 11 8157 76 75 36 80 278 289
95 9 2 11 8158 180 174 175 295 177 296
96 9 2 11 8158 66 101 65 297 298 70
97 9 2 11 8158 13 103 67 108 299 300
98 9 2 11 8158 29 185 141 188 301 302
99 9 2 11 8158 101 100 65 105 303 298
100 9 2 11 8158 100 12 64 104 304 305
101 9 2 11 8158 64 12 2 304 306 68
102 9 2 11 8158 66 102 101 307 106 297
103 9 2 11 8158 141 185 140 301 308 143
104 9 2 11 8158 180 179 174 182 309 295
105 9 2 11 8158 12 180 175 183 296 310
106 9 2 11 8158 140 13 3 311 312 142
107 9 2 11 8158 140 184 13 313 186 311
108 9 2 11 8158 185 184 140 187 313 308
109 9 2 11 8158 3 13 67 312 300 72
110 9 2 11 8158 179 28 174 181 314 309
111 9 2 11 8158 65 100 64 303 305 69
112 9 2 11 8158 67 103 66 299 315 71
113 9 2 11 8158 21 29 141 189 302 144
114 9 2 11 8158 12 175 2 310 178 306
115 9 2 11 8158 174 28 27 314 190 176
116 9 2 11 8158 103 102 66 107 307 315
117 9 2 11 8159 24 32 157 206 316 159
118 9 2 11 8159 1 14 192 317 318 195
119 9 2 11 8159 197 196 191 199 319 320
120 9 2 11 8159 196 31 30 198 207 321
121 9 2 11 8159 157 202 201 322 204 323
122 9 2 11 8159 157 201 158 323 324 160
123 9 2 11 8159 32 202 157 205 322 316
124 9 2 11 8159 14 197 192 200 325 318
125 9 2 11 8159 158 201 14 324 203 326
126 9 2 11 8159 158 14 1 326 317 161
127 9 2 11 8159 192 197 191 325 320 194
128 9 2 11 8159 191 196 30 319 321 193
129 9 2 11 8160 58 57 109 62 327 328
130 9 2 11 8160 214 30 34 329 218 217
131 9 2 11 8160 174 208 27 330 331 176
132 9 2 11 8160 2 58 15 63 332 333
133 9 2 11 8160 2 15 175 333 334 178
134 9 2 11 8160 57 56 110 61 335 336
135 9 2 11 8160 15 209 175 212 337 334
136 9 2 11 8160 56 55 112 60 338 339
137 9 2 11 8160 15 58 109 332 328 113
138 9 2 11 8160 109 57 110 327 336 114
139 9 2 11 8160 55 16 112 340 117 338
140 9 2 11 8160 110 56 111 335 341 115
141 9 2 11 8160 208 33 27 210 219 331
142 9 2 11 8160 192 191 213 194 342 343
143 9 2 11 8160 175 209 174 337 344 177
144 9 2 11 8160 16 192 213 345 343 215
145 9 2 11 8160 191 30 214 193 329 346
146 9 2 11 8160 56 112 111 339 116 341
147 9 2 11 8160 209 208 174 211 330 344
148 9 2 11 8160 1 192 16 195 345 347
149 9 2 11 8160 213 191 214 342 346 216
150 9 2 11 8160 55 1 16 59 347 340
$EndElements
