$MeshFormat
2.2 0 8
$EndMeshFormat
$Nodes
351
1 -0.43369 1.00415 0
2 -0.426334 -0.996511 0
3 0.43416 -0.5028820000000001 0
4 0.437947 0.505011 0
5 -0.476443 -1.02542 0
6 -0.376443 -1.02553 0
7 0.434144 -0.560534 0
8 -0.426343 -0.938873 0
9 0.384269 -0.47386 0
10 0.387838 0.476088 0
11 -0.433442 0.94639 0
12 0.487839 0.476153 0
13 0.484269 -0.474003 0
14 -0.483843 1.03276 0
15 -0.383844 1.03322 0
16 0.437783 0.562723 0
17 -0.866025 -0.744458 0
18 -0.428232 -1.5 0
19 -0.866025 -0.802091 0
20 -0.478232 -1.5 0
21 0.866025 -0.750951 0
22 -0.378231 -1.5 0
23 0.866025 -0.808613 0
24 -0.866025 0.7516119999999999 0
25 -0.866025 0.693707 0
26 -0.866025 -0.686825 0
27 0.866025 0.753395 0
28 0.866025 0.695588 0
29 0.866025 -0.69329 0
30 -0.436331 1.5 0
31 -0.866025 0.809517 0
32 -0.486332 1.5 0
33 -0.38633 1.5 0
34 0.866025 0.811202 0
35 -0.2542352000004149 -0.8977852000002381 0
36 -0.08213640000088707 -0.7990594000005089 0
37 0.0899623999990854 -0.7003336000005247 0
38 0.2620611999995193 -0.6016078000002758 0
39 -0.3402846000001216 -0.9471481000000698 0
40 -0.1681858000006938 -0.8484223000003981 0
41 0.003912999998880451 -0.7496965000006423 0
42 0.1760117999992667 -0.6509707000004207 0
43 0.3481105999997386 -0.55224490000015 0
44 -0.2143256000003969 -0.9325308000002277 0
45 -0.05220820000078713 -0.8395316000004516 0
46 0.1099091999991666 -0.746532400000478 0
47 0.2720265999995841 -0.6535332000002385 0
48 -0.295384300000185 -0.9790304000001062 0
49 -0.1332669000005809 -0.8860312000003332 0
50 0.02885049999896916 -0.7930320000005913 0
51 0.1909678999993907 -0.7000328000003495 0
52 0.3530852999997738 -0.6070336000001297 0
53 0.4347911666666652 -0.33489983333372 0
54 0.4354223333333301 -0.1669176666675158 0
55 0.436053499999995 0.001064499998677526 0
56 0.4366846666666633 0.1690466666657706 0
57 0.4373158333333316 0.3370288333328855 0
58 0.4344755833333326 -0.4188909166668618 0
59 0.4351067499999977 -0.2509087500006227 0
60 0.4357379166666624 -0.08292658333446923 0
61 0.436369083333329 0.08505558333219299 0
62 0.4370002499999977 0.253037749999397 0
63 0.4376314166666656 0.4210199166663972 0
64 0.2926741666670064 0.5882008333331388 0
65 0.1474013333340884 0.6713906666662343 0
66 0.002128500001187028 0.7545804999993203 0
67 -0.1431443333326009 0.8377703333329141 0
68 -0.2884171666662374 0.9209601666664209 0
69 0.3653105833335326 0.5466059166665526 0
70 0.2200377500005524 0.6297957499996837 0
71 0.0747649166676122 0.7129855833327919 0
72 -0.07050791666569234 0.7961754166661088 0
73 -0.2157807499994095 0.8793652499996619 0
74 -0.3610535833330575 0.9625550833331754 0
75 -0.2642206000003746 -0.8458704000002149 0
76 -0.1020982000007822 -0.7528678000004487 0
77 0.06002419999917019 -0.6598652000004761 0
78 0.2221465999995558 -0.5668626000002548 0
79 -0.3452818000002097 -0.8923717000001202 0
80 -0.183159400000545 -0.7993691000003127 0
81 -0.02103700000105491 -0.7063665000006052 0
82 0.1410853999993296 -0.6133639000003847 0
83 0.3032077999997221 -0.5203613000001595 0
84 0.3849827999999984 -0.2838704000004358 0
85 0.3856965999999962 -0.09388080000101312 0
86 0.386410399999996 0.09610879999894156 0
87 0.3871241999999981 0.2860983999994925 0
88 0.3846258999999993 -0.3788652000001886 0
89 0.3853396999999973 -0.1888756000007096 0
90 0.3860534999999951 0.001113999998676007 0
91 0.386767299999997 0.1911035999991964 0
92 0.3874810999999989 0.381093199999709 0
93 0.223582000000371 0.5701483999997875 0
94 0.05932600000082533 0.6642087999995274 0
95 -0.1049299999991605 0.7582691999995192 0
96 -0.2691859999995674 0.8523295999997522 0
97 0.3057100000001625 0.5231181999999069 0
98 0.1414540000005858 0.6171785999996646 0
99 -0.02280199999892568 0.7112389999993848 0
100 -0.1870579999993802 0.8052993999996451 0
101 -0.3513139999997417 0.899359799999852 0
102 0.4871250000000016 0.2861218000004291 0
103 0.4864110000000035 0.0960906000009365 0
104 0.4856970000000038 -0.0939405999989989 0
105 0.4849830000000019 -0.2839717999994893 0
106 0.4874820000000007 0.3811374000001953 0
107 0.4867680000000024 0.1911062000006469 0
108 0.4860540000000046 0.001075000001225901 0
109 0.4853400000000028 -0.1889561999992441 0
110 0.4846260000000009 -0.378987399999745 0
111 -0.2195186000003278 0.9391206000001877 0
112 -0.05519320000082939 0.845021200000475 0
113 0.1091321999991341 0.7509218000004958 0
114 0.2734575999995331 0.6568224000002674 0
115 -0.3016813000000795 0.9861703000000456 0
116 -0.1373559000005877 0.8920709000003365 0
117 0.02696949999900311 0.7979715000005708 0
118 0.1912948999992782 0.7038721000004133 0
119 0.3556202999997601 0.6097727000001373 0
120 -0.719461333333643 -0.8284756666664892 0
121 -0.5728976666670635 -0.9124933333331058 0
122 -0.7927431666667133 -0.7864668333333066 0
123 -0.6461795000004577 -0.8704844999997376 0
124 -0.4996158333335879 -0.9545021666665208 0
125 -0.4269666666666648 -1.164340666666175 0
126 -0.4275993333333312 -1.332170333332769 0
127 -0.4266503333333314 -1.080425833332826 0
128 -0.4272829999999965 -1.248255499999079 0
129 -0.4279156666666658 -1.416085166666431 0
130 -0.7361643333336212 -0.8765339999998349 0
131 -0.6063036666669825 -0.9509769999998189 0
132 -0.8010946666668234 -0.8393124999999102 0
133 -0.6712340000003441 -0.9137554999998028 0
134 -0.5413733333334306 -0.9881984999999442 0
135 -0.4770393333333318 -1.183613333332914 0
136 -0.4776356666666653 -1.341806666666305 0
137 -0.4767411666666663 -1.104516666666582 0
138 -0.4773374999999982 -1.262709999999517 0
139 -0.4779338333333326 -1.420903333333138 0
140 -0.453232 -1.5 0
141 -0.866025 -0.7732745 0
142 0.5781149999996463 -0.5855716666664635 0
143 0.7220699999996175 -0.6682613333331137 0
144 0.5061374999997207 -0.5442268333331729 0
145 0.650092499999545 -0.6269164999997386 0
146 0.794047499999851 -0.7096061666665812 0
147 -0.3776350000000014 -1.341843333333709 0
148 -0.3770390000000018 -1.183686666667158 0
149 -0.3779329999999999 -1.420921666666629 0
150 -0.3773370000000038 -1.26276500000101 0
151 -0.3767410000000016 -1.104608333333748 0
152 0.5781043333329914 -0.6432269999998036 0
153 0.7220646666662904 -0.725919999999784 0
154 0.5061241666664532 -0.6018804999998774 0
155 0.6500844999993247 -0.684573499999612 0
156 0.7940448333330381 -0.7672664999998304 0
157 0.866025 -0.7797819999997926 0
158 -0.403231500000076 -1.5 0
159 -0.5778016666662711 0.9199706666668978 0
160 -0.7219133333329122 0.8357913333335794 0
161 -0.5057458333332266 0.9620603333333957 0
162 -0.649857499999408 0.8778810000003459 0
163 -0.793969166666365 0.7937016666668428 0
164 -0.5776363333330108 0.8621623333335217 0
165 -0.7218306666661481 0.7779346666669695 0
166 -0.5055391666665177 0.9042761666667536 0
167 -0.6497334999994424 0.8200485000003257 0
168 -0.7939278333331068 0.7358208333334656 0
169 -0.7194643333337347 -0.7708409999997698 0
170 -0.5729036666671133 -0.854856999999744 0
171 -0.7927446666667853 -0.728832999999932 0
172 -0.6461840000006838 -0.812848999999608 0
173 -0.4996233333337067 -0.896864999999786 0
174 -0.866025 0.7226594999999537 0
175 -0.866025 -0.7156414999999169 0
176 0.7233323333337753 0.6706003333335898 0
177 0.5806396666671518 0.5878056666669482 0
178 0.7946786666667337 0.7119976666667056 0
179 0.6519860000006432 0.6292030000003732 0
180 0.5092933333335861 0.54640833333348 0
181 0.7399630000001378 0.6224430000000799 0
182 0.6139010000000411 0.5492980000000238 0
183 0.8029940000000134 0.6590155000000077 0
184 0.6769320000000992 0.5858705000000576 0
185 0.5508700000000893 0.5127255000000518 0
186 0.6115209999997091 -0.5470986666664996 0
187 0.7387729999997015 -0.6201943333331619 0
188 0.5478949999998662 -0.5105508333332565 0
189 0.6751469999994788 -0.5836464999997005 0
190 0.8023989999996863 -0.6567421666664864 0
191 0.866025 -0.7221205000001868 0
192 0.866025 0.724491499999848 0
193 -0.4345703333333309 1.169433333332885 0
194 -0.4354506666666626 1.334716666665901 0
195 -0.4341301666666676 1.086791666666843 0
196 -0.4350104999999955 1.252074999999159 0
197 -0.4358908333333325 1.417358333333169 0
198 -0.7386310000002678 0.883931333333177 0
199 -0.6112370000000802 0.9583456666666198 0
200 -0.8023280000001501 0.846724166666579 0
201 -0.6749340000002426 0.9211384999998582 0
202 -0.5475399999999648 0.9955528333333539 0
203 -0.4846726666666648 1.18850666666632 0
204 -0.4855023333333309 1.344253333332885 0
205 -0.4842578333333324 1.11063333333316 0
206 -0.4850874999999978 1.266379999999584 0
207 -0.4859171666666639 1.422126666666146 0
208 -0.4613314999998603 1.5 0
209 -0.866025 0.7805645000000463 0
210 -0.3855013333333432 1.344406666668517 0
211 -0.3846726666666765 1.188813333335183 0
212 -0.3859156666666712 1.42220333333419 0
213 -0.3850870000000102 1.26661000000192 0
214 -0.3842583333333366 1.111016666667273 0
215 0.5805303333330407 0.6455493333331634 0
216 0.7232776666663168 0.7283756666664636 0
217 0.5091566666665599 0.6041361666666046 0
218 0.6519039999993931 0.6869624999996478 0
219 0.7946513333330009 0.7697888333331404 0
220 0.866025 0.7822985 0
221 -0.4113304999998075 1.5 0
222 -0.7927431666668215 -0.8152833333332445 0
223 -0.4529338333333326 -1.420903333333153 0
224 -0.4526174999999982 -1.336988499999537 0
225 -0.7278128333336321 -0.8525048333331621 0
226 -0.6628825000003128 -0.889726333333154 0
227 -0.4523193333333315 -1.257891833332842 0
228 -0.4520029999999983 -1.173976999999545 0
229 -0.5246703333335317 -0.9689566666665529 0
230 -0.4513885 -1.0109655 0
231 -0.4517048333333324 -1.094880333333088 0
232 -0.589600666667023 -0.9317351666664624 0
233 0.7940448333331452 -0.738435499999892 0
234 0.7220673333329539 -0.6970906666664488 0
235 0.01887709999914913 -0.7699326000004881 0
236 0.099935799999126 -0.7234330000005014 0
237 -0.4026171666666664 -1.337006833333239 0
238 -0.4029335000000007 -1.420921666666854 0
239 0.2670438999995517 -0.6275705000002572 0
240 0.1809944999993347 -0.6769334000003816 0
241 0.5061294999998232 -0.5730528333332318 0
242 0.5781096666663188 -0.6143993333331336 0
243 0.6500871666663044 -0.6557441666664586 0
244 -0.148231000000642 -0.8657951000003683 0
245 -0.0671723000008371 -0.8192955000004802 0
246 -0.4013885 -1.0110205 0
247 -0.4017048333333324 -1.094935333333088 0
248 -0.3153391000002075 -0.9616576000001191 0
249 -0.4023191666666666 -1.257928499999964 0
250 -0.4020028333333333 -1.174013666666667 0
251 -0.2342804000004059 -0.9151580000002328 0
252 0.434152 -0.5317080000000001 0
253 0.3481025999997596 -0.5810709000001379 0
254 -0.7194628333336889 -0.7996583333331295 0
255 -0.7927446666668674 -0.7576494999998848 0
256 -0.1731785000006308 -0.8224649000003619 0
257 -0.09211730000083462 -0.7759636000004788 0
258 -0.3402891000002075 -0.918329100000119 0
259 -0.4263385 -0.967692 0
260 -0.4996203333335318 -0.9256831666665528 0
261 -0.6497748333329615 0.8489768333335506 0
262 -0.5777189999996409 0.8910665000002097 0
263 -0.2788015833329024 0.8866448833330866 0
264 -0.2061651666660841 0.8450499666663331 0
265 -0.7939278333330742 0.7647733333334847 0
266 0.4115475333333297 0.1325777333323561 0
267 0.4119044333333307 0.2275725333326316 0
268 0.4102025666666643 -0.2253940333339758 0
269 0.4105594666666632 -0.1303992333342645 0
270 0.4098869833333318 -0.3093851166670779 0
271 0.03072725000100618 0.7093946499994239 0
272 -0.05140074999898672 0.7564248499994197 0
273 0.1854916666672297 0.6207695333330109 0
274 0.1033636666674569 0.6677997333328809 0
275 -0.1240371666658807 0.7980197666662167 0
276 0.4095300833333326 -0.40437991666686 0
277 -0.01105610000085844 -0.7294623000004925 0
278 0.4112319499999955 0.04858664999880954 0
279 -0.7218719999995302 0.8068630000002744 0
280 0.07499329999912779 -0.6800994000005004 0
281 0.3402560833335032 0.5321444166665694 0
282 0.2581280833336887 0.5791746166664631 0
283 0.4108750499999956 -0.0464081500011678 0
284 -0.2592279000003948 -0.8718278000002264 0
285 0.2421038999995375 -0.5842352000002653 0
286 0.1560544999993206 -0.6335981000003897 0
287 0.3231650999997596 -0.5377339000001379 0
288 0.4122200166666649 0.311563616666189 0
289 0.4125769166666658 0.4065584166664428 0
290 0.4128925 0.4905495 0
291 0.4092145 -0.488371 0
292 -0.6461825000003782 -0.8416663333331166 0
293 -0.433566 0.9752700000000001 0
294 -0.3609295833331187 0.9336750833332104 0
295 -0.5056218333331355 0.9331803333334489 0
296 -0.5729006666670884 -0.8836751666664249 0
297 0.7946786666668877 0.6830941666667949 0
298 0.4625774166666659 0.4065909166664428 0
299 0.462893 0.490582 0
300 0.7316476666669566 0.6465216666668349 0
301 0.4619048333333324 0.2275842333330999 0
302 0.4622204166666666 0.3115753166666573 0
303 0.4612322499999992 0.04857754999980701 0
304 0.4608752499999994 -0.04643805000016069 0
305 0.4598870833333336 -0.3094358166666047 0
306 0.460202666666666 -0.2254447333335026 0
307 0.4615478333333334 0.1325686333333536 0
308 0.4605596666666669 -0.1304291333332573 0
309 0.534239333333576 0.5319793333334741 0
310 0.5972703333335965 0.568551833333486 0
311 0.7304214999996594 -0.6442278333331377 0
312 0.6667954999996633 -0.6076799999998066 0
313 0.4595300833333326 -0.40445141666686 0
314 0.5948179999996777 -0.5663351666664815 0
315 0.7940474999998088 -0.6807756666665568 0
316 0.5311919999998231 -0.5297873333332318 0
317 0.4592145 -0.4884425 0
318 0.6603013333336448 0.6051243333335141 0
319 -0.4600616666666637 1.26161166666611 0
320 -0.4604764999999967 1.339484999999393 0
321 -0.4592066666666655 1.101096666666443 0
322 -0.4596214999999979 1.178969999999603 0
323 -0.4587665 1.018455 0
324 -0.5308223333331356 0.9763653333334488 0
325 -0.5945193333331756 0.9391581666667588 0
326 -0.4609166666666655 1.422126666666442 0
327 -0.6582163333332695 0.9019510000000374 0
328 -0.73027216666659 0.8598613333333782 0
329 -0.7939691666664561 0.8226541666667897 0
330 -0.408767 1.018685 0
331 -0.4092071666666655 1.101326666666443 0
332 0.651931333333408 0.6580748333333766 0
333 0.5805850000000963 0.6166775000000558 0
334 0.2830658833332697 0.6225116166667031 0
335 0.2104294666668108 0.6641065333332508 0
336 -0.4096215000000037 1.179123333334034 0
337 -0.02653234999982118 0.7998008499998976 0
338 -0.09916876666671515 0.8413957666666945 0
339 0.1282667666666113 0.711156233333365 0
340 0.05563035000016056 0.752751149999908 0
341 -0.2539678833332826 0.9300403833333043 0
342 -0.3361305833331187 0.9770900833332105 0
343 0.7946513333331584 0.7408853333332318 0
344 -0.1813314666664643 0.8884454666665509 0
345 -0.4104760000000029 1.339561666667209 0
346 -0.4100616666666695 1.261765000000542 0
347 0.723305000000046 0.6994880000000268 0
348 0.5092113333335759 0.5752643333334742 0
349 0.4378649999999999 0.533867 0
350 -0.4109161666666716 1.422203333334259 0
351 0.3652285833335032 0.5754619166665693 0
$EndNodes
$Elements
152
1 15 2 2 2710100 18
2 15 2 3 2711104 19
3 15 2 4 2714115 21
4 15 2 1 2726160 30
5 8 2 1 68765 18 20 140
6 8 2 4 68766 19 17 141
7 8 2 2 68770 21 23 157
8 8 2 1 68771 22 18 158
9 8 2 4 68775 24 25 174
10 8 2 4 68776 26 17 175
11 8 2 2 68780 21 29 191
12 8 2 2 68781 28 27 192
13 8 2 3 68785 30 32 208
14 8 2 4 68786 31 24 209
15 8 2 2 68789 27 34 220
16 8 2 3 68790 33 30 221
17 9 2 11 7570 120 19 17 222 141 122
18 9 2 11 7570 18 20 136 140 139 223
19 9 2 11 7570 18 136 126 223 224 129
20 9 2 11 7570 131 130 120 133 225 226
21 9 2 11 7570 126 135 125 227 228 128
22 9 2 11 7570 130 19 120 132 222 225
23 9 2 11 7570 5 121 2 229 124 230
24 9 2 11 7570 125 5 2 231 230 127
25 9 2 11 7570 5 131 121 134 232 229
26 9 2 11 7570 136 135 126 138 227 224
27 9 2 11 7570 135 5 125 137 231 228
28 9 2 11 7570 131 120 121 226 123 232
29 9 2 11 7571 21 153 143 233 234 146
30 9 2 11 7571 45 37 46 235 236 50
31 9 2 11 7571 18 126 147 129 237 238
32 9 2 11 7571 37 38 47 42 239 240
33 9 2 11 7571 152 7 142 154 241 242
34 9 2 11 7571 153 152 143 155 243 234
35 9 2 11 7571 44 36 45 244 245 49
36 9 2 11 7571 125 2 6 127 246 247
37 9 2 11 7571 6 2 35 246 39 248
38 9 2 11 7571 147 126 148 237 249 150
39 9 2 11 7571 126 125 148 128 250 249
40 9 2 11 7571 6 35 44 248 251 48
41 9 2 11 7571 23 153 21 156 233 157
42 9 2 11 7571 38 3 7 43 252 253
43 9 2 11 7571 46 37 47 236 240 51
44 9 2 11 7571 148 125 6 250 247 151
45 9 2 11 7571 22 18 147 158 238 149
46 9 2 11 7571 45 36 37 245 41 235
47 9 2 11 7571 44 35 36 251 40 244
48 9 2 11 7571 47 38 7 239 253 52
49 9 2 11 7571 142 7 3 241 252 144
50 9 2 11 7571 143 152 142 243 242 145
51 9 2 11 7572 120 169 17 254 255 122
52 9 2 11 7572 75 36 76 256 257 80
53 9 2 11 7572 2 35 8 39 258 259
54 9 2 11 7572 2 8 121 259 260 124
55 9 2 11 7572 160 164 159 261 262 162
56 9 2 11 7572 67 68 96 73 263 264
57 9 2 11 7572 25 165 24 168 265 174
58 9 2 11 7572 86 56 87 266 267 91
59 9 2 11 7572 84 54 85 268 269 89
60 9 2 11 7572 53 54 84 59 268 270
61 9 2 11 7572 94 66 95 271 272 99
62 9 2 11 7572 93 65 94 273 274 98
63 9 2 11 7572 66 67 95 72 275 272
64 9 2 11 7572 9 53 84 276 270 88
65 9 2 11 7572 36 77 76 277 81 257
66 9 2 11 7572 95 67 96 275 264 100
67 9 2 11 7572 55 56 86 61 266 278
68 9 2 11 7572 24 165 160 265 279 163
69 9 2 11 7572 36 37 77 41 280 277
70 9 2 11 7572 10 64 93 281 282 97
71 9 2 11 7572 85 55 86 283 278 90
72 9 2 11 7572 8 35 75 258 284 79
73 9 2 11 7572 37 38 78 42 285 286
74 9 2 11 7572 38 9 78 287 83 285
75 9 2 11 7572 35 36 75 40 256 284
76 9 2 11 7572 87 57 10 288 289 92
77 9 2 11 7572 165 164 160 167 261 279
78 9 2 11 7572 10 4 64 290 69 281
79 9 2 11 7572 54 55 85 60 283 269
80 9 2 11 7572 3 53 9 58 276 291
81 9 2 11 7572 56 57 87 62 288 267
82 9 2 11 7572 170 169 120 172 254 292
83 9 2 11 7572 38 3 9 43 291 287
84 9 2 11 7572 68 1 11 74 293 294
85 9 2 11 7572 37 78 77 286 82 280
86 9 2 11 7572 159 11 1 295 293 161
87 9 2 11 7572 164 11 159 166 295 262
88 9 2 11 7572 96 68 11 263 294 101
89 9 2 11 7572 94 65 66 274 71 271
90 9 2 11 7572 57 4 10 63 290 289
91 9 2 11 7572 93 64 65 282 70 273
92 9 2 11 7572 121 170 120 296 292 123
93 9 2 11 7572 8 170 121 173 296 260
94 9 2 11 7572 169 26 17 171 175 255
95 9 2 11 7573 176 28 27 297 192 178
96 9 2 11 7573 57 12 4 298 299 63
97 9 2 11 7573 181 28 176 183 297 300
98 9 2 11 7573 56 102 57 301 302 62
99 9 2 11 7573 104 103 55 108 303 304
100 9 2 11 7573 102 12 57 106 298 302
101 9 2 11 7573 53 105 54 305 306 59
102 9 2 11 7573 55 103 56 303 307 61
103 9 2 11 7573 105 104 54 109 308 306
104 9 2 11 7573 12 177 4 309 180 299
105 9 2 11 7573 12 182 177 185 310 309
106 9 2 11 7573 143 187 186 311 189 312
107 9 2 11 7573 13 105 53 110 305 313
108 9 2 11 7573 143 186 142 312 314 145
109 9 2 11 7573 54 104 55 308 304 60
110 9 2 11 7573 21 29 143 191 315 146
111 9 2 11 7573 29 187 143 190 311 315
112 9 2 11 7573 142 186 13 314 188 316
113 9 2 11 7573 3 13 53 317 313 58
114 9 2 11 7573 142 13 3 316 317 144
115 9 2 11 7573 103 102 56 107 301 307
116 9 2 11 7573 177 181 176 318 300 179
117 9 2 11 7573 182 181 177 184 318 310
118 9 2 11 7574 203 194 204 319 320 206
119 9 2 11 7574 14 193 203 321 322 205
120 9 2 11 7574 1 193 14 195 321 323
121 9 2 11 7574 159 14 199 324 202 325
122 9 2 11 7574 204 30 32 326 208 207
123 9 2 11 7574 159 1 14 161 323 324
124 9 2 11 7574 160 159 198 162 327 328
125 9 2 11 7574 198 159 199 327 325 201
126 9 2 11 7574 24 160 31 163 329 209
127 9 2 11 7574 31 160 198 329 328 200
128 9 2 11 7574 193 194 203 196 319 322
129 9 2 11 7574 194 30 204 197 326 320
130 9 2 11 7575 1 15 193 330 331 195
131 9 2 11 7575 177 176 215 179 332 333
132 9 2 11 7575 64 114 65 334 335 70
133 9 2 11 7575 15 211 193 214 336 331
134 9 2 11 7575 66 112 67 337 338 72
135 9 2 11 7575 65 113 66 339 340 71
136 9 2 11 7575 68 111 15 341 115 342
137 9 2 11 7575 216 27 34 343 220 219
138 9 2 11 7575 67 112 111 338 116 344
139 9 2 11 7575 211 210 194 213 345 346
140 9 2 11 7575 193 211 194 336 346 196
141 9 2 11 7575 113 112 66 117 337 340
142 9 2 11 7575 114 113 65 118 339 335
143 9 2 11 7575 176 27 216 178 343 347
144 9 2 11 7575 4 177 16 180 348 349
145 9 2 11 7575 16 177 215 348 333 217
146 9 2 11 7575 210 33 30 212 221 350
147 9 2 11 7575 16 114 64 119 334 351
148 9 2 11 7575 215 176 216 332 347 218
149 9 2 11 7575 194 210 30 345 350 197
150 9 2 11 7575 68 15 1 342 330 74
151 9 2 11 7575 67 111 68 344 341 73
152 9 2 11 7575 4 16 64 349 351 69
$EndElements
