$MeshFormat
2.2 0 8
$EndMeshFormat
$Nodes
347
1 -0.430673 -1.00354 0
2 0.430304 -0.503023 0
3 0.426532 0.500592 0
4 -0.435254 0.995417 0
5 -0.480722 -1.03246 0
6 0.430414 -0.560794 0
7 -0.380722 -1.03234 0
8 0.380196 -0.474318 0
9 0.376641 0.471583 0
10 -0.435276 0.937774 0
11 -0.430832 -0.945798 0
12 0.480196 -0.474065 0
13 0.476641 0.471699 0
14 -0.485306 1.02436 0
15 0.42654 0.558244 0
16 -0.385306 1.02439 0
17 -0.431512 -1.5 0
18 -0.866025 -0.753659 0
19 -0.481512 -1.5 0
20 -0.866025 -0.81131 0
21 0.866025 -0.754103 0
22 0.866025 -0.81181 0
23 -0.381512 -1.5 0
24 -0.866025 0.748518 0
25 -0.866025 0.690887 0
26 -0.866025 -0.696008 0
27 0.866025 0.75279 0
28 0.866025 -0.696395 0
29 0.866025 0.695142 0
30 -0.436164 1.5 0
31 -0.486165 1.5 0
32 -0.866025 0.806148 0
33 0.866025 0.810437 0
34 -0.386164 1.5 0
35 0.258108600000334 -0.6031263999998059 0
36 0.08591320000087999 -0.7032297999994885 0
37 -0.08628219999911124 -0.8033331999994835 0
38 -0.2584775999995118 -0.9034365999997163 0
39 0.3442063000001795 -0.5530746999998957 0
40 0.1720109000006232 -0.6531780999996377 0
41 -0.0001844999989391582 -0.7532814999993833 0
42 -0.1723798999992984 -0.8533848999995921 0
43 -0.344575299999839 -0.9534882999999066 0
44 0.2681868000004128 -0.65510319999976 0
45 0.1059596000008241 -0.749412399999521 0
46 -0.05626759999918168 -0.8437215999995242 0
47 -0.2184947999996591 -0.9380307999998018 0
48 0.3493004000002385 -0.6079485999998614 0
49 0.1870732000006554 -0.702257799999619 0
50 0.02484600000107529 -0.796566999999375 0
51 -0.1373811999993451 -0.8908761999996193 0
52 -0.2996083999999083 -0.9851853999999467 0
53 0.429675333333334 -0.3357538333334925 0
54 0.4290466666666689 -0.1684846666672523 0
55 0.4284180000000042 -0.001215500001127801 0
56 0.4277893333333362 0.1660536666659073 0
57 0.4271606666666681 0.3333228333329425 0
58 0.429989666666667 -0.4193884166667425 0
59 0.4293610000000014 -0.2521192500003596 0
60 0.4287323333333365 -0.08485008333418981 0
61 0.4281036666666703 0.08241908333237291 0
62 0.427475000000002 0.2496882499994764 0
63 0.4268463333333341 0.4169574166664712 0
64 0.2541748000003705 0.5995569999997873 0
65 0.08181760000088328 0.6985219999994929 0
66 -0.09053959999912053 0.7974869999994951 0
67 -0.26289679999958 0.8964519999997589 0
68 0.3403534000001567 0.5500744999999101 0
69 0.1679962000006041 0.6490394999996532 0
70 -0.004360999998915482 0.7480044999993773 0
71 -0.1767181999993844 0.8469694999996467 0
72 -0.349075399999756 0.9459344999998599 0
73 0.3794850000000016 -0.2851378000004252 0
74 0.3787740000000037 -0.09595760000098247 0
75 0.3780630000000036 0.09322259999902816 0
76 0.3773520000000017 0.282402799999548 0
77 0.3798405000000005 -0.3797279000001406 0
78 0.3791295000000027 -0.1905477000007184 0
79 0.3784185000000047 -0.001367500001258459 0
80 0.3777075000000026 0.1878126999993129 0
81 0.3769965000000007 0.3769928999998202 0
82 0.2142576000003754 0.5648211999997844 0
83 0.05187420000085835 0.6580593999995071 0
84 -0.1105091999991226 0.7512975999994962 0
85 -0.2728925999995594 0.844535799999747 0
86 0.2954493000001192 0.5182020999999315 0
87 0.1330659000006034 0.6114402999996535 0
88 -0.02931749999889471 0.7046784999993654 0
89 -0.1917008999994145 0.7979166999996639 0
90 -0.3540842999997103 0.8911548999998335 0
91 -0.2686264000003983 -0.8515020000002316 0
92 -0.1064208000008757 -0.7572060000005091 0
93 0.05578479999910363 -0.6629100000005211 0
94 0.2179903999995472 -0.5686140000002633 0
95 -0.349729200000217 -0.8986500000001262 0
96 -0.1875236000006426 -0.8043540000003736 0
97 -0.02531800000109574 -0.710058000000637 0
98 0.1368875999993285 -0.6157620000003904 0
99 0.2990931999997805 -0.5214660000001277 0
100 0.4794850000000015 -0.2849122000004013 0
101 0.4787740000000036 -0.0957594000009736 0
102 0.4780630000000037 0.09339339999902413 0
103 0.4773520000000018 0.2825461999995139 0
104 0.4798405000000005 -0.3794886000001295 0
105 0.4791295000000025 -0.1903358000006774 0
106 0.4784185000000049 -0.001183000001302559 0
107 0.4777075000000024 0.1879697999993432 0
108 0.476996500000001 0.3771225999997159 0
109 -0.2229368000003483 0.9311608000001999 0
110 -0.06056760000081274 0.8379316000004666 0
111 0.1018015999991612 0.7447024000004816 0
112 0.2641707999995883 0.6514732000002363 0
113 -0.3041214000001687 0.9777754000000968 0
114 -0.1417522000005931 0.8845462000003405 0
115 0.02061699999895611 0.7913170000005993 0
116 0.1829861999993841 0.6980878000003536 0
117 0.3453553999997678 0.6048586000001333 0
118 -0.4312323333333338 -1.334513333333623 0
119 -0.4309526666666673 -1.169026666667072 0
120 -0.4313721666666666 -1.417256666666586 0
121 -0.4310925000000014 -1.251770000000809 0
122 -0.4308128333333339 -1.086283333333673 0
123 -0.5757903333330536 -0.9202463333334939 0
124 -0.7209076666662554 -0.8369526666669027 0
125 -0.5032316666666348 -0.9618931666666851 0
126 -0.6483489999995056 -0.8785995000002839 0
127 -0.7934663333330525 -0.7953058333334945 0
128 -0.4812486666666671 -1.344153333333594 0
129 -0.480985333333334 -1.188306666667086 0
130 -0.4813803333333335 -1.422076666666737 0
131 -0.481117000000001 -1.266230000000584 0
132 -0.4808536666666668 -1.110383333333452 0
133 -0.6091563333330099 -0.9587433333335189 0
134 -0.7375906666662959 -0.8850266666668795 0
135 -0.5449391666664097 -0.995601666666814 0
136 -0.6733734999993404 -0.9218850000003785 0
137 -0.8018078333330872 -0.8481683333334746 0
138 -0.866025 -0.7824845000001868 0
139 -0.456512 -1.5 0
140 0.720784666667008 -0.6704096666668633 0
141 0.5755443333339507 -0.586716333333689 0
142 0.7934048333334496 -0.7122563333334003 0
143 0.6481645000006044 -0.6285630000003483 0
144 0.5029241666666819 -0.5448696666666755 0
145 0.7208213333337373 -0.7281380000002328 0
146 0.5756176666670272 -0.6444660000002078 0
147 0.7934231666668047 -0.7699740000000795 0
148 0.6482195000005934 -0.6863020000003419 0
149 0.5030158333335439 -0.6026300000001213 0
150 -0.3809853333333326 -1.188226666666247 0
151 -0.381248666666666 -1.344113333332899 0
152 -0.3808536666666662 -1.110283333333053 0
153 -0.3811169999999994 -1.26616999999961 0
154 -0.3813803333333333 -1.422056666666605 0
155 -0.406512 -1.5 0
156 0.866025 -0.7829565000000001 0
157 -0.5788443333331239 0.9131173333334534 0
158 -0.7224346666663499 0.8308176666668482 0
159 -0.5070491666666995 0.9542671666666478 0
160 -0.6506394999995965 0.8719675000002313 0
161 -0.7942298333333315 0.7896678333333345 0
162 -0.5788589999996514 0.8554783333335332 0
163 -0.7224419999996523 0.773182666666866 0
164 -0.5070674999999094 0.8966261666667186 0
165 -0.6506504999993838 0.8143305000003531 0
166 -0.7942334999998795 0.7320348333334025 0
167 -0.720960666667099 -0.7792713333330852 0
168 -0.575896333333813 -0.8625346666663913 0
169 -0.7934928333334075 -0.7376396666666241 0
170 -0.6484285000005726 -0.8209029999996713 0
171 -0.5033641666668733 -0.9041663333332147 0
172 -0.866025 0.7197025000002074 0
173 -0.866025 -0.7248334999997669 0
174 0.5730296666663239 0.5846579999998034 0
175 0.7195273333329949 0.6687239999998058 0
176 0.49978083333318 0.542624999999912 0
177 0.6462784999992992 0.6266909999995978 0
178 0.7927761666663622 0.7107569999998252 0
179 0.7374153333337319 -0.6222850000002296 0
180 0.6088056666668493 -0.5481750000001052 0
181 0.8017201666668162 -0.6593400000000862 0
182 0.6731105000003831 -0.5852300000002207 0
183 0.544500833333502 -0.5111200000000972 0
184 0.60643566666636 0.546179999999824 0
185 0.7362303333329963 0.6206609999998066 0
186 0.5415383333331938 0.5089394999999199 0
187 0.6713329999994498 0.5834204999996843 0
188 0.8011276666665479 0.6579014999999319 0
189 0.866025 0.723966 0
190 0.866025 -0.7252489999999537 0
191 -0.4358606666666674 1.331805666667071 0
192 -0.4355573333333343 1.163611333333883 0
193 -0.4360123333333335 1.415902833333434 0
194 -0.4357090000000016 1.247708500000872 0
195 -0.4354056666666674 1.07951416666706 0
196 -0.4858786666666677 1.341453333333926 0
197 -0.4855923333333345 1.182906666667288 0
198 -0.4860218333333334 1.420726666666696 0
199 -0.4857355000000015 1.262180000000833 0
200 -0.4854491666666677 1.103633333333904 0
201 -0.6122123333331365 0.9516226666667794 0
202 -0.7391186666662398 0.878885333333578 0
203 -0.5487591666665541 0.9879913333333977 0
204 -0.6756654999996463 0.9152540000002027 0
205 -0.8025718333331553 0.8425166666667687 0
206 -0.866025 0.7773329999996034 0
207 -0.4611645000001925 1.5 0
208 0.5730349999994301 0.6423083333330062 0
209 0.7195299999992653 0.726372666666245 0
210 0.4997874999997477 0.6002761666665218 0
211 0.646282499998851 0.6843404999993405 0
212 0.7927774999996808 0.7684048333331501 0
213 -0.3858780000000007 1.341463333333724 0
214 -0.3855920000000009 1.182926666667144 0
215 -0.3860210000000004 1.420731666666894 0
216 -0.3857350000000014 1.262195000000812 0
217 -0.3854490000000007 1.103658333333718 0
218 0.866025 0.7816135 0
219 -0.411164 1.5 0
220 -0.4562405000000005 -1.339333333333608 0
221 -0.4563803333333336 -1.422076666666797 0
222 -0.4556975 -1.018 0
223 -0.5282561666665269 -0.9763531666667469 0
224 -0.6650319999996326 -0.8978480000002108 0
225 -0.7292491666662757 -0.860989666666891 0
226 -0.4559690000000007 -1.178666666667079 0
227 -0.4558373333333336 -1.100743333333536 0
228 -0.456108833333334 -1.261410000000355 0
229 -0.7934663333331278 -0.8241313333334513 0
230 -0.5924733333330318 -0.9394948333335065 0
231 0.009838700000856404 -0.7763727999995023 0
232 0.09593640000085202 -0.7263210999995048 0
233 -0.3195997999997559 -0.9678882999998581 0
234 -0.4056975 -1.01794 0
235 0.430359 -0.5319085 0
236 0.5029791666669754 -0.5737551666668446 0
237 0.1770500000006464 -0.6791664999996243 0
238 0.7934231666668687 -0.7411205000001164 0
239 0.575581000000489 -0.6155911666669485 0
240 0.6482011666670175 -0.6574378333335356 0
241 -0.07127489999914646 -0.8235273999995039 0
242 -0.1523884999993852 -0.8706819999996427 0
243 -0.2384861999995855 -0.9207336999997591 0
244 -0.4061088333333333 -1.261369999999935 0
245 -0.405969 -1.17862666666666 0
246 -0.406380333333333 -1.42205666666645 0
247 -0.4062404999999999 -1.339313333333261 0
248 -0.4058373333333337 -1.100683333333536 0
249 0.2631477000003734 -0.6291147999997829 0
250 0.7208030000003727 -0.699273833333548 0
251 0.344261300000167 -0.5819601999999029 0
252 0.06684590000087082 0.6782906999995 0
253 -0.01933269999913109 0.7277731999995012 0
254 -0.01524870000000381 -0.7331216000000023 0
255 -0.09635149999999346 -0.7802695999999962 0
256 -0.4307525 -0.974669 0
257 -0.5033111666665269 -0.933022166666747 0
258 0.403596000000004 -0.04858655000105513 0
259 0.4039103333333363 -0.1322211333341174 0
260 -0.1005243999991215 0.7743922999994957 0
261 -0.18171609999934 0.8210113999996211 0
262 0.07084899999999181 -0.6830699000000049 0
263 -0.5758433333334333 -0.8913904999999427 0
264 0.3154079000001853 0.5355699999998936 0
265 0.2342162000003729 0.5821890999997859 0
266 -0.6484020000000341 -0.849743666666647 0
267 0.4029261666666699 0.1296381333324677 0
268 0.402570666666669 0.2242282333327276 0
269 0.4015865 0.4860875 0
270 0.401900833333334 0.4024529166664713 0
271 -0.7942334999998262 0.760850333333433 0
272 -0.7224383333330011 0.802000166666857 0
273 0.4022563333333349 0.3078628166662453 0
274 -0.3446547999997559 -0.9246172999998581 0
275 0.4032405000000039 0.04600354999895018 0
276 -0.7209341666666772 -0.8081119999999939 0
277 0.1480376000006293 0.6316715999996387 0
278 0.4042658333333352 -0.2268112333338387 0
279 0.4045801666666677 -0.3104458166669589 0
280 0.404935666666667 -0.4050359166667463 0
281 0.40525 -0.4886705 0
282 0.319152300000167 -0.538722199999903 0
283 -0.507060166666562 0.9254456666667267 0
284 -0.435265 0.9665954999999999 0
285 -0.6506468333330007 0.8431480000001907 0
286 0.2380494999999406 -0.5858702000000346 0
287 -0.1774542999997548 -0.8274175999998575 0
288 -0.263551999999955 -0.8774692999999739 0
289 -0.7934928333335496 -0.7664651666665425 0
290 -0.34908639999979 0.9171129999998795 0
291 -0.2678946999995697 0.8704938999997529 0
292 -0.5788516666663877 0.8842978333334932 0
293 0.1519518000002136 -0.6359218999998759 0
294 0.452256333333335 0.3079345166662282 0
295 0.4519008333333341 0.4025109166664713 0
296 0.5897326666663419 0.5654189999998137 0
297 0.6629814999996775 0.6074519999998149 0
298 0.7278788333329955 0.6446924999998063 0
299 0.7927761666664974 0.6819329999999029 0
300 0.4515865 0.4861455 0
301 0.4542658333333352 -0.2266984333338268 0
302 0.4539103333333363 -0.1321220333341129 0
303 0.45292616666667 0.1297235333324657 0
304 0.452570666666669 0.2242999333327106 0
305 0.4535960000000039 -0.0484874500010507 0
306 0.4545801666666677 -0.3103330166669469 0
307 0.4532405000000039 0.04608894999894816 0
308 0.6564798333338413 -0.6045006666669592 0
309 0.5921750000004 -0.5674456666668971 0
310 0.5248353333331619 0.5281784999999017 0
311 0.72910000000037 -0.6463473333335464 0
312 0.793404833333504 -0.6834023333334316 0
313 0.454935666666667 -0.4049094166667463 0
314 0.45525 -0.488544 0
315 0.5278701666669754 -0.5303906666668445 0
316 -0.4610213333333338 1.420726666666963 0
317 -0.6673234999997433 0.8912201666668138 0
318 -0.5955283333331303 0.9323700000001164 0
319 -0.794229833333175 0.8184828333334241 0
320 -0.4608696666666676 1.336629500000499 0
321 -0.7307766666662949 0.854851500000213 0
322 -0.532075166666562 0.9687386666667266 0
323 -0.46028 1.0098885 0
324 -0.4604316666666671 1.093985666666941 0
325 -0.4605748333333344 1.173259000000585 0
326 -0.4607265000000009 1.25735616666718 0
327 0.6462811666662125 0.655516166666406 0
328 0.71952866666613 0.6975483333330255 0
329 -0.32410139999979 0.9604209999998794 0
330 -0.41028 1.0099035 0
331 0.2591727999999794 0.6255151000000119 0
332 0.1729942000002358 0.6749975999998646 0
333 -0.1567381999997344 0.8643238999998475 0
334 -0.2429167999999642 0.9138063999999794 0
335 -0.4105746666666676 1.173269000000513 0
336 -0.4104316666666671 1.094000666666941 0
337 -0.4108693333333341 1.336634500000398 0
338 -0.4110210000000004 1.420731666666862 0
339 0.426536 0.5294179999999999 0
340 0.3403574000001852 0.5789004999998937 0
341 0.01062500000003527 0.7682267999999798 0
342 -0.07555359999996664 0.8177092999999809 0
343 0.09180960000002225 0.7216121999999873 0
344 0.4997848333331619 0.5714509999999017 0
345 0.5730323333328771 0.6134831666664048 0
346 0.7927774999996327 0.7395813333331225 0
347 -0.4107263333333341 1.257366166667108 0
$EndNodes
$Elements
150
1 15 2 2 2801208 18
2 15 2 1 2802212 19
3 15 2 3 2806227 22
4 15 2 4 2818272 31
5 8 2 4 71062 18 20 138
6 8 2 1 71063 19 17 139
7 8 2 1 71067 17 23 155
8 8 2 2 71068 22 21 156
9 8 2 4 71072 24 25 172
10 8 2 4 71073 26 18 173
11 8 2 2 71077 27 29 189
12 8 2 2 71078 28 21 190
13 8 2 4 71082 24 32 206
14 8 2 3 71083 31 30 207
15 8 2 2 71086 27 33 218
16 8 2 3 71087 34 30 219
17 9 2 11 7822 17 118 128 120 220 221
18 9 2 11 7822 5 1 123 222 125 223
19 9 2 11 7822 19 17 128 139 221 130
20 9 2 11 7822 133 124 134 224 225 136
21 9 2 11 7822 129 119 5 226 227 132
22 9 2 11 7822 128 118 129 220 228 131
23 9 2 11 7822 134 124 20 225 229 137
24 9 2 11 7822 133 123 124 230 126 224
25 9 2 11 7822 118 119 129 121 226 228
26 9 2 11 7822 119 1 5 122 222 227
27 9 2 11 7822 5 123 133 223 230 135
28 9 2 11 7822 124 18 20 127 138 229
29 9 2 11 7823 37 45 36 231 232 41
30 9 2 11 7823 7 38 1 233 43 234
31 9 2 11 7823 141 2 6 144 235 236
32 9 2 11 7823 45 44 36 49 237 232
33 9 2 11 7823 22 21 145 156 238 147
34 9 2 11 7823 140 141 146 143 239 240
35 9 2 11 7823 46 45 37 50 231 241
36 9 2 11 7823 47 37 38 242 42 243
37 9 2 11 7823 118 150 119 244 245 121
38 9 2 11 7823 17 151 118 246 247 120
39 9 2 11 7823 119 7 1 248 234 122
40 9 2 11 7823 151 150 118 153 244 247
41 9 2 11 7823 150 7 119 152 248 245
42 9 2 11 7823 36 44 35 237 249 40
43 9 2 11 7823 21 140 145 142 250 238
44 9 2 11 7823 7 47 38 52 243 233
45 9 2 11 7823 17 23 151 155 154 246
46 9 2 11 7823 146 141 6 239 236 149
47 9 2 11 7823 47 46 37 51 241 242
48 9 2 11 7823 44 6 35 48 251 249
49 9 2 11 7823 145 140 146 250 240 148
50 9 2 11 7823 35 6 2 251 235 39
51 9 2 11 7824 83 65 66 252 70 253
52 9 2 11 7824 37 93 92 254 97 255
53 9 2 11 7824 1 11 123 256 257 125
54 9 2 11 7824 54 55 74 60 258 259
55 9 2 11 7824 84 66 85 260 261 89
56 9 2 11 7824 37 36 93 41 262 254
57 9 2 11 7824 11 168 123 171 263 257
58 9 2 11 7824 9 64 82 264 265 86
59 9 2 11 7824 123 168 124 263 266 126
60 9 2 11 7824 75 56 76 267 268 80
61 9 2 11 7824 9 3 64 269 68 264
62 9 2 11 7824 57 3 9 63 269 270
63 9 2 11 7824 24 163 158 271 272 161
64 9 2 11 7824 56 57 76 62 273 268
65 9 2 11 7824 25 163 24 166 271 172
66 9 2 11 7824 1 38 11 43 274 256
67 9 2 11 7824 74 55 75 258 275 79
68 9 2 11 7824 168 167 124 170 276 266
69 9 2 11 7824 82 64 65 265 69 277
70 9 2 11 7824 53 54 73 59 278 279
71 9 2 11 7824 2 53 8 58 280 281
72 9 2 11 7824 35 2 8 39 281 282
73 9 2 11 7824 157 10 4 283 284 159
74 9 2 11 7824 163 162 158 165 285 272
75 9 2 11 7824 73 54 74 278 259 78
76 9 2 11 7824 35 8 94 282 99 286
77 9 2 11 7824 38 37 91 42 287 288
78 9 2 11 7824 91 37 92 287 255 96
79 9 2 11 7824 11 38 91 274 288 95
80 9 2 11 7824 55 56 75 61 267 275
81 9 2 11 7824 82 65 83 277 252 87
82 9 2 11 7824 124 167 18 276 289 127
83 9 2 11 7824 67 4 10 72 284 290
84 9 2 11 7824 167 26 18 169 173 289
85 9 2 11 7824 66 67 85 71 291 261
86 9 2 11 7824 158 162 157 285 292 160
87 9 2 11 7824 85 67 10 291 290 90
88 9 2 11 7824 36 35 94 40 286 293
89 9 2 11 7824 162 10 157 164 283 292
90 9 2 11 7824 36 94 93 293 98 262
91 9 2 11 7824 8 53 73 280 279 77
92 9 2 11 7824 76 57 9 273 270 81
93 9 2 11 7824 83 66 84 253 260 88
94 9 2 11 7825 103 57 13 294 295 108
95 9 2 11 7825 184 174 175 296 177 297
96 9 2 11 7825 185 175 29 298 299 188
97 9 2 11 7825 57 3 13 63 300 295
98 9 2 11 7825 100 54 101 301 302 105
99 9 2 11 7825 102 56 103 303 304 107
100 9 2 11 7825 54 55 101 60 305 302
101 9 2 11 7825 53 54 100 59 301 306
102 9 2 11 7825 101 55 102 305 307 106
103 9 2 11 7825 179 141 180 308 309 182
104 9 2 11 7825 13 174 184 310 296 186
105 9 2 11 7825 140 141 179 143 308 311
106 9 2 11 7825 55 56 102 61 303 307
107 9 2 11 7825 28 140 179 312 311 181
108 9 2 11 7825 12 53 100 313 306 104
109 9 2 11 7825 141 2 12 144 314 315
110 9 2 11 7825 141 12 180 315 183 309
111 9 2 11 7825 2 53 12 58 313 314
112 9 2 11 7825 21 140 28 142 312 190
113 9 2 11 7825 184 175 185 297 298 187
114 9 2 11 7825 56 57 103 62 294 304
115 9 2 11 7825 13 3 174 300 176 310
116 9 2 11 7825 175 27 29 178 189 299
117 9 2 11 7826 196 31 30 198 207 316
118 9 2 11 7826 158 201 157 317 318 160
119 9 2 11 7826 24 32 158 206 319 161
120 9 2 11 7826 191 196 30 320 316 193
121 9 2 11 7826 32 202 158 205 321 319
122 9 2 11 7826 157 14 4 322 323 159
123 9 2 11 7826 4 14 192 323 324 195
124 9 2 11 7826 157 201 14 318 203 322
125 9 2 11 7826 192 197 191 325 326 194
126 9 2 11 7826 158 202 201 321 204 317
127 9 2 11 7826 197 196 191 199 320 326
128 9 2 11 7826 14 197 192 200 325 324
129 9 2 11 7827 208 175 209 327 328 211
130 9 2 11 7827 67 16 4 329 330 72
131 9 2 11 7827 64 112 65 331 332 69
132 9 2 11 7827 66 109 67 333 334 71
133 9 2 11 7827 16 214 192 217 335 336
134 9 2 11 7827 191 213 30 337 338 193
135 9 2 11 7827 3 15 64 339 340 68
136 9 2 11 7827 65 110 66 341 342 70
137 9 2 11 7827 15 112 64 117 331 340
138 9 2 11 7827 66 110 109 342 114 333
139 9 2 11 7827 112 111 65 116 343 332
140 9 2 11 7827 67 109 16 334 113 329
141 9 2 11 7827 65 111 110 343 115 341
142 9 2 11 7827 15 174 208 344 345 210
143 9 2 11 7827 209 27 33 346 218 212
144 9 2 11 7827 3 174 15 176 344 339
145 9 2 11 7827 174 175 208 177 327 345
146 9 2 11 7827 214 213 191 216 337 347
147 9 2 11 7827 192 214 191 335 347 194
148 9 2 11 7827 213 34 30 215 219 338
149 9 2 11 7827 175 27 209 178 346 328
150 9 2 11 7827 4 16 192 330 336 195
$EndElements
