$MeshFormat
2.2 0 8
$EndMeshFormat
$Nodes
1016
1 0 0 0
2 0.001 0 0
3 0.001 0.001 0
4 0 0.001 0
5 0.0004 0.0005 0
6 0.0005 0.0006000000000000001 0
7 0.0006000000000000001 0.0005 0
8 0.0005 0.0004 0
9 0.0001111111111109329 0 0
10 0.0002222222222217494 0 0
11 0.0003333333333325707 0 0
12 0.000444444444443371 0 0
13 0.0005555555555544217 0 0
14 0.0006666666666658604 0 0
15 0.000777777777777245 0 0
16 0.0008888888888886227 0 0
17 5.555555555545609e-05 0 0
18 0.0001666666666663432 0 0
19 0.0002777777777771556 0 0
20 0.0003888888888879281 0 0
21 0.0004999999999987622 0 0
22 0.0006111111111101411 0 0
23 0.0007222222222215587 0 0
24 0.0008333333333329316 0 0
25 0.0009444444444443135 0 0
26 0.001 0.0001111111111109329 0
27 0.001 0.0002222222222217494 0
28 0.001 0.0003333333333325707 0
29 0.001 0.000444444444443371 0
30 0.001 0.0005555555555544217 0
31 0.001 0.0006666666666658604 0
32 0.001 0.000777777777777245 0
33 0.001 0.0008888888888886227 0
34 0.001 5.555555555545609e-05 0
35 0.001 0.0001666666666663432 0
36 0.001 0.0002777777777771556 0
37 0.001 0.0003888888888879281 0
38 0.001 0.0004999999999987622 0
39 0.001 0.0006111111111101411 0
40 0.001 0.0007222222222215587 0
41 0.001 0.0008333333333329316 0
42 0.001 0.0009444444444443135 0
43 0.0008888888888888819 0.001 0
44 0.0007777777777781568 0.001 0
45 0.0006666666666671468 0.001 0
46 0.0005555555555566735 0.001 0
47 0.0004444444444455295 0.001 0
48 0.0003333333333341031 0.001 0
49 0.0002222222222227308 0.001 0
50 0.0001111111111113656 0.001 0
51 0.0009444444444444825 0.001 0
52 0.0008333333333334988 0.001 0
53 0.0007222222222225956 0.001 0
54 0.0006111111111118737 0.001 0
55 0.0005000000000012095 0.001 0
56 0.0003888888888898114 0.001 0
57 0.0002777777777783657 0.001 0
58 0.0001666666666670482 0.001 0
59 5.555555555571904e-05 0.001 0
60 0 0.0008888888888888819 0
61 0 0.0007777777777781568 0
62 0 0.0006666666666671468 0
63 0 0.0005555555555566735 0
64 0 0.0004444444444455295 0
65 0 0.0003333333333341031 0
66 0 0.0002222222222227308 0
67 0 0.0001111111111113656 0
68 0 0.0009444444444444825 0
69 0 0.0008333333333334988 0
70 0 0.0007222222222225956 0
71 0 0.0006111111111118737 0
72 0 0.0005000000000012095 0
73 0 0.0003888888888898114 0
74 0 0.0002777777777783657 0
75 0 0.0001666666666670482 0
76 0 5.555555555571904e-05 0
77 0.0004048943483704853 0.0005309016994374965 0
78 0.0004190983005623964 0.0005587785252290975 0
79 0.0004412214747706429 0.000580901699437415 0
80 0.0004690983005624438 0.0005951056516294953 0
81 0.0004012311659404819 0.0005156434465039952 0
82 0.0004108993475811183 0.0005453990499738664 0
83 0.0004292893218811997 0.0005707106781185091 0
84 0.0004546009500259933 0.0005891006524188102 0
85 0.0004843565534959226 0.0005987688340595051 0
86 0.0005309016994374528 0.0005951056516295291 0
87 0.0005587785252291291 0.0005809016994375808 0
88 0.0005809016994373836 0.0005587785252294003 0
89 0.0005951056516295116 0.0005309016994375066 0
90 0.0005156434465040223 0.0005987688340595139 0
91 0.0005453990499738142 0.0005891006524189085 0
92 0.0005707106781184927 0.0005707106781188169 0
93 0.0005891006524188038 0.0005453990499740194 0
94 0.0005987688340595126 0.000515643446504031 0
95 0.0005951056516295387 0.000469098300562577 0
96 0.0005809016994375996 0.0004412214747708969 0
97 0.000558778525229328 0.0004190983005625639 0
98 0.0005309016994374867 0.000404894348370482 0
99 0.0005987688340595144 0.0004843565534959809 0
100 0.0005891006524189194 0.0004546009500262073 0
101 0.0005707106781187707 0.0004292893218814611 0
102 0.0005453990499739935 0.000410899347581183 0
103 0.0005156434465040139 0.0004012311659404847 0
104 0.0004690983005626498 0.0004048943483704377 0
105 0.0004412214747709156 0.000419098300562387 0
106 0.000419098300562576 0.0004412214747706554 0
107 0.0004048943483704934 0.0004690983005624784 0
108 0.0004843565534960191 0.0004012311659404796 0
109 0.0004546009500262045 0.0004108993475810822 0
110 0.0004292893218814751 0.0004292893218812155 0
111 0.0004108993475812052 0.0004546009500259631 0
112 0.0004012311659404848 0.000484356553495986 0
113 0.0002457513061205915 0.0007525896875166977 0
114 0.0007523661554450332 0.0007543080704388039 0
115 0.0007543080704387867 0.0002476338445549055 0
116 0.0002476338445549884 0.0002456919295611677 0
117 0.0002060930588950714 0.000549146082863731 0
118 0.0005486854978072968 0.0007939581707676622 0
119 0.0004508539171364081 0.0002060930588950263 0
120 0.0007939418526942324 0.0004498241952545888 0
121 0.0007107265068372315 0.0006117193520674405 0
122 0.0006107164649481474 0.0002888307741940291 0
123 0.0003882806479325635 0.0007107265068372277 0
124 0.000289273493162708 0.0003882806479325569 0
125 0.0003054354721694989 0.000593547871851786 0
126 0.0005935042239354614 0.0006946728185944177 0
127 0.0004050645900521542 0.0003054503926370059 0
128 0.0006945856998199669 0.000405086342314402 0
129 0.0005246034475608835 0.0003168238920102974 0
130 0.0006835673561782684 0.0005243329372585216 0
131 0.0004761600792880274 0.0006834814675084548 0
132 0.0003165185324915248 0.0004761600792880578 0
133 0.0003803308948483697 0.0006174201879183683 0
134 0.000617421239019566 0.000619121121934423 0
135 0.0006196869225365055 0.0003822796038255075 0
136 0.0003826674733381056 0.0003808163239809713 0
137 0.0004180379336365519 0.0008493740508195746 0
138 0.0001489342925193059 0.0004162641869150952 0
139 0.000849597458766332 0.0005836847620802692 0
140 0.0005837358130850428 0.0001489342925192785 0
141 0.0006688142815473365 0.0008534160242461482 0
142 0.0001472020644851625 0.0006686025915822413 0
143 0.0003313974084179336 0.0001472020644851133 0
144 0.0008527979355148475 0.0003313974084178146 0
145 0.0003443626841972688 0.0005206209736207128 0
146 0.0005206209736206848 0.0006556373158027327 0
147 0.0004798125537297153 0.0003451376153910502 0
148 0.0006554793069302856 0.0004799340767690894 0
149 0.0008476298531995708 0.0008520798589147803 0
150 0.0001481080607431856 0.0008475716614965942 0
151 0.0001523795032703571 0.0001480345662721257 0
152 0.0008519631911280877 0.0001526965769893817 0
153 0.0006332325686607707 0.0005744200636891338 0
154 0.0005746450893671307 0.0003663752543613091 0
155 0.0003664339057850624 0.000426063444074679 0
156 0.0004256389234951567 0.0006339474469025855 0
157 0.0008928477292667952 0.0007174891825617281 0
158 0.0002838990719597053 0.0008928746415058521 0
159 0.0001071522707331817 0.0002825108174383609 0
160 0.0007174891825617216 0.0001071522707331423 0
161 0.0002225621547419215 0.0004571505345251543 0
162 0.0004573171643269084 0.0007773004128466351 0
163 0.0007772798785993339 0.0005426912417511766 0
164 0.0005427092689223449 0.0002225623121910086 0
165 0.00032059153748274 0.0003301798313519329 0
166 0.0006695657364508245 0.0003201425479859552 0
167 0.0003301798313521218 0.0006794084625172228 0
168 0.0006790287506488412 0.000669942199011636 0
169 0.0002259685354894151 0.0006503540048099787 0
170 0.0006504358739220613 0.0007750326848959542 0
171 0.0007740314645106541 0.0003496459951901136 0
172 0.0003496459951902436 0.0002259685354892657 0
173 0.0003695502618370437 0.0005659184538421265 0
174 0.0005657365407240507 0.000631046962325746 0
175 0.0006304391242820288 0.0004341060208555179 0
176 0.0004337461839997222 0.0003699627092924852 0
177 0.0002724763103602992 0.0005367291255175546 0
178 0.0005360103583802343 0.0007279061733424358 0
179 0.0004625177119535659 0.0002727667576736904 0
180 0.0007275580744393869 0.0004627134823144212 0
181 0.0007937234680024172 0.0006610910655955518 0
182 0.0003389089344044628 0.0007937234680024085 0
183 0.0006610910655954918 0.0002062765319974908 0
184 0.0002062765319976047 0.0003389089344044832 0
185 0.0005222004095884216 0.0009159587266324275 0
186 8.338558449889288e-05 0.0005211545463151348 0
187 0.0009176817809057622 0.0004779537068581794 0
188 0.0004779537068582292 8.231821909422385e-05 0
189 0.0005244755118449377 0.0003645106911489674 0
190 0.0006356793893968389 0.0005244700711747678 0
191 0.0004754169365588046 0.0006354667215638319 0
192 0.0003643799042400367 0.0004751604389657128 0
193 0.0007636373227864735 0.0008425652769198182 0
194 0.000158844120514921 0.000763200885013901 0
195 0.0002364328507382503 0.0001582929119819007 0
196 0.000841478917263946 0.000237104808932039 0
197 0.00059043814123796 0.0005909544756982408 0
198 0.0004091003858403204 0.0005904731085933797 0
199 0.0005909283598974952 0.0004095290335978272 0
200 0.0004091342232537411 0.0004095227342798656 0
201 0.0005812397689325938 0.00085928769024713 0
202 0.0001425376672930326 0.0005804036604318062 0
203 0.0008594086510769988 0.0004186352865644863 0
204 0.0004187497001070045 0.0001405952279884576 0
205 0.0002487908964933045 0.000591873619303688 0
206 0.0005917468269705612 0.0007513805728972368 0
207 0.0004078885250713819 0.0002488248262466127 0
208 0.0007512191555488052 0.0004077982807092702 0
209 0.0006609270433726664 0.0006128520420567827 0
210 0.0003872154747438781 0.0006610921956233091 0
211 0.0006126951023317283 0.0003388808885901285 0
212 0.0003390396437921639 0.0003873033551072887 0
213 0.0008261593258880686 0.0007795420975402749 0
214 0.0002207962300345735 0.0008261321942031161 0
215 0.000173849510777938 0.0002205659706918167 0
216 0.0007794084278244366 0.0001739594032126841 0
217 0.0007241639685618313 0.000925181663796821 0
218 7.50436124438589e-05 0.000724091954368794 0
219 0.0002758673496037411 7.498236705126854e-05 0
220 0.0009249922806426936 0.0002759420116251846 0
221 0.0002218219266046937 0.000392161437305705 0
222 0.000392071645129327 0.0007769209543628559 0
223 0.0006079337017543642 0.0002228551326596614 0
224 0.0007769364729139982 0.0006081312998427658 0
225 0.0001603252881699725 0.000493683790048712 0
226 0.0004941099550729442 0.0008381831961881243 0
227 0.0005057746261359965 0.0001613667631021819 0
228 0.0008385561109107339 0.0005058472368092244 0
229 0.0007411206867682803 0.0006754981209855461 0
230 0.0003245384839568643 0.0007411766606148381 0
231 0.0006753479354837591 0.0002587383784925886 0
232 0.000258724902531759 0.0003245413806822616 0
233 7.963961133169635e-05 0.000371662369190297 0
234 0.0003717051033733779 0.0009193502115504045 0
235 0.0009187290012078996 0.0006282809074711686 0
236 0.0006283376308098033 7.963961133167498e-05 0
237 8.972218104599687e-05 0.0001882244946534925 0
238 0.0001884124955796154 0.0009102733502858189 0
239 0.0008117724115594819 8.976962172979777e-05 0
240 0.0009102798404134265 0.0008118002268375271 0
241 0.0003784632308505771 0.000522777079174375 0
242 0.0005231486685868926 0.0006218192360562641 0
243 0.0004767039999944445 0.000378606910418878 0
244 0.0006215248900899181 0.0004772466523974796 0
245 0.0002758150933011894 0.0004401162743367534 0
246 0.0004401347887591433 0.0007241696364308339 0
247 0.0007241768980333478 0.0005599209248658136 0
248 0.0005604404197521899 0.0002758760983307921 0
249 0.0009122206849611829 0.0009142491590080294 0
250 8.579535677808783e-05 0.0009122134980911255 0
251 8.778057925318017e-05 8.576630173397925e-05 0
252 0.0009142331053341614 8.782108085347641e-05 0
253 0.0002932725611455157 0.0002054887369627993 0
254 0.0007067759365348671 0.0007948415961062376 0
255 0.0002055701483085471 0.0007067084078977965 0
256 0.0007944808402699139 0.0002933621555712511 0
257 0.000326475325266565 0.0005568677051808071 0
258 0.0005558732985818078 0.0006733431741283506 0
259 0.0004430565344998867 0.0003264406584120264 0
260 0.0006737270516968938 0.0004431327533306147 0
261 0.0006068806441309613 0.0008055443579572858 0
262 0.0001949446241374171 0.0006068083387725159 0
263 0.0003930470618828208 0.0001946901561971085 0
264 0.0008053208801295105 0.0003928824779112187 0
265 0.0008172323583088416 0.0009235229233434672 0
266 7.668453322535382e-05 0.0008171685993601276 0
267 0.0001827800986216852 7.660508839863825e-05 0
268 0.0009233664273134041 0.0001829027870143694 0
269 0.0006242360656487016 0.0009271706518896232 0
270 7.305301851521065e-05 0.000623995434989578 0
271 0.0003758068891976352 7.271179072608583e-05 0
272 0.0009272858233582786 0.0003758024723619006 0
273 0.0003456605905832966 0.0005949857348971538 0
274 0.0005947689693814739 0.0006541916023648098 0
275 0.0004041219937606504 0.0003462441992117288 0
276 0.0006538855113026106 0.0004041090807191522 0
277 0.0002684770670793682 0.000694917855207492 0
278 0.0006948612085366603 0.0007317041525501636 0
279 0.0003050939297105412 0.0002684617458369838 0
280 0.0007314943054075525 0.0003050554942537771 0
281 0.0002849916833948062 0.0006413588686482399 0
282 0.000641256895212308 0.0007152926329838896 0
283 0.000358541568239895 0.0002849821836766674 0
284 0.0007149970773908875 0.0003584697366320841 0
285 0.0006077412409918801 0.0005557964495379112 0
286 0.0005558236962775425 0.0003922274361285776 0
287 0.0003921651766846827 0.0004442823808464159 0
288 0.0004442036646562745 0.0006078128646937859 0
289 8.769779839403919e-05 0.0004478982746959441 0
290 0.0004461981373410468 0.0009103130269658954 0
291 0.000912606276996641 0.0005547294516353023 0
292 0.0005526426324293512 8.812320158136966e-05 0
293 0.0003651754948545051 0.0003404210804802966 0
294 0.0006596105758282372 0.0003650849274381107 0
295 0.0006351492146941635 0.0006604345099536711 0
296 0.0003405401069214575 0.000635542045940961 0
297 0.0006741303015406889 0.0005674372794532251 0
298 0.0003258441801539314 0.0004326515684153769 0
299 0.0004326251918678825 0.0006741941029170293 0
300 0.000567421795530175 0.0003258260719164638 0
301 0.0005134305972947661 0.0002728676703625411 0
302 0.0007272055777800437 0.0005133502133464351 0
303 0.0002727945163234217 0.0004864766352478439 0
304 0.0004863868906457747 0.0007272815443411954 0
305 0.0003070931136205491 0.0005135233014676911 0
306 0.000513282912355886 0.000692943825547751 0
307 0.000486513413718139 0.0003072810103152909 0
308 0.0006929288511346453 0.0004865190961155132 0
309 0.00080650945212045 0.000711945657033109 0
310 0.0002882950841207957 0.0008065457273412672 0
311 0.0007119154481119095 0.0001934498134730539 0
312 0.0001922074195407958 0.0002884313857984794 0
313 0.0001541235680630191 0.0003496195118595864 0
314 0.0003493104497639787 0.0008449512562202031 0
315 0.0008449040657052243 0.0006510336570230141 0
316 0.0006510456319500358 0.0001547515302752857 0
317 0.000395105116302175 0.0005534536160331025 0
318 0.000554406338822554 0.0006051313794175515 0
319 0.0006048973012787435 0.0004465499328854437 0
320 0.0004459626701767579 0.0003955694876903242 0
321 0.0002296821620831262 0.0005041763558972813 0
322 0.0005039022773920388 0.0007707726028751601 0
323 0.00077036438670256 0.0004944506815937752 0
324 0.0004945618751298885 0.0002296835791244773 0
325 5.357613536659084e-05 0.0002523665198305459 0
326 5.357613536659084e-05 0.0003079220753862319 0
327 0.000253060647091218 0.000946437320752926 0
328 0.0003086162026469042 0.000946437320752926 0
329 0.0009464238646333976 0.0007476334801694866 0
330 0.0009464238646333976 0.0006920779246137943 0
331 0.0007476334801694833 5.357613536657113e-05 0
332 0.0006920779246137911 5.357613536657113e-05 0
333 4.486109052299844e-05 0.0002052233584381116 0
334 9.843722588958928e-05 0.0002353676560459267 0
335 0.0002053173589011731 0.0009551366751429094 0
336 0.0002361557837696603 0.0009015739958958355 0
337 0.0009551399202067133 0.000794789002307386 0
338 0.0009015637848401108 0.0007646447046996275 0
339 0.0007947750946683634 4.488481086489889e-05 0
340 0.0007646307970606017 9.846094623147001e-05 0
341 0.000288955891264899 0.0005651384986846703 0
342 0.0002994758178134321 0.0005467984153491809 0
343 0.0003159553987180319 0.0005752077885162966 0
344 0.0005647572911578479 0.0007112894959684268 0
345 0.0005459418284810211 0.0007006246737353932 0
346 0.0005746887612586346 0.0006840079963613842 0
347 0.0007006425630681403 0.000452923117822518 0
348 0.0006841563757584303 0.0004241095478225084 0
349 0.000711071887129677 0.0004338999123144116 0
350 0.0004527871232267263 0.0002996037080428584 0
351 0.0004240605622760204 0.0003159455255245162 0
352 0.0004337911510028601 0.0002891085751553482 0
353 0.000304932515322724 0.0003592302396422448 0
354 0.0003298155906374519 0.0003587415932296108 0
355 0.000314156568477436 0.0003877920015199227 0
356 0.0006411304193912764 0.0003295117182880418 0
357 0.0006117057836399378 0.0003138558313920788 0
358 0.000640141100699486 0.0003044866610899921 0
359 0.0006948776287430364 0.0006408307755395382 0
360 0.0006699778970107539 0.0006413971205342094 0
361 0.000685826775104949 0.0006122856970621115 0
362 0.0003592302396423426 0.0006950674846772253 0
363 0.000358697653048 0.0006702503290702659 0
364 0.0003877480613382208 0.0006859093512302683 0
365 0.0005122377559224688 0.0003822553455744837 0
366 0.0005276886056412122 0.0003847025197597247 0
367 0.0006178396946984195 0.0005122350355873839 0
368 0.0006153925205131753 0.0005276858853061372 0
369 0.0004877084682794023 0.0006177333607819159 0
370 0.0004722576185606242 0.0006152861865966636 0
371 0.0003821899521200184 0.0004875802194828564 0
372 0.000384637126305265 0.0004721293697640956 0
373 0.0009057883652373473 0.0006728850450164483 0
374 0.0009593645006039499 0.0006474737870685145 0
375 0.0003278020876665416 0.0009061124265281283 0
376 0.0003525192183537405 0.0009596751057752023 0
377 0.0006729134066857625 9.339594103240862e-05 0
378 0.0006475021487378318 3.981980566583749e-05 0
379 9.339594103243901e-05 0.000327086593314329 0
380 3.981980566584818e-05 0.0003524978512622 0
381 0.0005517200892605077 0.0008876232084397788 0
382 0.0006027379172906476 0.0008932291710683766 0
383 0.0005732182376185616 0.0009215646892610254 0
384 0.0001077953429041216 0.0006021995477106921 0
385 7.821930150705177e-05 0.0005725749906523563 0
386 0.0001129616258959627 0.0005507791033734705 0
387 0.0008885452159913805 0.0004482944967113329 0
388 0.0008933472372176387 0.0003972188794631934 0
389 0.0009224838021320204 0.00042687808961004 0
390 0.0004483517034826168 0.0001114567235413407 0
391 0.0003972782946523199 0.0001066535093572717 0
392 0.0004268802980279322 7.751500491015484e-05 0
393 0.0009561103424805914 0.000901569023948326 0
394 0.0009112502626873047 0.0008630246929227782 0
395 0.0009551399202067133 0.0008503445578630748 0
396 9.845323394472668e-05 0.0009561067490455627 0
397 0.0001371039261788516 0.0009112434241884722 0
398 0.0001497618033454905 0.0009551366751429094 0
399 0.000901560997111392 4.39105404267382e-05 0
400 0.0008630027584468217 8.879535129163709e-05 0
401 0.0008503306502240523 4.488481086489889e-05 0
402 4.389028962659009e-05 9.84387064226724e-05 0
403 8.875138014958852e-05 0.0001369953981937359 0
404 4.486109052299844e-05 0.000149667802882429 0
405 0.000174315363094052 0.0005647748716477686 0
406 0.0001514314777315025 0.0005370437252402591 0
407 0.0001832091735325219 0.0005214149364562215 0
408 0.0005649626333699453 0.0008266229305073961 0
409 0.000537674862002769 0.0008487354432176271 0
410 0.0005213977264401206 0.0008160706834778932 0
411 0.0004348018086217063 0.0001733441434417419 0
412 0.0004622621631215005 0.0001509809955453197 0
413 0.0004783142716362023 0.0001837299109986041 0
414 0.0008266752518856157 0.0004342297409095376 0
415 0.0008489823809938663 0.0004622412616868554 0
416 0.0008162489818024832 0.0004778357160319066 0
417 4.38488991970196e-05 0.0004461713595707368 0
418 8.554169144646604e-05 0.0004845264105055394 0
419 4.169279224944644e-05 0.0004827994953803321 0
420 0.0004453212908932881 0.0009551565134829478 0
421 0.0004841992734647342 0.0009131358767991615 0
422 0.0004833224270169755 0.0009579793633162138 0
423 0.0009563031384983205 0.000555142503594862 0
424 0.0009151440289512016 0.0005163415792467409 0
425 0.0009588408904528811 0.0005167546312063006 0
426 0.0005540990939918865 4.406160079068483e-05 0
427 0.0005152981696437902 8.522071033779675e-05 0
428 0.0005167546312063254 4.115910954711192e-05 0
429 0.0005388779825725475 0.0009579793633162138 0
430 0.0005898958106026875 0.0009635853259448116 0
431 4.169279224944644e-05 0.0005383550509359041 0
432 3.652650925760533e-05 0.0005897754952731257 0
433 0.0009588408904528811 0.0004611990756507752 0
434 0.0009636429116791393 0.0004101234584026358 0
435 0.0004611990756508001 4.115910954711192e-05 0
436 0.0004101256668205031 3.635589536304292e-05 0
437 0.0005958347574197035 0.0001858947125894699 0
438 0.0005753214853383545 0.000222708722425335 0
439 0.0005632225410036938 0.0001857483023551436 0
440 0.0004050547893829395 0.0008131475025912153 0
441 0.0004246944047281176 0.0007771106836047455 0
442 0.0004376775489817301 0.0008133372318331049 0
443 0.0008132669658401651 0.0005959080309615174 0
444 0.000777108175756666 0.0005754112707969712 0
445 0.0008134386686828329 0.0005631880019157228 0
446 0.0001853781095619998 0.0004042128121104001 0
447 0.0002221920406733076 0.0004246559859154297 0
448 0.0001857482236306137 0.0004367073607201247 0
449 0.0002771131843314017 0.000592710745577737 0
450 0.0002606336034268019 0.0005643013724106213 0
451 0.0005926255254530113 0.0007230266957458273 0
452 0.0005638785926753978 0.0007396433731198364 0
453 0.000722902427684386 0.0004064423115118361 0
454 0.0007393886149940961 0.0004352558815118457 0
455 0.000406476557561768 0.0002771376094418093 0
456 0.0004352031185124739 0.0002607957919601515 0
457 0.0003404492183657808 0.0004756602591268853 0
458 0.0003543712942186528 0.0004978907062932128 0
459 0.0003304406083443969 0.0004983905264543853 0
460 0.000475788507923416 0.0006594740945361434 0
461 0.0004980189550897447 0.0006455520186832823 0
462 0.0004983905264543561 0.0006695593916555937 0
463 0.000669523331554277 0.0005021335070138055 0
464 0.0006596233727875537 0.0005244015042166446 0
465 0.0006455793481635623 0.0005022020739719286 0
466 0.0005022080006452994 0.0003309807537006737 0
467 0.0005245394797029106 0.0003406672915796324 0
468 0.0005021440327873265 0.0003548241532700088 0
469 0.0003428835161686225 0.0003353004559161147 0
470 0.0003521075693233345 0.0003638622177937926 0
471 0.0006645881561395308 0.0003426137377120329 0
472 0.0006361528390799828 0.0003519829080141195 0
473 0.0006570889826715023 0.0006651883544826536 0
474 0.0006480381290334149 0.0006366432760052269 0
475 0.0003353599691367897 0.0006574752542290919 0
476 0.0003638777908326678 0.000648317120782135 0
477 0.0008789548468064987 0.0008319400428761537 0
478 0.0008799252690803768 0.0008831645089614048 0
479 0.0001682602781614005 0.0008789225058912066 0
480 0.0001169517087606367 0.0008798925797938598 0
481 0.000121050842158177 0.0001681295304628091 0
482 0.0001200800412617686 0.0001169004340030525 0
483 0.0008318678013437848 0.0001212330993595897 0
484 0.0008830981482311246 0.000120258828921429 0
485 0.0006217103151943595 0.0005401332603563395 0
486 0.0006014234463106959 0.0005433490744877089 0
487 0.00054014960406124 0.0003783690636387725 0
488 0.0005433626978575145 0.0003985608922495298 0
489 0.0003782725404623597 0.0004597214099060643 0
490 0.0003985297625275881 0.0004566903407044471 0
491 0.0004598103006075396 0.0006216397931288089 0
492 0.0004566509826093592 0.0006014592581616407 0
493 0.0004883519999972222 0.000389303455209439 0
494 0.0005005897559196911 0.0003715588007839227 0
495 0.0005115743342934463 0.0006109096180281321 0
496 0.0004992828025728487 0.000628642978810048 0
497 0.0003892316154252886 0.0005113885395871875 0
498 0.0003714215675453069 0.0004989687590700439 0
499 0.0006107624450449592 0.0004886233261987398 0
500 0.0006286021397433786 0.0005008583617861237 0
501 0.0004082068286689139 0.0003753895166367283 0
502 0.0004214402036267317 0.0003897427217861754 0
503 0.0003959008482959233 0.0003951695291304185 0
504 0.0006250630234092671 0.0004081928123405127 0
505 0.0006106837420897619 0.0004218175272266725 0
506 0.0006053076412170003 0.0003959043187116673 0
507 0.0003749405783427067 0.0005916693208802475 0
508 0.000389325323838682 0.0005781957812177531 0
509 0.0003947156403443451 0.0006039466482558741 0
510 0.0005915788898718083 0.0006250840421300845 0
511 0.0005780873409810053 0.0006110007190119934 0
512 0.000603929690128763 0.0006050377988163319 0
513 0.0005242419475291707 0.0001919645376465952 0
514 0.0005447552196105197 0.0001551505278107302 0
515 0.0004757135596999263 0.0008077418045173796 0
516 0.000456073944354748 0.0008437786235038495 0
517 0.000191443721455947 0.0004754171622869331 0
518 0.0001546297903446392 0.0004549739884819035 0
519 0.0008079179947550339 0.0005242692392802004 0
520 0.0008440767848385329 0.0005447659994447468 0
521 0.0006118353549493653 0.0005826872696936872 0
522 0.0006253269038401683 0.0005967705928117783 0
523 0.0004029849091717633 0.0006256838174104769 0
524 0.0004173696546677385 0.0006122102777479826 0
525 0.0005971660059518181 0.0003743274290934083 0
526 0.000582786724632313 0.0003879521439795681 0
527 0.000374550689561584 0.0004034398840278251 0
528 0.0003877840645194018 0.0004177930891772723 0
529 0.0002739991978472335 0.0003564110143074092 0
530 0.0002896582200072495 0.0003273606060170972 0
531 0.0006430322002159533 0.0002737845763433089 0
532 0.0006724568359672918 0.0002894404632392719 0
533 0.0007259235968027559 0.0006436087365264933 0
534 0.0007100747187085608 0.0006727201599985911 0
535 0.0003564095659447139 0.0007259515837260329 0
536 0.000327359157654493 0.0007102925615660304 0
537 0.0004251609303054817 0.0005856874040153974 0
538 0.0004140993432013584 0.0005746258169112386 0
539 0.0005856699203376718 0.0005748665004638206 0
540 0.0005746083332335446 0.0005859280875679107 0
541 0.0005748534425634117 0.0004143136670801955 0
542 0.0005859150296675474 0.000425375254184362 0
543 0.0004141162619081585 0.0004253721045252606 0
544 0.0004251778490123283 0.0004143105174211263 0
545 0.0007892627406665509 0.0007669250839895394 0
546 0.0007948983243372711 0.0008110536872300466 0
547 0.0007580017391157533 0.000798436673679311 0
548 0.0002107416776664632 0.0002331289501264922 0
549 0.0002051411807580942 0.0001894294413368587 0
550 0.0002420333476466193 0.0002019924207715342 0
551 0.0002022977133177563 0.0007578952862652994 0
552 0.0002332737680775825 0.0007893609408599069 0
553 0.0001898201752747472 0.0007946665396085086 0
554 0.0007668582491316116 0.0002107966238837948 0
555 0.0008104436725441912 0.0002055321060723616 0
556 0.0007978934938513663 0.0002423693267434722 0
557 0.0002897847119904242 0.0005251262134926228 0
558 0.000316784219443557 0.0005351955033242491 0
559 0.0005246466353680602 0.0007104249994450934 0
560 0.0005345781054688469 0.0006831434998380508 0
561 0.0007102434627870161 0.0004746162892149672 0
562 0.0006833279514157696 0.0004648259247230639 0
563 0.0004745155628358525 0.0002900238839944906 0
564 0.0004647849741090128 0.0003168608343636586 0
565 0.0002531793735433737 0.0002851166551217147 0
566 0.0002254661610362774 0.0003064863832403705 0
567 0.0002199206320478921 0.0002670616576798235 0
568 0.0007467434211066567 0.000714903095712175 0
569 0.0007738150694443652 0.0006937218890093275 0
570 0.0007794378037827415 0.0007331268637359564 0
571 0.000714828002961273 0.000253186111523747 0
572 0.0006936316917978343 0.0002260940959828213 0
573 0.0007331117592753482 0.0002205418290139797 0
574 0.0002851448950387279 0.0007468831740657679 0
575 0.00030641678403883 0.0007738611939780526 0
576 0.0002670231951206936 0.0007795677074289825 0
577 0.0005081551823306828 0.0008770709614102759 0
578 0.0001218554363344327 0.0005074191681819233 0
579 0.0004918641664971128 0.0001218424910982029 0
580 0.000878118945908248 0.0004919004718337019 0
581 0.0005459486536875563 0.0003451683815327156 0
582 0.0005710334424486529 0.0003461006631388864 0
583 0.0005495603006060341 0.0003654429727551383 0
584 0.0003654069050125496 0.0004506119415201959 0
585 0.000345112042196984 0.0004539060036905448 0
586 0.0003461390429694969 0.0004293575062450279 0
587 0.0006549048454687639 0.0005459536753139964 0
588 0.0006536814351007298 0.0005709286715711794 0
589 0.0006344559790288048 0.0005494450674319508 0
590 0.0004505279300269807 0.0006347070842332087 0
591 0.0004540210642133436 0.0006548304122404306 0
592 0.0004291320576815196 0.0006540707749098074 0
593 0.0001710733443112898 0.0006377054651773786 0
594 0.0002104565798134161 0.0006285811717912473 0
595 0.0001865852999872888 0.00065947829819611 0
596 0.0006596250777346989 0.0008142243545710512 0
597 0.0006378474628391489 0.000829480191101717 0
598 0.0006286582590265113 0.0007902885214266201 0
599 0.0008290594078221791 0.0003621399431645167 0
600 0.0007896761723200823 0.0003712642365506662 0
601 0.0008134147000127508 0.0003405217018039641 0
602 0.0003622222351503772 0.0001709461103411109 0
603 0.0003713465285365322 0.0002103293458431871 0
604 0.0003405217018040886 0.0001865852999871895 0
605 0.0002763638871327648 0.0002570768376990758 0
606 0.0002819094161211501 0.0002965015632596227 0
607 0.0007429011879231697 0.0002763446694043413 0
608 0.0007034211204456558 0.0002818969363731829 0
609 0.0007236136819908467 0.0007430061114944837 0
610 0.0007179909476524703 0.0007036011367678548 0
611 0.0002571141865999799 0.0007237537713620948 0
612 0.0002965077755181163 0.0007180472579111651 0
613 0.0004021027510712477 0.0005719633623132411 0
614 0.0004071017084322857 0.0005561160706311001 0
615 0.0004275484467152496 0.000402546110985095 0
616 0.0004435920724738368 0.0004073338941263556 0
617 0.0005979128305881193 0.0004280394832416355 0
618 0.0005928995003581716 0.0004438857038281703 0
619 0.000572422240030257 0.0005980429275578962 0
620 0.0005565924320258416 0.0005930165394275661 0
621 0.0005943214702146319 0.0005572874873836558 0
622 0.00059908969111492 0.000573375462618076 0
623 0.0005573011107534352 0.0004056628683455707 0
624 0.0005733760280875189 0.0004008782348632024 0
625 0.0004427125697134588 0.0005943572820656005 0
626 0.0004266520252482975 0.0005991429866435828 0
627 0.0004056317386236293 0.0004427519278085356 0
628 0.0004006496999692119 0.0004269025575631408 0
629 0.0006470798060167185 0.0005936360528729582 0
630 0.0006391741411961162 0.0006159865819956029 0
631 0.0004064271991195174 0.0006475198212629472 0
632 0.0003837731847961239 0.0006392561917708387 0
633 0.0005936700958494294 0.0003526280714757188 0
634 0.0006161910124341169 0.000360580246207818 0
635 0.0003527367747886131 0.0004066833995909838 0
636 0.0003608535585651347 0.00038405983954413 0
637 0.000361412957523923 0.0005216990263975439 0
638 0.0005218848211037887 0.0006387282759294984 0
639 0.0006385020985101019 0.0004785903645832846 0
640 0.0004782582768620799 0.0003618722629049641 0
641 0.0009593645006039499 0.0005919182315127951 0
642 0.0009156676391022702 0.0005915051795532354 0
643 0.0005919465931821125 3.981980566583749e-05 0
644 0.0005904901316195773 8.388140645652232e-05 0
645 0.0004080747739094537 0.0009596751057752023 0
646 0.0004089516203572123 0.0009148316192581499 0
647 3.981980566584818e-05 0.0004080534068179133 0
648 8.366870486286777e-05 0.0004097803219431205 0
649 0.000325727898908909 0.0005170721375442019 0
650 0.000311805823056037 0.0004948416903778744 0
651 0.0005169519429882854 0.0006742905706752419 0
652 0.0004947214958219567 0.0006882126465281029 0
653 0.0006742040790324654 0.0004832265864423013 0
654 0.0006882481036564568 0.0005054260166870174 0
655 0.0004831629837239272 0.0003262093128531705 0
656 0.0005055584306395113 0.0003120524511627941 0
657 0.0003901761465309453 0.0007438237306000418 0
658 0.0003583050645430956 0.0007590488074888471 0
659 0.0002555477098837009 0.0003902210426191309 0
660 0.0002402734145682264 0.0003583514089939833 0
661 0.0007438314898756148 0.0006099253259551031 0
662 0.0007590285798411392 0.000641814710414156 0
663 0.0006093250833512558 0.0002558429534268452 0
664 0.0006416408186190616 0.000240796755576125 0
665 0.0006204869048263254 0.0005651082566135225 0
666 0.0005652343928223366 0.0003793013452449433 0
667 0.0003792995412348726 0.0004351729124605474 0
668 0.0004349212940757156 0.0006208801557981856 0
669 0.0002157693418989811 0.0006785312063538875 0
670 0.0001763861063968548 0.0006876554997400189 0
671 0.0006786059052284642 0.0007849371405010959 0
672 0.0006877951090411018 0.000824128810176193 0
673 0.0007842561523902841 0.0003215040753806824 0
674 0.0008236393878923807 0.0003123797819945329 0
675 0.0003214592781678796 0.0002157286362260325 0
676 0.0003123349847817246 0.0001763454007239563 0
677 0.0003739214840963053 0.0003606187022306339 0
678 0.0006396487491823713 0.000373682265631809 0
679 0.0006262852268568648 0.000639777815944047 0
680 0.0003604355008849136 0.0006264811169296646 0
681 0.0001992419757692002 0.0003136701601014813 0
682 0.0002325007172646819 0.0003317251575433724 0
683 0.0006865032568537006 0.0001998631727352724 0
684 0.0006682195005396254 0.0002325074552450397 0
685 0.0003136020092626292 0.0008001345976718379 0
686 0.0003317237091806635 0.0007674500643086233 0
687 0.0008001164600614336 0.0006865183613143303 0
688 0.0007674220773853488 0.0006682945932905489 0
689 0.0003740067463438104 0.0005443477665082508 0
690 0.0003569564730171563 0.0005432697137314196 0
691 0.0005444426046554717 0.000626433099191005 0
692 0.0005431787571723677 0.0006433421390642394 0
693 0.0004552250919970833 0.0003742848098556816 0
694 0.0004567793688647188 0.0003575501623417677 0
695 0.0006259820071859735 0.0004556763366264987 0
696 0.0006429592156061572 0.0004570200488123036 0
697 0.000386784173576376 0.0005381153476037388 0
698 0.0003823276890696093 0.0005596860349376145 0
699 0.0005387775037047234 0.0006134753077369078 0
700 0.0005600714397733023 0.0006180891708716487 0
701 0.0006132110956843308 0.0004618982926414617 0
702 0.0006176682127803861 0.0004403279768704808 0
703 0.0004613333350856012 0.0003870881990546011 0
704 0.00043985442708824 0.0003827660984914047 0
705 0.0004701540462069954 0.0008742481115770098 0
706 0.0004321180354887993 0.0008798435388927351 0
707 0.0001240115432820059 0.000470791032372328 0
708 0.0001183160454566725 0.0004320812308055196 0
709 0.0008755811939536874 0.0005302883442222634 0
710 0.0008811018678814865 0.0005692071068577858 0
711 0.0005292086292826739 0.0001247449823417758 0
712 0.000568189222757197 0.0001185287470503241 0
713 0.000393394733549378 0.00036353026159635 0
714 0.0004189340888801863 0.000358103454252107 0
715 0.000636786216919558 0.0003931943422723299 0
716 0.0006421623177923197 0.0004191075507873351 0
717 0.0003629957427158331 0.000606202961407761 0
718 0.0003576054262101701 0.0005804520943696401 0
719 0.00060609510420052 0.0006366563621496164 0
720 0.0005802527550527624 0.0006426192823452779 0
721 0.0007853299704582077 0.0006346111827191588 0
722 0.0008109202693096112 0.0006295824784328899 0
723 0.0008193137668538208 0.000656062361309283 0
724 0.0003654902897668949 0.0007853222111826322 0
725 0.0003706910474466529 0.0008109361052915296 0
726 0.0003441096920842208 0.0008193373621113058 0
727 0.000634512383674928 0.0002145658323285761 0
728 0.0006294896668522 0.0001888033314674736 0
729 0.0006560683487727638 0.0001805140311363883 0
730 0.0002140492293011492 0.0003655351858550941 0
731 0.0001879727473338564 0.0003708904745826457 0
732 0.0001802000500303119 0.0003442642231320348 0
733 0.0003128427335966406 0.0002993207885944583 0
734 0.0007005300209291885 0.0003125990211198662 0
735 0.0006869449795927508 0.0007008231757808998 0
736 0.000299328449215745 0.0006871631588623575 0
737 0.0002392846846276853 0.0005429376041906428 0
738 0.000227441977694188 0.0005705098510837094 0
739 0.0005423479280937656 0.000760932172055049 0
740 0.000570216162388929 0.0007726693718324495 0
741 0.000456685814544987 0.0002394299082843583 0
742 0.000429371221103895 0.0002274589425708195 0
743 0.0007725805041215188 0.0004288112379819295 0
744 0.0007607499635668097 0.000456268838784505 0
745 0.0007352066296606704 0.0008187034365130279 0
746 0.0007295710459899502 0.0007745748332725207 0
747 0.0001822071344117341 0.0007349546464558488 0
748 0.0002256607272145693 0.0007296490477072471 0
749 0.000264852705941883 0.00018189082447235 0
750 0.000270453202850252 0.0002255903332619835 0
751 0.00081797987876693 0.0002652334822516451 0
752 0.0007743944553543503 0.0002704980000630783 0
753 0.0009005547869250323 0.0009571245795040147 0
754 0.0009561103424805914 0.0009571245795040147 0
755 4.289767838904391e-05 0.0009005511934900036 0
756 4.289767838904391e-05 0.0009561067490455627 0
757 9.944584518205654e-05 4.288315086698963e-05 0
758 4.389028962659009e-05 4.288315086698963e-05 0
759 0.0009571165526670808 9.946609598220466e-05 0
760 0.0009571165526670808 4.39105404267382e-05 0
761 0.0008472507622357781 0.0006173592095516417 0
762 0.0003836741917002653 0.0008471626535198889 0
763 0.0006173907225175393 0.0001518429113972821 0
764 0.0001515289302911625 0.0003829418493873408 0
765 0.0005460126215455293 0.0003213249819633806 0
766 0.0003211813563227281 0.0004544058238517173 0
767 0.000454392635577955 0.0006788377852127421 0
768 0.0006788488288594786 0.0005458851083558734 0
769 0.0001731654938019074 0.0003190254488290329 0
770 0.0008257067589128371 0.0006814896570280615 0
771 0.0003188027669423872 0.0008257484917807351 0
772 0.0006814805400309726 0.0001741006718741699 0
773 0.0008368945895438197 0.0008158109782275276 0
774 0.0008056335879930222 0.0008473225679172993 0
775 0.0001631145070241476 0.0001843002684819712 0
776 0.0001944061770043037 0.0001531637391270132 0
777 0.0001844521453888795 0.0008368519278498551 0
778 0.0001534760906290533 0.0008053862732552476 0
779 0.0008467210541960169 0.0001949006929607103 0
780 0.0008156858094762621 0.0001633279901010329 0
781 0.0007439006456741524 0.0008838734703583196 0
782 0.0006964891250545839 0.0008892988440214846 0
783 0.000716225802166905 0.0008479906505829832 0
784 0.0001530230925000418 0.0007159017382980712 0
785 0.00011694386647939 0.0007436464196913476 0
786 0.0001111228384645107 0.0006963472729755177 0
787 0.000283915129578092 0.000152747488233507 0
788 0.0002561501001709958 0.0001166376395165846 0
789 0.0003036323790108374 0.0001110922157681909 0
790 0.0008471384263893968 0.0002842511086749268 0
791 0.0008832355989533198 0.0002565234102786118 0
792 0.0008888951080787705 0.0003036697100214996 0
793 0.0001123962969842697 0.0008323701304283608 0
794 0.0001177643268701374 0.0007901847421870143 0
795 0.0008324311057542062 0.0008878013911291238 0
796 0.0007904348405476575 0.0008830441001316427 0
797 0.0008876648092207459 0.0001677996820018755 0
798 0.000882422672288675 0.0002100037979732042 0
799 0.0001675798009460212 0.000112319827335382 0
800 0.0002096064746799677 0.0001174490001902695 0
801 0.0003354190047319169 0.00053874433940076 0
802 0.0005382471361012463 0.0006644902449655417 0
803 0.0006646031793135897 0.0004615334150498521 0
804 0.000461434544114801 0.0003357891369015383 0
805 0.0002178876104890988 0.0005266612193805062 0
806 0.0002510792362217127 0.000520452740707418 0
807 0.0005262938875996678 0.0007823653868214112 0
808 0.0005199563178861365 0.000749339388108798 0
809 0.0004727078961331483 0.0002178883190097518 0
810 0.0004785397935417272 0.0002512251683990838 0
811 0.0007821531196983962 0.000472137438424182 0
812 0.0007489612305709735 0.0004785820819540982 0
813 0.0002825442932319487 0.0004141984611346552 0
814 0.0002488185099529416 0.0004161388558212292 0
815 0.0005855784423501687 0.0002823534362624106 0
816 0.0005841870607532771 0.0002493656154952267 0
817 0.0004142077183458534 0.0007174480716340308 0
818 0.0004161032169442352 0.0007505452953968449 0
819 0.0007174517024352896 0.000585820138466627 0
820 0.0007505566854736729 0.0005840261123542897 0
821 0.0002952135777821525 0.000617453370250013 0
822 0.0002668912899440554 0.0006166162439759639 0
823 0.0006173805595738847 0.0007049827257891537 0
824 0.0006165018610914347 0.0007333366029405632 0
825 0.0007047913886054272 0.0003817780394732431 0
826 0.0007331081164698464 0.0003831340086706772 0
827 0.0003818030791460246 0.0002952162881568367 0
828 0.0003832150466556385 0.0002669035049616401 0
829 0.0003999997323363301 0.0005421776577352995 0
830 0.0003916787896105312 0.0005268393893059358 0
831 0.0005426540191300034 0.0006001185155235403 0
832 0.0005270251840121727 0.0006084624438428966 0
833 0.0004575304853697039 0.000400231918030381 0
834 0.0004729011502785472 0.0003917506293946579 0
835 0.0006000014764541411 0.0004578241167240104 0
836 0.0006083152708597284 0.0004731724764800283 0
837 3.752180622192945e-05 0.0006953793105179704 0
838 3.752180622192945e-05 0.0007509348660734754 0
839 0.0006954153176144891 0.0009625908318984105 0
840 0.0007509708731699941 0.0009625908318984105 0
841 0.0009624961403213467 0.0003046376724788777 0
842 0.0009624961403213467 0.000249082116923467 0
843 0.0003046003414681559 3.749118352563427e-05 0
844 0.0002490447859127453 3.749118352563427e-05 0
845 0.0001448698658890976 0.0006245031260070238 0
846 0.0001687411457152248 0.0005936059996021611 0
847 0.0006250270252399652 0.0008563518572466391 0
848 0.0005940602065317776 0.000832416024102208 0
849 0.0008561032932959231 0.0003750163474911505 0
850 0.0008323647656032547 0.0004057588822378525 0
851 0.0003750735542624691 0.0001438986462367854 0
852 0.0004058983809949127 0.000167642692092783 0
853 0.0002025011604217173 3.830254419931913e-05 0
854 0.000146945604866309 3.830254419931913e-05 0
855 0.0007975050680434992 0.0009617614616717336 0
856 0.0008530606235988617 0.0009617614616717336 0
857 0.000961683213656702 0.0002025625046180594 0
858 0.000961683213656702 0.0001470069490626512 0
859 3.834226661267691e-05 0.0007974731885691422 0
860 3.834226661267691e-05 0.0008530287441245047 0
861 3.652650925760533e-05 0.0006453310508283624 0
862 0.0006454513661579242 0.0009635853259448116 0
863 0.0009636429116791393 0.0003545679028472356 0
864 0.0003545701112651029 3.635589536304292e-05 0
865 0.0001352803389374327 8.118569506630875e-05 0
866 0.0008647265216350122 0.0009188860411757483 0
867 0.0009187997663237827 0.0001353619339339229 0
868 8.123994500172082e-05 0.0008646910487256265 0
869 7.586407283460635e-05 0.0007706302768644608 0
870 0.0007706981634353364 0.0009243522935701441 0
871 0.0009241793539780488 0.000229422399319777 0
872 0.0002293237241127131 7.57937277249534e-05 0
873 0.000410452919900223 0.0006924603048771285 0
874 0.0004363799903135129 0.0006991818696739316 0
875 0.0006924284041889602 0.0005895783157603327 0
876 0.0006991535997870183 0.0005636791021595193 0
877 0.0003075588366583198 0.0004104661081739669 0
878 0.0003008296367275604 0.0004363839213760651 0
879 0.0005890691302391613 0.0003073284230552464 0
880 0.0005639311076411824 0.000300851085123628 0
881 7.404831547953478e-05 0.000674043694679186 0
882 0.0001101275415001866 0.0006462990132859096 0
883 0.0006742000171052664 0.0009261761578432221 0
884 0.000646525173598019 0.0008902933380678857 0
885 0.0003258371194006882 7.384707888867718e-05 0
886 0.0003536021488077844 0.0001099569276055996 0
887 0.000926139052000486 0.0003258722419935426 0
888 0.0008900418794365631 0.0003535999403898576 0
889 0.0008496785906936226 0.0007147174197974185 0
890 0.0008688758974860097 0.000684261419792371 0
891 0.0001496798451369887 0.0002854711016184202 0
892 0.0001306379193981004 0.0003160651646489736 0
893 0.0002860970780402505 0.0008497101844235596 0
894 0.000316604760861842 0.0008689129488630275 0
895 0.0007147023153368155 0.0001503010421030981 0
896 0.0006842674072558787 0.000130951900504214 0
897 0.0002373797159913598 0.0006211138120568334 0
898 0.0002554801094421107 0.0006458564367291092 0
899 0.0006210913504463113 0.0007632066288965955 0
900 0.0006458463845671847 0.0007451626589399219 0
901 0.0007626253100297296 0.0003787221379496919 0
902 0.0007445142709507709 0.0003540578659110989 0
903 0.0003787672601308127 0.0002373966808679392 0
904 0.0003540937817150693 0.0002554753595829666 0
905 0.0002491886240215555 0.0004486334044309538 0
906 0.0005515748443372674 0.0002492192052609004 0
907 0.0004487259765430258 0.0007507350246387345 0
908 0.0007507283883163409 0.0005513060833084951 0
909 0.0004099203333058803 0.0006676431492701692 0
910 0.0006675286724566777 0.0005901446607550039 0
911 0.0003324419119730477 0.0004099774617613328 0
912 0.0005900584489309516 0.0003323534802532961 0
913 0.0003480127935518043 0.0005613930795114668 0
914 0.0005608049196529293 0.0006521950682270483 0
915 0.0004384013592498044 0.0003482016838522558 0
916 0.0006520830879894613 0.0004386193870930663 0
917 0.0002005188415162442 0.0005779772108181235 0
918 0.0005777830709691291 0.000799751264362474 0
919 0.0007996313664118714 0.0004213533365829038 0
920 0.0004219504895096144 0.0002003916075460674 0
921 0.0003229877895454782 0.0006145449588963735 0
922 0.0003127658951581319 0.0006384504572946004 0
923 0.0006143267193148125 0.0006775536642740444 0
924 0.0006382030549532357 0.0006878635714687803 0
925 0.0006770981378241021 0.0003850856348762563 0
926 0.0006873038266095624 0.0003617773320350974 0
927 0.0003851200424533297 0.0003229357365586513 0
928 0.0003618585315472001 0.000312701632078482 0
929 0.0008841632299871158 0.000605982834775719 0
930 0.0001142869519255011 0.0003939632780526961 0
931 0.0006060367219474231 0.0001142869519254768 0
932 0.0003948715185049649 0.0008843621311849896 0
933 0.0005186355720261167 0.0002261229456577429 0
934 0.0005001682506329425 0.0001955251711133296 0
935 0.0002261221584125239 0.0004806634452112178 0
936 0.0001950037251265494 0.0004989300729729966 0
937 0.0004806097208594736 0.0007740365078608976 0
938 0.0004990061162324915 0.0008044778995316422 0
939 0.0007738221326509469 0.0005185709616724759 0
940 0.0008044602488066469 0.0005001489592014999 0
941 0.0008163343890042593 0.000745743877286692 0
942 0.0002545456570776846 0.0008163389607721916 0
943 0.0001830284651593669 0.0002544986782451481 0
944 0.0007456619379681731 0.0001837046083428691 0
945 0.0005993137355507613 0.0007784624654272613 0
946 0.0002218677603153608 0.000599340979038102 0
947 0.0007782700178391578 0.0004003403793102445 0
948 0.0004004677934771014 0.0002217574912218606 0
949 0.0002472228012843917 0.0006726359300087354 0
950 0.0002370236076939577 0.0007008131315526442 0
951 0.0006726485412293609 0.000753368418723059 0
952 0.0007008185725357638 0.0007632728743282006 0
953 0.0007527628849591033 0.0003273507447219454 0
954 0.0007629875728387332 0.0002992088249125141 0
955 0.0003273699624503924 0.0002472151406631247 0
956 0.0002991832454280284 0.0002369752413998915 0
957 0.0001317858459119674 0.0002043952326726546 0
958 0.0001405008907555599 0.0002515383940650888 0
959 0.0002046043628070944 0.0008682027722444675 0
960 0.0002523476509971394 0.000859503417854484 0
961 0.0007955904196919592 0.000131864512471241 0
962 0.0007484488051930791 0.0001405558369729132 0
963 0.0008682195831507476 0.0007956711621889009 0
964 0.0008595035275774319 0.0007485156400510015 0
965 0.0004581474340235854 0.0007038255519696444 0
966 0.000703872127105808 0.0005421269310621677 0
967 0.0002961668128963572 0.0004581381768124056 0
968 0.0005425219336565367 0.0002963499951705447 0
969 0.0003075857573734641 0.0006603836655827314 0
970 0.0006601428229305747 0.0006926174159977628 0
971 0.0006922814069208561 0.0003393061423090197 0
972 0.0003395665528613175 0.0003075810075143002 0
973 0.0003255480313763977 0.0005942668033744699 0
974 0.0003431003487523771 0.0006152638904190574 0
975 0.0004045932919064023 0.0003258472959243674 0
976 0.0003846487443075778 0.0003433326398460127 0
977 0.0005941365966584677 0.0006744322104796138 0
978 0.0006149590920378188 0.0006573130561592404 0
979 0.0006742356055612887 0.0004045977115167771 0
980 0.0006567480435654239 0.0003845970040786315 0
981 0.0001168815896973578 0.0003606409405249417 0
982 0.000881816533456562 0.0006396572822470913 0
983 0.0003605077765686783 0.0008821507338853038 0
984 0.0006396916313799195 0.0001171955708034804 0
985 0.0002767343752370872 0.0006681383619278659 0
986 0.0006680590518744842 0.0007234983927670265 0
987 0.0003318177489752181 0.0002767219647568256 0
988 0.00072324569139922 0.0003317626154429307 0
989 0.0002946565244074732 0.0004813183572679508 0
990 0.0002743048048123055 0.0004632964547922986 0
991 0.0004812734849669011 0.0007053815059248251 0
992 0.000463260839702459 0.0007257255903860146 0
993 0.000705386466979156 0.0005188415753024783 0
994 0.0007256912379066957 0.0005366355691061244 0
995 0.0005190170224278249 0.0002948457811864192 0
996 0.000536935508523478 0.0002743718843466666 0
997 0.0003360679579249308 0.0005759267200389805 0
998 0.0005753211339816408 0.0006637673882465802 0
999 0.0004235892641302686 0.0003363424288118776 0
1000 0.0006638062814997522 0.0004236209170248835 0
1001 0.0002476783355326716 0.0004718135848864991 0
1002 0.0004718520274863416 0.0007522909785939152 0
1003 0.0007522427281896889 0.0005280207275488058 0
1004 0.0005280699331085555 0.0002477149912767749 0
1005 0.000251238339203274 0.0004953264955725626 0
1006 0.0004951445840189068 0.0007490270736081777 0
1007 0.0007487849822413019 0.0005039004474701052 0
1008 0.0005039962362123273 0.0002512756247435092 0
1009 0.0002726354133418604 0.0005116028803826992 0
1010 0.0005111986245130045 0.0007275938588418156 0
1011 0.0007273818261097154 0.0004880318478304281 0
1012 0.000487974154624166 0.0002728172140181157 0
1013 0.0002899438149719854 0.0004999999683577674 0
1014 0.0004999720055064525 0.000290074340338916 0
1015 0.0007100672144573445 0.0004999346547309741 0
1016 0.0004998349015008304 0.0007101126849444733 0
$EndNodes
$Elements
520
1 15 2 1 1 1
2 15 2 2 2 2
3 15 2 3 3 3
4 15 2 4 4 4
5 8 2 1 1 1 9 17
6 8 2 1 1 9 10 18
7 8 2 1 1 10 11 19
8 8 2 1 1 11 12 20
9 8 2 1 1 12 13 21
10 8 2 1 1 13 14 22
11 8 2 1 1 14 15 23
12 8 2 1 1 15 16 24
13 8 2 1 1 16 2 25
14 8 2 2 2 2 26 34
15 8 2 2 2 26 27 35
16 8 2 2 2 27 28 36
17 8 2 2 2 28 29 37
18 8 2 2 2 29 30 38
19 8 2 2 2 30 31 39
20 8 2 2 2 31 32 40
21 8 2 2 2 32 33 41
22 8 2 2 2 33 3 42
23 8 2 3 3 3 43 51
24 8 2 3 3 43 44 52
25 8 2 3 3 44 45 53
26 8 2 3 3 45 46 54
27 8 2 3 3 46 47 55
28 8 2 3 3 47 48 56
29 8 2 3 3 48 49 57
30 8 2 3 3 49 50 58
31 8 2 3 3 50 4 59
32 8 2 4 4 4 60 68
33 8 2 4 4 60 61 69
34 8 2 4 4 61 62 70
35 8 2 4 4 62 63 71
36 8 2 4 4 63 64 72
37 8 2 4 4 64 65 73
38 8 2 4 4 65 66 74
39 8 2 4 4 66 67 75
40 8 2 4 4 67 1 76
41 9 2 11 11 65 66 159 74 325 326
42 9 2 11 11 48 49 158 57 327 328
43 9 2 11 11 31 32 157 40 329 330
44 9 2 11 11 14 15 160 23 331 332
45 9 2 11 11 66 237 159 333 334 325
46 9 2 11 11 49 238 158 335 336 327
47 9 2 11 11 32 240 157 337 338 329
48 9 2 11 11 15 239 160 339 340 331
49 9 2 11 11 125 177 257 341 342 343
50 9 2 11 11 126 178 258 344 345 346
51 9 2 11 11 180 260 128 347 348 349
52 9 2 11 11 179 259 127 350 351 352
53 9 2 11 11 124 165 212 353 354 355
54 9 2 11 11 166 211 122 356 357 358
55 9 2 11 11 121 168 209 359 360 361
56 9 2 11 11 123 167 210 362 363 364
57 9 2 11 11 8 189 98 365 366 103
58 9 2 11 11 7 190 89 367 368 94
59 9 2 11 11 6 191 80 369 370 85
60 9 2 11 11 5 192 107 371 372 112
61 9 2 11 11 31 157 235 330 373 374
62 9 2 11 11 48 158 234 328 375 376
63 9 2 11 11 14 160 236 332 377 378
64 9 2 11 11 65 159 233 326 379 380
65 9 2 11 11 185 201 269 381 382 383
66 9 2 11 11 202 270 186 384 385 386
67 9 2 11 11 187 203 272 387 388 389
68 9 2 11 11 188 204 271 390 391 392
69 9 2 11 11 33 249 240 393 394 395
70 9 2 11 11 50 250 238 396 397 398
71 9 2 11 11 16 252 239 399 400 401
72 9 2 11 11 67 251 237 402 403 404
73 9 2 11 11 117 202 225 405 406 407
74 9 2 11 11 118 201 226 408 409 410
75 9 2 11 11 119 204 227 411 412 413
76 9 2 11 11 120 203 228 414 415 416
77 9 2 11 11 32 33 240 41 395 337
78 9 2 11 11 49 50 238 58 398 335
79 9 2 11 11 15 16 239 24 401 339
80 9 2 11 11 66 67 237 75 404 333
81 9 2 11 11 64 289 186 417 418 419
82 9 2 11 11 47 290 185 420 421 422
83 9 2 11 11 30 291 187 423 424 425
84 9 2 11 11 13 292 188 426 427 428
85 9 2 11 11 46 185 269 429 383 430
86 9 2 11 11 63 186 270 431 385 432
87 9 2 11 11 29 187 272 433 389 434
88 9 2 11 11 12 188 271 435 392 436
89 9 2 11 11 140 223 164 437 438 439
90 9 2 11 11 137 222 162 440 441 442
91 9 2 11 11 139 224 163 443 444 445
92 9 2 11 11 138 221 161 446 447 448
93 9 2 11 11 125 205 177 449 450 341
94 9 2 11 11 126 206 178 451 452 344
95 9 2 11 11 180 128 208 349 453 454
96 9 2 11 11 179 127 207 352 455 456
97 9 2 11 11 132 192 145 457 458 459
98 9 2 11 11 131 191 146 460 461 462
99 9 2 11 11 148 130 190 463 464 465
100 9 2 11 11 147 129 189 466 467 468
101 9 2 11 11 165 293 212 469 470 354
102 9 2 11 11 166 294 211 471 472 356
103 9 2 11 11 168 295 209 473 474 360
104 9 2 11 11 167 296 210 475 476 363
105 9 2 11 11 149 240 249 477 394 478
106 9 2 11 11 150 238 250 479 397 480
107 9 2 11 11 151 237 251 481 403 482
108 9 2 11 11 152 239 252 483 400 484
109 9 2 11 11 89 190 285 368 485 486
110 9 2 11 11 98 189 286 366 487 488
111 9 2 11 11 107 192 287 372 489 490
112 9 2 11 11 80 191 288 370 491 492
113 9 2 11 11 8 243 189 493 494 365
114 9 2 11 11 6 242 191 495 496 369
115 9 2 11 11 5 241 192 497 498 371
116 9 2 11 11 7 244 190 499 500 367
117 9 2 11 11 136 176 200 501 502 503
118 9 2 11 11 135 175 199 504 505 506
119 9 2 11 11 133 173 198 507 508 509
120 9 2 11 11 134 174 197 510 511 512
121 9 2 11 11 63 64 186 72 419 431
122 9 2 11 11 46 47 185 55 422 429
123 9 2 11 11 29 30 187 38 425 433
124 9 2 11 11 12 13 188 21 428 435
125 9 2 11 11 140 164 227 439 513 514
126 9 2 11 11 137 162 226 442 515 516
127 9 2 11 11 138 161 225 448 517 518
128 9 2 11 11 139 163 228 445 519 520
129 9 2 11 11 134 197 153 512 521 522
130 9 2 11 11 156 133 198 523 509 524
131 9 2 11 11 154 135 199 525 506 526
132 9 2 11 11 155 136 200 527 503 528
133 9 2 11 11 124 232 165 529 530 353
134 9 2 11 11 166 122 231 358 531 532
135 9 2 11 11 121 229 168 533 534 359
136 9 2 11 11 123 230 167 535 536 362
137 9 2 11 11 78 79 198 83 537 538
138 9 2 11 11 87 88 197 92 539 540
139 9 2 11 11 96 97 199 101 541 542
140 9 2 11 11 105 106 200 110 543 544
141 9 2 11 11 114 213 193 545 546 547
142 9 2 11 11 116 215 195 548 549 550
143 9 2 11 11 194 113 214 551 552 553
144 9 2 11 11 115 216 196 554 555 556
145 9 2 11 11 177 305 257 557 558 342
146 9 2 11 11 258 178 306 345 559 560
147 9 2 11 11 180 308 260 561 562 347
148 9 2 11 11 179 307 259 563 564 350
149 9 2 11 11 116 232 312 565 566 567
150 9 2 11 11 114 229 309 568 569 570
151 9 2 11 11 115 231 311 571 572 573
152 9 2 11 11 113 230 310 574 575 576
153 9 2 11 11 185 226 201 577 409 381
154 9 2 11 11 202 186 225 386 578 406
155 9 2 11 11 188 227 204 579 412 390
156 9 2 11 11 187 228 203 580 415 387
157 9 2 11 11 189 300 154 581 582 583
158 9 2 11 11 155 192 298 584 585 586
159 9 2 11 11 190 297 153 587 588 589
160 9 2 11 11 156 191 299 590 591 592
161 9 2 11 11 142 262 169 593 594 595
162 9 2 11 11 170 141 261 596 597 598
163 9 2 11 11 144 264 171 599 600 601
164 9 2 11 11 143 263 172 602 603 604
165 9 2 11 11 116 279 232 605 606 565
166 9 2 11 11 115 280 231 607 608 571
167 9 2 11 11 114 278 229 609 610 568
168 9 2 11 11 113 277 230 611 612 574
169 9 2 11 11 78 198 317 538 613 614
170 9 2 11 11 105 200 320 544 615 616
171 9 2 11 11 96 199 319 542 617 618
172 9 2 11 11 87 197 318 540 619 620
173 9 2 11 11 88 285 197 621 622 539
174 9 2 11 11 97 286 199 623 624 541
175 9 2 11 11 79 288 198 625 626 537
176 9 2 11 11 106 287 200 627 628 543
177 9 2 11 11 134 153 209 522 629 630
178 9 2 11 11 156 210 133 631 632 523
179 9 2 11 11 154 211 135 633 634 525
180 9 2 11 11 155 212 136 635 636 527
181 9 2 11 11 145 192 241 458 498 637
182 9 2 11 11 146 191 242 461 496 638
183 9 2 11 11 148 190 244 465 500 639
184 9 2 11 11 189 243 147 494 640 468
185 9 2 11 11 30 235 291 641 642 423
186 9 2 11 11 13 236 292 643 644 426
187 9 2 11 11 47 234 290 645 646 420
188 9 2 11 11 64 233 289 647 648 417
189 9 2 11 11 132 145 305 459 649 650
190 9 2 11 11 131 146 306 462 651 652
191 9 2 11 11 148 308 130 653 654 463
192 9 2 11 11 147 307 129 655 656 466
193 9 2 11 11 30 31 235 39 374 641
194 9 2 11 11 13 14 236 22 378 643
195 9 2 11 11 47 48 234 56 376 645
196 9 2 11 11 64 65 233 73 380 647
197 9 2 11 11 123 222 230 657 658 535
198 9 2 11 11 124 221 232 659 660 529
199 9 2 11 11 121 224 229 661 662 533
200 9 2 11 11 122 223 231 663 664 531
201 9 2 11 11 153 197 285 521 622 665
202 9 2 11 11 154 199 286 526 624 666
203 9 2 11 11 200 287 155 628 667 528
204 9 2 11 11 156 198 288 524 626 668
205 9 2 11 11 142 169 255 595 669 670
206 9 2 11 11 170 254 141 671 672 596
207 9 2 11 11 144 171 256 601 673 674
208 9 2 11 11 143 172 253 604 675 676
209 9 2 11 11 136 212 293 636 470 677
210 9 2 11 11 135 211 294 634 472 678
211 9 2 11 11 134 209 295 630 474 679
212 9 2 11 11 133 210 296 632 476 680
213 9 2 11 11 184 312 232 681 566 682
214 9 2 11 11 183 311 231 683 572 684
215 9 2 11 11 182 310 230 685 575 686
216 9 2 11 11 181 309 229 687 569 688
217 9 2 11 11 145 241 173 637 689 690
218 9 2 11 11 146 242 174 638 691 692
219 9 2 11 11 147 243 176 640 693 694
220 9 2 11 11 148 244 175 639 695 696
221 9 2 11 11 173 241 317 689 697 698
222 9 2 11 11 242 318 174 699 700 691
223 9 2 11 11 175 244 319 695 701 702
224 9 2 11 11 243 320 176 703 704 693
225 9 2 11 11 137 226 290 516 705 706
226 9 2 11 11 138 225 289 518 707 708
227 9 2 11 11 139 228 291 520 709 710
228 9 2 11 11 140 227 292 514 711 712
229 9 2 11 11 136 275 176 713 714 501
230 9 2 11 11 135 276 175 715 716 504
231 9 2 11 11 133 273 173 717 718 507
232 9 2 11 11 134 274 174 719 720 510
233 9 2 11 11 181 224 315 721 722 723
234 9 2 11 11 182 222 314 724 725 726
235 9 2 11 11 183 223 316 727 728 729
236 9 2 11 11 184 221 313 730 731 732
237 9 2 11 11 190 153 285 589 665 485
238 9 2 11 11 189 154 286 583 666 487
239 9 2 11 11 156 288 191 668 491 590
240 9 2 11 11 155 287 192 667 489 584
241 9 2 11 11 165 232 279 530 606 733
242 9 2 11 11 166 231 280 532 608 734
243 9 2 11 11 168 229 278 534 610 735
244 9 2 11 11 167 230 277 536 612 736
245 9 2 11 11 117 177 205 737 450 738
246 9 2 11 11 118 178 206 739 452 740
247 9 2 11 11 119 179 207 741 456 742
248 9 2 11 11 180 208 120 454 743 744
249 9 2 11 11 114 193 254 547 745 746
250 9 2 11 11 194 255 113 747 748 551
251 9 2 11 11 116 195 253 550 749 750
252 9 2 11 11 115 196 256 556 751 752
253 9 2 11 11 3 43 249 51 753 754
254 9 2 11 11 4 60 250 68 755 756
255 9 2 11 11 1 9 251 17 757 758
256 9 2 11 11 2 26 252 34 759 760
257 9 2 11 11 1 251 67 758 402 76
258 9 2 11 11 2 252 16 760 399 25
259 9 2 11 11 3 249 33 754 393 42
260 9 2 11 11 4 250 50 756 396 59
261 9 2 11 11 139 315 224 761 722 443
262 9 2 11 11 137 314 222 762 725 440
263 9 2 11 11 140 316 223 763 728 437
264 9 2 11 11 138 313 221 764 731 446
265 9 2 11 11 189 129 300 467 765 581
266 9 2 11 11 132 298 192 766 585 457
267 9 2 11 11 131 299 191 767 591 460
268 9 2 11 11 130 297 190 768 587 464
269 9 2 11 11 184 313 312 732 769 681
270 9 2 11 11 181 315 309 723 770 687
271 9 2 11 11 182 314 310 726 771 685
272 9 2 11 11 183 316 311 729 772 683
273 9 2 11 11 193 213 149 546 773 774
274 9 2 11 11 195 215 151 549 775 776
275 9 2 11 11 194 214 150 553 777 778
276 9 2 11 11 152 196 216 779 555 780
277 9 2 11 11 193 217 141 781 782 783
278 9 2 11 11 142 194 218 784 785 786
279 9 2 11 11 143 195 219 787 788 789
280 9 2 11 11 144 196 220 790 791 792
281 9 2 11 11 200 176 320 502 704 615
282 9 2 11 11 198 173 317 508 698 613
283 9 2 11 11 199 175 319 505 702 617
284 9 2 11 11 174 318 197 700 619 511
285 9 2 11 11 194 150 266 778 793 794
286 9 2 11 11 193 149 265 774 795 796
287 9 2 11 11 152 268 196 797 798 779
288 9 2 11 11 195 151 267 776 799 800
289 9 2 11 11 186 289 225 418 707 578
290 9 2 11 11 185 290 226 421 705 577
291 9 2 11 11 187 291 228 424 709 580
292 9 2 11 11 188 292 227 427 711 579
293 9 2 11 11 145 257 305 801 558 649
294 9 2 11 11 146 258 306 802 560 651
295 9 2 11 11 148 260 308 803 562 653
296 9 2 11 11 147 259 307 804 564 655
297 9 2 11 11 117 321 177 805 806 737
298 9 2 11 11 118 322 178 807 808 739
299 9 2 11 11 119 324 179 809 810 741
300 9 2 11 11 180 120 323 744 811 812
301 9 2 11 11 124 245 221 813 814 659
302 9 2 11 11 122 248 223 815 816 663
303 9 2 11 11 123 246 222 817 818 657
304 9 2 11 11 121 247 224 819 820 661
305 9 2 11 11 125 281 205 821 822 449
306 9 2 11 11 126 282 206 823 824 451
307 9 2 11 11 128 284 208 825 826 453
308 9 2 11 11 127 283 207 827 828 455
309 9 2 11 11 77 317 241 829 697 830
310 9 2 11 11 86 318 242 831 699 832
311 9 2 11 11 104 320 243 833 703 834
312 9 2 11 11 95 319 244 835 701 836
313 9 2 11 11 61 62 218 70 837 838
314 9 2 11 11 44 45 217 53 839 840
315 9 2 11 11 27 28 220 36 841 842
316 9 2 11 11 11 219 10 843 844 19
317 9 2 11 11 193 141 254 783 672 745
318 9 2 11 11 142 255 194 670 747 784
319 9 2 11 11 143 253 195 676 749 787
320 9 2 11 11 144 256 196 674 751 790
321 9 2 11 11 142 202 262 845 846 593
322 9 2 11 11 141 201 261 847 848 597
323 9 2 11 11 144 203 264 849 850 599
324 9 2 11 11 143 204 263 851 852 602
325 9 2 11 11 10 267 9 853 854 18
326 9 2 11 11 43 44 265 52 855 856
327 9 2 11 11 26 27 268 35 857 858
328 9 2 11 11 60 61 266 69 859 860
329 9 2 11 11 62 63 270 71 432 861
330 9 2 11 11 45 46 269 54 430 862
331 9 2 11 11 28 29 272 37 434 863
332 9 2 11 11 11 12 271 20 436 864
333 9 2 11 11 9 267 251 854 865 757
334 9 2 11 11 43 265 249 856 866 753
335 9 2 11 11 26 268 252 858 867 759
336 9 2 11 11 60 266 250 860 868 755
337 9 2 11 11 194 266 218 794 869 785
338 9 2 11 11 193 265 217 796 870 781
339 9 2 11 11 196 268 220 798 871 791
340 9 2 11 11 195 267 219 800 872 788
341 9 2 11 11 123 299 246 873 874 817
342 9 2 11 11 121 297 247 875 876 819
343 9 2 11 11 124 298 245 877 878 813
344 9 2 11 11 122 300 248 879 880 815
345 9 2 11 11 142 218 270 786 881 882
346 9 2 11 11 141 217 269 782 883 884
347 9 2 11 11 143 219 271 789 885 886
348 9 2 11 11 144 220 272 792 887 888
349 9 2 11 11 182 230 222 686 658 724
350 9 2 11 11 184 232 221 682 660 730
351 9 2 11 11 181 229 224 688 662 721
352 9 2 11 11 183 231 223 684 664 727
353 9 2 11 11 157 309 315 889 770 890
354 9 2 11 11 159 312 313 891 769 892
355 9 2 11 11 158 310 314 893 771 894
356 9 2 11 11 160 311 316 895 772 896
357 9 2 11 11 169 205 281 897 822 898
358 9 2 11 11 170 206 282 899 824 900
359 9 2 11 11 171 208 284 901 826 902
360 9 2 11 11 172 207 283 903 828 904
361 9 2 11 11 161 221 245 447 814 905
362 9 2 11 11 164 223 248 438 816 906
363 9 2 11 11 162 222 246 441 818 907
364 9 2 11 11 163 224 247 444 820 908
365 9 2 11 11 123 210 299 364 909 873
366 9 2 11 11 121 209 297 361 910 875
367 9 2 11 11 124 212 298 355 911 877
368 9 2 11 11 122 211 300 357 912 879
369 9 2 11 11 5 77 241 81 830 497
370 9 2 11 11 6 86 242 90 832 495
371 9 2 11 11 8 104 243 108 834 493
372 9 2 11 11 7 95 244 99 836 499
373 9 2 11 11 151 251 267 482 865 799
374 9 2 11 11 149 249 265 478 866 795
375 9 2 11 11 150 250 266 480 868 793
376 9 2 11 11 152 252 268 484 867 797
377 9 2 11 11 145 173 257 690 913 801
378 9 2 11 11 146 174 258 692 914 802
379 9 2 11 11 147 176 259 694 915 804
380 9 2 11 11 148 175 260 696 916 803
381 9 2 11 11 117 262 202 917 846 405
382 9 2 11 11 118 261 201 918 848 408
383 9 2 11 11 120 264 203 919 850 414
384 9 2 11 11 119 263 204 920 852 411
385 9 2 11 11 62 270 218 861 881 837
386 9 2 11 11 45 269 217 862 883 839
387 9 2 11 11 28 272 220 863 887 841
388 9 2 11 11 11 271 219 864 885 843
389 9 2 11 11 125 296 281 921 922 821
390 9 2 11 11 126 295 282 923 924 823
391 9 2 11 11 128 294 284 925 926 825
392 9 2 11 11 127 293 283 927 928 827
393 9 2 11 11 139 291 235 710 642 929
394 9 2 11 11 138 289 233 708 648 930
395 9 2 11 11 140 292 236 712 644 931
396 9 2 11 11 234 137 290 932 706 646
397 9 2 11 11 88 89 285 93 486 621
398 9 2 11 11 97 98 286 102 488 623
399 9 2 11 11 106 107 287 111 490 627
400 9 2 11 11 79 80 288 84 492 625
401 9 2 11 11 164 324 227 933 934 513
402 9 2 11 11 161 321 225 935 936 517
403 9 2 11 11 162 322 226 937 938 515
404 9 2 11 11 163 323 228 939 940 519
405 9 2 11 11 119 227 324 413 934 809
406 9 2 11 11 117 225 321 407 936 805
407 9 2 11 11 118 226 322 410 938 807
408 9 2 11 11 120 228 323 416 940 811
409 9 2 11 11 114 309 213 570 941 545
410 9 2 11 11 113 310 214 576 942 552
411 9 2 11 11 116 312 215 567 943 548
412 9 2 11 11 115 311 216 573 944 554
413 9 2 11 11 170 261 206 598 945 899
414 9 2 11 11 169 262 205 594 946 897
415 9 2 11 11 171 264 208 600 947 901
416 9 2 11 11 172 263 207 603 948 903
417 9 2 11 11 169 277 255 949 950 669
418 9 2 11 11 170 278 254 951 952 671
419 9 2 11 11 171 280 256 953 954 673
420 9 2 11 11 172 279 253 955 956 675
421 9 2 11 11 159 237 215 334 957 958
422 9 2 11 11 158 238 214 336 959 960
423 9 2 11 11 160 239 216 340 961 962
424 9 2 11 11 157 240 213 338 963 964
425 9 2 11 11 141 269 201 884 382 847
426 9 2 11 11 142 270 202 882 384 845
427 9 2 11 11 143 271 204 886 391 851
428 9 2 11 11 144 272 203 888 388 849
429 9 2 11 11 151 215 237 775 957 481
430 9 2 11 11 150 214 238 777 959 479
431 9 2 11 11 152 216 239 780 961 483
432 9 2 11 11 149 213 240 773 963 477
433 9 2 11 11 131 246 299 965 874 767
434 9 2 11 11 130 247 297 966 876 768
435 9 2 11 11 132 245 298 967 878 766
436 9 2 11 11 129 248 300 968 880 765
437 9 2 11 11 114 254 278 746 952 609
438 9 2 11 11 113 255 277 748 950 611
439 9 2 11 11 115 256 280 752 954 607
440 9 2 11 11 116 253 279 750 956 605
441 9 2 11 11 104 105 320 109 616 833
442 9 2 11 11 77 78 317 82 614 829
443 9 2 11 11 86 87 318 91 620 831
444 9 2 11 11 95 96 319 100 618 835
445 9 2 11 11 157 213 309 964 941 889
446 9 2 11 11 158 214 310 960 942 893
447 9 2 11 11 159 215 312 958 943 891
448 9 2 11 11 160 216 311 962 944 895
449 9 2 11 11 153 297 209 588 910 629
450 9 2 11 11 156 299 210 592 909 631
451 9 2 11 11 154 300 211 582 912 633
452 9 2 11 11 155 298 212 586 911 635
453 9 2 11 11 167 281 296 969 922 475
454 9 2 11 11 168 282 295 970 924 473
455 9 2 11 11 166 284 294 971 926 471
456 9 2 11 11 165 283 293 972 928 469
457 9 2 11 11 125 273 296 973 974 921
458 9 2 11 11 127 275 293 975 976 927
459 9 2 11 11 126 274 295 977 978 923
460 9 2 11 11 128 276 294 979 980 925
461 9 2 11 11 118 206 261 740 945 918
462 9 2 11 11 117 205 262 738 946 917
463 9 2 11 11 119 207 263 742 948 920
464 9 2 11 11 120 208 264 743 947 919
465 9 2 11 11 138 233 313 930 981 764
466 9 2 11 11 139 235 315 929 982 761
467 9 2 11 11 234 314 137 983 762 932
468 9 2 11 11 140 236 316 931 984 763
469 9 2 11 11 44 217 265 840 870 855
470 9 2 11 11 61 218 266 838 869 859
471 9 2 11 11 10 219 267 844 872 853
472 9 2 11 11 27 220 268 842 871 857
473 9 2 11 11 167 277 281 736 985 969
474 9 2 11 11 168 278 282 735 986 970
475 9 2 11 11 165 279 283 733 987 972
476 9 2 11 11 166 280 284 734 988 971
477 9 2 11 11 157 315 235 890 982 373
478 9 2 11 11 234 158 314 375 894 983
479 9 2 11 11 159 313 233 892 981 379
480 9 2 11 11 160 316 236 896 984 377
481 9 2 11 11 132 303 245 989 990 967
482 9 2 11 11 131 304 246 991 992 965
483 9 2 11 11 130 302 247 993 994 966
484 9 2 11 11 129 301 248 995 996 968
485 9 2 11 11 173 273 257 718 997 913
486 9 2 11 11 258 174 274 914 720 998
487 9 2 11 11 176 275 259 714 999 915
488 9 2 11 11 175 276 260 716 1000 916
489 9 2 11 11 161 245 303 905 990 1001
490 9 2 11 11 162 246 304 907 992 1002
491 9 2 11 11 163 247 302 908 994 1003
492 9 2 11 11 164 248 301 906 996 1004
493 9 2 11 11 161 303 321 1001 1005 935
494 9 2 11 11 162 304 322 1002 1006 937
495 9 2 11 11 163 302 323 1003 1007 939
496 9 2 11 11 164 301 324 1004 1008 933
497 9 2 11 11 136 293 275 677 976 713
498 9 2 11 11 135 294 276 678 980 715
499 9 2 11 11 134 295 274 679 978 719
500 9 2 11 11 133 296 273 680 974 717
501 9 2 11 11 177 321 303 806 1005 1009
502 9 2 11 11 178 322 304 808 1006 1010
503 9 2 11 11 180 323 302 812 1007 1011
504 9 2 11 11 179 324 301 810 1008 1012
505 9 2 11 11 169 281 277 898 985 949
506 9 2 11 11 170 282 278 900 986 951
507 9 2 11 11 172 283 279 904 987 955
508 9 2 11 11 171 284 280 902 988 953
509 9 2 11 11 132 305 303 650 1013 989
510 9 2 11 11 129 307 301 656 1014 995
511 9 2 11 11 130 308 302 654 1015 993
512 9 2 11 11 131 306 304 652 1016 991
513 9 2 11 11 125 257 273 343 997 973
514 9 2 11 11 126 258 274 346 998 977
515 9 2 11 11 127 259 275 351 999 975
516 9 2 11 11 128 260 276 348 1000 979
517 9 2 11 11 177 303 305 1009 1013 557
518 9 2 11 11 179 301 307 1012 1014 563
519 9 2 11 11 178 304 306 1010 1016 559
520 9 2 11 11 180 302 308 1011 1015 561
$EndElements
