Point(1) = {0, -0, 0};
Point(2) = {1, 0, 0};
Point(3) = {-0, 1, 0};
Point(4) = {1, 1, 0};
Line(1) = {3, 1};
Line(2) = {1, 2};
Line(3) = {2, 4};
Line(4) = {4, 3};
Line Loop(5) = {3, 4, 1, 2};
Plane Surface(6) = {5};
Physical Line("Open") = {4};
Physical Line("Wall") = {3, 2, 1};
Physical Surface(7) = {6};
