Point(1) = {-0.5, -0.5, 0, 0.025};
Point(2) = {0.5, -0.5, 0, 0.025};
Point(3) = {0.5, 0.5, 0, 0.125};
Point(4) = {-0.5, 0.5, 0, 0.125};
Line(1) = {4, 3};
Line(2) = {3, 2};
Line(3) = {2, 1};
Line(4) = {1, 4};
Line Loop(5) = {2, 3, 4, 1};
Plane Surface(6) = {5};
Physical Line("Border") = {1, 2, 3, 4};
Physical Surface("Inside") = {6};
//Mesh.CharacteristicLengthExtendFromBoundary=1;
//Transfinite Line {1, 2, 4, 3} = 20 Using Progression 1;
//Transfinite Surface {6};
