$MeshFormat
2.2 0 8
$EndMeshFormat
$PhysicalNames
2
1 1 "Border"
2 2 "Inside"
$EndPhysicalNames
$Nodes
4
1 0 0 0
2 1 0 0
3 0 1 0
4 1 1 0
$EndNodes
$Elements
6
1 1 2 1 1 1 2
2 1 2 1 2 2 4
3 1 2 1 3 4 3
4 1 2 1 4 3 1
5 2 2 2 6 1 2 3
6 2 2 2 6 3 2 4
$EndElements
