%!PS-Adobe-2.0 EPSF-1.2
%%Creator: MATLAB, The Mathworks, Inc. Version 7.6.0.324 (R2008a). Operating System: Linux 3.5.0-37-generic #58~precise1-Ubuntu SMP Wed Jul 10 17:48:11 UTC 2013 x86_64.
%%Title: ./J_interp.eps
%%CreationDate: 08/01/2013  11:49:34
%%DocumentNeededFonts: Helvetica
%%DocumentProcessColors: Cyan Magenta Yellow Black
%%Pages: 1
%%BoundingBox:    25   187   552   592
%%EndComments

%%BeginProlog
% MathWorks dictionary
/MathWorks 160 dict begin
% definition operators
/bdef {bind def} bind def
/ldef {load def} bind def
/xdef {exch def} bdef
/xstore {exch store} bdef
% operator abbreviations
/c  /clip ldef
/cc /concat ldef
/cp /closepath ldef
/gr /grestore ldef
/gs /gsave ldef
/mt /moveto ldef
/np /newpath ldef
/cm /currentmatrix ldef
/sm /setmatrix ldef
/rm /rmoveto ldef
/rl /rlineto ldef
/s {show newpath} bdef
/sc {setcmykcolor} bdef
/sr /setrgbcolor ldef
/sg /setgray ldef
/w /setlinewidth ldef
/j /setlinejoin ldef
/cap /setlinecap ldef
/rc {rectclip} bdef
/rf {rectfill} bdef
% page state control
/pgsv () def
/bpage {/pgsv save def} bdef
/epage {pgsv restore} bdef
/bplot /gsave ldef
/eplot {stroke grestore} bdef
% orientation switch
/portraitMode 0 def /landscapeMode 1 def /rotateMode 2 def
% coordinate system mappings
/dpi2point 0 def
% font control
/FontSize 0 def
/FMS {/FontSize xstore findfont [FontSize 0 0 FontSize neg 0 0]
  makefont setfont} bdef
/reencode {exch dup where {pop load} {pop StandardEncoding} ifelse
  exch dup 3 1 roll findfont dup length dict begin
  { 1 index /FID ne {def}{pop pop} ifelse } forall
  /Encoding exch def currentdict end definefont pop} bdef
/isroman {findfont /CharStrings get /Agrave known} bdef
/FMSR {3 1 roll 1 index dup isroman {reencode} {pop pop} ifelse
  exch FMS} bdef
/csm {1 dpi2point div -1 dpi2point div scale neg translate
 dup landscapeMode eq {pop -90 rotate}
  {rotateMode eq {90 rotate} if} ifelse} bdef
% line types: solid, dotted, dashed, dotdash
/SO { [] 0 setdash } bdef
/DO { [.5 dpi2point mul 4 dpi2point mul] 0 setdash } bdef
/DA { [6 dpi2point mul] 0 setdash } bdef
/DD { [.5 dpi2point mul 4 dpi2point mul 6 dpi2point mul 4
  dpi2point mul] 0 setdash } bdef
% macros for lines and objects
/L {lineto stroke} bdef
/MP {3 1 roll moveto 1 sub {rlineto} repeat} bdef
/AP {{rlineto} repeat} bdef
/PDlw -1 def
/W {/PDlw currentlinewidth def setlinewidth} def
/PP {closepath eofill} bdef
/DP {closepath stroke} bdef
/MR {4 -2 roll moveto dup  0 exch rlineto exch 0 rlineto
  neg 0 exch rlineto closepath} bdef
/FR {MR stroke} bdef
/PR {MR fill} bdef
/L1i {{currentfile picstr readhexstring pop} image} bdef
/tMatrix matrix def
/MakeOval {newpath tMatrix currentmatrix pop translate scale
0 0 1 0 360 arc tMatrix setmatrix} bdef
/FO {MakeOval stroke} bdef
/PO {MakeOval fill} bdef
/PD {currentlinewidth 2 div 0 360 arc fill
   PDlw -1 eq not {PDlw w /PDlw -1 def} if} def
/FA {newpath tMatrix currentmatrix pop translate scale
  0 0 1 5 -2 roll arc tMatrix setmatrix stroke} bdef
/PA {newpath tMatrix currentmatrix pop	translate 0 0 moveto scale
  0 0 1 5 -2 roll arc closepath tMatrix setmatrix fill} bdef
/FAn {newpath tMatrix currentmatrix pop translate scale
  0 0 1 5 -2 roll arcn tMatrix setmatrix stroke} bdef
/PAn {newpath tMatrix currentmatrix pop translate 0 0 moveto scale
  0 0 1 5 -2 roll arcn closepath tMatrix setmatrix fill} bdef
/vradius 0 def /hradius 0 def /lry 0 def
/lrx 0 def /uly 0 def /ulx 0 def /rad 0 def
/MRR {/vradius xdef /hradius xdef /lry xdef /lrx xdef /uly xdef
  /ulx xdef newpath tMatrix currentmatrix pop ulx hradius add uly
  vradius add translate hradius vradius scale 0 0 1 180 270 arc 
  tMatrix setmatrix lrx hradius sub uly vradius add translate
  hradius vradius scale 0 0 1 270 360 arc tMatrix setmatrix
  lrx hradius sub lry vradius sub translate hradius vradius scale
  0 0 1 0 90 arc tMatrix setmatrix ulx hradius add lry vradius sub
  translate hradius vradius scale 0 0 1 90 180 arc tMatrix setmatrix
  closepath} bdef
/FRR {MRR stroke } bdef
/PRR {MRR fill } bdef
/MlrRR {/lry xdef /lrx xdef /uly xdef /ulx xdef /rad lry uly sub 2 div def
  newpath tMatrix currentmatrix pop ulx rad add uly rad add translate
  rad rad scale 0 0 1 90 270 arc tMatrix setmatrix lrx rad sub lry rad
  sub translate rad rad scale 0 0 1 270 90 arc tMatrix setmatrix
  closepath} bdef
/FlrRR {MlrRR stroke } bdef
/PlrRR {MlrRR fill } bdef
/MtbRR {/lry xdef /lrx xdef /uly xdef /ulx xdef /rad lrx ulx sub 2 div def
  newpath tMatrix currentmatrix pop ulx rad add uly rad add translate
  rad rad scale 0 0 1 180 360 arc tMatrix setmatrix lrx rad sub lry rad
  sub translate rad rad scale 0 0 1 0 180 arc tMatrix setmatrix
  closepath} bdef
/FtbRR {MtbRR stroke } bdef
/PtbRR {MtbRR fill } bdef
/stri 6 array def /dtri 6 array def
/smat 6 array def /dmat 6 array def
/tmat1 6 array def /tmat2 6 array def /dif 3 array def
/asub {/ind2 exch def /ind1 exch def dup dup
  ind1 get exch ind2 get sub exch } bdef
/tri_to_matrix {
  2 0 asub 3 1 asub 4 0 asub 5 1 asub
  dup 0 get exch 1 get 7 -1 roll astore } bdef
/compute_transform {
  dmat dtri tri_to_matrix tmat1 invertmatrix 
  smat stri tri_to_matrix tmat2 concatmatrix } bdef
/ds {stri astore pop} bdef
/dt {dtri astore pop} bdef
/db {2 copy /cols xdef /rows xdef mul dup string
  currentfile exch readhexstring pop
  /bmap xdef pop pop} bdef
/it {gs np dtri aload pop moveto lineto lineto cp c
  cols rows 8 compute_transform 
  {bmap} image gr}bdef
/il {newpath moveto lineto stroke}bdef
currentdict end def
%%EndProlog

%%BeginSetup
MathWorks begin

0 cap

end
%%EndSetup

%%Page: 1 1
%%BeginPageSetup
%%PageBoundingBox:    25   187   552   592
MathWorks begin
bpage
%%EndPageSetup

%%BeginObject: obj1
bplot

/dpi2point 12 def
portraitMode 0216 7344 csm

   84   234  6327  4857 MR c np
85 dict begin %Colortable dictionary
/c0 { 0.000000 0.000000 0.000000 sr} bdef
/c1 { 1.000000 1.000000 1.000000 sr} bdef
/c2 { 0.900000 0.000000 0.000000 sr} bdef
/c3 { 0.000000 0.820000 0.000000 sr} bdef
/c4 { 0.000000 0.000000 0.800000 sr} bdef
/c5 { 0.910000 0.820000 0.320000 sr} bdef
/c6 { 1.000000 0.260000 0.820000 sr} bdef
/c7 { 0.000000 0.820000 0.820000 sr} bdef
c0
1 j
1 sg
   0    0 6913 5186 PR
6 w
0 4226 5356 0 0 -4226 899 4615 4 MP
PP
-5356 0 0 4226 5356 0 0 -4226 899 4615 5 MP stroke
4 w
DO
SO
6 w
0 sg
 899 4615 mt 6255 4615 L
 899 4615 mt  899  389 L
 899 4615 mt  899 4561 L
%%IncludeResource: font Helvetica
/Helvetica /ISOLatin1Encoding 192 FMSR

 846 4827 mt 
(0) s
1970 4615 mt 1970 4561 L
1864 4827 mt 
(10) s
3041 4615 mt 3041 4561 L
2935 4827 mt 
(20) s
4112 4615 mt 4112 4561 L
4006 4827 mt 
(30) s
5183 4615 mt 5183 4561 L
5077 4827 mt 
(40) s
6255 4615 mt 6255 4561 L
6149 4827 mt 
(50) s
 899 4615 mt  952 4615 L
 758 4686 mt 
(0) s
 899 4011 mt  952 4011 L
 544 4082 mt 
(200) s
 899 3407 mt  952 3407 L
 544 3478 mt 
(400) s
 899 2803 mt  952 2803 L
 544 2874 mt 
(600) s
 899 2200 mt  952 2200 L
 544 2271 mt 
(800) s
 899 1596 mt  952 1596 L
 437 1667 mt 
(1000) s
 899  992 mt  952  992 L
 437 1063 mt 
(1200) s
 899  389 mt  952  389 L
 437  460 mt 
(1400) s
gs 899 389 5357 4227 MR c np
15.6 w
214 0 214 0 215 0 214 0 428 1 429 10 428 127 429 8 
428 201 429 11 428 17 1071 1 899 3537 13 MP stroke
gr

15.6 w
gs 761 3400 5204 652 MR c np
0 j
0 -94 -94 0 0 94 94 0 852 3490 5 MP
DP
0 -94 -94 0 0 94 94 0 1923 3491 5 MP
DP
0 -94 -94 0 0 94 94 0 2351 3508 5 MP
DP
0 -94 -94 0 0 94 94 0 2780 3519 5 MP
DP
0 -94 -94 0 0 94 94 0 3208 3720 5 MP
DP
0 -94 -94 0 0 94 94 0 3637 3728 5 MP
DP
0 -94 -94 0 0 94 94 0 4065 3855 5 MP
DP
0 -94 -94 0 0 94 94 0 4494 3865 5 MP
DP
0 -94 -94 0 0 94 94 0 4922 3866 5 MP
DP
0 -94 -94 0 0 94 94 0 5136 3866 5 MP
DP
0 -94 -94 0 0 94 94 0 5351 3866 5 MP
DP
0 -94 -94 0 0 94 94 0 5565 3866 5 MP
DP
0 -94 -94 0 0 94 94 0 5779 3866 5 MP
DP
gr

gs 899 389 5357 4227 MR c np
DA
429 10 428 85 429 47 857 67 2398 3699 5 MP stroke
gs 2261 3562 2418 485 MR c np
SO
  60   60 2398 3699 FO
  60   60 3255 3766 FO
  60   60 3684 3813 FO
  60   60 4112 3898 FO
  60   60 4541 3908 FO
DA
gr

SO
214 1 214 3 215 1 214 4 428 4 429 13 428 67 429 126 
428 139 429 7 428 8 1071 1 899 4013 13 MP stroke
gr

gs 761 3875 5204 651 MR c np
 839 4013 mt  959 4013 L
 899 3953 mt  899 4073 L
1910 4014 mt 2030 4014 L
1970 3954 mt 1970 4074 L
2338 4022 mt 2458 4022 L
2398 3962 mt 2398 4082 L
2767 4029 mt 2887 4029 L
2827 3969 mt 2827 4089 L
3195 4168 mt 3315 4168 L
3255 4108 mt 3255 4228 L
3624 4294 mt 3744 4294 L
3684 4234 mt 3684 4354 L
4052 4361 mt 4172 4361 L
4112 4301 mt 4112 4421 L
4481 4374 mt 4601 4374 L
4541 4314 mt 4541 4434 L
4909 4378 mt 5029 4378 L
4969 4318 mt 4969 4438 L
5123 4382 mt 5243 4382 L
5183 4322 mt 5183 4442 L
5338 4383 mt 5458 4383 L
5398 4323 mt 5398 4443 L
5552 4386 mt 5672 4386 L
5612 4326 mt 5612 4446 L
5766 4387 mt 5886 4387 L
5826 4327 mt 5826 4447 L
 857 3971 mt  941 4055 L
 941 3971 mt  857 4055 L
1928 3972 mt 2012 4056 L
2012 3972 mt 1928 4056 L
2356 3980 mt 2440 4064 L
2440 3980 mt 2356 4064 L
2785 3987 mt 2869 4071 L
2869 3987 mt 2785 4071 L
3213 4126 mt 3297 4210 L
3297 4126 mt 3213 4210 L
3642 4252 mt 3726 4336 L
3726 4252 mt 3642 4336 L
4070 4319 mt 4154 4403 L
4154 4319 mt 4070 4403 L
4499 4332 mt 4583 4416 L
4583 4332 mt 4499 4416 L
4927 4336 mt 5011 4420 L
5011 4336 mt 4927 4420 L
5141 4340 mt 5225 4424 L
5225 4340 mt 5141 4424 L
5356 4341 mt 5440 4425 L
5440 4341 mt 5356 4425 L
5570 4344 mt 5654 4428 L
5654 4344 mt 5570 4428 L
5784 4345 mt 5868 4429 L
5868 4345 mt 5784 4429 L
gr

gs 899 389 5357 4227 MR c np
DA
429 26 428 -5 429 40 857 193 2398 4120 5 MP stroke
gs 2261 3983 2418 530 MR c np
SO
2356 4078 mt 2440 4162 L
2440 4078 mt 2356 4162 L
3213 4271 mt 3297 4355 L
3297 4271 mt 3213 4355 L
3642 4311 mt 3726 4395 L
3726 4311 mt 3642 4395 L
4070 4306 mt 4154 4390 L
4154 4306 mt 4070 4390 L
4499 4332 mt 4583 4416 L
4583 4332 mt 4499 4416 L
DA
gr

SO
214 0 214 0 215 0 214 0 428 0 429 2 428 4 429 63 
428 39 429 28 428 12 1071 193 899 4273 13 MP stroke
gr

gs 761 4135 5204 618 MR c np
0 j
60 79 -60 79 -60 -79 60 -79 899 4352 5 MP
DP
60 79 -60 79 -60 -79 60 -79 1970 4545 5 MP
DP
60 79 -60 79 -60 -79 60 -79 2398 4557 5 MP
DP
60 79 -60 79 -60 -79 60 -79 2827 4585 5 MP
DP
60 79 -60 79 -60 -79 60 -79 3255 4624 5 MP
DP
60 79 -60 79 -60 -79 60 -79 3684 4687 5 MP
DP
60 79 -60 79 -60 -79 60 -79 4112 4691 5 MP
DP
60 79 -60 79 -60 -79 60 -79 4541 4693 5 MP
DP
60 79 -60 79 -60 -79 60 -79 4969 4693 5 MP
DP
60 79 -60 79 -60 -79 60 -79 5183 4693 5 MP
DP
60 79 -60 79 -60 -79 60 -79 5398 4693 5 MP
DP
60 79 -60 79 -60 -79 60 -79 5612 4693 5 MP
DP
60 79 -60 79 -60 -79 60 -79 5826 4693 5 MP
DP
gr

gs 899 389 5357 4227 MR c np
DA
429 2 428 -2 429 0 857 -7 2398 4614 5 MP stroke
gr

DA
gs 2261 4467 2418 286 MR c np
SO
0 j
69 119 -138 0 69 -119 2398 4693 4 MP
DP
69 119 -138 0 69 -119 3255 4686 4 MP
DP
69 119 -138 0 69 -119 3684 4686 4 MP
DP
69 119 -138 0 69 -119 4112 4684 4 MP
DP
69 119 -138 0 69 -119 4541 4686 4 MP
DP
DA
gr

gs 899 389 5357 4227 MR c np
SO
214 0 214 0 215 0 214 0 428 0 429 11 428 14 429 340 
428 1832 429 321 428 959 1071 665 899 472 13 MP stroke
gr

SO
gs 761 335 5204 4418 MR c np
0 j
-119 69 0 -138 119 69 820 472 4 MP
DP
-119 69 0 -138 119 69 1891 1137 4 MP
DP
-119 69 0 -138 119 69 2319 2096 4 MP
DP
-119 69 0 -138 119 69 2748 2417 4 MP
DP
-119 69 0 -138 119 69 3176 4249 4 MP
DP
-119 69 0 -138 119 69 3605 4589 4 MP
DP
-119 69 0 -138 119 69 4033 4603 4 MP
DP
-119 69 0 -138 119 69 4462 4614 4 MP
DP
-119 69 0 -138 119 69 4890 4614 4 MP
DP
-119 69 0 -138 119 69 5104 4614 4 MP
DP
-119 69 0 -138 119 69 5319 4614 4 MP
DP
-119 69 0 -138 119 69 5533 4614 4 MP
DP
-119 69 0 -138 119 69 5747 4614 4 MP
DP
gr

gs 899 389 5357 4227 MR c np
DA
429 -6 428 6 429 -6 857 -67 2398 4614 5 MP stroke
gr

DA
gs 2261 4403 2418 350 MR c np
SO
0 j
-69 119 -69 -119 138 0 2329 4654 4 MP
DP
-69 119 -69 -119 138 0 3186 4587 4 MP
DP
-69 119 -69 -119 138 0 3615 4581 4 MP
DP
-69 119 -69 -119 138 0 4043 4587 4 MP
DP
-69 119 -69 -119 138 0 4472 4581 4 MP
DP
DA
gr

gs 899 389 5357 4227 MR c np
gr

2904 5023 mt 
(Number of Dofs) s
 339 3961 mt  -90 rotate
(Second-order tangent \(MPa.mm) s
90 rotate
%%IncludeResource: font Helvetica
/Helvetica /ISOLatin1Encoding 144 FMSR

 243 1179 mt  -90 rotate
(2) s
90 rotate
%%IncludeResource: font Helvetica
/Helvetica /ISOLatin1Encoding 192 FMSR

 339 1099 mt  -90 rotate
(\)) s
90 rotate
%%IncludeResource: font Helvetica
/Helvetica /ISOLatin1Encoding 120 FMSR

 882 4658 mt 
( ) s
6239  431 mt 
( ) s
SO
6 w
%%IncludeResource: font Helvetica
/Helvetica /ISOLatin1Encoding 192 FMSR

4570  613 mt 
(J) s
%%IncludeResource: font Helvetica
/Helvetica /ISOLatin1Encoding 144 FMSR

4666  709 mt 
(001001) s
%%IncludeResource: font Helvetica
/Helvetica /ISOLatin1Encoding 192 FMSR

5146  613 mt 
(, Lagrange) s
gs 3968 449 2228 2555 MR c np
15.6 w
463 0 4060 631 2 MP stroke
gs 4154 494 276 276 MR c np
0 j
0 -94 -94 0 0 94 94 0 4244 584 5 MP
DP
gr

gr

15.6 w
4570  926 mt 
(J) s
%%IncludeResource: font Helvetica
/Helvetica /ISOLatin1Encoding 144 FMSR

4666 1022 mt 
(001001) s
%%IncludeResource: font Helvetica
/Helvetica /ISOLatin1Encoding 192 FMSR

5146  926 mt 
(, Cubic spline) s
gs 3968 449 2228 2555 MR c np
DA
463 0 4060 944 2 MP stroke
SO
gs 4154 806 276 277 MR c np
  60   60 4291  944 FO
gr

gr

4570 1238 mt 
(J) s
%%IncludeResource: font Helvetica
/Helvetica /ISOLatin1Encoding 144 FMSR

4666 1334 mt 
(101101) s
%%IncludeResource: font Helvetica
/Helvetica /ISOLatin1Encoding 192 FMSR

5146 1238 mt 
(, Lagrange) s
gs 3968 449 2228 2555 MR c np
463 0 4060 1257 2 MP stroke
gs 4154 1119 276 276 MR c np
4231 1257 mt 4351 1257 L
4291 1197 mt 4291 1317 L
4249 1215 mt 4333 1299 L
4333 1215 mt 4249 1299 L
gr

gr

4570 1551 mt 
(J) s
%%IncludeResource: font Helvetica
/Helvetica /ISOLatin1Encoding 144 FMSR

4666 1647 mt 
(101101) s
%%IncludeResource: font Helvetica
/Helvetica /ISOLatin1Encoding 192 FMSR

5146 1551 mt 
(, Cubic spline) s
gs 3968 449 2228 2555 MR c np
DA
463 0 4060 1569 2 MP stroke
SO
gs 4154 1432 276 276 MR c np
4249 1527 mt 4333 1611 L
4333 1527 mt 4249 1611 L
gr

gr

4570 1864 mt 
(J) s
%%IncludeResource: font Helvetica
/Helvetica /ISOLatin1Encoding 144 FMSR

4666 1960 mt 
(000000) s
%%IncludeResource: font Helvetica
/Helvetica /ISOLatin1Encoding 192 FMSR

5146 1864 mt 
(, Lagrange) s
gs 3968 449 2228 2555 MR c np
463 0 4060 1882 2 MP stroke
gs 4154 1744 276 276 MR c np
0 j
60 79 -60 79 -60 -79 60 -79 4291 1961 5 MP
DP
gr

gr

4570 2177 mt 
(J) s
%%IncludeResource: font Helvetica
/Helvetica /ISOLatin1Encoding 144 FMSR

4666 2273 mt 
(000000) s
%%IncludeResource: font Helvetica
/Helvetica /ISOLatin1Encoding 192 FMSR

5146 2177 mt 
(, Cubic spline) s
gs 3968 449 2228 2555 MR c np
DA
463 0 4060 2194 2 MP stroke
SO
gs 4154 2057 276 276 MR c np
0 j
69 119 -138 0 69 -119 4291 2273 4 MP
DP
gr

gr

4570 2489 mt 
(J) s
%%IncludeResource: font Helvetica
/Helvetica /ISOLatin1Encoding 144 FMSR

4666 2585 mt 
(111111) s
%%IncludeResource: font Helvetica
/Helvetica /ISOLatin1Encoding 192 FMSR

5146 2489 mt 
(, Lagrange) s
gs 3968 449 2228 2555 MR c np
463 0 4060 2507 2 MP stroke
gs 4154 2369 276 277 MR c np
0 j
-119 69 0 -138 119 69 4212 2507 4 MP
DP
gr

gr

4570 2802 mt 
(J) s
%%IncludeResource: font Helvetica
/Helvetica /ISOLatin1Encoding 144 FMSR

4666 2898 mt 
(111111) s
%%IncludeResource: font Helvetica
/Helvetica /ISOLatin1Encoding 192 FMSR

5146 2802 mt 
(, Cubic spline) s
gs 3968 449 2228 2555 MR c np
DA
463 0 4060 2820 2 MP stroke
SO
gs 4154 2682 276 276 MR c np
0 j
-69 119 -69 -119 138 0 4222 2860 4 MP
DP
gr

6 w
gr

6 w

end %%Color Dict

eplot
%%EndObject

epage
end

showpage

%%Trailer
%%EOF
