%!PS-Adobe-2.0 EPSF-1.2
%%Creator: MATLAB, The Mathworks, Inc. Version 7.6.0.324 (R2008a). Operating System: Linux 3.5.0-37-generic #58~precise1-Ubuntu SMP Wed Jul 10 17:48:11 UTC 2013 x86_64.
%%Title: ./L_interp.eps
%%CreationDate: 08/01/2013  11:49:33
%%DocumentNeededFonts: Helvetica
%%DocumentProcessColors: Cyan Magenta Yellow Black
%%Pages: 1
%%BoundingBox:    29   187   552   592
%%EndComments

%%BeginProlog
% MathWorks dictionary
/MathWorks 160 dict begin
% definition operators
/bdef {bind def} bind def
/ldef {load def} bind def
/xdef {exch def} bdef
/xstore {exch store} bdef
% operator abbreviations
/c  /clip ldef
/cc /concat ldef
/cp /closepath ldef
/gr /grestore ldef
/gs /gsave ldef
/mt /moveto ldef
/np /newpath ldef
/cm /currentmatrix ldef
/sm /setmatrix ldef
/rm /rmoveto ldef
/rl /rlineto ldef
/s {show newpath} bdef
/sc {setcmykcolor} bdef
/sr /setrgbcolor ldef
/sg /setgray ldef
/w /setlinewidth ldef
/j /setlinejoin ldef
/cap /setlinecap ldef
/rc {rectclip} bdef
/rf {rectfill} bdef
% page state control
/pgsv () def
/bpage {/pgsv save def} bdef
/epage {pgsv restore} bdef
/bplot /gsave ldef
/eplot {stroke grestore} bdef
% orientation switch
/portraitMode 0 def /landscapeMode 1 def /rotateMode 2 def
% coordinate system mappings
/dpi2point 0 def
% font control
/FontSize 0 def
/FMS {/FontSize xstore findfont [FontSize 0 0 FontSize neg 0 0]
  makefont setfont} bdef
/reencode {exch dup where {pop load} {pop StandardEncoding} ifelse
  exch dup 3 1 roll findfont dup length dict begin
  { 1 index /FID ne {def}{pop pop} ifelse } forall
  /Encoding exch def currentdict end definefont pop} bdef
/isroman {findfont /CharStrings get /Agrave known} bdef
/FMSR {3 1 roll 1 index dup isroman {reencode} {pop pop} ifelse
  exch FMS} bdef
/csm {1 dpi2point div -1 dpi2point div scale neg translate
 dup landscapeMode eq {pop -90 rotate}
  {rotateMode eq {90 rotate} if} ifelse} bdef
% line types: solid, dotted, dashed, dotdash
/SO { [] 0 setdash } bdef
/DO { [.5 dpi2point mul 4 dpi2point mul] 0 setdash } bdef
/DA { [6 dpi2point mul] 0 setdash } bdef
/DD { [.5 dpi2point mul 4 dpi2point mul 6 dpi2point mul 4
  dpi2point mul] 0 setdash } bdef
% macros for lines and objects
/L {lineto stroke} bdef
/MP {3 1 roll moveto 1 sub {rlineto} repeat} bdef
/AP {{rlineto} repeat} bdef
/PDlw -1 def
/W {/PDlw currentlinewidth def setlinewidth} def
/PP {closepath eofill} bdef
/DP {closepath stroke} bdef
/MR {4 -2 roll moveto dup  0 exch rlineto exch 0 rlineto
  neg 0 exch rlineto closepath} bdef
/FR {MR stroke} bdef
/PR {MR fill} bdef
/L1i {{currentfile picstr readhexstring pop} image} bdef
/tMatrix matrix def
/MakeOval {newpath tMatrix currentmatrix pop translate scale
0 0 1 0 360 arc tMatrix setmatrix} bdef
/FO {MakeOval stroke} bdef
/PO {MakeOval fill} bdef
/PD {currentlinewidth 2 div 0 360 arc fill
   PDlw -1 eq not {PDlw w /PDlw -1 def} if} def
/FA {newpath tMatrix currentmatrix pop translate scale
  0 0 1 5 -2 roll arc tMatrix setmatrix stroke} bdef
/PA {newpath tMatrix currentmatrix pop	translate 0 0 moveto scale
  0 0 1 5 -2 roll arc closepath tMatrix setmatrix fill} bdef
/FAn {newpath tMatrix currentmatrix pop translate scale
  0 0 1 5 -2 roll arcn tMatrix setmatrix stroke} bdef
/PAn {newpath tMatrix currentmatrix pop translate 0 0 moveto scale
  0 0 1 5 -2 roll arcn closepath tMatrix setmatrix fill} bdef
/vradius 0 def /hradius 0 def /lry 0 def
/lrx 0 def /uly 0 def /ulx 0 def /rad 0 def
/MRR {/vradius xdef /hradius xdef /lry xdef /lrx xdef /uly xdef
  /ulx xdef newpath tMatrix currentmatrix pop ulx hradius add uly
  vradius add translate hradius vradius scale 0 0 1 180 270 arc 
  tMatrix setmatrix lrx hradius sub uly vradius add translate
  hradius vradius scale 0 0 1 270 360 arc tMatrix setmatrix
  lrx hradius sub lry vradius sub translate hradius vradius scale
  0 0 1 0 90 arc tMatrix setmatrix ulx hradius add lry vradius sub
  translate hradius vradius scale 0 0 1 90 180 arc tMatrix setmatrix
  closepath} bdef
/FRR {MRR stroke } bdef
/PRR {MRR fill } bdef
/MlrRR {/lry xdef /lrx xdef /uly xdef /ulx xdef /rad lry uly sub 2 div def
  newpath tMatrix currentmatrix pop ulx rad add uly rad add translate
  rad rad scale 0 0 1 90 270 arc tMatrix setmatrix lrx rad sub lry rad
  sub translate rad rad scale 0 0 1 270 90 arc tMatrix setmatrix
  closepath} bdef
/FlrRR {MlrRR stroke } bdef
/PlrRR {MlrRR fill } bdef
/MtbRR {/lry xdef /lrx xdef /uly xdef /ulx xdef /rad lrx ulx sub 2 div def
  newpath tMatrix currentmatrix pop ulx rad add uly rad add translate
  rad rad scale 0 0 1 180 360 arc tMatrix setmatrix lrx rad sub lry rad
  sub translate rad rad scale 0 0 1 0 180 arc tMatrix setmatrix
  closepath} bdef
/FtbRR {MtbRR stroke } bdef
/PtbRR {MtbRR fill } bdef
/stri 6 array def /dtri 6 array def
/smat 6 array def /dmat 6 array def
/tmat1 6 array def /tmat2 6 array def /dif 3 array def
/asub {/ind2 exch def /ind1 exch def dup dup
  ind1 get exch ind2 get sub exch } bdef
/tri_to_matrix {
  2 0 asub 3 1 asub 4 0 asub 5 1 asub
  dup 0 get exch 1 get 7 -1 roll astore } bdef
/compute_transform {
  dmat dtri tri_to_matrix tmat1 invertmatrix 
  smat stri tri_to_matrix tmat2 concatmatrix } bdef
/ds {stri astore pop} bdef
/dt {dtri astore pop} bdef
/db {2 copy /cols xdef /rows xdef mul dup string
  currentfile exch readhexstring pop
  /bmap xdef pop pop} bdef
/it {gs np dtri aload pop moveto lineto lineto cp c
  cols rows 8 compute_transform 
  {bmap} image gr}bdef
/il {newpath moveto lineto stroke}bdef
currentdict end def
%%EndProlog

%%BeginSetup
MathWorks begin

0 cap

end
%%EndSetup

%%Page: 1 1
%%BeginPageSetup
%%PageBoundingBox:    29   187   552   592
MathWorks begin
bpage
%%EndPageSetup

%%BeginObject: obj1
bplot

/dpi2point 12 def
portraitMode 0216 7344 csm

  136   234  6275  4857 MR c np
85 dict begin %Colortable dictionary
/c0 { 0.000000 0.000000 0.000000 sr} bdef
/c1 { 1.000000 1.000000 1.000000 sr} bdef
/c2 { 0.900000 0.000000 0.000000 sr} bdef
/c3 { 0.000000 0.820000 0.000000 sr} bdef
/c4 { 0.000000 0.000000 0.800000 sr} bdef
/c5 { 0.910000 0.820000 0.320000 sr} bdef
/c6 { 1.000000 0.260000 0.820000 sr} bdef
/c7 { 0.000000 0.820000 0.820000 sr} bdef
c0
1 j
1 sg
   0    0 6913 5186 PR
6 w
0 4226 5356 0 0 -4226 899 4615 4 MP
PP
-5356 0 0 4226 5356 0 0 -4226 899 4615 5 MP stroke
4 w
DO
SO
6 w
0 sg
 899 4615 mt 6255 4615 L
 899 4615 mt  899  389 L
 899 4615 mt  899 4561 L
%%IncludeResource: font Helvetica
/Helvetica /ISOLatin1Encoding 192 FMSR

 846 4827 mt 
(0) s
1970 4615 mt 1970 4561 L
1864 4827 mt 
(10) s
3041 4615 mt 3041 4561 L
2935 4827 mt 
(20) s
4112 4615 mt 4112 4561 L
4006 4827 mt 
(30) s
5183 4615 mt 5183 4561 L
5077 4827 mt 
(40) s
6255 4615 mt 6255 4561 L
6149 4827 mt 
(50) s
 899 4615 mt  952 4615 L
 437 4686 mt 
(2400) s
 899 4086 mt  952 4086 L
 437 4157 mt 
(2420) s
 899 3558 mt  952 3558 L
 437 3629 mt 
(2440) s
 899 3030 mt  952 3030 L
 437 3101 mt 
(2460) s
 899 2502 mt  952 2502 L
 437 2573 mt 
(2480) s
 899 1973 mt  952 1973 L
 437 2044 mt 
(2500) s
 899 1445 mt  952 1445 L
 437 1516 mt 
(2520) s
 899  917 mt  952  917 L
 437  988 mt 
(2540) s
 899  389 mt  952  389 L
 437  460 mt 
(2560) s
gs 899 389 5357 4227 MR c np
15.6 w
214 2 214 0 215 18 214 1 428 61 429 31 428 43 429 434 
428 139 429 1868 428 380 1071 511 899 1018 13 MP stroke
gr

15.6 w
gs 785 905 5156 3715 MR c np
0 j
0 -76 -76 0 0 76 76 0 861 980 5 MP
DP
0 -76 -76 0 0 76 76 0 1932 1491 5 MP
DP
0 -76 -76 0 0 76 76 0 2360 1871 5 MP
DP
0 -76 -76 0 0 76 76 0 2789 3739 5 MP
DP
0 -76 -76 0 0 76 76 0 3217 3878 5 MP
DP
0 -76 -76 0 0 76 76 0 3646 4312 5 MP
DP
0 -76 -76 0 0 76 76 0 4074 4355 5 MP
DP
0 -76 -76 0 0 76 76 0 4503 4386 5 MP
DP
0 -76 -76 0 0 76 76 0 4931 4447 5 MP
DP
0 -76 -76 0 0 76 76 0 5145 4448 5 MP
DP
0 -76 -76 0 0 76 76 0 5360 4466 5 MP
DP
0 -76 -76 0 0 76 76 0 5574 4466 5 MP
DP
0 -76 -76 0 0 76 76 0 5788 4468 5 MP
DP
gr

gs 899 389 5357 4227 MR c np
DA
429 -10 428 196 429 243 857 2088 2398 1871 5 MP stroke
gs 2285 1757 2370 2756 MR c np
SO
  48   48 2398 1871 FO
  48   48 3255 3959 FO
  48   48 3684 4202 FO
  48   48 4112 4398 FO
  48   48 4541 4388 FO
DA
gr

SO
214 4 214 1 215 200 214 0 428 974 429 66 428 1448 429 495 
428 548 429 152 428 30 1071 6 899 597 13 MP stroke
gr

gs 761 459 5204 4201 MR c np
0 j
60 79 -60 79 -60 -79 60 -79 899 676 5 MP
DP
60 79 -60 79 -60 -79 60 -79 1970 682 5 MP
DP
60 79 -60 79 -60 -79 60 -79 2398 712 5 MP
DP
60 79 -60 79 -60 -79 60 -79 2827 864 5 MP
DP
60 79 -60 79 -60 -79 60 -79 3255 1412 5 MP
DP
60 79 -60 79 -60 -79 60 -79 3684 1907 5 MP
DP
60 79 -60 79 -60 -79 60 -79 4112 3355 5 MP
DP
60 79 -60 79 -60 -79 60 -79 4541 3421 5 MP
DP
60 79 -60 79 -60 -79 60 -79 4969 4395 5 MP
DP
60 79 -60 79 -60 -79 60 -79 5183 4395 5 MP
DP
60 79 -60 79 -60 -79 60 -79 5398 4595 5 MP
DP
60 79 -60 79 -60 -79 60 -79 5612 4596 5 MP
DP
60 79 -60 79 -60 -79 60 -79 5826 4600 5 MP
DP
gr

gs 899 389 5357 4227 MR c np
DA
429 29 428 2919 429 262 857 628 2398 648 5 MP stroke
gr

DA
gs 2261 510 2418 4115 MR c np
SO
2338  648 mt 2458  648 L
2398  588 mt 2398  708 L
3195 1276 mt 3315 1276 L
3255 1216 mt 3255 1336 L
3624 1538 mt 3744 1538 L
3684 1478 mt 3684 1598 L
4052 4457 mt 4172 4457 L
4112 4397 mt 4112 4517 L
4481 4486 mt 4601 4486 L
4541 4426 mt 4541 4546 L
2356  606 mt 2440  690 L
2440  606 mt 2356  690 L
3213 1234 mt 3297 1318 L
3297 1234 mt 3213 1318 L
3642 1496 mt 3726 1580 L
3726 1496 mt 3642 1580 L
4070 4415 mt 4154 4499 L
4154 4415 mt 4070 4499 L
4499 4444 mt 4583 4528 L
4583 4444 mt 4499 4528 L
DA
gr

gs 899 389 5357 4227 MR c np
gr

2904 5023 mt 
(Number of Dofs) s
 339 3128 mt  -90 rotate
(Tangent \(MPa\)) s
90 rotate
%%IncludeResource: font Helvetica
/Helvetica /ISOLatin1Encoding 120 FMSR

 870 4670 mt 
( ) s
6227  443 mt 
( ) s
SO
6 w
%%IncludeResource: font Helvetica
/Helvetica /ISOLatin1Encoding 192 FMSR

4477  970 mt 
(L) s
%%IncludeResource: font Helvetica
/Helvetica /ISOLatin1Encoding 144 FMSR

4583 1066 mt 
(0000) s
%%IncludeResource: font Helvetica
/Helvetica /ISOLatin1Encoding 192 FMSR

4903  970 mt 
(, Lagrange) s
gs 3876 807 2078 1299 MR c np
15.6 w
462 0 3968 989 2 MP stroke
gs 4085 875 229 228 MR c np
0 j
0 -76 -76 0 0 76 76 0 4161 951 5 MP
DP
gr

gr

15.6 w
4477 1282 mt 
(L) s
%%IncludeResource: font Helvetica
/Helvetica /ISOLatin1Encoding 144 FMSR

4583 1378 mt 
(0000) s
%%IncludeResource: font Helvetica
/Helvetica /ISOLatin1Encoding 192 FMSR

4903 1282 mt 
(, Cubic spline) s
gs 3876 807 2078 1299 MR c np
DA
462 0 3968 1300 2 MP stroke
SO
gs 4085 1186 229 228 MR c np
  48   48 4199 1300 FO
gr

gr

4477 1593 mt 
(L) s
%%IncludeResource: font Helvetica
/Helvetica /ISOLatin1Encoding 144 FMSR

4583 1689 mt 
(1111) s
%%IncludeResource: font Helvetica
/Helvetica /ISOLatin1Encoding 192 FMSR

4903 1593 mt 
(, Lagrange) s
gs 3876 807 2078 1299 MR c np
462 0 3968 1611 2 MP stroke
gs 4061 1474 277 276 MR c np
0 j
60 79 -60 79 -60 -79 60 -79 4199 1690 5 MP
DP
gr

gr

4477 1905 mt 
(L) s
%%IncludeResource: font Helvetica
/Helvetica /ISOLatin1Encoding 144 FMSR

4583 2001 mt 
(1111) s
%%IncludeResource: font Helvetica
/Helvetica /ISOLatin1Encoding 192 FMSR

4903 1905 mt 
(, Cubic spline) s
gs 3876 807 2078 1299 MR c np
DA
462 0 3968 1922 2 MP stroke
SO
gs 4061 1785 277 276 MR c np
4139 1922 mt 4259 1922 L
4199 1862 mt 4199 1982 L
4157 1880 mt 4241 1964 L
4241 1880 mt 4157 1964 L
gr

6 w
gr

6 w

end %%Color Dict

eplot
%%EndObject

epage
end

showpage

%%Trailer
%%EOF
