Point(69) = {0.43034, -0.490289, 0, 0.2}; 
Point(71) = {1.29592, -1.99477, 0, 0.2}; 
Point(75) = {1.29707, -0.988613, 0, 0.2}; 
Point(82) = {0.433689, -2.49526, 0, 0.2}; 
Point(147) = {-1.30229, -2.49301, 0, 0.2}; 
Point(148) = {-1.31029, -0.497681, 0, 0.2}; 
Point(150) = {-0.429693, -0.99721, 0, 0.2}; 
Point(151) = {-0.426053, -1.99531, 0, 0.2}; 
Point(169) = {0.423229, 0.499706, 0, 0.2}; 
Point(170) = {1.29034, 1.0074, 0, 0.2}; 
Point(171) = {0.432102, 2.49473, 0, 0.2}; 
Point(172) = {1.28857, 1.9992, 0, 0.2}; 
Point(174) = {-1.30543, 2.49621, 0, 0.2}; 
Point(175) = {-0.440302, 1.99569, 0, 0.2}; 
Point(176) = {-0.434068, 0.993208, 0, 0.2}; 
Point(177) = {-1.30689, 0.493467, 0, 0.2}; 
Point(1794) = {-1.35207, -2.52208, 0, 0.2}; 
Point(1871) = {0.383674, -2.52402, 0, 0.2}; 
Point(1872) = {-0.426346, -2.05298, 0, 0.2}; 
Point(1873) = {-1.25207, -2.52199, 0, 0.2}; 
Point(1949) = {0.483674, -2.52406, 0, 0.2}; 
Point(1950) = {1.2962, -2.05242, 0, 0.2}; 
Point(2571) = {-0.476159, -1.96627, 0, 0.2}; 
Point(2572) = {-1.30215, -2.43543, 0, 0.2}; 
Point(2575) = {-1.30979, -0.555446, 0, 0.2}; 
Point(2576) = {-0.479587, -1.02639, 0, 0.2}; 
Point(2649) = {-0.376158, -1.96649, 0, 0.2}; 
Point(2650) = {0.433712, -2.43743, 0, 0.2}; 
Point(2651) = {1.24595, -1.96596, 0, 0.2}; 
Point(2652) = {1.24704, -1.01752, 0, 0.2}; 
Point(2653) = {0.430653, -0.548144, 0, 0.2}; 
Point(2654) = {-0.379589, -1.02572, 0, 0.2}; 
Point(2727) = {1.34704, -1.01757, 0, 0.2}; 
Point(2728) = {1.34595, -1.96568, 0, 0.2}; 
Point(3199) = {-1.36019, -0.469073, 0, 0.2}; 
Point(3200) = {-1.35699, 0.464967, 0, 0.2}; 
Point(3273) = {-1.25699, 0.464422, 0, 0.2}; 
Point(3274) = {-1.26019, -0.468616, 0, 0.2}; 
Point(3275) = {-0.430173, -0.939454, 0, 0.2}; 
Point(3276) = {0.380134, -0.461842, 0, 0.2}; 
Point(3277) = {0.373436, 0.470677, 0, 0.2}; 
Point(3278) = {-0.434135, 0.935554, 0, 0.2}; 
Point(3351) = {1.29056, 0.949589, 0, 0.2}; 
Point(3354) = {1.29708, -0.930942, 0, 0.2}; 
Point(3355) = {0.480133, -0.461242, 0, 0.2}; 
Point(3356) = {0.473435, 0.471162, 0, 0.2}; 
Point(3977) = {-1.30547, 2.43847, 0, 0.2}; 
Point(3978) = {-0.490123, 1.96675, 0, 0.2}; 
Point(3979) = {-0.484249, 1.02209, 0, 0.2}; 
Point(3980) = {-1.30652, 0.551297, 0, 0.2}; 
Point(4053) = {-0.384247, 1.02222, 0, 0.2}; 
Point(4054) = {0.423016, 0.557521, 0, 0.2}; 
Point(4055) = {1.24029, 1.03603, 0, 0.2}; 
Point(4056) = {1.23862, 1.97033, 0, 0.2}; 
Point(4057) = {0.43196, 2.43705, 0, 0.2}; 
Point(4058) = {-0.390121, 1.96679, 0, 0.2}; 
Point(4131) = {1.33862, 1.97043, 0, 0.2}; 
Point(4136) = {1.34029, 1.03635, 0, 0.2}; 
Point(4602) = {-1.35516, 2.52525, 0, 0.2}; 
Point(4677) = {-0.440161, 2.05337, 0, 0.2}; 
Point(4678) = {0.38198, 2.52366, 0, 0.2}; 
Point(4682) = {-1.25516, 2.52489, 0, 0.2}; 
Point(4755) = {1.28854, 2.05698, 0, 0.2}; 
Point(4760) = {0.481981, 2.52364, 0, 0.2}; 
Point(6601) = {-1.29839, -3, 0, 0.2}; 
Point(6655) = {-1.73205, -2.24611, 0, 0.2}; 
Point(6708) = {-1.34839, -3, 0, 0.2}; 
Point(6762) = {-1.73205, -2.30377, 0, 0.2}; 
Point(6867) = {0.433432, -3, 0, 0.2}; 
Point(6918) = {0.383432, -3, 0, 0.2}; 
Point(6971) = {-1.24839, -3, 0, 0.2}; 
Point(7077) = {1.73205, -2.24234, 0, 0.2}; 
Point(7129) = {0.483432, -3, 0, 0.2}; 
Point(7182) = {1.73205, -2.29983, 0, 0.2}; 
Point(7289) = {-1.73205, -0.746585, 0, 0.2}; 
Point(7343) = {-1.73205, -2.18844, 0, 0.2}; 
Point(7397) = {-1.73205, -0.804643, 0, 0.2}; 
Point(7503) = {1.73205, -0.738664, 0, 0.2}; 
Point(7557) = {1.73205, -2.18484, 0, 0.2}; 
Point(7609) = {1.73205, -0.796331, 0, 0.2}; 
Point(7716) = {-1.73205, 0.744246, 0, 0.2}; 
Point(7770) = {-1.73205, -0.688527, 0, 0.2}; 
Point(7824) = {-1.73205, 0.686196, 0, 0.2}; 
Point(7930) = {1.73205, 0.753282, 0, 0.2}; 
Point(7984) = {1.73205, 0.695598, 0, 0.2}; 
Point(8038) = {1.73205, -0.680997, 0, 0.2}; 
Point(8145) = {-1.73205, 2.25014, 0, 0.2}; 
Point(8195) = {-1.73205, 2.19242, 0, 0.2}; 
Point(8249) = {-1.73205, 0.802296, 0, 0.2}; 
Point(8356) = {1.73205, 2.25644, 0, 0.2}; 
Point(8410) = {1.73205, 2.19864, 0, 0.2}; 
Point(8463) = {1.73205, 0.810966, 0, 0.2}; 
Point(8569) = {-1.30076, 3, 0, 0.2}; 
Point(8622) = {-1.73205, 2.30786, 0, 0.2}; 
Point(8675) = {-1.35076, 3, 0, 0.2}; 
Point(8779) = {0.429982, 3, 0, 0.2}; 
Point(8832) = {0.379981, 3, 0, 0.2}; 
Point(8882) = {-1.25075, 3, 0, 0.2}; 
Point(9038) = {1.73205, 2.31425, 0, 0.2}; 
Point(9089) = {0.479982, 3, 0, 0.2}; 
Line(213) = {82, 151 }; 
Line(214) = {151, 147 }; 
Line(217) = {1871, 1872 }; 
Line(218) = {1872, 1873 }; 
Line(221) = {82, 71 }; 
Line(226) = {1949, 1950 }; 
Line(297) = {148, 150 }; 
Line(298) = {150, 151 }; 
Line(299) = {2571, 2572 }; 
Line(303) = {2575, 2576 }; 
Line(304) = {2576, 2571 }; 
Line(305) = {71, 75 }; 
Line(306) = {75, 69 }; 
Line(307) = {69, 150 }; 
Line(308) = {2649, 2650 }; 
Line(309) = {2650, 2651 }; 
Line(310) = {2651, 2652 }; 
Line(311) = {2652, 2653 }; 
Line(312) = {2653, 2654 }; 
Line(313) = {2654, 2649 }; 
Line(317) = {2727, 2728 }; 
Line(370) = {148, 177 }; 
Line(376) = {3199, 3200 }; 
Line(378) = {69, 169 }; 
Line(379) = {169, 176 }; 
Line(380) = {176, 177 }; 
Line(381) = {3273, 3274 }; 
Line(382) = {3274, 3275 }; 
Line(383) = {3275, 3276 }; 
Line(384) = {3276, 3277 }; 
Line(385) = {3277, 3278 }; 
Line(386) = {3278, 3273 }; 
Line(389) = {169, 170 }; 
Line(393) = {3354, 3355 }; 
Line(394) = {3355, 3356 }; 
Line(395) = {3356, 3351 }; 
Line(463) = {174, 175 }; 
Line(464) = {175, 176 }; 
Line(467) = {3977, 3978 }; 
Line(468) = {3978, 3979 }; 
Line(469) = {3979, 3980 }; 
Line(471) = {170, 172 }; 
Line(472) = {172, 171 }; 
Line(473) = {171, 175 }; 
Line(474) = {4053, 4054 }; 
Line(475) = {4054, 4055 }; 
Line(476) = {4055, 4056 }; 
Line(477) = {4056, 4057 }; 
Line(478) = {4057, 4058 }; 
Line(479) = {4058, 4053 }; 
Line(488) = {4136, 4131 }; 
Line(547) = {4677, 4678 }; 
Line(552) = {4682, 4677 }; 
Line(561) = {4760, 4755 }; 
Line(765) = {6601, 147 }; 
Line(766) = {147, 6655 }; 
Line(767) = {6708, 1794 }; 
Line(768) = {1794, 6762 }; 
Line(769) = {6655, 6762 }; 
Line(770) = {6708, 6601 }; 
Line(771) = {6867, 82 }; 
Line(772) = {6918, 1871 }; 
Line(773) = {1873, 6971 }; 
Line(774) = {6601, 6971 }; 
Line(775) = {6918, 6867 }; 
Line(776) = {71, 7077 }; 
Line(777) = {7129, 1949 }; 
Line(778) = {1950, 7182 }; 
Line(779) = {7077, 7182 }; 
Line(780) = {7129, 6867 }; 
Line(781) = {7289, 148 }; 
Line(782) = {2572, 7343 }; 
Line(783) = {7397, 2575 }; 
Line(784) = {6655, 7343 }; 
Line(785) = {7397, 7289 }; 
Line(786) = {7503, 75 }; 
Line(787) = {2728, 7557 }; 
Line(788) = {7609, 2727 }; 
Line(789) = {7077, 7557 }; 
Line(790) = {7609, 7503 }; 
Line(791) = {177, 7716 }; 
Line(792) = {7770, 3199 }; 
Line(793) = {3200, 7824 }; 
Line(794) = {7716, 7824 }; 
Line(795) = {7770, 7289 }; 
Line(796) = {170, 7930 }; 
Line(797) = {3351, 7984 }; 
Line(798) = {8038, 3354 }; 
Line(799) = {7930, 7984 }; 
Line(800) = {8038, 7503 }; 
Line(801) = {8145, 174 }; 
Line(802) = {8195, 3977 }; 
Line(803) = {3980, 8249 }; 
Line(804) = {7716, 8249 }; 
Line(805) = {8195, 8145 }; 
Line(806) = {172, 8356 }; 
Line(807) = {4131, 8410 }; 
Line(808) = {8463, 4136 }; 
Line(809) = {8356, 8410 }; 
Line(810) = {8463, 7930 }; 
Line(811) = {174, 8569 }; 
Line(812) = {8622, 4602 }; 
Line(813) = {4602, 8675 }; 
Line(814) = {8569, 8675 }; 
Line(815) = {8622, 8145 }; 
Line(816) = {171, 8779 }; 
Line(817) = {4678, 8832 }; 
Line(818) = {8882, 4682 }; 
Line(819) = {8779, 8832 }; 
Line(820) = {8882, 8569 }; 
Line(821) = {4755, 9038 }; 
Line(822) = {9089, 4760 }; 
Line(823) = {8356, 9038 }; 
Line(824) = {9089, 8779 }; 
Line Loop(63) = {-213,221 ,298 ,305 ,306 ,307 }; 
Line Loop(64) = {308,309 ,310 ,311 ,312 ,313 }; 
Line Loop(79) = {-370,-307 ,297 ,378 ,379 ,380 }; 
Line Loop(80) = {381,382 ,383 ,384 ,385 ,386 }; 
Line Loop(99) = {-379,389 ,464 ,471 ,472 ,473 }; 
Line Loop(100) = {474,475 ,476 ,477 ,478 ,479 }; 
Line Loop(163) = {-768,-767 ,765 ,766 ,769 ,770 }; 
Line Loop(164) = {-773,-772 ,-765 ,-218 ,-217 ,213 ,214 ,771 ,774 ,775 }; 
Line Loop(165) = {-778,-777 ,-226 ,221 ,771 ,776 ,779 ,780 }; 
Line Loop(166) = {-783,-782 ,-304 ,-303 ,-299 ,214 ,297 ,298 ,766 ,781 ,784 ,785 }; 
Line Loop(167) = {-788,-787 ,-317 ,-305 ,776 ,786 ,789 ,790 }; 
Line Loop(168) = {-793,-792 ,-376 ,370 ,781 ,791 ,794 ,795 }; 
Line Loop(169) = {-798,-797 ,-395 ,-394 ,-393 ,306 ,378 ,389 ,786 ,796 ,799 ,800 }; 
Line Loop(170) = {-803,-802 ,-469 ,-468 ,-467 ,380 ,463 ,464 ,791 ,801 ,804 ,805 }; 
Line Loop(171) = {-808,-807 ,-796 ,-488 ,471 ,806 ,809 ,810 }; 
Line Loop(172) = {-813,-812 ,801 ,811 ,814 ,815 }; 
Line Loop(173) = {-818,-817 ,-811 ,-552 ,-547 ,-473 ,463 ,816 ,819 ,820 }; 
Line Loop(174) = {-822,-821 ,-816 ,-561 ,-472 ,806 ,823 ,824 }; 
Plane Surface(50) = {-64 ,63 };
Plane Surface(60) = {-80 ,79 };
Plane Surface(72) = {-100 ,99 };
Plane Surface(110) = {163 };
Plane Surface(111) = {164 };
Plane Surface(112) = {165 };
Plane Surface(113) = {166 };
Plane Surface(114) = {167 };
Plane Surface(115) = {168 };
Plane Surface(116) = {169 };
Plane Surface(117) = {170 };
Plane Surface(118) = {171 };
Plane Surface(119) = {172 };
Plane Surface(120) = {173 };
Plane Surface(121) = {174 };
Physical Surface(11) = {50 ,60,72,110,111,112,113,114,115,116,117,118,119,120,121};
Physical Line(1) = {770 ,774,775,780};
Physical Line(2) = {779 ,789,790,799,800,809,810,823};
Physical Line(3) = {814 ,819,820,824};
Physical Line(4) = {769 ,784,785,794,795,804,805,815};
Physical Point(1) = {6708};
Physical Point(2) = {6655};
Physical Point(3) = {7077};
Physical Point(4) = {8569};
