GFORTRAN module version '9' created from daymod.F90
MD5:0ca76a44a0a4bd81a7c3d9aa7bc79cb8 -- If you edit this, you'll get what you deserve.

(() () () () () () () () () () () () () () () () () () () () () () ()
() () () ())

()

()

()

()

()

(2 'adatrj' 'daymod' '' 1 ((VARIABLE UNKNOWN-INTENT UNKNOWN-PROC UNKNOWN
IMPLICIT-SAVE 0 0) (REAL 8 0 0 0 REAL ()) 0 0 () () 0 () () () 0 0)
3 'day' 'daymod' '' 1 ((PROCEDURE UNKNOWN-INTENT MODULE-PROC DECL
UNKNOWN 0 0 SUBROUTINE) (UNKNOWN 0 0 0 0 UNKNOWN ()) 4 0 (5) () 0 () ()
() 0 0)
6 'day_init' 'daymod' '' 1 ((PROCEDURE UNKNOWN-INTENT MODULE-PROC DECL
UNKNOWN 0 0 SUBROUTINE) (UNKNOWN 0 0 0 0 UNKNOWN ()) 0 0 () () 0 () () ()
0 0)
7 'nbiss' 'daymod' '' 1 ((VARIABLE UNKNOWN-INTENT UNKNOWN-PROC UNKNOWN
IMPLICIT-SAVE 0 0 DIMENSION) (INTEGER 4 0 0 0 INTEGER ()) 0 0 () (1 0
EXPLICIT (CONSTANT (INTEGER 4 0 0 0 INTEGER ()) 0 '1') (CONSTANT (
INTEGER 4 0 0 0 INTEGER ()) 0 '12')) 0 () () () 0 0)
8 'ndastp' 'daymod' '' 1 ((VARIABLE UNKNOWN-INTENT UNKNOWN-PROC UNKNOWN
IMPLICIT-SAVE 0 0) (INTEGER 4 0 0 0 INTEGER ()) 0 0 () () 0 () () () 0 0)
9 'nday' 'daymod' '' 1 ((VARIABLE UNKNOWN-INTENT UNKNOWN-PROC UNKNOWN
IMPLICIT-SAVE 0 0) (INTEGER 4 0 0 0 INTEGER ()) 0 0 () () 0 () () () 0 0)
10 'nday_year' 'daymod' '' 1 ((VARIABLE UNKNOWN-INTENT UNKNOWN-PROC
UNKNOWN IMPLICIT-SAVE 0 0) (INTEGER 4 0 0 0 INTEGER ()) 0 0 () () 0 () ()
() 0 0)
11 'nmonth' 'daymod' '' 1 ((VARIABLE UNKNOWN-INTENT UNKNOWN-PROC UNKNOWN
IMPLICIT-SAVE 0 0) (INTEGER 4 0 0 0 INTEGER ()) 0 0 () () 0 () () () 0 0)
12 'nmonth_len' 'daymod' '' 1 ((VARIABLE UNKNOWN-INTENT UNKNOWN-PROC
UNKNOWN IMPLICIT-SAVE 0 0 DIMENSION) (INTEGER 4 0 0 0 INTEGER ()) 0 0 ()
(1 0 EXPLICIT (CONSTANT (INTEGER 4 0 0 0 INTEGER ()) 0 '0') (CONSTANT (
INTEGER 4 0 0 0 INTEGER ()) 0 '13')) 0 () () () 0 0)
13 'nobis' 'daymod' '' 1 ((VARIABLE UNKNOWN-INTENT UNKNOWN-PROC UNKNOWN
IMPLICIT-SAVE 0 0 DIMENSION) (INTEGER 4 0 0 0 INTEGER ()) 0 0 () (1 0
EXPLICIT (CONSTANT (INTEGER 4 0 0 0 INTEGER ()) 0 '1') (CONSTANT (
INTEGER 4 0 0 0 INTEGER ()) 0 '12')) 0 () () () 0 0)
14 'nyear' 'daymod' '' 1 ((VARIABLE UNKNOWN-INTENT UNKNOWN-PROC UNKNOWN
IMPLICIT-SAVE 0 0) (INTEGER 4 0 0 0 INTEGER ()) 0 0 () () 0 () () () 0 0)
15 'nyear_len' 'daymod' '' 1 ((VARIABLE UNKNOWN-INTENT UNKNOWN-PROC
UNKNOWN IMPLICIT-SAVE 0 0 DIMENSION) (INTEGER 4 0 0 0 INTEGER ()) 0 0 ()
(1 0 EXPLICIT (CONSTANT (INTEGER 4 0 0 0 INTEGER ()) 0 '0') (CONSTANT (
INTEGER 4 0 0 0 INTEGER ()) 0 '1')) 0 () () () 0 0)
16 'rmonth_end' 'daymod' '' 1 ((VARIABLE UNKNOWN-INTENT UNKNOWN-PROC
UNKNOWN IMPLICIT-SAVE 0 0 DIMENSION) (REAL 8 0 0 0 REAL ()) 0 0 () (1 0
EXPLICIT (CONSTANT (INTEGER 4 0 0 0 INTEGER ()) 0 '0') (CONSTANT (
INTEGER 4 0 0 0 INTEGER ()) 0 '13')) 0 () () () 0 0)
17 'rmonth_half' 'daymod' '' 1 ((VARIABLE UNKNOWN-INTENT UNKNOWN-PROC
UNKNOWN IMPLICIT-SAVE 0 0 DIMENSION) (REAL 8 0 0 0 REAL ()) 0 0 () (1 0
EXPLICIT (CONSTANT (INTEGER 4 0 0 0 INTEGER ()) 0 '0') (CONSTANT (
INTEGER 4 0 0 0 INTEGER ()) 0 '13')) 0 () () () 0 0)
18 'rsec_day' 'daymod' '' 1 ((VARIABLE UNKNOWN-INTENT UNKNOWN-PROC
UNKNOWN IMPLICIT-SAVE 0 0) (REAL 8 0 0 0 REAL ()) 0 0 () () 0 () () () 0
0)
19 'rsec_month' 'daymod' '' 1 ((VARIABLE UNKNOWN-INTENT UNKNOWN-PROC
UNKNOWN IMPLICIT-SAVE 0 0) (REAL 8 0 0 0 REAL ()) 0 0 () () 0 () () () 0
0)
20 'rsec_year' 'daymod' '' 1 ((VARIABLE UNKNOWN-INTENT UNKNOWN-PROC
UNKNOWN IMPLICIT-SAVE 0 0) (REAL 8 0 0 0 REAL ()) 0 0 () () 0 () () () 0
0)
21 'sec1jan000' 'daymod' '' 1 ((VARIABLE UNKNOWN-INTENT UNKNOWN-PROC
UNKNOWN IMPLICIT-SAVE 0 0) (REAL 8 0 0 0 REAL ()) 0 0 () () 0 () () () 0
0)
5 'kt' '' '' 4 ((VARIABLE IN UNKNOWN-PROC UNKNOWN UNKNOWN 0 0 DUMMY) (
INTEGER 4 0 0 0 INTEGER ()) 0 0 () () 0 () () () 0 0)
)

('adatrj' 0 2 'day' 0 3 'day_init' 0 6 'nbiss' 0 7 'ndastp' 0 8 'nday' 0
9 'nday_year' 0 10 'nmonth' 0 11 'nmonth_len' 0 12 'nobis' 0 13 'nyear'
0 14 'nyear_len' 0 15 'rmonth_end' 0 16 'rmonth_half' 0 17 'rsec_day' 0
18 'rsec_month' 0 19 'rsec_year' 0 20 'sec1jan000' 0 21)
