GFORTRAN module version '9' created from limtab.F90
MD5:baf82a863b5a3e4d148b57962874b27f -- If you edit this, you'll get what you deserve.

(() () () () () () () () () () () () () () () () () () () () () () ()
() () () ())

()

()

()

()

()

(2 'tab_1d_2d' 'limtab' '' 1 ((PROCEDURE UNKNOWN-INTENT MODULE-PROC DECL
UNKNOWN 0 0 SUBROUTINE IMPLICIT_PURE) (UNKNOWN 0 0 0 0 UNKNOWN ()) 3 0 (
4 5 6 7 8 9) () 0 () () () 0 0)
10 'tab_2d_1d' 'limtab' '' 1 ((PROCEDURE UNKNOWN-INTENT MODULE-PROC DECL
UNKNOWN 0 0 SUBROUTINE IMPLICIT_PURE) (UNKNOWN 0 0 0 0 UNKNOWN ()) 11 0
(12 13 14 15 16 17) () 0 () () () 0 0)
12 'ndim1d' '' '' 11 ((VARIABLE IN UNKNOWN-PROC UNKNOWN UNKNOWN 0 0
DUMMY) (INTEGER 4 0 0 0 INTEGER ()) 0 0 () () 0 () () () 0 0)
13 'tab1d' '' '' 11 ((VARIABLE OUT UNKNOWN-PROC UNKNOWN UNKNOWN 0 0
DIMENSION DUMMY) (REAL 8 0 0 0 REAL ()) 0 0 () (1 0 EXPLICIT (CONSTANT (
INTEGER 4 0 0 0 INTEGER ()) 0 '1') (VARIABLE (INTEGER 4 0 0 0 INTEGER ())
0 12 ())) 0 () () () 0 0)
14 'tab2d' '' '' 11 ((VARIABLE IN UNKNOWN-PROC UNKNOWN UNKNOWN 0 0
DIMENSION DUMMY) (REAL 8 0 0 0 REAL ()) 0 0 () (2 0 EXPLICIT (CONSTANT (
INTEGER 4 0 0 0 INTEGER ()) 0 '1') (VARIABLE (INTEGER 4 0 0 0 INTEGER ())
0 15 ()) (CONSTANT (INTEGER 4 0 0 0 INTEGER ()) 0 '1') (VARIABLE (
INTEGER 4 0 0 0 INTEGER ()) 0 16 ())) 0 () () () 0 0)
15 'ndim2d_x' '' '' 11 ((VARIABLE IN UNKNOWN-PROC UNKNOWN UNKNOWN 0 0
DUMMY) (INTEGER 4 0 0 0 INTEGER ()) 0 0 () () 0 () () () 0 0)
16 'ndim2d_y' '' '' 11 ((VARIABLE IN UNKNOWN-PROC UNKNOWN UNKNOWN 0 0
DUMMY) (INTEGER 4 0 0 0 INTEGER ()) 0 0 () () 0 () () () 0 0)
17 'tab_ind' '' '' 11 ((VARIABLE IN UNKNOWN-PROC UNKNOWN UNKNOWN 0 0
DIMENSION DUMMY) (INTEGER 4 0 0 0 INTEGER ()) 0 0 () (1 0 EXPLICIT (
CONSTANT (INTEGER 4 0 0 0 INTEGER ()) 0 '1') (VARIABLE (INTEGER 4 0 0 0
INTEGER ()) 0 12 ())) 0 () () () 0 0)
5 'tab2d' '' '' 3 ((VARIABLE OUT UNKNOWN-PROC UNKNOWN UNKNOWN 0 0
DIMENSION DUMMY) (REAL 8 0 0 0 REAL ()) 0 0 () (2 0 EXPLICIT (CONSTANT (
INTEGER 4 0 0 0 INTEGER ()) 0 '1') (VARIABLE (INTEGER 4 0 0 0 INTEGER ())
0 8 ()) (CONSTANT (INTEGER 4 0 0 0 INTEGER ()) 0 '1') (VARIABLE (
INTEGER 4 0 0 0 INTEGER ()) 0 9 ())) 0 () () () 0 0)
4 'ndim1d' '' '' 3 ((VARIABLE IN UNKNOWN-PROC UNKNOWN UNKNOWN 0 0 DUMMY)
(INTEGER 4 0 0 0 INTEGER ()) 0 0 () () 0 () () () 0 0)
6 'tab_ind' '' '' 3 ((VARIABLE IN UNKNOWN-PROC UNKNOWN UNKNOWN 0 0
DIMENSION DUMMY) (INTEGER 4 0 0 0 INTEGER ()) 0 0 () (1 0 EXPLICIT (
CONSTANT (INTEGER 4 0 0 0 INTEGER ()) 0 '1') (VARIABLE (INTEGER 4 0 0 0
INTEGER ()) 0 4 ())) 0 () () () 0 0)
7 'tab1d' '' '' 3 ((VARIABLE IN UNKNOWN-PROC UNKNOWN UNKNOWN 0 0
DIMENSION DUMMY) (REAL 8 0 0 0 REAL ()) 0 0 () (1 0 EXPLICIT (CONSTANT (
INTEGER 4 0 0 0 INTEGER ()) 0 '1') (VARIABLE (INTEGER 4 0 0 0 INTEGER ())
0 4 ())) 0 () () () 0 0)
8 'ndim2d_x' '' '' 3 ((VARIABLE IN UNKNOWN-PROC UNKNOWN UNKNOWN 0 0
DUMMY) (INTEGER 4 0 0 0 INTEGER ()) 0 0 () () 0 () () () 0 0)
9 'ndim2d_y' '' '' 3 ((VARIABLE IN UNKNOWN-PROC UNKNOWN UNKNOWN 0 0
DUMMY) (INTEGER 4 0 0 0 INTEGER ()) 0 0 () () 0 () () () 0 0)
)

('tab_1d_2d' 0 2 'tab_2d_1d' 0 10)
