GFORTRAN module version '9' created from limthd_lac.F90
MD5:27ceda49f3c6b8eec934957ba3c28bf5 -- If you edit this, you'll get what you deserve.

(() () () () () () () () () () () () () () () () () () () () () () ()
() () () ())

()

()

()

()

()

(2 'lim_thd_lac' 'limthd_lac' '' 1 ((PROCEDURE UNKNOWN-INTENT
MODULE-PROC DECL UNKNOWN 0 0 SUBROUTINE) (UNKNOWN 0 0 0 0 UNKNOWN ()) 0
0 () () 0 () () () 0 0)
)

('lim_thd_lac' 0 2)
