GFORTRAN module version '9' created from sbcice_lim.F90
MD5:531223f74d6ee08278862bac1e104e09 -- If you edit this, you'll get what you deserve.

(() () () () () () () () () () () () () () () () () () () () () () ()
() () () ())

()

()

()

()

()

(2 'sbc_ice_lim' 'sbcice_lim' '' 1 ((PROCEDURE UNKNOWN-INTENT
MODULE-PROC DECL UNKNOWN 0 0 SUBROUTINE) (UNKNOWN 0 0 0 0 UNKNOWN ()) 3
0 (4) () 0 () () () 0 0)
4 'kt' '' '' 3 ((VARIABLE IN UNKNOWN-PROC UNKNOWN UNKNOWN 0 0 DUMMY) (
INTEGER 4 0 0 0 INTEGER ()) 0 0 () () 0 () () () 0 0)
)

('sbc_ice_lim' 0 2)
