// honeycomb

mm = 1.e-3;
l = 5.51*mm;
lambda = 0.837;
mu = 0.885;
t = 144.8e-3*mm;

lsca  = t;

cp = mu*(2-lambda)*l*Sqrt(3.);
lp = (2-lambda)*l;
lh = lambda*l; 
theta = Acos(cp/2./lp); 

Point(1) = {0,0,0,lsca};
Point(2) = {cp,0,0,lsca};
Point(6) = {cp,2.*lh+2.*lp*Sin(theta),0,lsca};
Point(7) = {0,2*lh+2.*lp*Sin(theta),0,lsca};
Point(9) = {t,0,0,lsca};
Point(10) = {t,lh+t*(Tan(theta)-0.5/Cos(theta)),0,lsca};
Point(11) = {cp/2,lh+lp*Sin(theta)-t*0.5/Cos(theta),0,lsca};
Point(12) = {cp-t,lh+t*(Tan(theta)-0.5/Cos(theta)),0,lsca};
Point(13) = {cp-t,0,0,lsca};
Point(14) = {0,lh+t*0.5/Cos(theta),0,lsca};
Point(15) = {cp/2 -t, lh+lp*Sin(theta)- t*(Tan(theta)-0.5/Cos(theta)), 0, lsca};
Point(16) = {cp,lh+t*0.5/Cos(theta),0,lsca};
Point(17) = {cp/2 +t, lh+lp*Sin(theta)- t*(Tan(theta)-0.5/Cos(theta)), 0, lsca};
Point(18) = {cp/2+t,2*lh+lp*Sin(theta)+t*(Tan(theta)-0.5/Cos(theta)),0,lsca};
Point(19) = {cp/2-t,2*lh+lp*Sin(theta)+t*(Tan(theta)-0.5/Cos(theta)),0,lsca};
Point(20) = {0,2*lh+2.*lp*Sin(theta)-t*0.5/Cos(theta),0,lsca};
Point(21) = {t,2*lh+2.*lp*Sin(theta),0,lsca};
Point(22) = {cp/2,lh+lp*Sin(theta)+lh+t*0.5/Cos(theta),0,lsca};
Point(23) = {cp-t,2.*lh+2.*lp*Sin(theta),0,lsca};
Point(24) = {cp,2.*lh+2.*lp*Sin(theta)-t*0.5/Cos(theta),0,lsca};

Line(1) = {1, 9};
Line(2) = {9, 10};
Line(3) = {1, 14};
Line(4) = {10, 11};
Line(5) = {14, 15};
Line(6) = {17, 16};
Line(7) = {11, 12};
Line(9) = {12, 13};
Line(10) = {2, 16};
Line(11) = {2, 13};
Line(12) = {19, 15};
Line(13) = {17, 18};
Line(14) = {18, 24};
Line(15) = {24, 6};
Line(16) = {6, 23};
Line(17) = {23, 22};
Line(18) = {22, 21};
Line(19) = {21, 7};
Line(20) = {7, 20};
Line(21) = {20, 19};
Line(22) = {19, 22};
Line(23) = {22, 18};
Line(24) = {18, 19};
Line(25) = {20, 21};
Line(26) = {23, 24};
Line(27) = {15, 17};
Line(28) = {17, 11};
Line(29) = {11, 15};
Line(30) = {14, 10};
Line(31) = {12, 16};
Line Loop(32) = {2, -30, -3, 1};
Plane Surface(33) = {32};
Line Loop(34) = {30, 4, 29, -5};
Plane Surface(35) = {34};
Line Loop(36) = {28, 7, 31, -6};
Plane Surface(37) = {36};
Line Loop(38) = {10, -31, 9, -11};
Plane Surface(39) = {38};
Line Loop(40) = {28, 29, 27};
Plane Surface(41) = {40};
Line Loop(42) = {13, 24, 12, 27};
Plane Surface(43) = {42};
Line Loop(44) = {23, 24, 22};
Plane Surface(45) = {44};
Line Loop(46) = {14, -26, 17, 23};
Plane Surface(47) = {46};
Line Loop(48) = {16, 26, 15};
Plane Surface(49) = {48};
Line Loop(50) = {18, -25, 21, 22};
Plane Surface(51) = {50};
Line Loop(52) = {19, 20, 25};
Plane Surface(53) = {52};


Printf("Large B =  %f",cp);
Printf("Height H = %f",2*lh+2.*lp*Sin(theta));
Translate {cp, 0, 0} {
  Duplicata { Surface{33, 35, 37, 39, 41, 43, 45, 47, 49, 51, 53}; }
}
Translate {2*cp, 0, 0} {
  Duplicata { Surface{33, 35, 37, 39, 41, 43, 45, 47, 49, 51, 53}; }
}
Translate {3*cp, 0, 0} {
  Duplicata { Surface{33, 35, 37, 39, 41, 43, 45, 47, 49, 51, 53}; }
}
Translate {4*cp, 0, 0} {
  Duplicata { Surface{33, 35, 37, 39, 41, 43, 45, 47, 49, 51, 53}; }
}
Translate {5*cp, 0, 0} {
  Duplicata { Surface{33, 35, 37, 39, 41, 43, 45, 47, 49, 51, 53}; }
}
Translate {6*cp, 0, 0} {
  Duplicata { Surface{33, 35, 37, 39, 41, 43, 45, 47, 49, 51, 53}; }
}

Translate {7*cp, 0, 0} {
  Duplicata { Surface{33, 35, 37, 39, 41, 43, 45, 47, 49, 51, 53}; }
}
Translate {8*cp, 0, 0} {
  Duplicata { Surface{33, 35, 37, 39, 41, 43, 45, 47, 49, 51, 53}; }
}
Translate {9*cp, 0, 0} {
  Duplicata { Surface{33, 35, 37, 39, 41, 43, 45, 47, 49, 51, 53}; }
}
H = 2*lh+2.*lp*Sin(theta);
Translate {0, H, 0} {
  Duplicata { Surface{33, 35, 41, 37, 39, 54, 53, 51, 43, 45, 59, 47, 74, 64, 69, 103, 49, 101, 96, 78, 83, 108, 87, 123, 113, 118, 152, 92, 150, 145, 127, 132, 157, 136, 172, 162, 167, 201, 141, 199, 194, 176, 181, 206, 185, 221, 211, 216, 250, 190, 248, 243, 225, 230, 255, 234, 270, 260, 265, 299, 239, 297, 292, 274, 279, 304, 283, 319, 309, 314, 348, 288, 346, 341, 323, 328, 353, 332, 368, 358, 363, 397, 337, 395, 390, 372, 377, 402, 381, 417, 407, 412, 446, 386, 444, 439, 421, 426, 451, 430, 466, 456, 461, 435, 493, 488, 470, 475, 479, 484}; }
}
Translate {0,2*H, 0} {
  Duplicata { Surface{33, 35, 41, 37, 39, 54, 53, 51, 43, 45, 59, 47, 74, 64, 69, 103, 49, 101, 96, 78, 83, 108, 87, 123, 113, 118, 152, 92, 150, 145, 127, 132, 157, 136, 172, 162, 167, 201, 141, 199, 194, 176, 181, 206, 185, 221, 211, 216, 250, 190, 248, 243, 225, 230, 255, 234, 270, 260, 265, 299, 239, 297, 292, 274, 279, 304, 283, 319, 309, 314, 348, 288, 346, 341, 323, 328, 353, 332, 368, 358, 363, 397, 337, 395, 390, 372, 377, 402, 381, 417, 407, 412, 446, 386, 444, 439, 421, 426, 451, 430, 466, 456, 461, 435, 493, 488, 470, 475, 479, 484}; }
}
Translate {0,3*H, 0} {
  Duplicata { Surface{33, 35, 41, 37, 39, 54, 53, 51, 43, 45, 59, 47, 74, 64, 69, 103, 49, 101, 96, 78, 83, 108, 87, 123, 113, 118, 152, 92, 150, 145, 127, 132, 157, 136, 172, 162, 167, 201, 141, 199, 194, 176, 181, 206, 185, 221, 211, 216, 250, 190, 248, 243, 225, 230, 255, 234, 270, 260, 265, 299, 239, 297, 292, 274, 279, 304, 283, 319, 309, 314, 348, 288, 346, 341, 323, 328, 353, 332, 368, 358, 363, 397, 337, 395, 390, 372, 377, 402, 381, 417, 407, 412, 446, 386, 444, 439, 421, 426, 451, 430, 466, 456, 461, 435, 493, 488, 470, 475, 479, 484}; }
}
Translate {0,4*H, 0} {
  Duplicata { Surface{33, 35, 41, 37, 39, 54, 53, 51, 43, 45, 59, 47, 74, 64, 69, 103, 49, 101, 96, 78, 83, 108, 87, 123, 113, 118, 152, 92, 150, 145, 127, 132, 157, 136, 172, 162, 167, 201, 141, 199, 194, 176, 181, 206, 185, 221, 211, 216, 250, 190, 248, 243, 225, 230, 255, 234, 270, 260, 265, 299, 239, 297, 292, 274, 279, 304, 283, 319, 309, 314, 348, 288, 346, 341, 323, 328, 353, 332, 368, 358, 363, 397, 337, 395, 390, 372, 377, 402, 381, 417, 407, 412, 446, 386, 444, 439, 421, 426, 451, 430, 466, 456, 461, 435, 493, 488, 470, 475, 479, 484}; }
}
Translate {0, 5*H, 0} {
  Duplicata { Surface{33, 35, 41, 37, 39, 54, 53, 51, 43, 45, 59, 47, 74, 64, 69, 103, 49, 101, 96, 78, 83, 108, 87, 123, 113, 118, 152, 92, 150, 145, 127, 132, 157, 136, 172, 162, 167, 201, 141, 199, 194, 176, 181, 206, 185, 221, 211, 216, 250, 190, 248, 243, 225, 230, 255, 234, 270, 260, 265, 299, 239, 297, 292, 274, 279, 304, 283, 319, 309, 314, 348, 288, 346, 341, 323, 328, 353, 332, 368, 358, 363, 397, 337, 395, 390, 372, 377, 402, 381, 417, 407, 412, 446, 386, 444, 439, 421, 426, 451, 430, 466, 456, 461, 435, 493, 488, 470, 475, 479, 484}; }
}
Translate {0,6*H, 0} {
  Duplicata { Surface{33, 35, 41, 37, 39, 54, 53, 51, 43, 45, 59, 47, 74, 64, 69, 103, 49, 101, 96, 78, 83, 108, 87, 123, 113, 118, 152, 92, 150, 145, 127, 132, 157, 136, 172, 162, 167, 201, 141, 199, 194, 176, 181, 206, 185, 221, 211, 216, 250, 190, 248, 243, 225, 230, 255, 234, 270, 260, 265, 299, 239, 297, 292, 274, 279, 304, 283, 319, 309, 314, 348, 288, 346, 341, 323, 328, 353, 332, 368, 358, 363, 397, 337, 395, 390, 372, 377, 402, 381, 417, 407, 412, 446, 386, 444, 439, 421, 426, 451, 430, 466, 456, 461, 435, 493, 488, 470, 475, 479, 484}; }
}


Translate {0, 7*H, 0} {
  Duplicata { Surface{461, 456, 451, 446, 412, 407, 402, 397, 363, 358, 353, 348, 314, 309, 304, 299, 265, 260, 255, 250, 216, 211, 206, 201, 167, 162, 157, 152, 118, 113, 108, 103, 69, 64, 59, 54, 39, 37, 35, 33, 41, 74, 123, 172, 221, 270, 319, 368, 417, 466}; }
}
Translate {0, -7*H, 0} {
  Duplicata { Surface{3074, 3078, 3097, 3121, 3125, 3129, 3148, 3172, 3176, 3180, 3199, 3223, 3227, 3231, 3250, 3274, 3278, 3282, 3301, 3325, 3329, 3333, 3352, 3376, 3380, 3384, 3403, 3427, 3431, 3435, 3454, 3478, 3482, 3486, 3505, 3524, 3528, 3532, 3546, 3551, 3088, 3139, 3190, 3241, 3292, 3343, 3394, 3445, 3496, 3542}; }
}
Physical Surface(4014) = {3795, 3799, 33, 3975, 35, 3804, 53, 41, 51, 495, 3809, 3813, 37, 43, 45, 3817, 39, 54, 500, 3979, 47, 524, 59, 505, 528, 1005, 3822, 49, 101, 509, 533, 538, 74, 96, 514, 519, 1010, 3827, 3831, 64, 78, 83, 547, 3835, 1034, 69, 103, 542, 1015, 3983, 1038, 1515, 87, 571, 575, 1019, 1043, 1048, 108, 552, 579, 1024, 1029, 3840, 1520, 92, 150, 556, 584, 589, 1057, 123, 145, 1544, 561, 566, 1052, 3845, 3849, 113, 1525, 127, 132, 1548, 2025, 598, 3853, 1081, 1085, 118, 152, 1529, 1553, 1558, 593, 1062, 3987, 1089, 1534, 1539, 136, 2030, 622, 626, 1066, 1094, 1099, 157, 1567, 603, 630, 2054, 1071, 1076, 3858, 1562, 141, 199, 607, 2035, 635, 640, 2058, 2535, 1108, 172, 1591, 194, 1595, 612, 617, 2039, 2063, 2068, 1103, 3863, 3867, 162, 1572, 176, 181, 1599, 2044, 2049, 649, 2540, 1132, 3871, 1136, 167, 201, 1576, 1604, 1609, 644, 2077, 1113, 3991, 1140, 2564, 1581, 1586, 185, 2072, 673, 677, 1117, 2545, 1145, 1150, 2568, 206, 3045, 1618, 654, 2101, 681, 2105, 1122, 1127, 2549, 3876, 2573, 2578, 1613, 190, 248, 658, 2082, 686, 691, 2109, 2554, 2559, 1159, 221, 3050, 1642, 243, 1646, 663, 668, 2086, 2114, 2119, 1154, 3881, 3885, 2587, 211, 1623, 225, 230, 1650, 3074, 2091, 2096, 700, 2582, 1183, 3889, 1187, 216, 250, 1627, 3055, 1655, 1660, 3078, 695, 3750, 2128, 1164, 3995, 2611, 1191, 2615, 1632, 1637, 3059, 234, 3083, 3088, 2123, 724, 728, 1168, 2592, 1196, 1201, 2619, 3064, 255, 3069, 1669, 705, 3745, 2152, 732, 2156, 1173, 1178, 2596, 3894, 2624, 2629, 1664, 239, 297, 3097, 709, 2133, 737, 742, 2160, 2601, 2606, 1210, 270, 3092, 1693, 292, 1697, 714, 719, 2137, 3755, 2165, 2170, 1205, 3899, 3903, 2638, 260, 1674, 274, 279, 3121, 1701, 3125, 2142, 2147, 3740, 751, 2633, 1234, 3907, 1238, 265, 299, 1678, 3102, 1706, 1711, 3129, 3735, 746, 3730, 2179, 1215, 3999, 2662, 1242, 2666, 1683, 1688, 3106, 283, 3134, 3139, 2174, 775, 779, 1219, 2643, 1247, 1252, 2670, 3111, 304, 3116, 1720, 756, 3725, 2203, 783, 2207, 1224, 1229, 2647, 3912, 2675, 2680, 1715, 288, 346, 3148, 760, 2184, 788, 793, 2211, 2652, 2657, 1261, 319, 3143, 1744, 341, 1748, 765, 770, 2188, 3759, 2216, 2221, 1256, 3917, 3921, 2689, 309, 1725, 323, 328, 3172, 1752, 3176, 2193, 2198, 3720, 802, 2684, 3925, 1285, 1289, 314, 348, 1729, 3153, 1757, 1762, 3180, 3715, 797, 3710, 2230, 1266, 4003, 2713, 1293, 2717, 1734, 1739, 3157, 332, 3185, 3190, 2225, 826, 830, 1270, 2694, 1298, 1303, 2721, 3162, 353, 3167, 1771, 807, 3705, 2254, 834, 2258, 1275, 1280, 2698, 3930, 2726, 2731, 1766, 337, 395, 3199, 811, 2235, 839, 844, 2262, 2703, 2708, 1312, 368, 3194, 1795, 390, 1799, 816, 821, 2239, 3763, 2267, 2272, 1307, 3935, 3939, 2740, 358, 1776, 372, 377, 3223, 1803, 3227, 2244, 2249, 3700, 853, 2735, 1336, 3943, 1340, 363, 397, 1780, 3204, 1808, 1813, 3231, 3695, 848, 3690, 2281, 1317, 4007, 1344, 2764, 2768, 1785, 1790, 3208, 381, 3236, 3241, 2276, 877, 881, 1321, 2745, 1349, 1354, 2772, 3213, 402, 3218, 1822, 858, 3685, 2305, 885, 2309, 1326, 1331, 2749, 3948, 2777, 2782, 1817, 386, 444, 3250, 862, 2286, 890, 895, 2313, 2754, 2759, 1363, 417, 3245, 1846, 439, 1850, 867, 872, 2290, 3767, 2318, 2323, 1358, 3953, 3957, 2791, 407, 1827, 421, 426, 3274, 1854, 3278, 2295, 2300, 3680, 904, 2786, 1387, 3961, 1391, 412, 446, 1831, 3255, 1859, 1864, 3282, 3675, 899, 3670, 2332, 1368, 4011, 2815, 1395, 2819, 1836, 1841, 3259, 430, 3287, 3292, 2327, 928, 932, 1372, 2796, 1400, 1405, 2823, 3264, 451, 3269, 1873, 909, 3665, 2356, 936, 2360, 1377, 1382, 2800, 3966, 2828, 2833, 1868, 435, 493, 3301, 913, 2337, 941, 946, 2364, 2805, 2810, 1414, 466, 3296, 1897, 488, 1901, 918, 923, 2341, 3771, 2369, 2374, 1409, 3971, 2842, 456, 1878, 470, 475, 1905, 3325, 3329, 2346, 2351, 3660, 955, 2837, 1438, 1442, 461, 1882, 3306, 1910, 1915, 3333, 3655, 950, 3650, 2383, 1419, 2866, 1446, 2870, 1887, 1892, 3310, 479, 3338, 3343, 2378, 974, 978, 1423, 2847, 1451, 1456, 2874, 3315, 3320, 1924, 960, 3645, 2407, 982, 2411, 1428, 1433, 2851, 2879, 2884, 1919, 484, 3352, 964, 2388, 987, 992, 2415, 2856, 2861, 1465, 3347, 1948, 1952, 969, 2392, 3775, 2420, 2425, 1460, 2893, 1929, 3376, 1956, 3380, 2397, 2402, 3640, 996, 2888, 1484, 1488, 1933, 3357, 1961, 1966, 3384, 3635, 3630, 2434, 1470, 2917, 1492, 2921, 1938, 1943, 3361, 3389, 3394, 2429, 1001, 1474, 2898, 1497, 1502, 2925, 3366, 3371, 1975, 3625, 2458, 2462, 1479, 2902, 2930, 2935, 1970, 3403, 2439, 2466, 2907, 2912, 1506, 3398, 1994, 1998, 2443, 3779, 2471, 2476, 2944, 1980, 3427, 2002, 3431, 2448, 2453, 3620, 2939, 1511, 1984, 3408, 2007, 2012, 3435, 3615, 3610, 2485, 2968, 2972, 1989, 3412, 3440, 3445, 2480, 2949, 2976, 3417, 3422, 2016, 3605, 2504, 2508, 2953, 2981, 2986, 3454, 2490, 2512, 2958, 2963, 3449, 2021, 2494, 3783, 2517, 2522, 2995, 3478, 3482, 2499, 3600, 2990, 3459, 3486, 3595, 3590, 2526, 3014, 3018, 3463, 3491, 3496, 3000, 3022, 3468, 3473, 3585, 2531, 3004, 3027, 3032, 3505, 3009, 3500, 3787, 3036, 3524, 3528, 3580, 3510, 3532, 3575, 3570, 3041, 3514, 3537, 3542, 3519, 3565, 3546, 3791, 3551, 3560, 3555};
Physical Line(4015) = {3977, 3981, 3985, 3989, 3993, 3997, 4001, 4005, 4009, 4013};
Physical Line(4016) = {462, 3974, 970, 487, 1004, 1480, 1514, 1990, 2024, 2500, 2534, 3010, 3044, 3520, 3554, 3556};
Physical Line(4017) = {3794, 3790, 3786, 3782, 3778, 3774, 3770, 3766, 3762, 3758};
Physical Line(4018) = {3753, 3076, 3048, 2566, 2538, 2056, 2028, 1546, 1518, 1036, 1008, 526, 498, 20, 3, 3797};
Physical Point(4019) = {11404};
Physical Point(4020) = {11382};
