Mesh.Algorithm=6;
Mesh.CharacteristicLengthFromCurvature = 1;
lc = 1.5e-2;
Point(newp) ={ 1.00000, 0.0,0,lc};
Point(newp) ={ 0.99681, 0.00031,0,lc};
Point(newp) ={ 0.98745, 0.00132,0,lc};
Point(newp) ={ 0.97235, 0.00310,0,lc};
Point(newp) ={ 0.95193, 0.00547,0,lc};
Point(newp) ={ 0.92639, 0.00824,0,lc};
Point(newp) ={ 0.89600, 0.01139,0,lc};
Point(newp) ={ 0.86112, 0.01494,0,lc};
Point(newp) ={ 0.82224, 0.01884,0,lc};
Point(newp) ={ 0.77985, 0.02304,0,lc};
Point(newp) ={ 0.73449, 0.02744,0,lc};
Point(newp) ={ 0.68673, 0.03197,0,lc};
Point(newp) ={ 0.63717, 0.03649,0,lc};
Point(newp) ={ 0.58641, 0.04086,0,lc};
Point(newp) ={ 0.53499, 0.04494,0,lc};
Point(newp) ={ 0.48350, 0.04859,0,lc};
Point(newp) ={ 0.43249, 0.05171,0,lc};
Point(newp) ={ 0.38250, 0.05415,0,lc};
Point(newp) ={ 0.33405, 0.05581,0,lc};
Point(newp) ={ 0.28760, 0.05658,0,lc};
Point(newp) ={ 0.24358, 0.05639,0,lc};
Point(newp) ={ 0.20240, 0.05518,0,lc};
Point(newp) ={ 0.16442, 0.05292,0,lc};
Point(newp) ={ 0.12993, 0.04961,0,lc};
Point(newp) ={ 0.09921, 0.04526,0,lc};
Point(newp) ={ 0.07244, 0.03993,0,lc};
Point(newp) ={ 0.04978, 0.03372,0,lc};
Point(newp) ={ 0.03130, 0.02677,0,lc};
Point(newp) ={ 0.01702, 0.01932,0,lc};
Point(newp) ={ 0.00697, 0.01172,0,lc};
Point(newp) ={ 0.00127, 0.00438,0,lc};
Point(newp) ={ 0.00025, -0.00186,0,lc};
Point(newp) ={ 0.00457, -0.00741,0,lc};
Point(newp) ={ 0.01408, -0.01285,0,lc};
Point(newp) ={ 0.02839, -0.01759,0,lc};
Point(newp) ={ 0.04763, -0.02141,0,lc};
Point(newp) ={ 0.07182, -0.02438,0,lc};
Point(newp) ={ 0.10073, -0.02660,0,lc};
Point(newp) ={ 0.13407, -0.02809,0,lc};
Point(newp) ={ 0.17150, -0.02888,0,lc};
Point(newp) ={ 0.21268, -0.02900,0,lc};
Point(newp) ={ 0.25719, -0.02852,0,lc};
Point(newp) ={ 0.30456, -0.02752,0,lc};
Point(newp) ={ 0.35426, -0.02608,0,lc};
Point(newp) ={ 0.40572, -0.02428,0,lc};
Point(newp) ={ 0.45837, -0.02217,0,lc};
Point(newp) ={ 0.51161, -0.01980,0,lc};
Point(newp) ={ 0.56484, -0.01723,0,lc};
Point(newp) ={ 0.61748, -0.01450,0,lc};
Point(newp) ={ 0.66898, -0.01167,0,lc};
Point(newp) ={ 0.71883, -0.00887,0,lc};
Point(newp) ={ 0.76644, -0.00628,0,lc};
Point(newp) ={ 0.81118, -0.00403,0,lc};
Point(newp) ={ 0.85241, -0.00220,0,lc};
Point(newp) ={ 0.88957, -0.00082,0,lc};
Point(newp) ={ 0.92210, 0.00008,0,lc};
Point(newp) ={ 0.94952, 0.00052,0,lc};
Point(newp) ={ 0.97134, 0.00057,0,lc};
Point(newp) ={ 0.98718, 0.00037,0,lc};
Point(newp) ={ 0.99679, 0.00011,0,lc};
Point(newp) ={ 1.00001, -0.00000,0,lc};

Spline(1) = {1 ...  38};
Spline(2) = {38 ... 60,1};

lc2 = 10*lc;
L = 4;
H = 2;

Point(newp) = {-.5*L,-H,0,lc2};
Point(newp) = {2*L,-H,0,lc2};
Point(newp) = {2*L,H,0,lc2};
Point(newp) = {-.5*L,H,0,lc2};Line(3) = {65, 64};
Line(4) = {64, 63};
Line(5) = {63, 62};
Line(6) = {62, 65};

Rotate {{0, 0, 1}, {0, 0, 0}, -Pi/6} {
  Line{1, 2};
}

Line Loop(7) = {3, 4, 5, 6};
Line Loop(8) = {2, 1};
//Plane Surface(9) = {7, 8};

Field[1] = BoundaryLayer;
Field[1].EdgesList = {1, 2};
Field[1].NodesList = {1};
Field[1].Quads = 0;
Field[1].hfar = lc;
Field[1].hwall_n = 0.001;
Field[1].hwall_t = lc;
Field[1].ratio = 1.4;
Field[1].thickness = lc;
BoundaryLayer Field = 1;
Field[1].fan_angle = 40;
Mesh.MinimumCirclePoints = 30;


Point (newp) = {-L/10,0,0,lc};
Point (newp) = {-L/10+0.5*L*Cos(Pi/6),L*.5*Sin(Pi/6),0,lc};
Point (newp) = {-L/10+0.5*L*Cos(Pi/6),-L*.5*Sin(Pi/6),0,lc};
Point (newp) = {-L/10+0.95*L*Cos(Pi/6),L*.95*Sin(Pi/6),0,lc*2.5};
Point (newp) = {-L/10+0.95*L*Cos(Pi/6),-L*.95*Sin(Pi/6),0,lc*2.5};
Line(10) = {66, 67};
Line(11) = {67, 68};
Line(12) = {68, 66};
Line(13) = {67, 69};
Line(14) = {69, 70};
Line(15) = {70, 68};

//Line {10 ... 15} In Surface {9};
Line Loop(16) = {10, 11, 12};
Plane Surface(17) = {8, 16};
Line Loop(18) = {13, 14, 15, -11};
Plane Surface(19) = {18};
Line Loop(20) = {13, 14, 15, 12, 10};
Plane Surface(21) = {7, 20};
Physical Line("Lateral") = {3, 5};
Physical Line("Box") = {6, 4};
Physical Line("Airfoil") = {2, 1};
Physical Surface("Air") = {21, 19, 17};
