%!PS-Adobe-2.0 EPSF-1.2
%%Creator: MATLAB, The Mathworks, Inc. Version 7.6.0.324 (R2008a). Operating System: Linux 3.5.0-37-generic #58~precise1-Ubuntu SMP Wed Jul 10 17:48:11 UTC 2013 x86_64.
%%Title: ./detQ.eps
%%CreationDate: 08/01/2013  13:36:34
%%DocumentNeededFonts: Helvetica
%%DocumentProcessColors: Cyan Magenta Yellow Black
%%Pages: 1
%%BoundingBox:    33   187   547   607
%%EndComments

%%BeginProlog
% MathWorks dictionary
/MathWorks 160 dict begin
% definition operators
/bdef {bind def} bind def
/ldef {load def} bind def
/xdef {exch def} bdef
/xstore {exch store} bdef
% operator abbreviations
/c  /clip ldef
/cc /concat ldef
/cp /closepath ldef
/gr /grestore ldef
/gs /gsave ldef
/mt /moveto ldef
/np /newpath ldef
/cm /currentmatrix ldef
/sm /setmatrix ldef
/rm /rmoveto ldef
/rl /rlineto ldef
/s {show newpath} bdef
/sc {setcmykcolor} bdef
/sr /setrgbcolor ldef
/sg /setgray ldef
/w /setlinewidth ldef
/j /setlinejoin ldef
/cap /setlinecap ldef
/rc {rectclip} bdef
/rf {rectfill} bdef
% page state control
/pgsv () def
/bpage {/pgsv save def} bdef
/epage {pgsv restore} bdef
/bplot /gsave ldef
/eplot {stroke grestore} bdef
% orientation switch
/portraitMode 0 def /landscapeMode 1 def /rotateMode 2 def
% coordinate system mappings
/dpi2point 0 def
% font control
/FontSize 0 def
/FMS {/FontSize xstore findfont [FontSize 0 0 FontSize neg 0 0]
  makefont setfont} bdef
/reencode {exch dup where {pop load} {pop StandardEncoding} ifelse
  exch dup 3 1 roll findfont dup length dict begin
  { 1 index /FID ne {def}{pop pop} ifelse } forall
  /Encoding exch def currentdict end definefont pop} bdef
/isroman {findfont /CharStrings get /Agrave known} bdef
/FMSR {3 1 roll 1 index dup isroman {reencode} {pop pop} ifelse
  exch FMS} bdef
/csm {1 dpi2point div -1 dpi2point div scale neg translate
 dup landscapeMode eq {pop -90 rotate}
  {rotateMode eq {90 rotate} if} ifelse} bdef
% line types: solid, dotted, dashed, dotdash
/SO { [] 0 setdash } bdef
/DO { [.5 dpi2point mul 4 dpi2point mul] 0 setdash } bdef
/DA { [6 dpi2point mul] 0 setdash } bdef
/DD { [.5 dpi2point mul 4 dpi2point mul 6 dpi2point mul 4
  dpi2point mul] 0 setdash } bdef
% macros for lines and objects
/L {lineto stroke} bdef
/MP {3 1 roll moveto 1 sub {rlineto} repeat} bdef
/AP {{rlineto} repeat} bdef
/PDlw -1 def
/W {/PDlw currentlinewidth def setlinewidth} def
/PP {closepath eofill} bdef
/DP {closepath stroke} bdef
/MR {4 -2 roll moveto dup  0 exch rlineto exch 0 rlineto
  neg 0 exch rlineto closepath} bdef
/FR {MR stroke} bdef
/PR {MR fill} bdef
/L1i {{currentfile picstr readhexstring pop} image} bdef
/tMatrix matrix def
/MakeOval {newpath tMatrix currentmatrix pop translate scale
0 0 1 0 360 arc tMatrix setmatrix} bdef
/FO {MakeOval stroke} bdef
/PO {MakeOval fill} bdef
/PD {currentlinewidth 2 div 0 360 arc fill
   PDlw -1 eq not {PDlw w /PDlw -1 def} if} def
/FA {newpath tMatrix currentmatrix pop translate scale
  0 0 1 5 -2 roll arc tMatrix setmatrix stroke} bdef
/PA {newpath tMatrix currentmatrix pop	translate 0 0 moveto scale
  0 0 1 5 -2 roll arc closepath tMatrix setmatrix fill} bdef
/FAn {newpath tMatrix currentmatrix pop translate scale
  0 0 1 5 -2 roll arcn tMatrix setmatrix stroke} bdef
/PAn {newpath tMatrix currentmatrix pop translate 0 0 moveto scale
  0 0 1 5 -2 roll arcn closepath tMatrix setmatrix fill} bdef
/vradius 0 def /hradius 0 def /lry 0 def
/lrx 0 def /uly 0 def /ulx 0 def /rad 0 def
/MRR {/vradius xdef /hradius xdef /lry xdef /lrx xdef /uly xdef
  /ulx xdef newpath tMatrix currentmatrix pop ulx hradius add uly
  vradius add translate hradius vradius scale 0 0 1 180 270 arc 
  tMatrix setmatrix lrx hradius sub uly vradius add translate
  hradius vradius scale 0 0 1 270 360 arc tMatrix setmatrix
  lrx hradius sub lry vradius sub translate hradius vradius scale
  0 0 1 0 90 arc tMatrix setmatrix ulx hradius add lry vradius sub
  translate hradius vradius scale 0 0 1 90 180 arc tMatrix setmatrix
  closepath} bdef
/FRR {MRR stroke } bdef
/PRR {MRR fill } bdef
/MlrRR {/lry xdef /lrx xdef /uly xdef /ulx xdef /rad lry uly sub 2 div def
  newpath tMatrix currentmatrix pop ulx rad add uly rad add translate
  rad rad scale 0 0 1 90 270 arc tMatrix setmatrix lrx rad sub lry rad
  sub translate rad rad scale 0 0 1 270 90 arc tMatrix setmatrix
  closepath} bdef
/FlrRR {MlrRR stroke } bdef
/PlrRR {MlrRR fill } bdef
/MtbRR {/lry xdef /lrx xdef /uly xdef /ulx xdef /rad lrx ulx sub 2 div def
  newpath tMatrix currentmatrix pop ulx rad add uly rad add translate
  rad rad scale 0 0 1 180 360 arc tMatrix setmatrix lrx rad sub lry rad
  sub translate rad rad scale 0 0 1 0 180 arc tMatrix setmatrix
  closepath} bdef
/FtbRR {MtbRR stroke } bdef
/PtbRR {MtbRR fill } bdef
/stri 6 array def /dtri 6 array def
/smat 6 array def /dmat 6 array def
/tmat1 6 array def /tmat2 6 array def /dif 3 array def
/asub {/ind2 exch def /ind1 exch def dup dup
  ind1 get exch ind2 get sub exch } bdef
/tri_to_matrix {
  2 0 asub 3 1 asub 4 0 asub 5 1 asub
  dup 0 get exch 1 get 7 -1 roll astore } bdef
/compute_transform {
  dmat dtri tri_to_matrix tmat1 invertmatrix 
  smat stri tri_to_matrix tmat2 concatmatrix } bdef
/ds {stri astore pop} bdef
/dt {dtri astore pop} bdef
/db {2 copy /cols xdef /rows xdef mul dup string
  currentfile exch readhexstring pop
  /bmap xdef pop pop} bdef
/it {gs np dtri aload pop moveto lineto lineto cp c
  cols rows 8 compute_transform 
  {bmap} image gr}bdef
/il {newpath moveto lineto stroke}bdef
currentdict end def
%%EndProlog

%%BeginSetup
MathWorks begin

0 cap

end
%%EndSetup

%%Page: 1 1
%%BeginPageSetup
%%PageBoundingBox:    33   187   547   607
MathWorks begin
bpage
%%EndPageSetup

%%BeginObject: obj1
bplot

/dpi2point 12 def
portraitMode 0216 7344 csm

  184    49  6173  5046 MR c np
85 dict begin %Colortable dictionary
/c0 { 0.000000 0.000000 0.000000 sr} bdef
/c1 { 1.000000 1.000000 1.000000 sr} bdef
/c2 { 0.900000 0.000000 0.000000 sr} bdef
/c3 { 0.000000 0.820000 0.000000 sr} bdef
/c4 { 0.000000 0.000000 0.800000 sr} bdef
/c5 { 0.910000 0.820000 0.320000 sr} bdef
/c6 { 1.000000 0.260000 0.820000 sr} bdef
/c7 { 0.000000 0.820000 0.820000 sr} bdef
c0
1 j
1 sg
   0    0 6913 5186 PR
6 w
0 4226 5356 0 0 -4226 899 4615 4 MP
PP
-5356 0 0 4226 5356 0 0 -4226 899 4615 5 MP stroke
4 w
DO
SO
6 w
0 sg
 899 4615 mt 6255 4615 L
 899 4615 mt  899  389 L
 899 4615 mt  899 4561 L
%%IncludeResource: font Helvetica
/Helvetica /ISOLatin1Encoding 192 FMSR

 846 4827 mt 
(0) s
1664 4615 mt 1664 4561 L
1611 4827 mt 
(1) s
2429 4615 mt 2429 4561 L
2376 4827 mt 
(2) s
3194 4615 mt 3194 4561 L
3141 4827 mt 
(3) s
3959 4615 mt 3959 4561 L
3906 4827 mt 
(4) s
4724 4615 mt 4724 4561 L
4671 4827 mt 
(5) s
5489 4615 mt 5489 4561 L
5436 4827 mt 
(6) s
6255 4615 mt 6255 4561 L
6202 4827 mt 
(7) s
 899 4615 mt  952 4615 L
 646 4686 mt 
(-2) s
 899 4011 mt  952 4011 L
 485 4082 mt 
(-1.5) s
 899 3407 mt  952 3407 L
 646 3478 mt 
(-1) s
 899 2803 mt  952 2803 L
 485 2874 mt 
(-0.5) s
 899 2200 mt  952 2200 L
 758 2271 mt 
(0) s
 899 1596 mt  952 1596 L
 598 1667 mt 
(0.5) s
 899  992 mt  952  992 L
 758 1063 mt 
(1) s
 899  389 mt  952  389 L
 598  460 mt 
(1.5) s
 899  335 mt 
(x 10) s
%%IncludeResource: font Helvetica
/Helvetica /ISOLatin1Encoding 128 FMSR

1261  216 mt 
(5) s
gs 899 389 5357 4227 MR c np
DA
18 w
24 0 24 0 24 0 25 -1 24 -1 24 -1 24 -2 24 -1 
24 -2 25 -2 24 -3 24 -2 24 -2 24 -3 24 -2 25 -3 
24 -2 24 -2 24 -2 24 -2 24 -2 24 -1 25 -1 24 -1 
24 0 24 -1 24 0 24 1 25 0 24 1 24 1 24 2 
24 2 24 1 25 2 24 2 24 3 24 2 24 2 24 2 
24 2 25 2 24 2 24 2 24 2 24 1 24 1 25 1 
24 0 24 1 24 0 24 -1 24 0 25 -1 24 -2 24 -1 
24 -2 24 -1 24 -3 24 -2 25 -2 24 -2 24 -3 24 -2 
24 -2 24 -3 25 -2 24 -2 24 -2 24 -1 24 -1 24 -2 
25 0 24 -1 24 0 24 0 24 1 24 0 24 1 25 2 
24 1 24 2 24 2 24 2 24 3 25 2 24 3 24 2 
24 3 24 3 24 2 25 2 24 3 24 2 24 1 24 2 
24 1 24 1 25 1 3314 737 100 MP stroke
24 0 24 0 24 0 24 0 24 -1 25 -1 24 -2 24 -1 
24 -2 24 -2 24 -3 25 -2 24 -2 24 -3 24 -2 24 -3 
24 -2 25 -2 24 -2 24 -2 24 -2 24 -1 24 -2 24 -1 
25 0 24 -1 24 0 24 1 24 0 24 1 25 1 24 1 
24 2 24 1 24 2 24 2 25 2 24 3 24 2 24 2 
24 2 24 2 24 2 25 2 24 2 24 1 24 2 24 0 
24 1 25 1 24 0 24 -1 24 0 24 -1 24 -1 25 -1 
24 -2 24 -2 24 -1 24 -3 24 -2 24 -2 25 -3 24 -2 
24 -2 24 -3 24 -2 24 -2 25 -2 24 -1 24 -2 24 -1 
24 -1 24 -1 25 0 24 0 24 0 24 1 24 1 24 1 
24 2 25 1 24 2 24 2 24 3 24 2 24 3 25 2 
24 3 24 2 24 3 24 2 24 2 25 3 24 1 24 2 
24 2 24 1 24 1 923 737 100 MP stroke
24 0 899 737 2 MP stroke
SO
24 0 24 0 24 0 25 -1 24 -1 24 -1 24 -2 24 -1 
24 -2 25 -2 24 -3 24 -2 24 -2 24 -3 24 -2 25 -3 
24 -2 24 -2 24 -2 24 -2 24 -2 24 -1 25 -1 24 -1 
24 0 24 -1 24 0 24 1 25 0 24 1 24 1 24 2 
24 2 24 1 25 2 24 2 24 3 24 2 24 2 24 2 
24 2 25 2 24 2 24 2 24 2 24 1 24 1 25 1 
24 0 24 1 24 0 24 -1 24 0 25 -1 24 -2 24 -1 
24 -2 24 -1 24 -3 24 -2 25 -2 24 -2 24 -3 24 -2 
24 -2 24 -3 25 -2 24 -2 24 -2 24 -1 24 -1 24 -2 
25 0 24 -1 24 0 24 0 24 1 24 0 24 1 25 2 
24 1 24 2 24 2 24 2 24 3 25 2 24 3 24 2 
24 3 24 3 24 2 25 2 24 3 24 2 24 1 24 2 
24 1 24 1 25 1 3314 737 100 MP stroke
24 0 24 0 24 0 24 0 24 -1 25 -1 24 -2 24 -1 
24 -2 24 -2 24 -3 25 -2 24 -2 24 -3 24 -2 24 -3 
24 -2 25 -2 24 -2 24 -2 24 -2 24 -1 24 -2 24 -1 
25 0 24 -1 24 0 24 1 24 0 24 1 25 1 24 1 
24 2 24 1 24 2 24 2 25 2 24 3 24 2 24 2 
24 2 24 2 24 2 25 2 24 2 24 1 24 2 24 0 
24 1 25 1 24 0 24 -1 24 0 24 -1 24 -1 25 -1 
24 -2 24 -2 24 -1 24 -3 24 -2 24 -2 25 -3 24 -2 
24 -2 24 -3 24 -2 24 -2 25 -2 24 -1 24 -2 24 -1 
24 -1 24 -1 25 0 24 0 24 0 24 1 24 1 24 1 
24 2 25 1 24 2 24 2 24 3 24 2 24 3 25 2 
24 3 24 2 24 3 24 2 24 2 25 3 24 1 24 2 
24 2 24 1 24 1 923 737 100 MP stroke
24 0 899 737 2 MP stroke
DA
24 0 24 0 24 -1 25 0 24 -1 24 -1 24 -2 24 -1 
24 -2 25 -2 24 -2 24 -2 24 -3 24 -2 24 -2 25 -2 
24 -2 24 -3 24 -2 24 -1 24 -2 24 -1 25 -2 24 -1 
24 -1 24 0 24 0 24 0 25 0 24 0 24 1 24 1 
24 1 24 1 25 1 24 2 24 1 24 2 24 1 24 2 
24 2 25 1 24 2 24 1 24 1 24 1 24 1 25 1 
24 0 24 0 24 0 24 0 24 0 25 -1 24 -1 24 -1 
24 -1 24 -1 24 -2 24 -1 25 -2 24 -1 24 -2 24 -2 
24 -1 24 -2 25 -1 24 -1 24 -2 24 -1 24 0 24 -1 
25 0 24 0 24 0 24 0 24 1 24 1 24 1 25 2 
24 1 24 2 24 2 24 2 24 2 25 2 24 3 24 2 
24 2 24 2 24 3 25 2 24 1 24 2 24 2 24 1 
24 1 24 1 25 0 3314 820 100 MP stroke
24 1 24 0 24 0 24 -1 24 -1 25 -1 24 -1 24 -2 
24 -1 24 -2 24 -2 25 -2 24 -2 24 -3 24 -2 24 -2 
24 -2 25 -3 24 -2 24 -1 24 -2 24 -2 24 -1 24 -1 
25 -1 24 -1 24 0 24 0 24 0 24 0 25 0 24 1 
24 1 24 1 24 2 24 1 25 1 24 2 24 2 24 1 
24 2 24 1 24 2 25 1 24 1 24 2 24 1 24 0 
24 1 25 0 24 0 24 0 24 0 24 -1 24 0 25 -1 
24 -1 24 -1 24 -2 24 -1 24 -2 24 -2 25 -1 24 -2 
24 -1 24 -2 24 -1 24 -2 25 -1 24 -1 24 -1 24 -1 
24 0 24 0 25 0 24 0 24 1 24 1 24 1 24 1 
24 1 25 2 24 2 24 2 24 2 24 2 24 2 25 3 
24 2 24 2 24 2 24 3 24 2 25 1 24 2 24 1 
24 2 24 1 24 0 923 820 100 MP stroke
24 1 899 819 2 MP stroke
24 0 24 -1 24 0 25 -1 24 -2 24 -1 24 -2 24 -1 
24 -2 25 -2 24 -3 24 -2 24 -2 24 -2 24 -3 25 -2 
24 -2 24 -2 24 -2 24 -2 24 -2 24 -1 25 -1 24 -1 
24 -1 24 -1 24 0 24 0 25 0 24 0 24 0 24 1 
24 1 24 1 25 1 24 1 24 1 24 1 24 2 24 1 
24 1 25 2 24 1 24 1 24 1 24 1 24 1 25 0 
24 1 24 0 24 0 24 0 24 0 25 -1 24 0 24 -1 
24 -1 24 0 24 -1 24 -1 25 -1 24 -2 24 -1 24 -1 
24 -1 24 0 25 -1 24 -1 24 0 24 -1 24 0 24 0 
25 0 24 1 24 1 24 0 24 1 24 2 24 1 25 1 
24 2 24 2 24 2 24 2 24 2 25 2 24 2 24 2 
24 2 24 2 24 2 25 1 24 2 24 1 24 1 24 1 
24 1 24 0 25 0 3314 909 100 MP stroke
24 0 24 0 24 -1 24 -1 24 -1 25 -1 24 -2 24 -2 
24 -1 24 -2 24 -3 25 -2 24 -2 24 -2 24 -3 24 -2 
24 -2 25 -2 24 -2 24 -2 24 -2 24 -1 24 -2 24 -1 
25 -1 24 -1 24 0 24 0 24 0 24 0 25 0 24 1 
24 0 24 1 24 1 24 1 25 2 24 1 24 1 24 1 
24 2 24 1 24 1 25 1 24 2 24 0 24 1 24 1 
24 0 25 1 24 0 24 0 24 0 24 0 24 -1 25 0 
24 -1 24 -1 24 -1 24 -1 24 -1 24 -1 25 -1 24 -1 
24 -1 24 -1 24 -1 24 0 25 -1 24 0 24 -1 24 0 
24 0 24 1 25 0 24 1 24 1 24 1 24 1 24 2 
24 1 25 2 24 2 24 2 24 2 24 2 24 2 25 2 
24 2 24 2 24 2 24 1 24 2 25 1 24 2 24 0 
24 1 24 1 24 0 923 909 100 MP stroke
24 0 899 909 2 MP stroke
24 -1 24 0 24 -2 25 -1 24 -1 24 -2 24 -2 24 -2 
24 -2 25 -2 24 -2 24 -3 24 -2 24 -2 24 -3 25 -2 
24 -2 24 -2 24 -2 24 -2 24 -1 24 -2 25 -1 24 -1 
24 -1 24 -1 24 0 24 -1 25 0 24 0 24 1 24 0 
24 1 24 0 25 1 24 1 24 1 24 1 24 1 24 2 
24 1 25 1 24 1 24 1 24 1 24 1 24 1 25 1 
24 0 24 1 24 0 24 0 24 1 25 0 24 0 24 0 
24 0 24 -1 24 0 24 0 25 0 24 -1 24 0 24 0 
24 -1 24 0 25 0 24 0 24 0 24 1 24 0 24 0 
25 1 24 1 24 1 24 1 24 1 24 1 24 2 25 1 
24 2 24 1 24 2 24 1 24 2 25 2 24 1 24 2 
24 1 24 1 24 2 25 1 24 0 24 1 24 1 24 0 
24 0 24 0 25 -1 3314 1035 100 MP stroke
24 0 24 -1 24 -1 24 -1 24 -2 25 -1 24 -2 24 -2 
24 -2 24 -2 24 -2 25 -3 24 -2 24 -2 24 -2 24 -3 
24 -2 25 -2 24 -2 24 -2 24 -2 24 -1 24 -1 24 -2 
25 -1 24 0 24 -1 24 0 24 -1 24 0 25 0 24 1 
24 0 24 1 24 1 24 1 25 1 24 1 24 1 24 1 
24 1 24 1 24 1 25 1 24 2 24 0 24 1 24 1 
24 1 25 0 24 1 24 0 24 1 24 0 24 0 25 0 
24 0 24 -1 24 0 24 0 24 0 24 -1 25 0 24 0 
24 0 24 -1 24 0 24 0 25 0 24 0 24 1 24 0 
24 1 24 0 25 1 24 1 24 1 24 2 24 1 24 1 
24 2 25 1 24 2 24 2 24 1 24 2 24 1 25 2 
24 1 24 2 24 1 24 1 24 1 25 1 24 0 24 1 
24 0 24 0 24 0 923 1034 100 MP stroke
24 -1 899 1035 2 MP stroke
24 -1 24 0 24 -1 25 -1 24 -2 24 -1 24 -2 24 -1 
24 -2 25 -2 24 -2 24 -1 24 -2 24 -2 24 -2 25 -2 
24 -2 24 -2 24 -2 24 -2 24 -1 24 -2 25 -1 24 -2 
24 -1 24 -1 24 -1 24 0 25 -1 24 0 24 -1 24 0 
24 0 24 0 25 1 24 0 24 1 24 0 24 1 24 0 
24 1 25 1 24 1 24 1 24 1 24 0 24 1 25 1 
24 1 24 1 24 0 24 1 24 1 25 0 24 1 24 0 
24 1 24 0 24 1 24 0 25 0 24 1 24 0 24 0 
24 1 24 0 25 1 24 0 24 1 24 0 24 1 24 1 
25 0 24 1 24 1 24 1 24 1 24 1 24 1 25 1 
24 1 24 2 24 1 24 1 24 1 25 1 24 1 24 1 
24 1 24 1 24 1 25 1 24 0 24 1 24 0 24 0 
24 0 24 0 25 -1 3314 1225 100 MP stroke
24 0 24 -1 24 -1 24 -1 24 -1 25 -1 24 -2 24 -1 
24 -2 24 -2 24 -2 25 -2 24 -1 24 -2 24 -2 24 -2 
24 -2 25 -2 24 -2 24 -2 24 -2 24 -1 24 -2 24 -1 
25 -1 24 -1 24 -1 24 -1 24 -1 24 0 25 -1 24 0 
24 0 24 0 24 1 24 0 25 0 24 1 24 0 24 1 
24 1 24 1 24 0 25 1 24 1 24 1 24 1 24 1 
24 1 25 0 24 1 24 1 24 0 24 1 24 1 25 0 
24 1 24 0 24 0 24 1 24 0 24 1 25 0 24 0 
24 1 24 0 24 0 24 1 25 0 24 1 24 1 24 0 
24 1 24 1 25 1 24 1 24 1 24 1 24 1 24 1 
24 1 25 1 24 1 24 1 24 2 24 1 24 1 25 1 
24 1 24 1 24 1 24 0 24 1 25 0 24 1 24 0 
24 0 24 0 24 0 923 1224 100 MP stroke
24 -1 899 1225 2 MP stroke
24 -1 24 -1 24 -1 25 -1 24 -1 24 -1 24 -2 24 -1 
24 -2 25 -1 24 -2 24 -2 24 -1 24 -2 24 -2 25 -1 
24 -2 24 -2 24 -1 24 -2 24 -1 24 -2 25 -1 24 -1 
24 -1 24 -1 24 -1 24 -1 25 -1 24 0 24 -1 24 0 
24 0 24 -1 25 0 24 1 24 0 24 0 24 0 24 1 
24 0 25 1 24 1 24 0 24 1 24 1 24 1 25 1 
24 1 24 0 24 1 24 1 24 1 25 1 24 1 24 1 
24 1 24 0 24 1 24 1 25 1 24 1 24 0 24 1 
24 1 24 1 25 1 24 1 24 0 24 1 24 1 24 1 
25 1 24 1 24 1 24 0 24 1 24 1 24 1 25 1 
24 1 24 1 24 1 24 0 24 1 25 1 24 0 24 1 
24 0 24 1 24 0 25 0 24 1 24 0 24 0 24 -1 
24 0 24 0 25 -1 3314 1444 100 MP stroke
24 -1 24 0 24 -1 24 -1 24 -1 25 -2 24 -1 24 -1 
24 -2 24 -1 24 -2 25 -2 24 -1 24 -2 24 -2 24 -2 
24 -1 25 -2 24 -2 24 -1 24 -2 24 -1 24 -1 24 -2 
25 -1 24 -1 24 -1 24 -1 24 -1 24 0 25 -1 24 0 
24 0 24 -1 24 0 24 0 25 1 24 0 24 0 24 1 
24 0 24 1 24 0 25 1 24 1 24 1 24 0 24 1 
24 1 25 1 24 1 24 1 24 1 24 1 24 0 25 1 
24 1 24 1 24 1 24 1 24 0 24 1 25 1 24 1 
24 1 24 1 24 0 24 1 25 1 24 1 24 1 24 0 
24 1 24 1 25 1 24 1 24 1 24 1 24 1 24 1 
24 0 25 1 24 1 24 1 24 1 24 0 24 1 25 1 
24 0 24 1 24 0 24 0 24 1 25 0 24 0 24 -1 
24 0 24 0 24 -1 923 1444 100 MP stroke
24 0 899 1444 2 MP stroke
24 -1 24 -1 24 -1 25 -1 24 -2 24 -1 24 -1 24 -2 
24 -1 25 -1 24 -2 24 -1 24 -2 24 -1 24 -2 25 -1 
24 -2 24 -1 24 -2 24 -1 24 -1 24 -2 25 -1 24 -1 
24 -1 24 -1 24 0 24 -1 25 -1 24 0 24 -1 24 0 
24 0 24 -1 25 0 24 0 24 1 24 0 24 0 24 0 
24 1 25 1 24 0 24 1 24 1 24 0 24 1 25 1 
24 1 24 1 24 1 24 1 24 1 25 1 24 1 24 2 
24 1 24 1 24 1 24 1 25 1 24 1 24 1 24 1 
24 2 24 1 25 1 24 1 24 1 24 1 24 1 24 1 
25 1 24 0 24 1 24 1 24 1 24 1 24 0 25 1 
24 1 24 0 24 1 24 0 24 0 25 1 24 0 24 0 
24 0 24 0 24 0 25 0 24 -1 24 0 24 0 24 -1 
24 0 24 -1 25 -1 3314 1644 100 MP stroke
24 -1 24 -1 24 -1 24 -1 24 -1 25 -1 24 -2 24 -1 
24 -1 24 -2 24 -1 25 -2 24 -1 24 -2 24 -1 24 -2 
24 -1 25 -2 24 -1 24 -1 24 -2 24 -1 24 -1 24 -1 
25 -1 24 -1 24 -1 24 -1 24 -1 24 0 25 -1 24 0 
24 0 24 -1 24 0 24 0 25 0 24 1 24 0 24 0 
24 1 24 0 24 1 25 0 24 1 24 1 24 1 24 1 
24 1 25 1 24 1 24 1 24 1 24 1 24 1 25 1 
24 1 24 1 24 1 24 1 24 2 24 1 25 1 24 1 
24 1 24 1 24 1 24 1 25 1 24 1 24 1 24 1 
24 1 24 1 25 1 24 1 24 0 24 1 24 1 24 1 
24 0 25 1 24 0 24 1 24 0 24 0 24 1 25 0 
24 0 24 0 24 0 24 0 24 0 25 -1 24 0 24 -1 
24 0 24 -1 24 -1 923 1644 100 MP stroke
24 0 899 1644 2 MP stroke
24 -1 24 -1 24 -1 25 -2 24 -1 24 -1 24 -1 24 -2 
24 -1 25 -1 24 -2 24 -1 24 -1 24 -2 24 -1 25 -1 
24 -2 24 -1 24 -1 24 -1 24 -1 24 -1 25 -1 24 -1 
24 -1 24 -1 24 -1 24 0 25 -1 24 0 24 -1 24 0 
24 0 24 0 25 -1 24 1 24 0 24 0 24 0 24 1 
24 0 25 1 24 0 24 1 24 1 24 0 24 1 25 1 
24 1 24 1 24 1 24 2 24 1 25 1 24 1 24 1 
24 2 24 1 24 1 24 1 25 2 24 1 24 1 24 2 
24 1 24 1 25 1 24 1 24 1 24 1 24 1 24 1 
25 1 24 1 24 1 24 1 24 0 24 1 24 0 25 1 
24 0 24 1 24 0 24 0 24 0 25 0 24 0 24 0 
24 0 24 -1 24 0 25 0 24 -1 24 -1 24 0 24 -1 
24 -1 24 -1 25 -1 3314 1800 100 MP stroke
24 -1 24 -1 24 -1 24 -1 24 -1 25 -1 24 -2 24 -1 
24 -1 24 -2 24 -1 25 -1 24 -2 24 -1 24 -1 24 -2 
24 -1 25 -1 24 -2 24 -1 24 -1 24 -1 24 -1 24 -1 
25 -1 24 -1 24 0 24 -1 24 -1 24 0 25 -1 24 0 
24 0 24 0 24 -1 24 0 25 1 24 0 24 0 24 0 
24 1 24 0 24 1 25 1 24 0 24 1 24 1 24 1 
24 1 25 1 24 1 24 1 24 1 24 1 24 2 25 1 
24 1 24 1 24 2 24 1 24 1 24 1 25 2 24 1 
24 1 24 1 24 2 24 1 25 1 24 1 24 1 24 1 
24 1 24 1 25 0 24 1 24 1 24 1 24 0 24 1 
24 0 25 0 24 1 24 0 24 0 24 0 24 0 25 0 
24 0 24 0 24 -1 24 0 24 -1 25 0 24 -1 24 -1 
24 0 24 -1 24 -1 923 1799 100 MP stroke
24 -1 899 1800 2 MP stroke
24 -2 24 -1 24 -1 25 -1 24 -1 24 -1 24 -2 24 -1 
24 -1 25 -1 24 -2 24 -1 24 -1 24 -2 24 -1 25 -1 
24 -1 24 -1 24 -1 24 -1 24 -1 24 -1 25 -1 24 -1 
24 -1 24 0 24 -1 24 -1 25 0 24 -1 24 0 24 0 
24 0 24 -1 25 0 24 0 24 1 24 0 24 0 24 1 
24 0 25 0 24 1 24 1 24 1 24 0 24 1 25 1 
24 1 24 1 24 1 24 1 24 2 25 1 24 1 24 1 
24 2 24 1 24 1 24 1 25 2 24 1 24 1 24 2 
24 1 24 1 25 1 24 1 24 2 24 1 24 1 24 1 
25 0 24 1 24 1 24 1 24 0 24 1 24 0 25 1 
24 0 24 0 24 0 24 0 24 0 25 0 24 0 24 0 
24 -1 24 0 24 0 25 -1 24 -1 24 0 24 -1 24 -1 
24 -1 24 -1 25 -1 3314 1911 100 MP stroke
24 -1 24 -1 24 -1 24 -1 24 -2 25 -1 24 -1 24 -1 
24 -2 24 -1 24 -1 25 -1 24 -2 24 -1 24 -1 24 -1 
24 -1 25 -2 24 -1 24 -1 24 -1 24 -1 24 -1 24 -1 
25 0 24 -1 24 -1 24 0 24 -1 24 0 25 -1 24 0 
24 0 24 0 24 -1 24 0 25 1 24 0 24 0 24 0 
24 1 24 0 24 1 25 0 24 1 24 1 24 1 24 1 
24 1 25 1 24 1 24 1 24 1 24 1 24 1 25 2 
24 1 24 1 24 1 24 2 24 1 24 1 25 2 24 1 
24 1 24 1 24 2 24 1 25 1 24 1 24 1 24 1 
24 1 24 1 25 1 24 0 24 1 24 1 24 0 24 0 
24 1 25 0 24 0 24 0 24 0 24 0 24 0 25 0 
24 0 24 -1 24 0 24 -1 24 0 25 -1 24 -1 24 -1 
24 0 24 -1 24 -1 923 1910 100 MP stroke
24 -1 899 1911 2 MP stroke
24 -1 24 -1 24 -1 25 -2 24 -1 24 -1 24 -1 24 -1 
24 -2 25 -1 24 -1 24 -1 24 -1 24 -2 24 -1 25 -1 
24 -1 24 -1 24 -1 24 -1 24 -1 24 -1 25 -1 24 0 
24 -1 24 -1 24 0 24 -1 25 0 24 -1 24 0 24 0 
24 -1 24 0 25 0 24 0 24 0 24 1 24 0 24 0 
24 1 25 0 24 1 24 0 24 1 24 1 24 1 25 0 
24 1 24 1 24 1 24 1 24 2 25 1 24 1 24 1 
24 1 24 2 24 1 24 1 25 1 24 2 24 1 24 1 
24 1 24 2 25 1 24 1 24 1 24 1 24 1 24 1 
25 1 24 1 24 0 24 1 24 1 24 0 24 1 25 0 
24 0 24 0 24 1 24 0 24 0 25 -1 24 0 24 0 
24 0 24 -1 24 0 25 -1 24 0 24 -1 24 -1 24 -1 
24 -1 24 -1 25 -1 3314 1988 100 MP stroke
24 -1 24 -1 24 -1 24 -1 24 -1 25 -1 24 -1 24 -2 
24 -1 24 -1 24 -1 25 -2 24 -1 24 -1 24 -1 24 -1 
24 -1 25 -1 24 -1 24 -1 24 -1 24 -1 24 -1 24 -1 
25 -1 24 0 24 -1 24 -1 24 0 24 -1 25 0 24 0 
24 0 24 -1 24 0 24 0 25 0 24 1 24 0 24 0 
24 0 24 1 24 0 25 1 24 1 24 0 24 1 24 1 
24 1 25 1 24 1 24 1 24 1 24 1 24 1 25 2 
24 1 24 1 24 1 24 2 24 1 24 1 25 1 24 2 
24 1 24 1 24 1 24 1 25 1 24 1 24 1 24 1 
24 1 24 1 25 1 24 1 24 0 24 1 24 0 24 1 
24 0 25 0 24 1 24 0 24 0 24 0 24 -1 25 0 
24 0 24 -1 24 0 24 -1 24 0 25 -1 24 -1 24 0 
24 -1 24 -1 24 -1 923 1987 100 MP stroke
24 -1 899 1988 2 MP stroke
24 -1 24 -1 24 -1 25 -2 24 -1 24 -1 24 -1 24 -1 
24 -1 25 -1 24 -2 24 -1 24 -1 24 -1 24 -1 25 -1 
24 -1 24 -1 24 -1 24 -1 24 -1 24 -1 25 -1 24 -1 
24 0 24 -1 24 -1 24 0 25 -1 24 0 24 0 24 -1 
24 0 24 0 25 0 24 0 24 0 24 0 24 0 24 1 
24 0 25 0 24 1 24 1 24 0 24 1 24 1 25 0 
24 1 24 1 24 1 24 1 24 1 25 1 24 1 24 1 
24 1 24 2 24 1 24 1 25 1 24 1 24 1 24 2 
24 1 24 1 25 1 24 1 24 1 24 1 24 1 24 1 
25 1 24 1 24 1 24 0 24 1 24 1 24 0 25 0 
24 1 24 0 24 0 24 0 24 0 25 0 24 0 24 0 
24 0 24 -1 24 0 25 -1 24 0 24 -1 24 0 24 -1 
24 -1 24 -1 25 -1 3314 2040 100 MP stroke
24 -1 24 -1 24 -1 24 -1 24 -1 25 -1 24 -1 24 -2 
24 -1 24 -1 24 -1 25 -1 24 -1 24 -1 24 -2 24 -1 
24 -1 25 -1 24 -1 24 -1 24 -1 24 -1 24 -1 24 0 
25 -1 24 -1 24 0 24 -1 24 0 24 -1 25 0 24 -1 
24 0 24 0 24 0 24 0 25 0 24 0 24 0 24 1 
24 0 24 0 24 1 25 0 24 1 24 0 24 1 24 1 
24 1 25 1 24 1 24 0 24 1 24 2 24 1 25 1 
24 1 24 1 24 1 24 1 24 2 24 1 25 1 24 1 
24 1 24 1 24 2 24 1 25 1 24 1 24 1 24 1 
24 1 24 0 25 1 24 1 24 1 24 0 24 1 24 0 
24 1 25 0 24 0 24 0 24 0 24 0 24 0 25 0 
24 0 24 0 24 -1 24 0 24 -1 25 0 24 -1 24 -1 
24 -1 24 0 24 -1 923 2039 100 MP stroke
24 -1 899 2040 2 MP stroke
24 -1 24 -1 24 -1 25 -1 24 -1 24 -1 24 -1 24 -1 
24 -1 25 -1 24 -2 24 -1 24 -1 24 -1 24 -1 25 -1 
24 -1 24 -1 24 -1 24 -1 24 -1 24 -1 25 -1 24 -1 
24 0 24 -1 24 0 24 -1 25 -1 24 0 24 0 24 -1 
24 0 24 0 25 0 24 0 24 0 24 0 24 0 24 0 
24 1 25 0 24 0 24 1 24 0 24 1 24 1 25 0 
24 1 24 1 24 1 24 0 24 1 25 1 24 1 24 1 
24 1 24 1 24 1 24 2 25 1 24 1 24 1 24 1 
24 1 24 1 25 1 24 1 24 1 24 1 24 1 24 1 
25 1 24 1 24 1 24 1 24 0 24 1 24 0 25 1 
24 0 24 1 24 0 24 0 24 0 25 0 24 0 24 0 
24 0 24 0 24 0 25 -1 24 0 24 -1 24 0 24 -1 
24 -1 24 -1 25 0 3314 2075 100 MP stroke
24 -1 24 -1 24 -1 24 -1 24 -1 25 -1 24 -1 24 -2 
24 -1 24 -1 24 -1 25 -1 24 -1 24 -1 24 -1 24 -2 
24 -1 25 -1 24 -1 24 -1 24 -1 24 0 24 -1 24 -1 
25 -1 24 -1 24 0 24 -1 24 0 24 -1 25 0 24 0 
24 -1 24 0 24 0 24 0 25 0 24 0 24 0 24 0 
24 0 24 1 24 0 25 1 24 0 24 1 24 0 24 1 
24 1 25 0 24 1 24 1 24 1 24 1 24 1 25 1 
24 1 24 1 24 1 24 1 24 1 24 1 25 1 24 1 
24 2 24 1 24 1 24 1 25 1 24 1 24 1 24 1 
24 1 24 1 25 0 24 1 24 1 24 1 24 0 24 1 
24 0 25 1 24 0 24 0 24 0 24 0 24 0 25 0 
24 0 24 0 24 0 24 -1 24 0 25 -1 24 0 24 -1 
24 0 24 -1 24 -1 923 2075 100 MP stroke
24 -1 899 2076 2 MP stroke
24 -1 24 -1 24 -1 25 -1 24 -1 24 -1 24 -1 24 -1 
24 -1 25 -1 24 -1 24 -1 24 -1 24 -2 24 -1 25 -1 
24 -1 24 -1 24 -1 24 -1 24 -1 24 -1 25 0 24 -1 
24 -1 24 -1 24 0 24 -1 25 0 24 -1 24 0 24 -1 
24 0 24 0 25 0 24 0 24 0 24 0 24 0 24 0 
24 0 25 0 24 1 24 0 24 0 24 1 24 1 25 0 
24 1 24 0 24 1 24 1 24 1 25 1 24 0 24 1 
24 1 24 1 24 1 24 1 25 1 24 1 24 1 24 1 
24 1 24 1 25 1 24 2 24 1 24 1 24 0 24 1 
25 1 24 1 24 1 24 1 24 1 24 0 24 1 25 1 
24 0 24 1 24 0 24 0 24 1 25 0 24 0 24 0 
24 0 24 0 24 -1 25 0 24 0 24 -1 24 0 24 -1 
24 0 24 -1 25 -1 3314 2100 100 MP stroke
24 0 24 -1 24 -1 24 -1 24 -1 25 -1 24 -1 24 -1 
24 -1 24 -2 24 -1 25 -1 24 -1 24 -1 24 -1 24 -1 
24 -1 25 -1 24 -1 24 -1 24 -1 24 -1 24 -1 24 -1 
25 -1 24 0 24 -1 24 -1 24 0 24 -1 25 0 24 0 
24 -1 24 0 24 0 24 0 25 0 24 0 24 0 24 0 
24 0 24 0 24 0 25 1 24 0 24 1 24 0 24 1 
24 0 25 1 24 1 24 1 24 0 24 1 24 1 25 1 
24 1 24 1 24 1 24 1 24 1 24 1 25 1 24 1 
24 1 24 1 24 1 24 1 25 1 24 1 24 1 24 1 
24 1 24 1 25 1 24 0 24 1 24 1 24 1 24 0 
24 1 25 0 24 1 24 0 24 0 24 1 24 0 25 0 
24 0 24 0 24 0 24 -1 24 0 25 0 24 -1 24 0 
24 -1 24 -1 24 0 923 2099 100 MP stroke
24 -1 899 2100 2 MP stroke
24 0 24 -1 24 -1 25 -1 24 -1 24 -1 24 -1 24 -1 
24 -1 25 -1 24 -1 24 -1 24 -2 24 -1 24 -1 25 -1 
24 -1 24 -1 24 -1 24 -1 24 -1 24 -1 25 -1 24 0 
24 -1 24 -1 24 -1 24 0 25 -1 24 0 24 -1 24 0 
24 0 24 -1 25 0 24 0 24 0 24 0 24 0 24 0 
24 0 25 0 24 0 24 1 24 0 24 1 24 0 25 0 
24 1 24 1 24 0 24 1 24 1 25 0 24 1 24 1 
24 1 24 1 24 1 24 0 25 1 24 1 24 1 24 1 
24 1 24 1 25 1 24 1 24 1 24 1 24 1 24 1 
25 1 24 1 24 1 24 1 24 1 24 0 24 1 25 1 
24 0 24 1 24 1 24 0 24 0 25 1 24 0 24 0 
24 0 24 0 24 0 25 0 24 0 24 -1 24 0 24 -1 
24 0 24 -1 25 0 3314 2116 100 MP stroke
24 -1 24 -1 24 -1 24 -1 24 0 25 -1 24 -1 24 -2 
24 -1 24 -1 24 -1 25 -1 24 -1 24 -1 24 -1 24 -1 
24 -1 25 -1 24 -1 24 -1 24 -1 24 -1 24 -1 24 -1 
25 -1 24 -1 24 0 24 -1 24 -1 24 0 25 -1 24 0 
24 0 24 -1 24 0 24 0 25 0 24 0 24 0 24 0 
24 0 24 0 24 0 25 1 24 0 24 0 24 1 24 0 
24 1 25 0 24 1 24 1 24 0 24 1 24 1 25 0 
24 1 24 1 24 1 24 1 24 1 24 1 25 1 24 1 
24 1 24 1 24 1 24 1 25 1 24 1 24 1 24 1 
24 1 24 1 25 1 24 0 24 1 24 1 24 1 24 1 
24 0 25 1 24 0 24 1 24 0 24 0 24 1 25 0 
24 0 24 0 24 0 24 0 24 0 25 -1 24 0 24 0 
24 -1 24 0 24 -1 923 2116 100 MP stroke
24 -1 899 2117 2 MP stroke
24 -1 24 -1 24 0 25 -1 24 -1 24 -1 24 -1 24 -1 
24 -1 25 -1 24 -1 24 -1 24 -2 24 -1 24 -1 25 -1 
24 -1 24 -1 24 -1 24 -1 24 -1 24 -1 25 -1 24 -1 
24 0 24 -1 24 -1 24 -1 25 0 24 -1 24 0 24 -1 
24 0 24 0 25 -1 24 0 24 0 24 0 24 0 24 0 
24 0 25 0 24 0 24 1 24 0 24 0 24 1 25 0 
24 0 24 1 24 0 24 1 24 1 25 0 24 1 24 1 
24 1 24 0 24 1 24 1 25 1 24 1 24 1 24 1 
24 1 24 1 25 1 24 1 24 1 24 1 24 1 24 1 
25 0 24 1 24 1 24 1 24 1 24 1 24 1 25 0 
24 1 24 1 24 0 24 1 24 0 25 1 24 0 24 0 
24 1 24 0 24 0 25 0 24 0 24 -1 24 0 24 0 
24 -1 24 0 25 -1 3314 2128 100 MP stroke
24 -1 24 0 24 -1 24 -1 24 -1 25 -1 24 -1 24 -1 
24 -1 24 -1 24 -1 25 -1 24 -1 24 -1 24 -1 24 -1 
24 -1 25 -1 24 -2 24 -1 24 -1 24 0 24 -1 24 -1 
25 -1 24 -1 24 -1 24 0 24 -1 24 0 25 -1 24 0 
24 -1 24 0 24 0 24 -1 25 0 24 0 24 0 24 0 
24 0 24 0 24 0 25 0 24 1 24 0 24 0 24 1 
24 0 25 1 24 0 24 1 24 0 24 1 24 1 25 0 
24 1 24 1 24 1 24 1 24 0 24 1 25 1 24 1 
24 1 24 1 24 1 24 1 25 1 24 1 24 1 24 1 
24 1 24 1 25 1 24 1 24 1 24 1 24 0 24 1 
24 1 25 1 24 0 24 1 24 0 24 1 24 0 25 0 
24 0 24 1 24 0 24 0 24 0 25 -1 24 0 24 0 
24 -1 24 0 24 -1 923 2128 100 MP stroke
24 0 899 2128 2 MP stroke
24 -1 24 -1 24 0 25 -1 24 -1 24 -1 24 -1 24 -1 
24 -1 25 -1 24 -1 24 -1 24 -1 24 -1 24 -1 25 -2 
24 -1 24 -1 24 -1 24 -1 24 -1 24 -1 25 -1 24 0 
24 -1 24 -1 24 -1 24 0 25 -1 24 -1 24 0 24 -1 
24 0 24 0 25 -1 24 0 24 0 24 0 24 0 24 0 
24 0 25 0 24 0 24 0 24 0 24 0 24 1 25 0 
24 0 24 1 24 0 24 1 24 0 25 1 24 1 24 0 
24 1 24 1 24 0 24 1 25 1 24 1 24 1 24 1 
24 1 24 1 25 1 24 1 24 1 24 1 24 1 24 1 
25 0 24 1 24 1 24 1 24 1 24 1 24 1 25 1 
24 1 24 0 24 1 24 1 24 0 25 1 24 0 24 0 
24 1 24 0 24 0 25 0 24 0 24 0 24 0 24 -1 
24 0 24 0 25 -1 3314 2136 100 MP stroke
24 -1 24 0 24 -1 24 -1 24 -1 25 0 24 -1 24 -1 
24 -1 24 -1 24 -1 25 -2 24 -1 24 -1 24 -1 24 -1 
24 -1 25 -1 24 -1 24 -1 24 -1 24 -1 24 -1 24 -1 
25 -1 24 -1 24 0 24 -1 24 -1 24 0 25 -1 24 0 
24 -1 24 0 24 -1 24 0 25 0 24 0 24 0 24 0 
24 0 24 0 24 0 25 0 24 0 24 0 24 1 24 0 
24 0 25 1 24 0 24 1 24 0 24 1 24 0 25 1 
24 1 24 0 24 1 24 1 24 1 24 1 25 0 24 1 
24 1 24 1 24 1 24 1 25 1 24 1 24 1 24 1 
24 1 24 1 25 1 24 1 24 1 24 1 24 1 24 0 
24 1 25 1 24 1 24 0 24 1 24 0 24 1 25 0 
24 1 24 0 24 0 24 0 24 0 25 0 24 0 24 -1 
24 0 24 0 24 -1 923 2136 100 MP stroke
24 0 899 2136 2 MP stroke
24 -1 24 0 24 -1 25 -1 24 -1 24 0 24 -1 24 -1 
24 -1 25 -1 24 -1 24 -2 24 -1 24 -1 24 -1 25 -1 
24 -1 24 -1 24 -1 24 -1 24 -1 24 -1 25 -1 24 -1 
24 -1 24 -1 24 0 24 -1 25 -1 24 0 24 -1 24 0 
24 -1 24 0 25 -1 24 0 24 0 24 0 24 0 24 0 
24 0 25 0 24 0 24 0 24 0 24 0 24 0 25 1 
24 0 24 0 24 1 24 0 24 1 25 0 24 1 24 0 
24 1 24 1 24 0 24 1 25 1 24 1 24 1 24 1 
24 0 24 1 25 1 24 1 24 1 24 1 24 1 24 1 
25 1 24 1 24 1 24 1 24 1 24 1 24 1 25 1 
24 1 24 0 24 1 24 1 24 0 25 1 24 0 24 1 
24 0 24 0 24 1 25 0 24 0 24 0 24 0 24 -1 
24 0 24 0 25 -1 3314 2142 100 MP stroke
24 0 24 -1 24 -1 24 0 24 -1 25 -1 24 -1 24 -1 
24 -1 24 -1 24 -1 25 -1 24 -1 24 -1 24 -1 24 -1 
24 -1 25 -2 24 -1 24 -1 24 -1 24 -1 24 -1 24 -1 
25 0 24 -1 24 -1 24 -1 24 0 24 -1 25 -1 24 0 
24 -1 24 0 24 0 24 -1 25 0 24 0 24 0 24 0 
24 0 24 0 24 0 25 0 24 0 24 0 24 0 24 1 
24 0 25 0 24 1 24 0 24 0 24 1 24 1 25 0 
24 1 24 0 24 1 24 1 24 1 24 0 25 1 24 1 
24 1 24 1 24 1 24 1 25 1 24 1 24 1 24 1 
24 1 24 1 25 1 24 1 24 1 24 1 24 0 24 1 
24 1 25 1 24 1 24 0 24 1 24 1 24 0 25 1 
24 0 24 0 24 1 24 0 24 0 25 0 24 0 24 -1 
24 0 24 0 24 -1 923 2142 100 MP stroke
24 0 899 2142 2 MP stroke
24 -1 24 0 24 -1 25 -1 24 -1 24 0 24 -1 24 -1 
24 -1 25 -1 24 -1 24 -1 24 -1 24 -2 24 -1 25 -1 
24 -1 24 -1 24 -1 24 -1 24 -1 24 -1 25 -1 24 -1 
24 -1 24 -1 24 0 24 -1 25 -1 24 0 24 -1 24 0 
24 -1 24 0 25 -1 24 0 24 0 24 0 24 -1 24 0 
24 0 25 0 24 0 24 0 24 0 24 1 24 0 25 0 
24 0 24 1 24 0 24 0 24 1 25 0 24 1 24 0 
24 1 24 1 24 0 24 1 25 1 24 0 24 1 24 1 
24 1 24 1 25 1 24 1 24 1 24 1 24 1 24 1 
25 1 24 1 24 1 24 1 24 1 24 1 24 1 25 0 
24 1 24 1 24 1 24 1 24 0 25 1 24 0 24 1 
24 0 24 1 24 0 25 0 24 0 24 0 24 0 24 0 
24 0 24 -1 25 0 3314 2146 100 MP stroke
24 0 24 -1 24 -1 24 0 24 -1 25 -1 24 -1 24 -1 
24 -1 24 -1 24 -1 25 -1 24 -1 24 -1 24 -1 24 -1 
24 -1 25 -1 24 -1 24 -2 24 -1 24 -1 24 0 24 -1 
25 -1 24 -1 24 -1 24 -1 24 0 24 -1 25 -1 24 0 
24 -1 24 0 24 -1 24 0 25 0 24 0 24 -1 24 0 
24 0 24 0 24 0 25 0 24 0 24 0 24 1 24 0 
24 0 25 0 24 1 24 0 24 1 24 0 24 1 25 0 
24 1 24 0 24 1 24 1 24 0 24 1 25 1 24 1 
24 1 24 0 24 1 24 1 25 1 24 1 24 1 24 1 
24 1 24 1 25 1 24 1 24 1 24 1 24 1 24 1 
24 1 25 1 24 1 24 0 24 1 24 1 24 0 25 1 
24 0 24 1 24 0 24 0 24 0 25 0 24 0 24 0 
24 0 24 0 24 -1 923 2146 100 MP stroke
24 0 899 2146 2 MP stroke
24 -1 24 0 24 -1 25 -1 24 0 24 -1 24 -1 24 -1 
24 -1 25 -1 24 -1 24 -1 24 -1 24 -1 24 -1 25 -2 
24 -1 24 -1 24 -1 24 -1 24 -1 24 -1 25 -1 24 -1 
24 -1 24 0 24 -1 24 -1 25 -1 24 0 24 -1 24 0 
24 -1 24 0 25 -1 24 0 24 0 24 -1 24 0 24 0 
24 0 25 0 24 0 24 0 24 0 24 0 24 0 25 1 
24 0 24 0 24 0 24 1 24 0 25 1 24 0 24 1 
24 0 24 1 24 0 24 1 25 1 24 0 24 1 24 1 
24 1 24 1 25 1 24 1 24 1 24 1 24 1 24 1 
25 1 24 1 24 1 24 1 24 1 24 1 24 1 25 0 
24 1 24 1 24 1 24 1 24 1 25 0 24 1 24 0 
24 1 24 0 24 0 25 1 24 0 24 0 24 0 24 0 
24 0 24 -1 25 0 3314 2149 100 MP stroke
24 -1 24 0 24 -1 24 0 24 -1 25 -1 24 -1 24 -1 
24 -1 24 -1 24 -1 25 -1 24 -1 24 -1 24 -1 24 -1 
24 -1 25 -1 24 -1 24 -1 24 -1 24 -1 24 -1 24 -1 
25 -1 24 -1 24 -1 24 -1 24 0 24 -1 25 -1 24 0 
24 -1 24 0 24 -1 24 0 25 0 24 0 24 -1 24 0 
24 0 24 0 24 0 25 0 24 0 24 0 24 0 24 0 
24 1 25 0 24 0 24 1 24 0 24 0 24 1 25 0 
24 1 24 0 24 1 24 1 24 0 24 1 25 1 24 1 
24 1 24 0 24 1 24 1 25 1 24 1 24 1 24 1 
24 1 24 1 25 1 24 1 24 1 24 1 24 1 24 1 
24 1 25 1 24 1 24 0 24 1 24 1 24 1 25 0 
24 1 24 0 24 0 24 1 24 0 25 0 24 0 24 0 
24 0 24 -1 24 0 923 2149 100 MP stroke
24 0 899 2149 2 MP stroke
24 0 24 -1 24 0 25 -1 24 -1 24 0 24 -1 24 -1 
24 -1 25 -1 24 -1 24 -1 24 -1 24 -1 24 -1 25 -2 
24 -1 24 -1 24 -1 24 -1 24 -1 24 -1 25 -1 24 -1 
24 -1 24 0 24 -1 24 -1 25 -1 24 0 24 -1 24 -1 
24 0 24 -1 25 0 24 0 24 -1 24 0 24 0 24 0 
24 0 25 -1 24 0 24 0 24 1 24 0 24 0 25 0 
24 0 24 0 24 1 24 0 24 0 25 1 24 0 24 1 
24 0 24 1 24 0 24 1 25 1 24 0 24 1 24 1 
24 1 24 1 25 1 24 1 24 0 24 1 24 1 24 1 
25 1 24 1 24 1 24 2 24 1 24 1 24 0 25 1 
24 1 24 1 24 1 24 1 24 1 25 0 24 1 24 1 
24 0 24 0 24 1 25 0 24 0 24 0 24 0 24 0 
24 0 24 0 25 0 3314 2151 100 MP stroke
24 -1 24 0 24 -1 24 -1 24 0 25 -1 24 -1 24 -1 
24 -1 24 -1 24 -1 25 -1 24 -1 24 -1 24 -1 24 -1 
24 -1 25 -1 24 -1 24 -1 24 -1 24 -1 24 -1 24 -1 
25 -1 24 -1 24 -1 24 -1 24 0 24 -1 25 -1 24 0 
24 -1 24 0 24 -1 24 0 25 -1 24 0 24 0 24 0 
24 0 24 0 24 -1 25 0 24 0 24 1 24 0 24 0 
24 0 25 0 24 1 24 0 24 0 24 1 24 0 25 0 
24 1 24 1 24 0 24 1 24 0 24 1 25 1 24 1 
24 0 24 1 24 1 24 1 25 1 24 1 24 1 24 1 
24 1 24 1 25 1 24 1 24 1 24 1 24 1 24 1 
24 1 25 1 24 1 24 1 24 0 24 1 24 1 25 0 
24 1 24 0 24 1 24 0 24 0 25 0 24 0 24 0 
24 0 24 0 24 0 923 2151 100 MP stroke
24 -1 899 2152 2 MP stroke
24 -1 24 0 24 -1 25 -1 24 0 24 -1 24 -1 24 -1 
24 -1 25 -1 24 -1 24 -1 24 -1 24 -1 24 -1 25 -1 
24 -1 24 -1 24 -1 24 -1 24 -1 24 -1 25 -1 24 -1 
24 -1 24 -1 24 -1 24 -1 25 0 24 -1 24 -1 24 0 
24 -1 24 0 25 -1 24 0 24 0 24 -1 24 0 24 0 
24 0 25 0 24 0 24 0 24 0 24 0 24 0 25 0 
24 0 24 0 24 1 24 0 24 0 25 1 24 0 24 1 
24 0 24 1 24 0 24 1 25 0 24 1 24 1 24 1 
24 0 24 1 25 1 24 1 24 1 24 1 24 1 24 1 
25 1 24 1 24 1 24 1 24 1 24 1 24 1 25 1 
24 1 24 1 24 1 24 1 24 0 25 1 24 1 24 0 
24 1 24 0 24 1 25 0 24 0 24 0 24 0 24 0 
24 0 24 0 25 0 3314 2153 100 MP stroke
24 -1 24 0 24 -1 24 0 24 -1 25 -1 24 0 24 -1 
24 -1 24 -1 24 -1 25 -1 24 -1 24 -1 24 -1 24 -2 
24 -1 25 -1 24 -1 24 -1 24 -1 24 -1 24 -1 24 -1 
25 -1 24 -1 24 0 24 -1 24 -1 24 -1 25 0 24 -1 
24 -1 24 0 24 0 24 -1 25 0 24 -1 24 0 24 0 
24 0 24 0 24 0 25 0 24 0 24 0 24 0 24 0 
24 0 25 0 24 0 24 1 24 0 24 0 24 1 25 0 
24 1 24 0 24 1 24 0 24 1 24 1 25 1 24 0 
24 1 24 1 24 1 24 1 25 1 24 1 24 0 24 1 
24 1 24 2 25 1 24 1 24 1 24 1 24 1 24 1 
24 1 25 0 24 1 24 1 24 1 24 1 24 0 25 1 
24 1 24 0 24 1 24 0 24 0 25 0 24 0 24 0 
24 0 24 0 24 0 923 2153 100 MP stroke
24 0 899 2153 2 MP stroke
24 0 24 -1 24 0 25 -1 24 -1 24 0 24 -1 24 -1 
24 -1 25 -1 24 -1 24 -1 24 -1 24 -1 24 -1 25 -1 
24 -1 24 -1 24 -1 24 -1 24 -2 24 -1 25 -1 24 0 
24 -1 24 -1 24 -1 24 -1 25 -1 24 0 24 -1 24 0 
24 -1 24 -1 25 0 24 0 24 -1 24 0 24 0 24 0 
24 -1 25 0 24 0 24 0 24 0 24 0 24 0 25 0 
24 1 24 0 24 0 24 0 24 1 25 0 24 0 24 1 
24 0 24 1 24 0 24 1 25 1 24 0 24 1 24 1 
24 1 24 0 25 1 24 1 24 1 24 1 24 1 24 1 
25 1 24 1 24 1 24 1 24 1 24 1 24 1 25 1 
24 1 24 1 24 1 24 1 24 1 25 0 24 1 24 1 
24 0 24 1 24 0 25 0 24 1 24 0 24 0 24 0 
24 0 24 0 25 -1 3314 2155 100 MP stroke
24 0 24 0 24 -1 24 -1 24 0 25 -1 24 -1 24 -1 
24 0 24 -1 24 -1 25 -1 24 -1 24 -1 24 -2 24 -1 
24 -1 25 -1 24 -1 24 -1 24 -1 24 -1 24 -1 24 -1 
25 -1 24 -1 24 -1 24 0 24 -1 24 -1 25 -1 24 0 
24 -1 24 0 24 -1 24 0 25 -1 24 0 24 0 24 0 
24 -1 24 0 24 0 25 0 24 0 24 0 24 0 24 0 
24 0 25 1 24 0 24 0 24 0 24 1 24 0 25 1 
24 0 24 1 24 0 24 1 24 0 24 1 25 1 24 0 
24 1 24 1 24 1 24 1 25 1 24 1 24 1 24 1 
24 1 24 1 25 1 24 1 24 1 24 1 24 1 24 1 
24 1 25 1 24 1 24 0 24 1 24 1 24 1 25 0 
24 1 24 1 24 0 24 0 24 1 25 0 24 0 24 0 
24 0 24 0 24 0 923 2154 100 MP stroke
24 -1 899 2155 2 MP stroke
24 0 24 -1 24 0 25 -1 24 -1 24 0 24 -1 24 -1 
24 -1 25 -1 24 -1 24 -1 24 -1 24 -1 24 -1 25 -1 
24 -1 24 -1 24 -1 24 -1 24 -1 24 -1 25 -1 24 -1 
24 -1 24 -1 24 -1 24 -1 25 0 24 -1 24 -1 24 0 
24 -1 24 0 25 -1 24 0 24 -1 24 0 24 0 24 -1 
24 0 25 0 24 0 24 0 24 0 24 0 24 0 25 0 
24 0 24 1 24 0 24 0 24 0 25 1 24 0 24 0 
24 1 24 0 24 1 24 1 25 0 24 1 24 1 24 0 
24 1 24 1 25 1 24 1 24 1 24 1 24 1 24 1 
25 1 24 1 24 1 24 1 24 1 24 1 24 1 25 1 
24 1 24 1 24 1 24 0 24 1 25 1 24 1 24 0 
24 1 24 0 24 1 25 0 24 0 24 1 24 0 24 0 
24 0 24 0 25 -1 3314 2156 100 MP stroke
24 0 24 0 24 -1 24 -1 24 0 25 -1 24 -1 24 0 
24 -1 24 -1 24 -1 25 -1 24 -1 24 -1 24 -1 24 -2 
24 -1 25 -1 24 -1 24 -1 24 -1 24 -1 24 -1 24 -1 
25 -1 24 -1 24 -1 24 0 24 -1 24 -1 25 -1 24 0 
24 -1 24 0 24 -1 24 0 25 -1 24 0 24 0 24 0 
24 -1 24 0 24 0 25 0 24 0 24 0 24 0 24 0 
24 0 25 0 24 1 24 0 24 0 24 1 24 0 25 0 
24 1 24 0 24 1 24 0 24 1 24 1 25 0 24 1 
24 1 24 1 24 0 24 1 25 1 24 1 24 1 24 1 
24 1 24 1 25 1 24 1 24 1 24 1 24 1 24 1 
24 1 25 1 24 1 24 1 24 1 24 1 24 0 25 1 
24 1 24 0 24 1 24 0 24 0 25 1 24 0 24 0 
24 0 24 0 24 -1 923 2156 100 MP stroke
24 0 899 2156 2 MP stroke
24 0 24 -1 24 0 25 -1 24 0 24 -1 24 -1 24 -1 
24 -1 25 -1 24 0 24 -1 24 -2 24 -1 24 -1 25 -1 
24 -1 24 -1 24 -1 24 -1 24 -1 24 -1 25 -1 24 -1 
24 -1 24 -1 24 -1 24 0 25 -1 24 -1 24 -1 24 0 
24 -1 24 0 25 -1 24 0 24 0 24 -1 24 0 24 0 
24 -1 25 0 24 0 24 0 24 0 24 0 24 0 25 0 
24 0 24 1 24 0 24 0 24 0 25 1 24 0 24 0 
24 1 24 0 24 1 24 0 25 1 24 1 24 0 24 1 
24 1 24 1 25 1 24 1 24 0 24 1 24 1 24 1 
25 1 24 1 24 1 24 1 24 2 24 1 24 1 25 1 
24 1 24 1 24 0 24 1 24 1 25 1 24 1 24 0 
24 1 24 0 24 1 25 0 24 1 24 0 24 0 24 0 
24 0 24 0 25 -1 3314 2157 100 MP stroke
24 0 24 0 24 -1 24 0 24 -1 25 -1 24 0 24 -1 
24 -1 24 -1 24 -1 25 -1 24 -1 24 -1 24 -1 24 -1 
24 -1 25 -1 24 -1 24 -2 24 -1 24 -1 24 -1 24 -1 
25 0 24 -1 24 -1 24 -1 24 -1 24 -1 25 0 24 -1 
24 0 24 -1 24 0 24 -1 25 0 24 -1 24 0 24 0 
24 0 24 -1 24 0 25 0 24 0 24 0 24 0 24 0 
24 0 25 1 24 0 24 0 24 0 24 1 24 0 25 0 
24 1 24 0 24 1 24 0 24 1 24 0 25 1 24 1 
24 1 24 0 24 1 24 1 25 1 24 1 24 1 24 1 
24 1 24 1 25 1 24 1 24 1 24 1 24 1 24 1 
24 1 25 1 24 1 24 1 24 1 24 1 24 0 25 1 
24 1 24 0 24 1 24 0 24 0 25 1 24 0 24 0 
24 0 24 0 24 0 923 2156 100 MP stroke
24 -1 899 2157 2 MP stroke
24 -1 24 0 24 -1 25 0 24 -1 24 -1 24 0 24 -1 
24 -1 25 -1 24 -1 24 -1 24 -1 24 -1 24 -1 25 -1 
24 -1 24 -1 24 -1 24 -2 24 -1 24 -1 25 -1 24 -1 
24 0 24 -1 24 -1 24 -1 25 -1 24 0 24 -1 24 -1 
24 0 24 -1 25 0 24 -1 24 0 24 0 24 -1 24 0 
24 0 25 0 24 0 24 -1 24 0 24 0 24 0 25 1 
24 0 24 0 24 0 24 0 24 1 25 0 24 0 24 1 
24 0 24 1 24 0 24 1 25 0 24 1 24 1 24 0 
24 1 24 1 25 1 24 1 24 0 24 1 24 1 24 1 
25 1 24 1 24 1 24 1 24 2 24 1 24 1 25 1 
24 1 24 1 24 1 24 0 24 1 25 1 24 1 24 0 
24 1 24 1 24 0 25 0 24 1 24 0 24 0 24 0 
24 0 24 0 25 0 3314 2157 100 MP stroke
24 -1 24 0 24 0 24 -1 24 -1 25 0 24 -1 24 -1 
24 -1 24 -1 24 -1 25 -1 24 -1 24 -1 24 -1 24 -1 
24 -1 25 -1 24 -1 24 -1 24 -1 24 -1 24 -1 24 -1 
25 -1 24 -1 24 -1 24 -1 24 0 24 -1 25 -1 24 0 
24 -1 24 -1 24 0 24 0 25 -1 24 0 24 -1 24 0 
24 0 24 0 24 0 25 0 24 -1 24 0 24 0 24 1 
24 0 25 0 24 0 24 0 24 0 24 1 24 0 25 0 
24 1 24 0 24 1 24 0 24 1 24 1 25 0 24 1 
24 1 24 0 24 1 24 1 25 1 24 1 24 1 24 1 
24 1 24 1 25 1 24 1 24 1 24 1 24 1 24 1 
24 1 25 1 24 1 24 1 24 1 24 1 24 0 25 1 
24 1 24 0 24 1 24 0 24 1 25 0 24 0 24 0 
24 0 24 0 24 0 923 2157 100 MP stroke
24 0 899 2157 2 MP stroke
24 0 24 -1 24 0 25 -1 24 0 24 -1 24 -1 24 -1 
24 -1 25 -1 24 0 24 -1 24 -1 24 -2 24 -1 25 -1 
24 -1 24 -1 24 -1 24 -1 24 -1 24 -1 25 -1 24 -1 
24 -1 24 -1 24 -1 24 0 25 -1 24 -1 24 -1 24 0 
24 -1 24 0 25 -1 24 0 24 -1 24 0 24 0 24 0 
24 -1 25 0 24 0 24 0 24 0 24 0 24 0 25 0 
24 0 24 0 24 0 24 1 24 0 25 0 24 1 24 0 
24 0 24 1 24 0 24 1 25 0 24 1 24 1 24 1 
24 0 24 1 25 1 24 1 24 1 24 1 24 1 24 1 
25 1 24 1 24 1 24 1 24 1 24 1 24 1 25 1 
24 1 24 1 24 1 24 1 24 0 25 1 24 1 24 1 
24 0 24 1 24 0 25 1 24 0 24 0 24 0 24 0 
24 0 24 0 25 0 3314 2158 100 MP stroke
24 0 24 -1 24 0 24 0 24 -1 25 -1 24 0 24 -1 
24 -1 24 -1 24 -1 25 -1 24 -1 24 -1 24 -1 24 -1 
24 -1 25 -1 24 -1 24 -1 24 -1 24 -1 24 -1 24 -1 
25 -1 24 -1 24 -1 24 -1 24 -1 24 -1 25 0 24 -1 
24 0 24 -1 24 -1 24 0 25 0 24 -1 24 0 24 0 
24 -1 24 0 24 0 25 0 24 0 24 0 24 0 24 0 
24 0 25 0 24 0 24 1 24 0 24 0 24 0 25 1 
24 0 24 1 24 0 24 1 24 0 24 1 25 0 24 1 
24 1 24 1 24 0 24 1 25 1 24 1 24 1 24 1 
24 1 24 1 25 1 24 1 24 1 24 1 24 1 24 1 
24 1 25 1 24 1 24 1 24 1 24 1 24 1 25 0 
24 1 24 1 24 0 24 1 24 0 25 0 24 0 24 0 
24 0 24 0 24 0 923 2158 100 MP stroke
24 0 899 2158 2 MP stroke
24 -1 24 0 24 -1 25 0 24 -1 24 -1 24 0 24 -1 
24 -1 25 -1 24 -1 24 -1 24 -1 24 -1 24 -1 25 -1 
24 -1 24 -1 24 -1 24 -1 24 -1 24 -1 25 -1 24 -1 
24 -1 24 -1 24 -1 24 -1 25 0 24 -1 24 -1 24 -1 
24 0 24 -1 25 0 24 -1 24 0 24 0 24 -1 24 0 
24 0 25 0 24 0 24 0 24 -1 24 0 24 0 25 1 
24 0 24 0 24 0 24 0 24 0 25 1 24 0 24 0 
24 1 24 0 24 1 24 0 25 1 24 1 24 0 24 1 
24 1 24 0 25 1 24 1 24 1 24 1 24 1 24 1 
25 1 24 1 24 1 24 1 24 1 24 1 24 1 25 1 
24 1 24 1 24 1 24 1 24 1 25 1 24 0 24 1 
24 1 24 0 24 1 25 0 24 1 24 0 24 0 24 0 
24 0 24 0 25 0 3314 2158 100 MP stroke
24 -1 24 0 24 0 24 -1 24 -1 25 0 24 -1 24 -1 
24 -1 24 0 24 -1 25 -1 24 -1 24 -1 24 -1 24 -1 
24 -2 25 -1 24 -1 24 -1 24 -1 24 -1 24 -1 24 -1 
25 -1 24 -1 24 0 24 -1 24 -1 24 -1 25 -1 24 0 
24 -1 24 0 24 -1 24 0 25 -1 24 0 24 0 24 -1 
24 0 24 0 24 0 25 0 24 -1 24 0 24 0 24 0 
24 1 25 0 24 0 24 0 24 0 24 1 24 0 25 0 
24 1 24 0 24 1 24 0 24 1 24 0 25 1 24 1 
24 0 24 1 24 1 24 1 25 1 24 1 24 0 24 1 
24 1 24 1 25 1 24 2 24 1 24 1 24 1 24 1 
24 1 25 1 24 1 24 1 24 0 24 1 24 1 25 1 
24 0 24 1 24 1 24 0 24 0 25 1 24 0 24 0 
24 0 24 0 24 0 923 2158 100 MP stroke
24 0 899 2158 2 MP stroke
24 0 24 -1 24 0 25 -1 24 0 24 -1 24 -1 24 0 
24 -1 25 -1 24 -1 24 -1 24 -1 24 -1 24 -1 25 -1 
24 -1 24 -1 24 -1 24 -2 24 -1 24 -1 25 -1 24 -1 
24 0 24 -1 24 -1 24 -1 25 -1 24 0 24 -1 24 -1 
24 0 24 -1 25 0 24 -1 24 0 24 -1 24 0 24 0 
24 0 25 -1 24 0 24 0 24 0 24 0 24 0 25 0 
24 0 24 0 24 1 24 0 24 0 25 0 24 1 24 0 
24 0 24 1 24 0 24 1 25 0 24 1 24 1 24 0 
24 1 24 1 25 1 24 1 24 1 24 0 24 1 24 1 
25 1 24 1 24 1 24 1 24 2 24 1 24 1 25 1 
24 1 24 1 24 1 24 0 24 1 25 1 24 1 24 1 
24 0 24 1 24 0 25 1 24 0 24 0 24 0 24 1 
24 0 24 -1 25 0 3314 2159 100 MP stroke
24 0 24 0 24 -1 24 0 24 -1 25 0 24 -1 24 -1 
24 -1 24 -1 24 -1 25 -1 24 -1 24 -1 24 -1 24 -1 
24 -1 25 -1 24 -1 24 -1 24 -1 24 -1 24 -1 24 -1 
25 -1 24 -1 24 -1 24 -1 24 0 24 -1 25 -1 24 0 
24 -1 24 -1 24 0 24 -1 25 0 24 0 24 -1 24 0 
24 0 24 -1 24 0 25 0 24 0 24 0 24 0 24 0 
24 0 25 0 24 0 24 1 24 0 24 0 24 0 25 1 
24 0 24 1 24 0 24 1 24 0 24 1 25 0 24 1 
24 1 24 1 24 0 24 1 25 1 24 1 24 1 24 1 
24 1 24 1 25 1 24 1 24 1 24 1 24 1 24 1 
24 1 25 1 24 1 24 1 24 1 24 1 24 1 25 0 
24 1 24 1 24 0 24 1 24 0 25 0 24 0 24 1 
24 0 24 0 24 -1 923 2159 100 MP stroke
24 0 899 2159 2 MP stroke
24 0 24 -1 24 0 25 -1 24 0 24 -1 24 -1 24 -1 
24 0 25 -1 24 -1 24 -1 24 -1 24 -1 24 -1 25 -1 
24 -2 24 -1 24 -1 24 -1 24 -1 24 -1 25 -1 24 -1 
24 -1 24 -1 24 0 24 -1 25 -1 24 -1 24 0 24 -1 
24 -1 24 0 25 -1 24 0 24 0 24 -1 24 0 24 0 
24 -1 25 0 24 0 24 0 24 0 24 0 24 0 25 0 
24 0 24 0 24 0 24 0 24 1 25 0 24 0 24 1 
24 0 24 0 24 1 24 0 25 1 24 1 24 0 24 1 
24 1 24 1 25 0 24 1 24 1 24 1 24 1 24 1 
25 1 24 1 24 1 24 1 24 1 24 1 24 1 25 1 
24 1 24 1 24 1 24 1 24 1 25 1 24 0 24 1 
24 1 24 0 24 1 25 0 24 1 24 0 24 0 24 0 
24 0 24 0 25 0 3314 2159 100 MP stroke
24 0 24 -1 24 0 24 -1 24 0 25 -1 24 0 24 -1 
24 -1 24 -1 24 -1 25 -1 24 -1 24 -1 24 -1 24 -1 
24 -1 25 -1 24 -1 24 -1 24 -1 24 -1 24 -1 24 -1 
25 -1 24 -1 24 -1 24 -1 24 -1 24 0 25 -1 24 -1 
24 0 24 -1 24 0 24 -1 25 0 24 -1 24 0 24 0 
24 -1 24 0 24 0 25 0 24 0 24 0 24 0 24 0 
24 0 25 0 24 0 24 0 24 1 24 0 24 0 25 0 
24 1 24 0 24 1 24 0 24 1 24 0 25 1 24 1 
24 0 24 1 24 1 24 1 25 1 24 1 24 0 24 1 
24 1 24 1 25 1 24 2 24 1 24 1 24 1 24 1 
24 1 25 1 24 1 24 1 24 0 24 1 24 1 25 1 
24 1 24 0 24 1 24 0 24 1 25 0 24 0 24 0 
24 0 24 0 24 0 923 2159 100 MP stroke
24 0 899 2159 2 MP stroke
24 -1 24 0 24 -1 25 0 24 -1 24 0 24 -1 24 -1 
24 -1 25 -1 24 -1 24 -1 24 -1 24 -1 24 -1 25 -1 
24 -1 24 -1 24 -1 24 -1 24 -1 24 -1 25 -1 24 -1 
24 -1 24 -1 24 -1 24 0 25 -1 24 -1 24 -1 24 0 
24 -1 24 0 25 -1 24 0 24 -1 24 0 24 0 24 -1 
24 0 25 0 24 0 24 0 24 0 24 0 24 0 25 0 
24 0 24 0 24 0 24 0 24 0 25 1 24 0 24 0 
24 1 24 0 24 1 24 0 25 1 24 0 24 1 24 1 
24 0 24 1 25 1 24 1 24 1 24 1 24 1 24 1 
25 1 24 1 24 1 24 1 24 1 24 1 24 1 25 1 
24 1 24 1 24 1 24 1 24 1 25 0 24 1 24 1 
24 0 24 1 24 1 25 0 24 0 24 1 24 0 24 0 
24 0 24 0 25 0 3314 2159 100 MP stroke
24 -1 24 0 24 0 24 -1 24 0 25 -1 24 -1 24 0 
24 -1 24 -1 24 -1 25 -1 24 -1 24 -1 24 -1 24 -1 
24 -1 25 -1 24 -1 24 -1 24 -1 24 -1 24 -1 24 -1 
25 -1 24 -1 24 -1 24 -1 24 -1 24 0 25 -1 24 -1 
24 0 24 -1 24 -1 24 0 25 0 24 -1 24 0 24 -1 
24 0 24 0 24 0 25 0 24 0 24 0 24 0 24 0 
24 0 25 0 24 0 24 0 24 0 24 0 24 1 25 0 
24 0 24 1 24 0 24 1 24 0 24 1 25 1 24 0 
24 1 24 1 24 1 24 0 25 1 24 1 24 1 24 1 
24 1 24 1 25 1 24 1 24 1 24 1 24 1 24 1 
24 1 25 1 24 1 24 1 24 1 24 1 24 1 25 0 
24 1 24 1 24 0 24 1 24 0 25 1 24 0 24 0 
24 0 24 0 24 0 923 2159 100 MP stroke
24 0 899 2159 2 MP stroke
24 0 24 0 24 -1 25 0 24 -1 24 -1 24 0 24 -1 
24 -1 25 -1 24 -1 24 -1 24 -1 24 -1 24 -1 25 -1 
24 -1 24 -1 24 -1 24 -1 24 -1 24 -1 25 -1 24 -1 
24 -1 24 -1 24 -1 24 0 25 -1 24 -1 24 -1 24 0 
24 -1 24 0 25 -1 24 0 24 -1 24 0 24 -1 24 0 
24 0 25 0 24 0 24 -1 24 0 24 0 24 0 25 0 
24 0 24 1 24 0 24 0 24 0 25 0 24 1 24 0 
24 0 24 1 24 0 24 1 25 0 24 1 24 1 24 0 
24 1 24 1 25 1 24 1 24 0 24 1 24 1 24 1 
25 1 24 1 24 1 24 1 24 1 24 1 24 1 25 1 
24 1 24 1 24 1 24 1 24 1 25 1 24 1 24 1 
24 0 24 1 24 0 25 1 24 0 24 0 24 1 24 0 
24 0 24 0 25 -1 3314 2160 100 MP stroke
24 0 24 0 24 -1 24 0 24 -1 25 0 24 -1 24 -1 
24 0 24 -1 24 -1 25 -1 24 -1 24 -1 24 -1 24 -1 
24 -1 25 -1 24 -1 24 -1 24 -2 24 -1 24 -1 24 -1 
25 0 24 -1 24 -1 24 -1 24 -1 24 -1 25 0 24 -1 
24 -1 24 0 24 -1 24 0 25 -1 24 0 24 0 24 -1 
24 0 24 0 24 0 25 0 24 -1 24 0 24 0 24 0 
24 0 25 0 24 1 24 0 24 0 24 0 24 1 25 0 
24 0 24 1 24 0 24 1 24 0 24 1 25 0 24 1 
24 1 24 0 24 1 24 1 25 1 24 1 24 1 24 1 
24 1 24 1 25 1 24 1 24 1 24 1 24 1 24 1 
24 1 25 1 24 1 24 1 24 1 24 1 24 0 25 1 
24 1 24 1 24 0 24 1 24 0 25 0 24 0 24 1 
24 0 24 0 24 0 923 2159 100 MP stroke
24 -1 899 2160 2 MP stroke
24 0 24 -1 24 0 25 0 24 -1 24 -1 24 0 24 -1 
24 -1 25 -1 24 -1 24 -1 24 -1 24 -1 24 -1 25 -1 
24 -1 24 -1 24 -1 24 -1 24 -1 24 -1 25 -1 24 -1 
24 -1 24 -1 24 -1 24 -1 25 0 24 -1 24 -1 24 0 
24 -1 24 -1 25 0 24 -1 24 0 24 0 24 -1 24 0 
24 0 25 0 24 -1 24 0 24 0 24 0 24 0 25 0 
24 0 24 0 24 0 24 1 24 0 25 0 24 0 24 1 
24 0 24 0 24 1 24 0 25 1 24 1 24 0 24 1 
24 1 24 0 25 1 24 1 24 1 24 1 24 1 24 1 
25 1 24 1 24 1 24 1 24 1 24 1 24 1 25 1 
24 1 24 1 24 1 24 1 24 1 25 1 24 0 24 1 
24 1 24 0 24 1 25 0 24 1 24 0 24 0 24 0 
24 0 24 0 25 0 3314 2160 100 MP stroke
24 0 24 0 24 -1 24 0 24 -1 25 0 24 -1 24 -1 
24 -1 24 0 24 -1 25 -1 24 -1 24 -1 24 -1 24 -1 
24 -1 25 -1 24 -2 24 -1 24 -1 24 -1 24 -1 24 -1 
25 -1 24 0 24 -1 24 -1 24 -1 24 -1 25 0 24 -1 
24 -1 24 0 24 -1 24 0 25 -1 24 0 24 -1 24 0 
24 0 24 0 24 -1 25 0 24 0 24 0 24 0 24 0 
24 0 25 0 24 0 24 0 24 1 24 0 24 0 25 1 
24 0 24 0 24 1 24 0 24 1 24 0 25 1 24 1 
24 0 24 1 24 1 24 1 25 0 24 1 24 1 24 1 
24 1 24 1 25 1 24 1 24 1 24 1 24 1 24 1 
24 1 25 1 24 1 24 1 24 1 24 1 24 1 25 1 
24 0 24 1 24 1 24 0 24 1 25 0 24 0 24 0 
24 0 24 0 24 0 923 2160 100 MP stroke
24 0 899 2160 2 MP stroke
SO
24 0 24 0 24 0 25 -1 24 -1 24 -1 24 -2 24 -1 
24 -2 25 -2 24 -3 24 -2 24 -2 24 -3 24 -2 25 -3 
24 -2 24 -2 24 -2 24 -2 24 -2 24 -1 25 -1 24 -1 
24 0 24 -1 24 0 24 1 25 0 24 1 24 1 24 2 
24 2 24 1 25 2 24 2 24 3 24 2 24 2 24 2 
24 2 25 2 24 2 24 2 24 2 24 1 24 1 25 1 
24 0 24 1 24 0 24 -1 24 0 25 -1 24 -2 24 -1 
24 -2 24 -1 24 -3 24 -2 25 -2 24 -2 24 -3 24 -2 
24 -2 24 -3 25 -2 24 -2 24 -2 24 -1 24 -1 24 -2 
25 0 24 -1 24 0 24 0 24 1 24 0 24 1 25 2 
24 1 24 2 24 2 24 2 24 3 25 2 24 3 24 2 
24 3 24 3 24 2 25 2 24 3 24 2 24 1 24 2 
24 1 24 1 25 1 3314 737 100 MP stroke
24 0 24 0 24 0 24 0 24 -1 25 -1 24 -2 24 -1 
24 -2 24 -2 24 -3 25 -2 24 -2 24 -3 24 -2 24 -3 
24 -2 25 -2 24 -2 24 -2 24 -2 24 -1 24 -2 24 -1 
25 0 24 -1 24 0 24 1 24 0 24 1 25 1 24 1 
24 2 24 1 24 2 24 2 25 2 24 3 24 2 24 2 
24 2 24 2 24 2 25 2 24 2 24 1 24 2 24 0 
24 1 25 1 24 0 24 -1 24 0 24 -1 24 -1 25 -1 
24 -2 24 -2 24 -1 24 -3 24 -2 24 -2 25 -3 24 -2 
24 -2 24 -3 24 -2 24 -2 25 -2 24 -1 24 -2 24 -1 
24 -1 24 -1 25 0 24 0 24 0 24 1 24 1 24 1 
24 2 25 1 24 2 24 2 24 3 24 2 24 3 25 2 
24 3 24 2 24 3 24 2 24 2 25 3 24 1 24 2 
24 2 24 1 24 1 923 737 100 MP stroke
24 0 899 737 2 MP stroke
24 0 24 0 24 -1 25 0 24 -1 24 -1 24 -2 24 -1 
24 -2 25 -2 24 -2 24 -2 24 -3 24 -2 24 -2 25 -2 
24 -2 24 -3 24 -2 24 -1 24 -2 24 -1 25 -2 24 -1 
24 -1 24 0 24 0 24 0 25 0 24 0 24 1 24 1 
24 1 24 1 25 1 24 2 24 1 24 2 24 1 24 2 
24 2 25 1 24 2 24 1 24 1 24 1 24 1 25 1 
24 0 24 0 24 0 24 0 24 0 25 -1 24 -1 24 -1 
24 -1 24 -1 24 -2 24 -1 25 -2 24 -1 24 -2 24 -2 
24 -1 24 -2 25 -1 24 -1 24 -2 24 -1 24 0 24 -1 
25 0 24 0 24 0 24 0 24 1 24 1 24 1 25 2 
24 1 24 2 24 2 24 2 24 2 25 2 24 3 24 2 
24 2 24 2 24 3 25 2 24 1 24 2 24 2 24 1 
24 1 24 1 25 0 3314 820 100 MP stroke
24 1 24 0 24 0 24 -1 24 -1 25 -1 24 -1 24 -2 
24 -1 24 -2 24 -2 25 -2 24 -2 24 -3 24 -2 24 -2 
24 -2 25 -3 24 -2 24 -1 24 -2 24 -2 24 -1 24 -1 
25 -1 24 -1 24 0 24 0 24 0 24 0 25 0 24 1 
24 1 24 1 24 2 24 1 25 1 24 2 24 2 24 1 
24 2 24 1 24 2 25 1 24 1 24 2 24 1 24 0 
24 1 25 0 24 0 24 0 24 0 24 -1 24 0 25 -1 
24 -1 24 -1 24 -2 24 -1 24 -2 24 -2 25 -1 24 -2 
24 -1 24 -2 24 -1 24 -2 25 -1 24 -1 24 -1 24 -1 
24 0 24 0 25 0 24 0 24 1 24 1 24 1 24 1 
24 1 25 2 24 2 24 2 24 2 24 2 24 2 25 3 
24 2 24 2 24 2 24 3 24 2 25 1 24 2 24 1 
24 2 24 1 24 0 923 820 100 MP stroke
24 1 899 819 2 MP stroke
24 0 24 -1 24 0 25 -1 24 -2 24 -1 24 -2 24 -1 
24 -2 25 -2 24 -3 24 -2 24 -2 24 -2 24 -3 25 -2 
24 -2 24 -2 24 -2 24 -2 24 -2 24 -1 25 -1 24 -1 
24 -1 24 -1 24 0 24 0 25 0 24 0 24 0 24 1 
24 1 24 1 25 1 24 1 24 1 24 1 24 2 24 1 
24 1 25 2 24 1 24 1 24 1 24 1 24 1 25 0 
24 1 24 0 24 0 24 0 24 0 25 -1 24 0 24 -1 
24 -1 24 0 24 -1 24 -1 25 -1 24 -2 24 -1 24 -1 
24 -1 24 0 25 -1 24 -1 24 0 24 -1 24 0 24 0 
25 0 24 1 24 1 24 0 24 1 24 2 24 1 25 1 
24 2 24 2 24 2 24 2 24 2 25 2 24 2 24 2 
24 2 24 2 24 2 25 1 24 2 24 1 24 1 24 1 
24 1 24 0 25 0 3314 909 100 MP stroke
24 0 24 0 24 -1 24 -1 24 -1 25 -1 24 -2 24 -2 
24 -1 24 -2 24 -3 25 -2 24 -2 24 -2 24 -3 24 -2 
24 -2 25 -2 24 -2 24 -2 24 -2 24 -1 24 -2 24 -1 
25 -1 24 -1 24 0 24 0 24 0 24 0 25 0 24 1 
24 0 24 1 24 1 24 1 25 2 24 1 24 1 24 1 
24 2 24 1 24 1 25 1 24 2 24 0 24 1 24 1 
24 0 25 1 24 0 24 0 24 0 24 0 24 -1 25 0 
24 -1 24 -1 24 -1 24 -1 24 -1 24 -1 25 -1 24 -1 
24 -1 24 -1 24 -1 24 0 25 -1 24 0 24 -1 24 0 
24 0 24 1 25 0 24 1 24 1 24 1 24 1 24 2 
24 1 25 2 24 2 24 2 24 2 24 2 24 2 25 2 
24 2 24 2 24 2 24 1 24 2 25 1 24 2 24 0 
24 1 24 1 24 0 923 909 100 MP stroke
24 0 899 909 2 MP stroke
24 -3 24 -3 24 -3 25 -4 24 -3 24 -4 24 -5 24 -4 
24 -4 25 -5 24 -4 24 -4 24 -5 24 -3 24 -4 25 -4 
24 -3 24 -2 24 -3 24 -2 24 -1 24 -2 25 0 24 -1 
24 0 24 0 24 1 24 1 25 1 24 2 24 1 24 2 
24 2 24 2 25 2 24 2 24 2 24 2 24 1 24 2 
24 1 25 1 24 1 24 0 24 1 24 -1 24 0 25 -1 
24 -1 24 -1 24 -1 24 -2 24 -1 25 -2 24 -2 24 -2 
24 -2 24 -2 24 -2 24 -1 25 -2 24 -1 24 -1 24 -1 
24 0 24 0 25 0 24 1 24 1 24 2 24 2 24 2 
25 3 24 3 24 3 24 4 24 3 24 4 24 5 25 4 
24 4 24 5 24 4 24 4 24 4 25 4 24 4 24 3 
24 3 24 2 24 2 25 2 24 1 24 1 24 0 24 0 
24 -1 24 -2 25 -1 3314 1091 100 MP stroke
24 -3 24 -2 24 -3 24 -4 24 -3 25 -4 24 -5 24 -4 
24 -4 24 -5 24 -4 25 -4 24 -5 24 -4 24 -3 24 -4 
24 -3 25 -3 24 -3 24 -2 24 -2 24 -1 24 -1 24 -1 
25 0 24 0 24 1 24 1 24 1 24 1 25 2 24 1 
24 2 24 2 24 2 24 2 25 2 24 2 24 2 24 1 
24 2 24 1 24 1 25 0 24 0 24 1 24 -1 24 0 
24 -1 25 -1 24 -1 24 -2 24 -2 24 -1 24 -2 25 -2 
24 -2 24 -2 24 -2 24 -2 24 -1 24 -2 25 -1 24 -1 
24 0 24 0 24 0 24 0 25 1 24 2 24 1 24 3 
24 2 24 3 25 3 24 4 24 3 24 4 24 5 24 4 
24 4 25 5 24 4 24 4 24 4 24 4 24 4 25 3 
24 4 24 2 24 3 24 1 24 2 25 1 24 0 24 0 
24 -1 24 -1 24 -1 923 1090 100 MP stroke
24 -2 899 1092 2 MP stroke
24 0 24 -1 24 -3 25 -5 24 -5 24 -7 24 -9 24 -9 
24 -11 25 -11 24 -12 24 -13 24 -13 24 -13 24 -14 25 -13 
24 -13 24 -13 24 -12 24 -12 24 -10 24 -10 25 -9 24 -8 
24 -7 24 -5 24 -5 24 -3 25 -2 24 -1 24 0 24 1 
24 3 24 3 25 3 24 5 24 5 24 5 24 5 24 6 
24 5 25 6 24 5 24 4 24 5 24 3 24 3 25 3 
24 1 24 1 24 0 24 -1 24 -2 25 -2 24 -4 24 -3 
24 -5 24 -5 24 -5 24 -5 25 -6 24 -5 24 -6 24 -5 
24 -5 24 -4 25 -3 24 -3 24 -2 24 -1 24 0 24 2 
25 2 24 4 24 4 24 6 24 7 24 9 24 9 25 10 
24 11 24 12 24 12 24 13 24 13 25 14 24 13 24 13 
24 13 24 13 24 12 25 11 24 10 24 9 24 8 24 7 
24 5 24 4 25 2 3314 1739 100 MP stroke
24 1 24 0 24 -3 24 -3 24 -5 25 -7 24 -7 24 -9 
24 -10 24 -11 24 -12 25 -12 24 -13 24 -14 24 -13 24 -13 
24 -14 25 -13 24 -12 24 -12 24 -11 24 -11 24 -9 24 -8 
25 -8 24 -6 24 -5 24 -4 24 -2 24 -2 25 0 24 1 
24 1 24 3 24 3 24 4 25 5 24 5 24 5 24 6 
24 5 24 6 24 5 25 5 24 5 24 4 24 3 24 3 
24 1 25 2 24 0 24 -1 24 -1 24 -2 24 -3 25 -4 
24 -4 24 -4 24 -5 24 -6 24 -5 24 -6 25 -5 24 -5 
24 -5 24 -5 24 -4 24 -3 25 -2 24 -1 24 -1 24 1 
24 2 24 3 25 4 24 5 24 7 24 7 24 9 24 10 
24 10 25 12 24 12 24 13 24 13 24 13 24 13 25 14 
24 13 24 13 24 12 24 11 24 11 25 10 24 8 24 7 
24 6 24 5 24 3 923 1740 100 MP stroke
24 2 899 1738 2 MP stroke
24 0 24 -3 24 -5 25 -9 24 -11 24 -13 24 -16 24 -18 
24 -19 25 -22 24 -22 24 -24 24 -24 24 -25 24 -25 25 -25 
24 -24 24 -23 24 -22 24 -21 24 -20 24 -17 25 -16 24 -13 
24 -11 24 -9 24 -7 24 -4 25 -2 24 0 24 2 24 4 
24 6 24 7 25 9 24 10 24 11 24 12 24 12 24 12 
24 11 25 12 24 10 24 10 24 9 24 8 24 6 25 5 
24 3 24 1 24 0 24 -3 24 -3 25 -6 24 -6 24 -9 
24 -9 24 -10 24 -11 24 -12 25 -12 24 -12 24 -12 24 -11 
24 -11 24 -9 25 -8 24 -7 24 -5 24 -4 24 -1 24 1 
25 3 24 5 24 8 24 10 24 12 24 14 24 17 25 18 
24 20 24 21 24 23 24 24 24 24 25 25 24 25 24 25 
24 24 24 23 24 22 25 21 24 19 24 17 24 15 24 12 
24 10 24 7 25 5 3314 2823 100 MP stroke
24 1 24 -1 24 -4 24 -7 24 -10 25 -12 24 -15 24 -17 
24 -18 24 -21 24 -22 25 -23 24 -24 24 -25 24 -25 24 -24 
24 -25 25 -24 24 -22 24 -22 24 -20 24 -19 24 -16 24 -15 
25 -12 24 -10 24 -8 24 -5 24 -4 24 -1 25 2 24 3 
24 5 24 7 24 8 24 9 25 11 24 11 24 12 24 12 
24 11 24 12 24 11 25 11 24 9 24 8 24 7 24 5 
24 4 25 2 24 1 24 -1 24 -3 24 -5 24 -6 25 -7 
24 -9 24 -10 24 -11 24 -11 24 -12 24 -12 25 -12 24 -11 
24 -11 24 -11 24 -8 24 -8 25 -6 24 -4 24 -3 24 0 
24 2 24 4 25 7 24 8 24 11 24 14 24 15 24 17 
24 20 25 20 24 23 24 23 24 24 24 25 24 24 25 25 
24 25 24 23 24 23 24 22 24 20 25 18 24 16 24 13 
24 12 24 8 24 6 923 2825 100 MP stroke
24 3 899 2822 2 MP stroke
24 9 24 6 24 2 25 -2 24 -6 24 -10 24 -13 24 -16 
24 -19 25 -23 24 -24 24 -28 24 -29 24 -30 24 -32 25 -32 
24 -32 24 -32 24 -31 24 -31 24 -29 24 -27 25 -24 24 -23 
24 -19 24 -17 24 -13 24 -11 25 -6 24 -4 24 0 24 3 
24 6 24 9 25 11 24 14 24 16 24 18 24 19 24 20 
24 21 25 21 24 22 24 20 24 20 24 18 24 17 25 15 
24 13 24 11 24 8 24 6 24 2 25 0 24 -2 24 -5 
24 -8 24 -10 24 -13 24 -14 25 -16 24 -17 24 -19 24 -19 
24 -19 24 -19 25 -19 24 -17 24 -17 24 -15 24 -13 24 -11 
25 -8 24 -6 24 -2 24 0 24 3 24 7 24 10 25 12 
24 16 24 19 24 21 24 24 24 25 25 28 24 29 24 29 
24 31 24 30 24 31 25 29 24 29 24 27 24 25 24 23 
24 20 24 17 25 15 3314 3547 100 MP stroke
24 10 24 8 24 3 24 0 24 -4 25 -7 24 -12 24 -14 
24 -18 24 -21 24 -24 25 -26 24 -28 24 -30 24 -31 24 -32 
24 -32 25 -32 24 -32 24 -31 24 -29 24 -28 24 -26 24 -24 
25 -21 24 -18 24 -15 24 -12 24 -8 24 -6 25 -2 24 2 
24 4 24 8 24 10 24 13 25 15 24 17 24 18 24 20 
24 21 24 21 24 21 25 21 24 20 24 19 24 18 24 16 
24 14 25 12 24 9 24 7 24 4 24 2 24 -2 25 -3 
24 -7 24 -9 24 -11 24 -14 24 -15 24 -17 25 -17 24 -19 
24 -19 24 -20 24 -18 24 -19 25 -17 24 -16 24 -14 24 -12 
24 -9 24 -7 25 -4 24 -2 24 2 24 5 24 8 24 12 
24 14 25 17 24 20 24 23 24 24 24 27 24 28 25 29 
24 31 24 30 24 31 24 30 24 29 25 28 24 26 24 24 
24 21 24 19 24 16 923 3554 100 MP stroke
24 12 899 3542 2 MP stroke
24 10 24 7 24 6 25 2 24 0 24 -2 24 -5 24 -8 
24 -9 25 -12 24 -14 24 -16 24 -18 24 -19 24 -20 25 -21 
24 -22 24 -21 24 -22 24 -22 24 -21 24 -20 25 -19 24 -18 
24 -16 24 -14 24 -13 24 -10 25 -8 24 -5 24 -4 24 -1 
24 2 24 3 25 6 24 8 24 9 24 11 24 13 24 14 
24 15 25 15 24 16 24 16 24 16 24 15 24 15 25 13 
24 13 24 11 24 10 24 8 24 6 25 5 24 2 24 0 
24 -1 24 -4 24 -5 24 -7 25 -8 24 -10 24 -11 24 -12 
24 -13 24 -14 25 -13 24 -14 24 -13 24 -13 24 -12 24 -10 
25 -10 24 -8 24 -6 24 -5 24 -2 24 -1 24 2 25 3 
24 6 24 8 24 10 24 12 24 14 25 15 24 17 24 18 
24 18 24 20 24 19 25 20 24 20 24 19 24 18 24 18 
24 16 24 14 25 13 3314 3333 100 MP stroke
24 11 24 8 24 6 24 4 24 1 25 -1 24 -3 24 -7 
24 -8 24 -11 24 -13 25 -15 24 -17 24 -18 24 -20 24 -20 
24 -22 25 -21 24 -22 24 -22 24 -22 24 -20 24 -20 24 -18 
25 -17 24 -16 24 -13 24 -11 24 -9 24 -7 25 -4 24 -3 
24 1 24 2 24 5 24 7 25 8 24 11 24 12 24 13 
24 14 24 15 24 16 25 16 24 16 24 15 24 15 24 15 
24 13 25 12 24 10 24 9 24 7 24 6 24 3 25 1 
24 0 24 -3 24 -4 24 -6 24 -8 24 -9 25 -11 24 -11 
24 -13 24 -13 24 -13 24 -14 25 -13 24 -13 24 -13 24 -11 
24 -10 24 -9 25 -7 24 -6 24 -3 24 -2 24 1 24 2 
24 5 25 7 24 9 24 11 24 13 24 14 24 16 25 18 
24 18 24 19 24 19 24 20 24 20 25 20 24 18 24 18 
24 17 24 15 24 14 923 3339 100 MP stroke
24 11 899 3328 2 MP stroke
24 5 24 3 24 2 25 1 24 -1 24 -2 24 -4 24 -5 
24 -6 25 -8 24 -9 24 -10 24 -11 24 -12 24 -12 25 -13 
24 -13 24 -13 24 -13 24 -13 24 -12 24 -12 25 -11 24 -10 
24 -8 24 -8 24 -6 24 -5 25 -4 24 -2 24 -1 24 1 
24 2 24 3 25 4 24 6 24 7 24 8 24 8 24 9 
24 10 25 10 24 10 24 10 24 10 24 9 24 9 25 8 
24 8 24 6 24 6 24 4 24 3 25 2 24 1 24 0 
24 -2 24 -2 24 -4 24 -5 25 -6 24 -6 24 -8 24 -7 
24 -9 24 -8 25 -9 24 -8 24 -8 24 -8 24 -8 24 -6 
25 -6 24 -5 24 -3 24 -3 24 -1 24 0 24 1 25 2 
24 4 24 5 24 6 24 8 24 8 25 10 24 10 24 10 
24 12 24 11 24 12 25 12 24 11 24 11 24 11 24 10 
24 9 24 8 25 7 3314 2992 100 MP stroke
24 5 24 5 24 3 24 1 24 0 25 -2 24 -3 24 -4 
24 -6 24 -7 24 -9 25 -9 24 -11 24 -11 24 -12 24 -13 
24 -13 25 -13 24 -13 24 -13 24 -12 24 -12 24 -11 24 -11 
25 -9 24 -8 24 -7 24 -6 24 -4 24 -3 25 -2 24 0 
24 1 24 3 24 4 24 5 25 6 24 8 24 8 24 9 
24 9 24 10 24 10 25 10 24 10 24 9 24 9 24 9 
24 8 25 7 24 6 24 5 24 4 24 3 24 1 25 0 
24 -1 24 -2 24 -3 24 -4 24 -6 24 -6 25 -7 24 -8 
24 -8 24 -8 24 -8 24 -9 25 -8 24 -8 24 -8 24 -7 
24 -6 24 -5 25 -5 24 -3 24 -2 24 0 24 0 24 2 
24 3 25 5 24 5 24 7 24 8 24 9 24 10 25 10 
24 11 24 11 24 12 24 12 24 11 25 12 24 11 24 10 
24 9 24 9 24 7 923 2996 100 MP stroke
24 7 899 2989 2 MP stroke
24 1 24 0 24 -1 25 -1 24 -3 24 -3 24 -5 24 -5 
24 -6 25 -6 24 -8 24 -7 24 -8 24 -8 24 -9 25 -8 
24 -9 24 -8 24 -8 24 -8 24 -7 24 -6 25 -6 24 -5 
24 -5 24 -3 24 -3 24 -2 25 -1 24 0 24 1 24 2 
24 3 24 3 25 4 24 5 24 5 24 6 24 6 24 6 
24 6 25 6 24 7 24 6 24 6 24 5 24 5 25 4 
24 4 24 4 24 2 24 2 24 1 25 0 24 0 24 -1 
24 -2 24 -2 24 -4 24 -3 25 -4 24 -4 24 -5 24 -5 
24 -4 24 -5 25 -5 24 -4 24 -5 24 -3 24 -4 24 -2 
25 -2 24 -2 24 0 24 0 24 1 24 1 24 3 25 3 
24 4 24 4 24 5 24 6 24 6 25 7 24 7 24 7 
24 7 24 7 24 7 25 6 24 7 24 6 24 5 24 5 
24 4 24 3 25 3 3314 2716 100 MP stroke
24 1 24 1 24 0 24 -1 24 -3 25 -3 24 -4 24 -4 
24 -6 24 -6 24 -7 25 -7 24 -8 24 -8 24 -9 24 -8 
24 -9 25 -8 24 -8 24 -8 24 -7 24 -7 24 -6 24 -6 
25 -5 24 -4 24 -3 24 -2 24 -1 24 -1 25 1 24 1 
24 2 24 3 24 4 24 4 25 5 24 6 24 6 24 6 
24 6 24 6 24 7 25 6 24 6 24 5 24 6 24 4 
24 4 25 4 24 3 24 2 24 1 24 1 24 0 25 -1 
24 -1 24 -2 24 -3 24 -3 24 -4 24 -4 25 -5 24 -4 
24 -5 24 -5 24 -5 24 -4 25 -5 24 -3 24 -4 24 -3 
24 -2 24 -2 25 -1 24 0 24 0 24 1 24 2 24 3 
24 4 25 4 24 5 24 5 24 6 24 6 24 7 25 7 
24 7 24 7 24 7 24 7 24 7 25 6 24 6 24 5 
24 4 24 4 24 3 923 2717 100 MP stroke
24 2 899 2715 2 MP stroke
24 1 24 0 24 0 25 -1 24 -1 24 -2 24 -2 24 -2 
24 -3 25 -3 24 -4 24 -3 24 -4 24 -4 24 -5 25 -4 
24 -4 24 -4 24 -4 24 -3 24 -4 24 -3 25 -3 24 -2 
24 -2 24 -2 24 -1 24 -1 25 -1 24 1 24 0 24 1 
24 1 24 2 25 2 24 2 24 3 24 3 24 2 24 3 
24 3 25 3 24 3 24 3 24 3 24 2 24 3 25 2 
24 1 24 2 24 1 24 0 24 0 25 0 24 0 24 -1 
24 -1 24 -2 24 -2 24 -2 25 -2 24 -2 24 -3 24 -2 
24 -3 24 -3 25 -2 24 -2 24 -3 24 -1 24 -2 24 -2 
25 -1 24 0 24 0 24 0 24 0 24 1 24 1 25 2 
24 2 24 3 24 2 24 4 24 3 25 3 24 4 24 4 
24 3 24 4 24 4 25 3 24 4 24 3 24 3 24 2 
24 3 24 1 25 2 3314 2587 100 MP stroke
24 1 24 0 24 0 24 0 24 -1 25 -2 24 -2 24 -2 
24 -3 24 -3 24 -3 25 -4 24 -3 24 -4 24 -4 24 -5 
24 -4 25 -4 24 -4 24 -4 24 -3 24 -4 24 -3 24 -2 
25 -3 24 -1 24 -2 24 -1 24 0 24 -1 25 1 24 0 
24 2 24 1 24 2 24 2 25 2 24 3 24 3 24 3 
24 3 24 3 24 3 25 3 24 3 24 2 24 3 24 2 
24 1 25 2 24 1 24 1 24 0 24 0 24 0 25 -1 
24 -1 24 -1 24 -2 24 -2 24 -2 24 -2 25 -3 24 -2 
24 -3 24 -2 24 -3 24 -2 25 -2 24 -3 24 -1 24 -2 
24 -1 24 -1 25 0 24 0 24 0 24 1 24 1 24 1 
24 2 25 2 24 3 24 3 24 3 24 4 24 3 25 4 
24 4 24 3 24 4 24 4 24 3 25 3 24 3 24 3 
24 3 24 2 24 1 923 2588 100 MP stroke
24 1 899 2587 2 MP stroke
24 0 24 0 24 -1 25 -1 24 -2 24 -2 24 -2 24 -2 
24 -3 25 -2 24 -3 24 -4 24 -3 24 -3 24 -3 25 -4 
24 -3 24 -3 24 -3 24 -2 24 -3 24 -2 25 -2 24 -1 
24 -1 24 -1 24 -1 24 0 25 0 24 1 24 1 24 1 
24 1 24 2 25 2 24 2 24 2 24 2 24 3 24 2 
24 2 25 3 24 2 24 2 24 2 24 1 24 2 25 1 
24 1 24 0 24 1 24 0 24 -1 25 0 24 -1 24 -1 
24 -1 24 -2 24 -2 24 -1 25 -2 24 -2 24 -2 24 -2 
24 -2 24 -2 25 -2 24 -2 24 -1 24 -1 24 -1 24 -1 
25 0 24 0 24 0 24 1 24 1 24 1 24 1 25 2 
24 2 24 3 24 2 24 3 24 3 25 3 24 3 24 3 
24 3 24 2 24 3 25 3 24 2 24 2 24 2 24 2 
24 1 24 1 25 1 3314 2481 100 MP stroke
24 0 24 0 24 -1 24 -1 24 -1 25 -2 24 -2 24 -2 
24 -2 24 -3 24 -3 25 -3 24 -3 24 -4 24 -3 24 -3 
24 -3 25 -3 24 -3 24 -3 24 -3 24 -2 24 -2 24 -2 
25 -1 24 -1 24 -1 24 0 24 0 24 1 25 0 24 1 
24 2 24 1 24 2 24 2 25 2 24 2 24 2 24 3 
24 2 24 2 24 3 25 2 24 2 24 1 24 2 24 1 
24 1 25 1 24 1 24 0 24 0 24 -1 24 -1 25 0 
24 -2 24 -1 24 -2 24 -1 24 -2 24 -2 25 -2 24 -2 
24 -2 24 -2 24 -2 24 -2 25 -1 24 -2 24 -1 24 -1 
24 0 24 0 25 0 24 0 24 1 24 1 24 2 24 1 
24 2 25 2 24 3 24 2 24 3 24 3 24 3 25 3 
24 3 24 3 24 3 24 3 24 2 25 2 24 2 24 2 
24 2 24 1 24 1 923 2481 100 MP stroke
24 0 899 2481 2 MP stroke
24 0 24 0 24 -1 25 -1 24 -1 24 -1 24 -2 24 -1 
24 -2 25 -2 24 -2 24 -2 24 -2 24 -2 24 -2 25 -2 
24 -2 24 -2 24 -2 24 -1 24 -2 24 -1 25 -1 24 -1 
24 0 24 -1 24 0 24 0 25 0 24 1 24 1 24 0 
24 1 24 1 25 1 24 2 24 1 24 1 24 2 24 1 
24 1 25 1 24 1 24 1 24 1 24 1 24 0 25 0 
24 0 24 0 24 0 24 0 24 -1 25 -1 24 -1 24 -1 
24 -1 24 -1 24 -1 24 -2 25 -1 24 -1 24 -2 24 -1 
24 -1 24 -1 25 -1 24 -1 24 -1 24 0 24 0 24 0 
25 0 24 0 24 1 24 1 24 1 24 1 24 1 25 2 
24 2 24 2 24 2 24 2 24 2 25 2 24 2 24 2 
24 2 24 2 24 2 25 2 24 2 24 1 24 1 24 1 
24 1 24 0 25 0 3314 2433 100 MP stroke
24 0 24 0 24 0 24 -1 24 -1 25 -1 24 -2 24 -1 
24 -2 24 -2 24 -2 25 -2 24 -2 24 -2 24 -2 24 -2 
24 -2 25 -2 24 -2 24 -2 24 -1 24 -1 24 -2 24 0 
25 -1 24 -1 24 0 24 0 24 0 24 1 25 0 24 1 
24 1 24 1 24 1 24 1 25 1 24 2 24 1 24 1 
24 1 24 2 24 1 25 1 24 1 24 0 24 1 24 0 
24 0 25 0 24 0 24 0 24 -1 24 0 24 -1 25 -1 
24 -1 24 -1 24 -2 24 -1 24 -1 24 -2 25 -1 24 -1 
24 -1 24 -2 24 -1 24 -1 25 0 24 -1 24 0 24 0 
24 0 24 0 25 1 24 0 24 1 24 1 24 2 24 1 
24 2 25 2 24 2 24 2 24 2 24 2 24 2 25 2 
24 2 24 2 24 2 24 2 24 2 25 1 24 2 24 1 
24 0 24 1 24 0 923 2433 100 MP stroke
24 0 899 2433 2 MP stroke
24 1 24 1 24 0 25 0 24 0 24 -1 24 -1 24 -2 
24 -1 25 -2 24 -2 24 -3 24 -2 24 -3 24 -2 25 -3 
24 -3 24 -3 24 -3 24 -3 24 -2 24 -3 25 -2 24 -2 
24 -2 24 -2 24 -1 24 -1 25 -1 24 0 24 -1 24 0 
24 1 24 0 25 1 24 1 24 2 24 1 24 2 24 1 
24 2 25 2 24 2 24 1 24 2 24 2 24 1 25 2 
24 1 24 1 24 1 24 0 24 1 25 0 24 0 24 0 
24 -1 24 -1 24 -1 24 -1 25 -1 24 -1 24 -2 24 -1 
24 -2 24 -2 25 -1 24 -2 24 -1 24 -1 24 -1 24 -1 
25 -1 24 -1 24 0 24 0 24 0 24 1 24 1 25 1 
24 1 24 2 24 2 24 2 24 2 25 2 24 3 24 2 
24 3 24 3 24 2 25 3 24 2 24 3 24 2 24 2 
24 2 24 1 25 2 3314 2404 100 MP stroke
24 1 24 1 24 0 24 0 24 0 25 -1 24 -1 24 -1 
24 -1 24 -2 24 -2 25 -2 24 -3 24 -2 24 -3 24 -3 
24 -3 25 -3 24 -2 24 -3 24 -3 24 -3 24 -2 24 -2 
25 -2 24 -2 24 -1 24 -2 24 -1 24 0 25 -1 24 0 
24 1 24 0 24 1 24 1 25 1 24 1 24 2 24 1 
24 2 24 2 24 2 25 2 24 1 24 2 24 2 24 1 
24 1 25 1 24 1 24 1 24 1 24 0 24 0 25 0 
24 -1 24 0 24 -1 24 -1 24 -1 24 -2 25 -1 24 -2 
24 -1 24 -2 24 -1 24 -2 25 -1 24 -2 24 -1 24 -1 
24 -1 24 0 25 -1 24 0 24 0 24 1 24 0 24 1 
24 2 25 1 24 2 24 2 24 2 24 2 24 2 25 3 
24 3 24 2 24 3 24 3 24 2 25 3 24 2 24 2 
24 2 24 2 24 1 923 2405 100 MP stroke
24 1 899 2404 2 MP stroke
24 1 24 1 24 1 25 0 24 0 24 -1 24 0 24 -1 
24 -2 25 -2 24 -2 24 -2 24 -2 24 -3 24 -3 25 -3 
24 -3 24 -3 24 -3 24 -3 24 -3 24 -3 25 -2 24 -3 
24 -2 24 -2 24 -2 24 -1 25 -2 24 0 24 -1 24 0 
24 0 24 0 25 1 24 1 24 1 24 1 24 2 24 2 
24 1 25 2 24 2 24 2 24 2 24 2 24 2 25 2 
24 2 24 1 24 1 24 1 24 1 25 1 24 0 24 0 
24 0 24 0 24 -1 24 -1 25 -1 24 -1 24 -1 24 -2 
24 -1 24 -2 25 -2 24 -1 24 -2 24 -1 24 -1 24 -2 
25 -1 24 0 24 -1 24 0 24 0 24 0 24 0 25 1 
24 1 24 1 24 2 24 2 24 2 25 2 24 2 24 3 
24 2 24 3 24 2 25 3 24 3 24 2 24 3 24 2 
24 2 24 2 25 2 3314 2367 100 MP stroke
24 1 24 1 24 1 24 0 24 0 25 0 24 -1 24 -1 
24 -1 24 -2 24 -2 25 -2 24 -2 24 -3 24 -2 24 -3 
24 -3 25 -3 24 -3 24 -3 24 -3 24 -3 24 -3 24 -3 
25 -2 24 -2 24 -2 24 -2 24 -1 24 -1 25 -1 24 0 
24 0 24 0 24 1 24 0 25 1 24 2 24 1 24 2 
24 1 24 2 24 2 25 2 24 2 24 2 24 2 24 2 
24 2 25 1 24 2 24 1 24 1 24 0 24 1 25 0 
24 0 24 0 24 -1 24 0 24 -1 24 -1 25 -2 24 -1 
24 -2 24 -1 24 -2 24 -1 25 -2 24 -1 24 -2 24 -1 
24 -1 24 -1 25 -1 24 0 24 0 24 0 24 0 24 1 
24 0 25 2 24 1 24 2 24 2 24 2 24 2 25 2 
24 3 24 2 24 3 24 3 24 2 25 3 24 3 24 2 
24 2 24 2 24 2 923 2368 100 MP stroke
24 1 899 2367 2 MP stroke
24 1 24 0 24 0 25 0 24 -1 24 -1 24 -1 24 -1 
24 -2 25 -2 24 -2 24 -2 24 -2 24 -2 24 -3 25 -2 
24 -3 24 -2 24 -3 24 -2 24 -2 24 -2 25 -2 24 -2 
24 -1 24 -1 24 -1 24 -1 25 0 24 -1 24 0 24 1 
24 0 24 1 25 1 24 1 24 1 24 1 24 2 24 1 
24 2 25 1 24 2 24 1 24 1 24 2 24 1 25 1 
24 1 24 0 24 1 24 0 24 0 25 0 24 0 24 0 
24 -1 24 -1 24 -1 24 -1 25 -1 24 -1 24 -1 24 -2 
24 -1 24 -1 25 -2 24 -1 24 -1 24 -1 24 -1 24 0 
25 -1 24 0 24 0 24 0 24 1 24 1 24 0 25 2 
24 1 24 2 24 1 24 2 24 2 25 2 24 3 24 2 
24 2 24 3 24 2 25 2 24 2 24 2 24 2 24 1 
24 2 24 1 25 1 3314 2357 100 MP stroke
24 1 24 0 24 0 24 0 24 -1 25 0 24 -1 24 -2 
24 -1 24 -2 24 -2 25 -2 24 -2 24 -2 24 -3 24 -2 
24 -3 25 -2 24 -2 24 -3 24 -2 24 -2 24 -2 24 -2 
25 -1 24 -2 24 -1 24 -1 24 0 24 0 25 -1 24 1 
24 0 24 0 24 1 24 1 25 1 24 2 24 1 24 1 
24 2 24 1 24 2 25 1 24 2 24 1 24 1 24 1 
24 1 25 1 24 1 24 0 24 0 24 0 24 0 25 0 
24 -1 24 0 24 -1 24 -1 24 -1 24 -2 25 -1 24 -1 
24 -1 24 -2 24 -1 24 -1 25 -1 24 -1 24 -1 24 -1 
24 0 24 -1 25 0 24 0 24 1 24 0 24 1 24 1 
24 1 25 2 24 1 24 2 24 2 24 2 24 3 25 2 
24 2 24 2 24 3 24 2 24 2 25 2 24 2 24 2 
24 1 24 1 24 2 923 2357 100 MP stroke
24 0 899 2357 2 MP stroke
24 0 24 0 24 0 25 -1 24 -1 24 -1 24 -1 24 -2 
24 -2 25 -2 24 -2 24 -3 24 -2 24 -3 24 -2 25 -3 
24 -3 24 -2 24 -2 24 -3 24 -2 24 -1 25 -2 24 -1 
24 -1 24 -1 24 -1 24 0 25 0 24 1 24 0 24 1 
24 1 24 1 25 2 24 1 24 2 24 1 24 2 24 2 
24 2 25 1 24 2 24 2 24 1 24 1 24 1 25 1 
24 0 24 1 24 0 24 0 24 -1 25 0 24 -1 24 -1 
24 -2 24 -1 24 -2 24 -1 25 -2 24 -2 24 -2 24 -2 
24 -2 24 -1 25 -2 24 -2 24 -1 24 -1 24 -1 24 -1 
25 0 24 0 24 0 24 0 24 1 24 1 24 1 25 2 
24 2 24 2 24 2 24 2 24 3 25 2 24 3 24 3 
24 2 24 3 24 3 25 2 24 2 24 3 24 1 24 2 
24 2 24 1 25 0 3314 2358 100 MP stroke
24 1 24 0 24 0 24 0 24 -1 25 -1 24 -1 24 -2 
24 -2 24 -2 24 -2 25 -2 24 -3 24 -3 24 -2 24 -3 
24 -2 25 -3 24 -2 24 -2 24 -3 24 -1 24 -2 24 -2 
25 -1 24 -1 24 0 24 -1 24 0 24 0 25 1 24 0 
24 1 24 2 24 1 24 1 25 2 24 2 24 1 24 2 
24 2 24 2 24 1 25 2 24 1 24 2 24 1 24 1 
24 0 25 1 24 0 24 0 24 0 24 -1 24 -1 25 -1 
24 -1 24 -1 24 -2 24 -2 24 -1 24 -2 25 -2 24 -2 
24 -2 24 -2 24 -1 24 -2 25 -1 24 -2 24 -1 24 0 
24 -1 24 0 25 0 24 0 24 1 24 0 24 2 24 1 
24 2 25 2 24 2 24 2 24 2 24 3 24 3 25 2 
24 3 24 3 24 2 24 3 24 2 25 2 24 3 24 1 
24 2 24 1 24 1 923 2358 100 MP stroke
24 1 899 2357 2 MP stroke
24 0 24 0 24 0 25 0 24 -1 24 -1 24 -1 24 -2 
24 -1 25 -2 24 -2 24 -3 24 -2 24 -2 24 -3 25 -2 
24 -3 24 -2 24 -2 24 -3 24 -2 24 -1 25 -2 24 -1 
24 -2 24 -1 24 0 24 -1 25 0 24 0 24 0 24 1 
24 1 24 1 25 1 24 1 24 1 24 2 24 1 24 2 
24 1 25 2 24 1 24 2 24 1 24 1 24 1 25 1 
24 0 24 0 24 1 24 -1 24 0 25 0 24 -1 24 -1 
24 -1 24 -1 24 -2 24 -1 25 -2 24 -2 24 -1 24 -2 
24 -2 24 -1 25 -2 24 -1 24 -1 24 -1 24 -1 24 -1 
25 0 24 0 24 0 24 0 24 1 24 1 24 1 25 2 
24 1 24 2 24 2 24 3 24 2 25 2 24 3 24 3 
24 2 24 3 24 2 25 3 24 2 24 2 24 2 24 2 
24 1 24 1 25 1 3314 2335 100 MP stroke
24 1 24 0 24 0 24 0 24 0 25 -1 24 -1 24 -2 
24 -1 24 -2 24 -2 25 -2 24 -3 24 -2 24 -3 24 -2 
24 -2 25 -3 24 -2 24 -2 24 -3 24 -1 24 -2 24 -2 
25 -1 24 -1 24 -1 24 -1 24 0 24 0 25 0 24 1 
24 0 24 1 24 1 24 1 25 2 24 1 24 2 24 1 
24 2 24 1 24 2 25 1 24 1 24 1 24 1 24 1 
24 1 25 0 24 1 24 0 24 -1 24 0 24 -1 25 -1 
24 -1 24 -1 24 -1 24 -2 24 -1 24 -2 25 -1 24 -2 
24 -2 24 -1 24 -2 24 -1 25 -2 24 -1 24 -1 24 0 
24 -1 24 0 25 0 24 0 24 1 24 0 24 2 24 1 
24 1 25 2 24 2 24 2 24 3 24 2 24 3 25 2 
24 3 24 3 24 2 24 3 24 2 25 2 24 2 24 2 
24 2 24 1 24 1 923 2335 100 MP stroke
24 1 899 2334 2 MP stroke
24 1 24 0 24 -1 25 0 24 -1 24 0 24 -1 24 -1 
24 -1 25 -2 24 -1 24 -1 24 -2 24 -1 24 -2 25 -2 
24 -1 24 -2 24 -1 24 -1 24 -1 24 -2 25 -1 24 0 
24 -1 24 -1 24 0 24 -1 25 0 24 0 24 0 24 1 
24 0 24 0 25 1 24 0 24 1 24 1 24 0 24 1 
24 1 25 0 24 1 24 1 24 0 24 0 24 1 25 0 
24 0 24 0 24 0 24 0 24 -1 25 0 24 -1 24 -1 
24 0 24 -1 24 -1 24 -1 25 -1 24 -1 24 -1 24 -1 
24 0 24 -1 25 -1 24 0 24 -1 24 0 24 0 24 0 
25 0 24 0 24 0 24 1 24 1 24 1 24 1 25 1 
24 1 24 2 24 1 24 2 24 2 25 1 24 2 24 2 
24 2 24 1 24 2 25 1 24 2 24 1 24 1 24 1 
24 1 24 1 25 0 3314 2330 100 MP stroke
24 1 24 0 24 0 24 -1 24 0 25 -1 24 -1 24 -1 
24 -1 24 -1 24 -1 25 -2 24 -1 24 -2 24 -1 24 -2 
24 -1 25 -2 24 -1 24 -2 24 -1 24 -1 24 -1 24 -1 
25 -1 24 -1 24 0 24 0 24 -1 24 0 25 0 24 0 
24 1 24 0 24 1 24 0 25 1 24 0 24 1 24 1 
24 0 24 1 24 1 25 0 24 1 24 0 24 1 24 0 
24 0 25 0 24 0 24 0 24 -1 24 0 24 -1 25 0 
24 -1 24 -1 24 -1 24 -1 24 0 24 -1 25 -1 24 -1 
24 -1 24 -1 24 -1 24 0 25 -1 24 0 24 0 24 0 
24 0 24 0 25 0 24 1 24 0 24 1 24 1 24 1 
24 2 25 1 24 2 24 1 24 2 24 2 24 1 25 2 
24 2 24 2 24 1 24 2 24 1 25 2 24 1 24 1 
24 1 24 0 24 1 923 2330 100 MP stroke
24 0 899 2330 2 MP stroke
24 0 24 -1 24 0 25 0 24 -1 24 -1 24 -1 24 -1 
24 -1 25 -1 24 -1 24 -2 24 -1 24 -1 24 -2 25 -1 
24 -1 24 -2 24 -1 24 -1 24 -1 24 -1 25 -1 24 -1 
24 0 24 -1 24 0 24 0 25 0 24 0 24 0 24 0 
24 0 24 1 25 0 24 1 24 0 24 1 24 1 24 0 
24 1 25 0 24 1 24 0 24 1 24 0 24 0 25 0 
24 0 24 0 24 0 24 0 24 0 25 -1 24 0 24 -1 
24 -1 24 0 24 -1 24 -1 25 0 24 -1 24 -1 24 0 
24 -1 24 -1 25 0 24 0 24 -1 24 0 24 0 24 0 
25 1 24 0 24 1 24 0 24 1 24 1 24 1 25 1 
24 1 24 2 24 1 24 2 24 1 25 2 24 1 24 1 
24 2 24 1 24 2 25 1 24 1 24 1 24 1 24 0 
24 1 24 0 25 1 3314 2311 100 MP stroke
24 0 24 0 24 -1 24 0 24 -1 25 0 24 -1 24 -1 
24 -1 24 -1 24 -2 25 -1 24 -1 24 -2 24 -1 24 -1 
24 -2 25 -1 24 -1 24 -1 24 -2 24 -1 24 0 24 -1 
25 -1 24 0 24 -1 24 0 24 0 24 0 25 0 24 0 
24 0 24 1 24 0 24 1 25 0 24 1 24 0 24 1 
24 0 24 1 24 1 25 0 24 0 24 1 24 0 24 0 
24 0 25 0 24 0 24 0 24 0 24 -1 24 0 25 -1 
24 0 24 -1 24 -1 24 0 24 -1 24 -1 25 0 24 -1 
24 -1 24 0 24 -1 24 0 25 0 24 -1 24 0 24 0 
24 1 24 0 25 0 24 1 24 1 24 1 24 1 24 1 
24 1 25 1 24 1 24 2 24 1 24 2 24 1 25 2 
24 1 24 2 24 1 24 1 24 1 25 1 24 1 24 1 
24 1 24 0 24 0 923 2312 100 MP stroke
24 1 899 2311 2 MP stroke
24 0 24 0 24 0 25 -1 24 0 24 -1 24 -1 24 -1 
24 -1 25 -1 24 -1 24 -1 24 -1 24 -2 24 -1 25 -1 
24 -1 24 -1 24 -2 24 -1 24 -1 24 0 25 -1 24 -1 
24 0 24 -1 24 0 24 0 25 0 24 0 24 0 24 0 
24 0 24 1 25 0 24 0 24 1 24 0 24 1 24 1 
24 0 25 1 24 0 24 0 24 1 24 0 24 0 25 0 
24 0 24 0 24 0 24 0 24 -1 25 0 24 0 24 -1 
24 -1 24 0 24 -1 24 0 25 -1 24 -1 24 0 24 -1 
24 -1 24 0 25 0 24 -1 24 0 24 0 24 0 24 0 
25 0 24 1 24 0 24 1 24 0 24 1 24 1 25 1 
24 1 24 2 24 1 24 1 24 1 25 2 24 1 24 2 
24 1 24 1 24 1 25 1 24 1 24 1 24 1 24 1 
24 0 24 1 25 0 3314 2296 100 MP stroke
24 0 24 0 24 0 24 -1 24 0 25 -1 24 0 24 -1 
24 -1 24 -1 24 -1 25 -2 24 -1 24 -1 24 -1 24 -1 
24 -2 25 -1 24 -1 24 -1 24 -1 24 -1 24 -1 24 0 
25 -1 24 -1 24 0 24 0 24 0 24 0 25 0 24 0 
24 0 24 0 24 1 24 0 25 1 24 0 24 1 24 0 
24 1 24 0 24 1 25 0 24 1 24 0 24 0 24 0 
24 0 25 0 24 0 24 0 24 0 24 -1 24 0 25 -1 
24 0 24 -1 24 0 24 -1 24 -1 24 0 25 -1 24 -1 
24 0 24 -1 24 0 24 -1 25 0 24 0 24 0 24 0 
24 0 24 0 25 1 24 0 24 1 24 1 24 1 24 1 
24 1 25 1 24 1 24 1 24 2 24 1 24 1 25 2 
24 1 24 1 24 2 24 1 24 1 25 1 24 1 24 0 
24 1 24 1 24 0 923 2296 100 MP stroke
24 0 899 2296 2 MP stroke
24 0 24 -1 24 -1 25 -1 24 -1 24 0 24 -1 24 -1 
24 -1 25 -1 24 -1 24 -1 24 -1 24 -1 24 0 25 -1 
24 0 24 -1 24 0 24 0 24 -1 24 0 25 0 24 1 
24 0 24 0 24 1 24 0 25 1 24 0 24 1 24 0 
24 1 24 0 25 1 24 0 24 1 24 0 24 0 24 0 
24 1 25 0 24 -1 24 0 24 0 24 0 24 -1 25 0 
24 -1 24 -1 24 0 24 -1 24 -1 25 -1 24 0 24 -1 
24 -1 24 -1 24 -1 24 0 25 -1 24 0 24 -1 24 0 
24 0 24 0 25 0 24 0 24 0 24 0 24 1 24 0 
25 1 24 1 24 1 24 1 24 1 24 1 24 1 25 2 
24 1 24 1 24 1 24 1 24 1 25 1 24 1 24 1 
24 1 24 1 24 0 25 1 24 0 24 0 24 0 24 0 
24 0 24 0 25 -1 3314 2286 100 MP stroke
24 0 24 -1 24 0 24 -1 24 -1 25 -1 24 -1 24 -1 
24 -1 24 -1 24 -1 25 -1 24 -1 24 0 24 -1 24 -1 
24 0 25 -1 24 0 24 0 24 -1 24 0 24 0 24 1 
25 0 24 0 24 0 24 1 24 0 24 1 25 0 24 1 
24 0 24 1 24 0 24 1 25 0 24 1 24 0 24 0 
24 0 24 1 24 0 25 -1 24 0 24 0 24 0 24 -1 
24 -1 25 0 24 -1 24 -1 24 0 24 -1 24 -1 25 -1 
24 -1 24 0 24 -1 24 -1 24 -1 24 0 25 -1 24 0 
24 0 24 0 24 0 24 0 25 0 24 0 24 1 24 0 
24 1 24 1 25 0 24 1 24 1 24 2 24 1 24 1 
24 1 25 1 24 2 24 1 24 1 24 1 24 1 25 1 
24 1 24 0 24 1 24 1 24 0 25 0 24 0 24 0 
24 0 24 0 24 0 923 2285 100 MP stroke
24 -1 899 2286 2 MP stroke
24 -1 24 -1 24 -1 25 0 24 -1 24 -1 24 -1 24 -1 
24 -1 25 0 24 -1 24 -1 24 0 24 0 24 -1 25 0 
24 0 24 0 24 0 24 0 24 0 24 1 25 0 24 0 
24 1 24 0 24 1 24 0 25 1 24 1 24 0 24 0 
24 1 24 0 25 1 24 0 24 0 24 0 24 0 24 0 
24 0 25 -1 24 0 24 -1 24 0 24 -1 24 0 25 -1 
24 -1 24 -1 24 -1 24 -1 24 0 25 -1 24 -1 24 -1 
24 0 24 -1 24 -1 24 0 25 0 24 -1 24 0 24 0 
24 0 24 1 25 0 24 0 24 1 24 1 24 0 24 1 
25 1 24 1 24 1 24 2 24 1 24 1 24 1 25 1 
24 1 24 1 24 1 24 1 24 1 25 1 24 0 24 1 
24 0 24 1 24 0 25 0 24 0 24 0 24 -1 24 0 
24 -1 24 0 25 -1 3314 2271 100 MP stroke
24 -1 24 0 24 -1 24 -1 24 -1 25 -1 24 -1 24 0 
24 -1 24 -1 24 -1 25 0 24 -1 24 0 24 -1 24 0 
24 0 25 0 24 0 24 0 24 0 24 0 24 1 24 0 
25 1 24 0 24 1 24 0 24 1 24 0 25 1 24 0 
24 1 24 0 24 0 24 1 25 0 24 0 24 0 24 0 
24 0 24 0 24 -1 25 0 24 -1 24 0 24 -1 24 -1 
24 -1 25 0 24 -1 24 -1 24 -1 24 -1 24 -1 25 0 
24 -1 24 -1 24 0 24 -1 24 0 24 -1 25 0 24 0 
24 0 24 0 24 1 24 0 25 1 24 0 24 1 24 1 
24 1 24 1 25 1 24 1 24 1 24 1 24 1 24 2 
24 1 25 1 24 1 24 1 24 1 24 0 24 1 25 1 
24 0 24 1 24 0 24 0 24 0 25 0 24 0 24 -1 
24 0 24 -1 24 0 923 2270 100 MP stroke
24 -1 899 2271 2 MP stroke
24 -1 24 0 24 -1 25 -1 24 -1 24 0 24 -1 24 -1 
24 -1 25 -1 24 0 24 -1 24 -1 24 0 24 0 25 -1 
24 0 24 0 24 0 24 -1 24 1 24 0 25 0 24 0 
24 0 24 1 24 0 24 1 25 0 24 0 24 1 24 0 
24 1 24 0 25 1 24 0 24 0 24 0 24 0 24 0 
24 0 25 0 24 0 24 0 24 -1 24 0 24 -1 25 0 
24 -1 24 -1 24 0 24 -1 24 -1 25 -1 24 0 24 -1 
24 -1 24 0 24 -1 24 0 25 -1 24 0 24 0 24 0 
24 0 24 0 25 0 24 0 24 1 24 0 24 1 24 1 
25 0 24 1 24 1 24 1 24 1 24 1 24 1 25 1 
24 1 24 2 24 0 24 1 24 1 25 1 24 1 24 0 
24 1 24 0 24 1 25 0 24 0 24 0 24 0 24 0 
24 -1 24 0 25 -1 3314 2259 100 MP stroke
24 0 24 -1 24 -1 24 0 24 -1 25 -1 24 -1 24 -1 
24 0 24 -1 24 -1 25 -1 24 0 24 -1 24 0 24 -1 
24 0 25 0 24 0 24 -1 24 0 24 1 24 0 24 0 
25 0 24 1 24 0 24 0 24 1 24 0 25 1 24 0 
24 1 24 0 24 0 24 1 25 0 24 0 24 0 24 0 
24 0 24 0 24 0 25 0 24 -1 24 0 24 -1 24 0 
24 -1 25 0 24 -1 24 -1 24 -1 24 0 24 -1 25 -1 
24 0 24 -1 24 -1 24 0 24 0 24 -1 25 0 24 0 
24 0 24 0 24 0 24 0 25 1 24 0 24 1 24 0 
24 1 24 1 25 1 24 1 24 1 24 1 24 1 24 1 
24 1 25 1 24 1 24 1 24 1 24 1 24 0 25 1 
24 1 24 0 24 1 24 0 24 0 25 0 24 0 24 0 
24 -1 24 0 24 0 923 2258 100 MP stroke
24 -1 899 2259 2 MP stroke
24 0 24 -1 24 -1 25 0 24 -1 24 -1 24 -1 24 -1 
24 0 25 -1 24 -1 24 0 24 -1 24 0 24 0 25 -1 
24 0 24 0 24 0 24 0 24 0 24 0 25 0 24 1 
24 0 24 1 24 0 24 0 25 1 24 0 24 1 24 0 
24 0 24 1 25 0 24 0 24 0 24 0 24 0 24 0 
24 0 25 0 24 0 24 -1 24 0 24 -1 24 0 25 -1 
24 -1 24 0 24 -1 24 -1 24 -1 25 0 24 -1 24 0 
24 -1 24 -1 24 0 24 0 25 -1 24 0 24 0 24 0 
24 0 24 0 25 1 24 0 24 1 24 0 24 1 24 1 
25 1 24 1 24 1 24 1 24 1 24 1 24 1 25 1 
24 1 24 1 24 1 24 0 24 1 25 1 24 1 24 0 
24 0 24 1 24 0 25 0 24 0 24 0 24 0 24 -1 
24 0 24 -1 25 0 3314 2250 100 MP stroke
24 -1 24 -1 24 0 24 -1 24 -1 25 -1 24 0 24 -1 
24 -1 24 -1 24 0 25 -1 24 0 24 -1 24 0 24 -1 
24 0 25 0 24 0 24 0 24 0 24 0 24 0 24 1 
25 0 24 0 24 1 24 0 24 1 24 0 25 0 24 1 
24 0 24 1 24 0 24 0 25 0 24 0 24 0 24 0 
24 0 24 0 24 0 25 -1 24 0 24 -1 24 0 24 -1 
24 0 25 -1 24 -1 24 0 24 -1 24 -1 24 -1 25 0 
24 -1 24 0 24 -1 24 0 24 -1 24 0 25 0 24 0 
24 0 24 0 24 1 24 0 25 0 24 1 24 1 24 0 
24 1 24 1 25 1 24 1 24 1 24 1 24 1 24 1 
24 1 25 1 24 1 24 1 24 1 24 1 24 0 25 1 
24 0 24 1 24 0 24 0 24 0 25 0 24 0 24 -1 
24 0 24 0 24 -1 923 2250 100 MP stroke
24 -1 899 2251 2 MP stroke
24 -1 24 -1 24 -1 25 -1 24 0 24 -1 24 -1 24 -1 
24 0 25 -1 24 0 24 0 24 -1 24 0 24 0 25 0 
24 1 24 0 24 0 24 1 24 0 24 1 25 0 24 1 
24 0 24 1 24 0 24 1 25 0 24 1 24 0 24 1 
24 0 24 0 25 0 24 0 24 0 24 0 24 0 24 -1 
24 0 25 -1 24 0 24 -1 24 -1 24 0 24 -1 25 -1 
24 -1 24 -1 24 -1 24 0 24 -1 25 -1 24 -1 24 0 
24 -1 24 0 24 0 24 -1 25 0 24 0 24 1 24 0 
24 0 24 1 25 0 24 1 24 1 24 1 24 1 24 1 
25 1 24 1 24 1 24 1 24 1 24 1 24 1 25 1 
24 1 24 1 24 1 24 0 24 1 25 0 24 1 24 0 
24 0 24 0 24 0 25 -1 24 0 24 0 24 -1 24 -1 
24 0 24 -1 25 -1 3314 2245 100 MP stroke
24 -1 24 -1 24 0 24 -1 24 -1 25 -1 24 -1 24 0 
24 -1 24 0 24 -1 25 0 24 0 24 -1 24 0 24 0 
24 1 25 0 24 0 24 0 24 1 24 0 24 1 24 0 
25 1 24 0 24 1 24 1 24 0 24 1 25 0 24 1 
24 0 24 0 24 0 24 0 25 0 24 0 24 0 24 0 
24 -1 24 0 24 -1 25 -1 24 0 24 -1 24 -1 24 -1 
24 -1 25 0 24 -1 24 -1 24 -1 24 -1 24 0 25 -1 
24 0 24 -1 24 0 24 0 24 -1 24 0 25 0 24 1 
24 0 24 1 24 0 24 1 25 1 24 0 24 1 24 1 
24 1 24 1 25 2 24 1 24 1 24 1 24 1 24 1 
24 1 25 1 24 0 24 1 24 1 24 0 24 1 25 0 
24 0 24 0 24 0 24 0 24 -1 25 0 24 -1 24 0 
24 -1 24 -1 24 0 923 2244 100 MP stroke
24 -1 899 2245 2 MP stroke
24 -1 24 -1 24 0 25 -1 24 -1 24 0 24 -1 24 -1 
24 0 25 -1 24 0 24 -1 24 0 24 0 24 0 25 0 
24 0 24 0 24 0 24 0 24 0 24 1 25 0 24 0 
24 1 24 0 24 1 24 0 25 0 24 1 24 0 24 0 
24 1 24 0 25 0 24 0 24 0 24 0 24 0 24 0 
24 -1 25 0 24 0 24 -1 24 -1 24 0 24 -1 25 0 
24 -1 24 -1 24 0 24 -1 24 -1 25 0 24 -1 24 0 
24 -1 24 0 24 -1 24 0 25 0 24 0 24 0 24 0 
24 1 24 0 25 0 24 1 24 1 24 0 24 1 24 1 
25 1 24 1 24 1 24 1 24 1 24 0 24 1 25 1 
24 1 24 1 24 1 24 0 24 1 25 0 24 1 24 0 
24 0 24 0 24 0 25 0 24 0 24 0 24 -1 24 0 
24 -1 24 0 25 -1 3314 2239 100 MP stroke
24 -1 24 0 24 -1 24 -1 24 0 25 -1 24 -1 24 0 
24 -1 24 -1 24 0 25 0 24 -1 24 0 24 0 24 0 
24 0 25 0 24 0 24 0 24 0 24 0 24 1 24 0 
25 1 24 0 24 0 24 1 24 0 24 1 25 0 24 0 
24 1 24 0 24 0 24 0 25 0 24 0 24 0 24 0 
24 -1 24 0 24 0 25 -1 24 0 24 -1 24 0 24 -1 
24 -1 25 0 24 -1 24 -1 24 0 24 -1 24 -1 25 0 
24 -1 24 0 24 0 24 -1 24 0 24 0 25 0 24 0 
24 1 24 0 24 0 24 1 25 0 24 1 24 1 24 1 
24 0 24 1 25 1 24 1 24 1 24 1 24 1 24 1 
24 1 25 0 24 1 24 1 24 0 24 1 24 0 25 1 
24 0 24 0 24 0 24 0 24 0 25 0 24 -1 24 0 
24 -1 24 0 24 -1 923 2239 100 MP stroke
24 0 899 2239 2 MP stroke
24 -1 24 -1 24 0 25 -1 24 -1 24 0 24 -1 24 -1 
24 0 25 -1 24 0 24 -1 24 0 24 -1 24 0 25 0 
24 0 24 0 24 0 24 0 24 0 24 0 25 0 24 1 
24 0 24 0 24 1 24 0 25 0 24 1 24 0 24 1 
24 0 24 0 25 0 24 1 24 0 24 0 24 0 24 0 
24 -1 25 0 24 0 24 -1 24 0 24 0 24 -1 25 0 
24 -1 24 -1 24 0 24 -1 24 0 25 -1 24 -1 24 0 
24 -1 24 0 24 0 24 -1 25 0 24 0 24 0 24 0 
24 0 24 0 25 1 24 0 24 1 24 0 24 1 24 1 
25 0 24 1 24 1 24 1 24 1 24 1 24 1 25 1 
24 0 24 1 24 1 24 1 24 0 25 1 24 0 24 1 
24 0 24 0 24 0 25 0 24 0 24 0 24 0 24 -1 
24 0 24 0 25 -1 3314 2233 100 MP stroke
24 -1 24 0 24 -1 24 -1 24 0 25 -1 24 -1 24 0 
24 -1 24 -1 24 0 25 -1 24 0 24 -1 24 0 24 0 
24 0 25 0 24 0 24 0 24 0 24 0 24 0 24 0 
25 1 24 0 24 0 24 1 24 0 24 1 25 0 24 0 
24 1 24 0 24 0 24 0 25 1 24 0 24 0 24 0 
24 -1 24 0 24 0 25 0 24 -1 24 0 24 -1 24 0 
24 -1 25 0 24 -1 24 -1 24 0 24 -1 24 0 25 -1 
24 0 24 -1 24 0 24 0 24 -1 24 0 25 0 24 0 
24 0 24 0 24 1 24 0 25 0 24 1 24 1 24 0 
24 1 24 1 25 1 24 1 24 0 24 1 24 1 24 1 
24 1 25 1 24 1 24 0 24 1 24 1 24 0 25 1 
24 0 24 0 24 0 24 0 24 0 25 0 24 0 24 0 
24 -1 24 0 24 -1 923 2233 100 MP stroke
24 0 899 2233 2 MP stroke
24 -1 24 0 24 -1 25 -1 24 0 24 -1 24 0 24 -1 
24 -1 25 0 24 -1 24 0 24 -1 24 0 24 -1 25 0 
24 -1 24 0 24 0 24 0 24 0 24 0 25 0 24 0 
24 0 24 0 24 0 24 1 25 0 24 0 24 0 24 1 
24 0 24 0 25 0 24 1 24 0 24 0 24 0 24 0 
24 0 25 0 24 0 24 0 24 -1 24 0 24 0 25 0 
24 -1 24 0 24 -1 24 0 24 -1 25 0 24 -1 24 0 
24 0 24 -1 24 0 24 -1 25 0 24 0 24 0 24 0 
24 0 24 0 25 0 24 0 24 1 24 0 24 0 24 1 
25 1 24 0 24 1 24 1 24 0 24 1 24 1 25 1 
24 1 24 0 24 1 24 1 24 0 25 1 24 1 24 0 
24 1 24 0 24 0 25 1 24 0 24 0 24 0 24 0 
24 -1 24 0 25 0 3314 2228 100 MP stroke
24 -1 24 0 24 -1 24 0 24 -1 25 0 24 -1 24 -1 
24 0 24 -1 24 -1 25 0 24 -1 24 0 24 -1 24 0 
24 0 25 -1 24 0 24 0 24 0 24 0 24 0 24 0 
25 0 24 0 24 0 24 0 24 1 24 0 25 0 24 1 
24 0 24 0 24 0 24 1 25 0 24 0 24 0 24 0 
24 0 24 0 24 0 25 0 24 0 24 -1 24 0 24 0 
24 -1 25 0 24 0 24 -1 24 0 24 -1 24 0 25 -1 
24 0 24 -1 24 0 24 0 24 -1 24 0 25 0 24 0 
24 0 24 0 24 0 24 0 25 0 24 1 24 0 24 1 
24 0 24 1 25 1 24 0 24 1 24 1 24 1 24 0 
24 1 25 1 24 1 24 0 24 1 24 1 24 0 25 1 
24 0 24 1 24 0 24 0 24 1 25 0 24 0 24 0 
24 -1 24 0 24 0 923 2228 100 MP stroke
24 0 899 2228 2 MP stroke
24 -1 24 0 24 -1 25 0 24 -1 24 0 24 -1 24 0 
24 -1 25 0 24 -1 24 0 24 -1 24 0 24 -1 25 0 
24 0 24 0 24 0 24 -1 24 0 24 0 25 0 24 1 
24 0 24 0 24 0 24 0 25 0 24 1 24 0 24 0 
24 0 24 1 25 0 24 0 24 0 24 0 24 0 24 0 
24 0 25 0 24 0 24 0 24 -1 24 0 24 0 25 -1 
24 0 24 -1 24 0 24 0 24 -1 25 0 24 -1 24 0 
24 -1 24 0 24 0 24 0 25 -1 24 0 24 0 24 0 
24 0 24 0 25 0 24 1 24 0 24 0 24 1 24 0 
25 1 24 0 24 1 24 1 24 0 24 1 24 1 25 1 
24 0 24 1 24 1 24 0 24 1 25 1 24 0 24 0 
24 1 24 0 24 0 25 1 24 0 24 0 24 0 24 -1 
24 0 24 0 25 0 3314 2225 100 MP stroke
24 -1 24 0 24 -1 24 0 24 -1 25 0 24 -1 24 0 
24 -1 24 0 24 -1 25 0 24 -1 24 0 24 0 24 -1 
24 0 25 0 24 0 24 0 24 -1 24 0 24 0 24 1 
25 0 24 0 24 0 24 0 24 0 24 1 25 0 24 0 
24 0 24 0 24 1 24 0 25 0 24 0 24 0 24 0 
24 0 24 0 24 0 25 0 24 -1 24 0 24 0 24 -1 
24 0 25 0 24 -1 24 0 24 -1 24 0 24 -1 25 0 
24 0 24 -1 24 0 24 0 24 -1 24 0 25 0 24 0 
24 0 24 0 24 0 24 1 25 0 24 0 24 1 24 0 
24 1 24 0 25 1 24 0 24 1 24 1 24 1 24 0 
24 1 25 1 24 0 24 1 24 1 24 0 24 1 25 0 
24 1 24 0 24 0 24 0 24 1 25 0 24 0 24 0 
24 -1 24 0 24 0 923 2225 100 MP stroke
24 0 899 2225 2 MP stroke
24 -1 24 0 24 -1 25 0 24 0 24 -1 24 0 24 -1 
24 0 25 -1 24 0 24 -1 24 0 24 0 24 -1 25 0 
24 0 24 0 24 -1 24 0 24 0 24 0 25 0 24 0 
24 1 24 0 24 0 24 0 25 0 24 0 24 1 24 0 
24 0 24 0 25 0 24 0 24 0 24 0 24 0 24 0 
24 0 25 0 24 0 24 0 24 -1 24 0 24 0 25 -1 
24 0 24 0 24 -1 24 0 24 -1 25 0 24 0 24 -1 
24 0 24 0 24 -1 24 0 25 0 24 0 24 0 24 0 
24 0 24 0 25 0 24 0 24 1 24 0 24 0 24 1 
25 0 24 1 24 1 24 0 24 1 24 1 24 0 25 1 
24 1 24 0 24 1 24 0 24 1 25 1 24 0 24 0 
24 1 24 0 24 0 25 0 24 1 24 0 24 0 24 -1 
24 0 24 0 25 0 3314 2222 100 MP stroke
24 -1 24 0 24 0 24 -1 24 0 25 -1 24 0 24 -1 
24 0 24 -1 24 0 25 0 24 -1 24 0 24 -1 24 0 
24 0 25 0 24 0 24 -1 24 0 24 0 24 0 24 0 
25 0 24 1 24 0 24 0 24 0 24 0 25 0 24 1 
24 0 24 0 24 0 24 0 25 0 24 0 24 0 24 0 
24 0 24 0 24 0 25 0 24 0 24 -1 24 0 24 0 
24 -1 25 0 24 -1 24 0 24 0 24 -1 24 0 25 -1 
24 0 24 0 24 -1 24 0 24 0 24 0 25 0 24 0 
24 0 24 0 24 0 24 0 25 0 24 1 24 0 24 1 
24 0 24 1 25 0 24 1 24 1 24 0 24 1 24 1 
24 0 25 1 24 1 24 0 24 1 24 0 24 1 25 0 
24 1 24 0 24 0 24 0 24 1 25 0 24 0 24 0 
24 -1 24 0 24 0 923 2222 100 MP stroke
24 0 899 2222 2 MP stroke
24 0 24 -1 24 0 25 -1 24 0 24 -1 24 0 24 0 
24 -1 25 0 24 -1 24 0 24 -1 24 0 24 0 25 -1 
24 0 24 0 24 0 24 0 24 0 24 0 25 0 24 0 
24 0 24 0 24 0 24 0 25 1 24 0 24 0 24 0 
24 0 24 1 25 0 24 0 24 0 24 0 24 0 24 0 
24 0 25 0 24 -1 24 0 24 0 24 0 24 -1 25 0 
24 0 24 -1 24 0 24 -1 24 0 25 0 24 -1 24 0 
24 -1 24 0 24 0 24 0 25 -1 24 0 24 0 24 0 
24 0 24 0 25 0 24 1 24 0 24 0 24 1 24 0 
25 1 24 0 24 1 24 0 24 1 24 1 24 0 25 1 
24 1 24 0 24 1 24 1 24 0 25 1 24 0 24 1 
24 0 24 0 24 1 25 0 24 0 24 0 24 0 24 0 
24 0 24 -1 25 0 3314 2219 100 MP stroke
24 0 24 -1 24 0 24 0 24 -1 25 0 24 -1 24 0 
24 -1 24 0 24 -1 25 0 24 0 24 -1 24 0 24 0 
24 -1 25 0 24 0 24 0 24 0 24 0 24 0 24 0 
25 0 24 0 24 0 24 0 24 1 24 0 25 0 24 0 
24 0 24 0 24 1 24 0 25 0 24 0 24 0 24 0 
24 0 24 0 24 0 25 -1 24 0 24 0 24 0 24 -1 
24 0 25 0 24 -1 24 0 24 -1 24 0 24 -1 25 0 
24 0 24 -1 24 0 24 0 24 0 24 -1 25 0 24 0 
24 0 24 0 24 0 24 1 25 0 24 0 24 1 24 0 
24 0 24 1 25 1 24 0 24 1 24 0 24 1 24 1 
24 0 25 1 24 1 24 0 24 1 24 1 24 0 25 1 
24 0 24 0 24 1 24 0 24 0 25 0 24 0 24 0 
24 0 24 0 24 -1 923 2219 100 MP stroke
24 0 899 2219 2 MP stroke
24 -1 24 0 24 0 25 -1 24 0 24 -1 24 0 24 -1 
24 0 25 -1 24 0 24 0 24 -1 24 0 24 0 25 -1 
24 0 24 0 24 0 24 0 24 0 24 0 25 0 24 0 
24 0 24 0 24 0 24 0 25 1 24 0 24 0 24 0 
24 0 24 0 25 1 24 0 24 0 24 0 24 0 24 0 
24 0 25 0 24 -1 24 0 24 0 24 0 24 -1 25 0 
24 0 24 -1 24 0 24 0 24 -1 25 0 24 -1 24 0 
24 0 24 -1 24 0 24 0 25 0 24 0 24 -1 24 0 
24 0 24 1 25 0 24 0 24 0 24 1 24 0 24 0 
25 1 24 0 24 1 24 1 24 0 24 1 24 0 25 1 
24 1 24 0 24 1 24 1 24 0 25 1 24 0 24 0 
24 1 24 0 24 0 25 0 24 1 24 0 24 0 24 -1 
24 0 24 0 25 0 3314 2216 100 MP stroke
24 0 24 -1 24 0 24 -1 24 0 25 0 24 -1 24 0 
24 -1 24 0 24 -1 25 0 24 -1 24 0 24 0 24 0 
24 -1 25 0 24 0 24 0 24 0 24 0 24 0 24 0 
25 0 24 0 24 0 24 0 24 0 24 1 25 0 24 0 
24 0 24 0 24 0 24 1 25 0 24 0 24 0 24 0 
24 0 24 0 24 -1 25 0 24 0 24 0 24 0 24 -1 
24 0 25 -1 24 0 24 0 24 -1 24 0 24 0 25 -1 
24 0 24 -1 24 0 24 0 24 0 24 0 25 -1 24 0 
24 0 24 0 24 1 24 0 25 0 24 0 24 1 24 0 
24 1 24 0 25 1 24 0 24 1 24 1 24 0 24 1 
24 0 25 1 24 1 24 0 24 1 24 0 24 1 25 0 
24 1 24 0 24 0 24 0 24 1 25 0 24 0 24 0 
24 -1 24 0 24 0 923 2216 100 MP stroke
24 0 899 2216 2 MP stroke
24 0 24 -1 24 0 25 0 24 -1 24 0 24 -1 24 0 
24 -1 25 0 24 -1 24 0 24 0 24 -1 24 0 25 -1 
24 0 24 0 24 0 24 -1 24 0 24 0 25 0 24 0 
24 0 24 0 24 0 24 0 25 0 24 0 24 0 24 1 
24 0 24 0 25 0 24 0 24 0 24 0 24 0 24 1 
24 0 25 0 24 -1 24 0 24 0 24 0 24 0 25 0 
24 -1 24 0 24 0 24 -1 24 0 25 0 24 -1 24 0 
24 0 24 -1 24 0 24 0 25 0 24 0 24 -1 24 0 
24 0 24 0 25 0 24 0 24 1 24 0 24 0 24 0 
25 1 24 0 24 1 24 0 24 1 24 1 24 0 25 1 
24 0 24 1 24 1 24 0 24 1 25 0 24 1 24 0 
24 1 24 0 24 1 25 0 24 0 24 0 24 0 24 0 
24 0 24 0 25 0 3314 2214 100 MP stroke
24 0 24 -1 24 0 24 0 24 -1 25 0 24 0 24 -1 
24 0 24 -1 24 0 25 -1 24 0 24 -1 24 0 24 0 
24 -1 25 0 24 0 24 -1 24 0 24 0 24 0 24 0 
25 0 24 0 24 0 24 0 24 0 24 0 25 0 24 1 
24 0 24 0 24 0 24 0 25 0 24 0 24 0 24 1 
24 0 24 0 24 -1 25 0 24 0 24 0 24 0 24 0 
24 0 25 -1 24 0 24 0 24 -1 24 0 24 0 25 -1 
24 0 24 0 24 -1 24 0 24 0 24 0 25 -1 24 0 
24 0 24 0 24 0 24 0 25 1 24 0 24 0 24 0 
24 1 24 0 25 1 24 0 24 1 24 0 24 1 24 0 
24 1 25 1 24 0 24 1 24 1 24 0 24 1 25 0 
24 1 24 0 24 0 24 1 24 0 25 0 24 0 24 0 
24 0 24 0 24 0 923 2214 100 MP stroke
24 0 899 2214 2 MP stroke
gr

18 w
%%IncludeResource: font Symbol
/Symbol /ISOLatin1Encoding 192 FMSR

3526 5014 mt 
(q) s
%%IncludeResource: font Helvetica
/Helvetica /ISOLatin1Encoding 192 FMSR

 387 2775 mt  -90 rotate
(det\(Q\)) s
90 rotate
%%IncludeResource: font Helvetica
/Helvetica /ISOLatin1Encoding 120 FMSR

 882 4658 mt 
( ) s
6239  431 mt 
( ) s
6 w
%%IncludeResource: font Helvetica
/Helvetica /ISOLatin1Encoding 192 FMSR

3327  658 mt 
(Elastic) s
gs 2730 449 1696 501 MR c np
DA
18 w
459 0 2821 589 2 MP stroke
SO
gr

18 w
3327  877 mt 
(Elasto-plastic) s
gs 2730 449 1696 501 MR c np
459 0 2821 808 2 MP stroke
6 w
gr

6 w

end %%Color Dict

eplot
%%EndObject

epage
end

showpage

%%Trailer
%%EOF
