%!PS-Adobe-2.0 EPSF-1.2
%%Creator: MATLAB, The Mathworks, Inc. Version 7.6.0.324 (R2008a). Operating System: Linux 3.5.0-37-generic #58~precise1-Ubuntu SMP Wed Jul 10 17:48:11 UTC 2013 x86_64.
%%Title: ./secondtangent.eps
%%CreationDate: 08/01/2013  13:37:14
%%DocumentNeededFonts: Helvetica
%%DocumentProcessColors: Cyan Magenta Yellow Black
%%Pages: 1
%%BoundingBox:    33   187   563   592
%%EndComments

%%BeginProlog
% MathWorks dictionary
/MathWorks 160 dict begin
% definition operators
/bdef {bind def} bind def
/ldef {load def} bind def
/xdef {exch def} bdef
/xstore {exch store} bdef
% operator abbreviations
/c  /clip ldef
/cc /concat ldef
/cp /closepath ldef
/gr /grestore ldef
/gs /gsave ldef
/mt /moveto ldef
/np /newpath ldef
/cm /currentmatrix ldef
/sm /setmatrix ldef
/rm /rmoveto ldef
/rl /rlineto ldef
/s {show newpath} bdef
/sc {setcmykcolor} bdef
/sr /setrgbcolor ldef
/sg /setgray ldef
/w /setlinewidth ldef
/j /setlinejoin ldef
/cap /setlinecap ldef
/rc {rectclip} bdef
/rf {rectfill} bdef
% page state control
/pgsv () def
/bpage {/pgsv save def} bdef
/epage {pgsv restore} bdef
/bplot /gsave ldef
/eplot {stroke grestore} bdef
% orientation switch
/portraitMode 0 def /landscapeMode 1 def /rotateMode 2 def
% coordinate system mappings
/dpi2point 0 def
% font control
/FontSize 0 def
/FMS {/FontSize xstore findfont [FontSize 0 0 FontSize neg 0 0]
  makefont setfont} bdef
/reencode {exch dup where {pop load} {pop StandardEncoding} ifelse
  exch dup 3 1 roll findfont dup length dict begin
  { 1 index /FID ne {def}{pop pop} ifelse } forall
  /Encoding exch def currentdict end definefont pop} bdef
/isroman {findfont /CharStrings get /Agrave known} bdef
/FMSR {3 1 roll 1 index dup isroman {reencode} {pop pop} ifelse
  exch FMS} bdef
/csm {1 dpi2point div -1 dpi2point div scale neg translate
 dup landscapeMode eq {pop -90 rotate}
  {rotateMode eq {90 rotate} if} ifelse} bdef
% line types: solid, dotted, dashed, dotdash
/SO { [] 0 setdash } bdef
/DO { [.5 dpi2point mul 4 dpi2point mul] 0 setdash } bdef
/DA { [6 dpi2point mul] 0 setdash } bdef
/DD { [.5 dpi2point mul 4 dpi2point mul 6 dpi2point mul 4
  dpi2point mul] 0 setdash } bdef
% macros for lines and objects
/L {lineto stroke} bdef
/MP {3 1 roll moveto 1 sub {rlineto} repeat} bdef
/AP {{rlineto} repeat} bdef
/PDlw -1 def
/W {/PDlw currentlinewidth def setlinewidth} def
/PP {closepath eofill} bdef
/DP {closepath stroke} bdef
/MR {4 -2 roll moveto dup  0 exch rlineto exch 0 rlineto
  neg 0 exch rlineto closepath} bdef
/FR {MR stroke} bdef
/PR {MR fill} bdef
/L1i {{currentfile picstr readhexstring pop} image} bdef
/tMatrix matrix def
/MakeOval {newpath tMatrix currentmatrix pop translate scale
0 0 1 0 360 arc tMatrix setmatrix} bdef
/FO {MakeOval stroke} bdef
/PO {MakeOval fill} bdef
/PD {currentlinewidth 2 div 0 360 arc fill
   PDlw -1 eq not {PDlw w /PDlw -1 def} if} def
/FA {newpath tMatrix currentmatrix pop translate scale
  0 0 1 5 -2 roll arc tMatrix setmatrix stroke} bdef
/PA {newpath tMatrix currentmatrix pop	translate 0 0 moveto scale
  0 0 1 5 -2 roll arc closepath tMatrix setmatrix fill} bdef
/FAn {newpath tMatrix currentmatrix pop translate scale
  0 0 1 5 -2 roll arcn tMatrix setmatrix stroke} bdef
/PAn {newpath tMatrix currentmatrix pop translate 0 0 moveto scale
  0 0 1 5 -2 roll arcn closepath tMatrix setmatrix fill} bdef
/vradius 0 def /hradius 0 def /lry 0 def
/lrx 0 def /uly 0 def /ulx 0 def /rad 0 def
/MRR {/vradius xdef /hradius xdef /lry xdef /lrx xdef /uly xdef
  /ulx xdef newpath tMatrix currentmatrix pop ulx hradius add uly
  vradius add translate hradius vradius scale 0 0 1 180 270 arc 
  tMatrix setmatrix lrx hradius sub uly vradius add translate
  hradius vradius scale 0 0 1 270 360 arc tMatrix setmatrix
  lrx hradius sub lry vradius sub translate hradius vradius scale
  0 0 1 0 90 arc tMatrix setmatrix ulx hradius add lry vradius sub
  translate hradius vradius scale 0 0 1 90 180 arc tMatrix setmatrix
  closepath} bdef
/FRR {MRR stroke } bdef
/PRR {MRR fill } bdef
/MlrRR {/lry xdef /lrx xdef /uly xdef /ulx xdef /rad lry uly sub 2 div def
  newpath tMatrix currentmatrix pop ulx rad add uly rad add translate
  rad rad scale 0 0 1 90 270 arc tMatrix setmatrix lrx rad sub lry rad
  sub translate rad rad scale 0 0 1 270 90 arc tMatrix setmatrix
  closepath} bdef
/FlrRR {MlrRR stroke } bdef
/PlrRR {MlrRR fill } bdef
/MtbRR {/lry xdef /lrx xdef /uly xdef /ulx xdef /rad lrx ulx sub 2 div def
  newpath tMatrix currentmatrix pop ulx rad add uly rad add translate
  rad rad scale 0 0 1 180 360 arc tMatrix setmatrix lrx rad sub lry rad
  sub translate rad rad scale 0 0 1 0 180 arc tMatrix setmatrix
  closepath} bdef
/FtbRR {MtbRR stroke } bdef
/PtbRR {MtbRR fill } bdef
/stri 6 array def /dtri 6 array def
/smat 6 array def /dmat 6 array def
/tmat1 6 array def /tmat2 6 array def /dif 3 array def
/asub {/ind2 exch def /ind1 exch def dup dup
  ind1 get exch ind2 get sub exch } bdef
/tri_to_matrix {
  2 0 asub 3 1 asub 4 0 asub 5 1 asub
  dup 0 get exch 1 get 7 -1 roll astore } bdef
/compute_transform {
  dmat dtri tri_to_matrix tmat1 invertmatrix 
  smat stri tri_to_matrix tmat2 concatmatrix } bdef
/ds {stri astore pop} bdef
/dt {dtri astore pop} bdef
/db {2 copy /cols xdef /rows xdef mul dup string
  currentfile exch readhexstring pop
  /bmap xdef pop pop} bdef
/it {gs np dtri aload pop moveto lineto lineto cp c
  cols rows 8 compute_transform 
  {bmap} image gr}bdef
/il {newpath moveto lineto stroke}bdef
currentdict end def
%%EndProlog

%%BeginSetup
MathWorks begin

0 cap

end
%%EndSetup

%%Page: 1 1
%%BeginPageSetup
%%PageBoundingBox:    33   187   563   592
MathWorks begin
bpage
%%EndPageSetup

%%BeginObject: obj1
bplot

/dpi2point 12 def
portraitMode 0216 7344 csm

  191   234  6353  4857 MR c np
85 dict begin %Colortable dictionary
/c0 { 0.000000 0.000000 0.000000 sr} bdef
/c1 { 1.000000 1.000000 1.000000 sr} bdef
/c2 { 0.900000 0.000000 0.000000 sr} bdef
/c3 { 0.000000 0.820000 0.000000 sr} bdef
/c4 { 0.000000 0.000000 0.800000 sr} bdef
/c5 { 0.910000 0.820000 0.320000 sr} bdef
/c6 { 1.000000 0.260000 0.820000 sr} bdef
/c7 { 0.000000 0.820000 0.820000 sr} bdef
c0
1 j
1 sg
   0    0 6913 5186 PR
6 w
0 4226 5356 0 0 -4226 899 4615 4 MP
PP
-5356 0 0 4226 5356 0 0 -4226 899 4615 5 MP stroke
4 w
DO
SO
6 w
0 sg
 899 4615 mt 6255 4615 L
 899 4615 mt  899  389 L
 899 4615 mt  899 4561 L
%%IncludeResource: font Helvetica
/Helvetica /ISOLatin1Encoding 192 FMSR

 846 4827 mt 
(0) s
1970 4615 mt 1970 4561 L
1730 4827 mt 
(0.005) s
3041 4615 mt 3041 4561 L
2855 4827 mt 
(0.01) s
4112 4615 mt 4112 4561 L
3872 4827 mt 
(0.015) s
5183 4615 mt 5183 4561 L
4997 4827 mt 
(0.02) s
6255 4615 mt 6255 4561 L
6015 4827 mt 
(0.025) s
 899 4615 mt  952 4615 L
 651 4686 mt 
(40) s
 899 4192 mt  952 4192 L
 651 4263 mt 
(60) s
 899 3769 mt  952 3769 L
 651 3840 mt 
(80) s
 899 3347 mt  952 3347 L
 544 3418 mt 
(100) s
 899 2924 mt  952 2924 L
 544 2995 mt 
(120) s
 899 2502 mt  952 2502 L
 544 2573 mt 
(140) s
 899 2079 mt  952 2079 L
 544 2150 mt 
(160) s
 899 1656 mt  952 1656 L
 544 1727 mt 
(180) s
 899 1234 mt  952 1234 L
 544 1305 mt 
(200) s
 899  811 mt  952  811 L
 544  882 mt 
(220) s
 899  389 mt  952  389 L
 544  460 mt 
(240) s
gs 899 389 5357 4227 MR c np
DA
18 w
34 -1 38 -1 38 -1 38 -1 37 -1 37 -1 37 -2 37 -1 
37 -1 36 -1 37 -1 36 -1 36 -1 35 -1 36 -1 35 -1 
35 -1 35 -1 35 -1 34 0 35 -1 34 -1 34 -1 33 -1 
34 -1 33 -1 33 -1 33 -1 32 -1 32 0 32 -1 32 -1 
32 -1 31 -1 32 -1 30 0 31 -1 31 -1 30 -1 30 0 
30 -1 29 -1 29 0 29 -1 29 -1 29 -1 28 0 28 -1 
28 0 27 -1 27 -1 27 0 27 -1 27 0 26 -1 26 0 
26 -1 25 0 25 -1 25 0 25 -1 24 0 24 -1 24 0 
24 0 23 -1 23 0 23 0 23 -1 22 0 22 0 22 0 
22 0 21 -1 21 0 21 0 20 0 21 0 20 0 19 0 
20 0 19 0 19 0 19 0 18 0 19 1 18 0 18 0 
17 1 17 0 18 0 16 1 17 0 17 1 16 0 16 1 
16 1 15 0 16 1 2494 4484 100 MP stroke
15 1 15 1 15 1 14 1 15 1 14 1 14 2 14 1 
14 1 13 2 13 2 14 1 13 2 13 2 13 2 12 2 
13 2 12 3 13 2 12 3 13 3 12 3 12 3 13 4 
12 4 13 4 12 4 13 5 14 5 13 5 14 6 15 6 
15 7 15 7 17 8 18 9 19 10 21 11 23 12 24 14 
28 15 30 16 34 19 37 20 41 23 45 24 48 26 51 27 
53 28 56 29 56 29 58 29 59 30 59 29 60 30 60 29 
60 29 60 29 61 29 60 28 899 3803 61 MP stroke
DO
34 1 38 0 38 1 38 1 37 1 37 1 37 0 37 1 
37 1 36 1 37 0 36 1 36 0 35 1 36 0 35 1 
35 0 35 1 35 0 34 1 35 0 34 0 34 0 33 1 
34 0 33 0 33 0 33 0 32 0 32 0 32 0 32 0 
32 -1 31 0 32 0 30 -1 31 0 31 -1 30 0 30 -1 
30 0 29 -1 29 -1 29 -1 29 -1 29 -1 28 -1 28 -1 
28 -1 27 -2 27 -1 27 -1 27 -2 27 -2 26 -1 26 -2 
26 -2 25 -2 25 -2 25 -2 25 -3 24 -2 24 -2 24 -3 
24 -3 23 -2 23 -3 23 -3 23 -3 22 -3 22 -4 22 -3 
22 -3 21 -4 21 -3 21 -4 20 -4 21 -3 20 -4 19 -4 
20 -4 19 -3 19 -4 19 -4 18 -4 19 -3 18 -4 18 -3 
17 -4 17 -3 18 -3 16 -3 17 -2 17 -2 16 -2 16 -2 
16 -1 15 -1 16 -1 2494 1900 100 MP stroke
15 0 15 0 15 1 14 2 15 1 14 3 14 3 14 3 
14 4 13 5 13 5 14 5 13 6 13 7 13 7 12 8 
13 8 12 8 13 9 12 10 13 10 12 10 12 11 13 12 
12 12 13 12 12 13 13 14 14 14 13 15 14 16 15 16 
15 18 15 18 17 20 18 20 19 22 21 24 23 26 24 27 
28 30 30 33 34 35 37 38 41 41 45 43 48 46 51 48 
53 49 56 50 56 52 58 51 59 52 59 52 60 51 60 52 
60 51 60 52 61 51 60 51 899 547 61 MP stroke
SO
11 -42 39 0 38 -1 38 -1 38 -1 38 -1 38 -1 37 0 
38 14 37 0 37 -1 36 1 37 -1 36 0 36 -1 35 -1 
36 -1 35 0 36 -1 35 -2 34 -1 35 -2 35 9 34 13 
34 -1 34 -2 33 -1 34 -1 33 48 33 -1 33 -1 33 -1 
33 0 32 -1 32 -2 32 -1 32 0 31 -2 32 -2 31 -2 
31 -2 31 -1 30 -2 30 -1 30 -1 30 -2 30 -2 29 -2 
29 -1 29 7 29 56 29 -2 28 -2 28 -2 27 -1 28 -2 
27 -1 27 8 26 -1 25 -3 26 1 25 -1 25 -2 24 -1 
24 4 24 5 24 -1 23 -2 23 -2 23 -3 23 2 22 7 
22 5 21 -2 21 -2 21 -2 21 -4 20 -2 21 -1 20 -3 
20 -4 19 -3 19 -2 19 -3 19 -2 18 4 18 0 18 2 
18 -4 18 -4 18 -11 18 -12 17 -3 18 -3 19 -6 19 15 
17 14 18 -4 18 -2 2438 4342 100 MP stroke
17 -2 17 -3 17 -3 16 -4 16 -3 17 -2 16 -4 16 -2 
16 -3 15 -1 16 -2 15 -4 15 1 14 -3 14 -2 13 0 
13 4 13 -4 12 -3 11 -2 11 -4 10 -2 10 -2 9 -4 
9 19 8 3 8 3 7 -4 7 -5 6 -6 6 -3 6 -1 
5 -3 5 0 4 -6 4 -3 4 -1 4 -3 4 -9 3 -6 
5 6 4 1 5 16 5 3 5 -4 6 1 6 2 8 17 
11 10 13 16 16 15 18 11 22 17 29 19 33 20 37 20 
41 23 45 24 48 26 51 27 53 28 56 29 56 29 58 29 
59 30 59 29 60 30 60 29 60 29 60 29 61 29 60 28 
899 3803 73 MP stroke
DD
11 -117 39 -9 38 -11 38 -6 38 -9 38 -4 38 -6 37 -7 
38 26 37 5 37 -2 36 3 37 -7 36 -5 36 28 35 -6 
36 -7 35 2 36 -6 35 2 34 -5 35 -7 35 -5 34 -6 
34 2 34 31 33 -6 34 -12 33 -16 33 -8 33 -9 33 -10 
33 -7 32 -6 32 0 32 -8 32 0 31 -7 32 -4 31 -4 
31 -4 31 -7 30 -7 30 -9 30 18 30 56 30 4 29 11 
29 4 29 18 29 -4 29 27 28 -4 28 -6 27 -6 28 2 
27 3 27 -11 26 7 25 -5 26 7 25 21 25 47 24 50 
24 7 24 -2 24 -5 23 -15 23 33 23 15 23 -6 22 4 
22 8 21 -7 21 -18 21 1 21 1 20 8 21 5 20 0 
20 -15 19 11 19 14 19 -15 19 -5 18 -8 18 -12 18 -8 
18 -12 18 9 18 -16 18 -21 17 -15 18 4 19 12 19 15 
17 22 18 2 18 13 2438 2283 100 MP stroke
17 2 17 5 17 1 16 -2 16 12 17 71 16 -19 16 10 
16 2 15 19 16 21 15 37 15 17 14 0 14 24 13 14 
13 8 13 -3 12 18 11 19 11 9 10 1 10 28 9 2 
9 13 8 10 8 24 7 -2 7 7 6 -28 6 26 6 19 
5 25 5 1 4 -26 4 1 4 -9 4 -22 4 -80 3 -105 
5 49 4 -57 5 43 5 -5 5 15 6 62 6 27 8 178 
11 35 13 102 16 27 18 52 22 80 29 92 33 56 37 38 
41 41 45 43 48 46 51 48 53 49 56 50 56 52 58 51 
59 52 59 52 60 51 60 52 60 51 60 52 61 51 60 51 
899 547 73 MP stroke
gr

18 w
DD
3078 5023 mt 
(Strain norm) s
 446 3961 mt  -90 rotate
(Second-order tangent \(MPa.mm) s
90 rotate
%%IncludeResource: font Helvetica
/Helvetica /ISOLatin1Encoding 144 FMSR

 350 1179 mt  -90 rotate
(2) s
90 rotate
%%IncludeResource: font Helvetica
/Helvetica /ISOLatin1Encoding 192 FMSR

 446 1099 mt  -90 rotate
(\)) s
90 rotate
%%IncludeResource: font Helvetica
/Helvetica /ISOLatin1Encoding 120 FMSR

 882 4658 mt 
( ) s
6239  431 mt 
( ) s
SO
6 w
%%IncludeResource: font Helvetica
/Helvetica /ISOLatin1Encoding 192 FMSR

4440  612 mt 
(J) s
%%IncludeResource: font Helvetica
/Helvetica /ISOLatin1Encoding 144 FMSR

4536  708 mt 
(101101) s
%%IncludeResource: font Helvetica
/Helvetica /ISOLatin1Encoding 192 FMSR

5016  612 mt 
(, elastic) s
gs 3845 449 2351 1299 MR c np
DA
18 w
458 0 3936 631 2 MP stroke
SO
gr

18 w
4440  924 mt 
(J) s
%%IncludeResource: font Helvetica
/Helvetica /ISOLatin1Encoding 144 FMSR

4536 1020 mt 
(010010) s
%%IncludeResource: font Helvetica
/Helvetica /ISOLatin1Encoding 192 FMSR

5016  924 mt 
(, elastic) s
gs 3845 449 2351 1299 MR c np
DO
458 0 3936 942 2 MP stroke
SO
gr

4440 1235 mt 
(J) s
%%IncludeResource: font Helvetica
/Helvetica /ISOLatin1Encoding 144 FMSR

4536 1331 mt 
(101101) s
%%IncludeResource: font Helvetica
/Helvetica /ISOLatin1Encoding 192 FMSR

5016 1235 mt 
(, elasto-plastic) s
gs 3845 449 2351 1299 MR c np
458 0 3936 1253 2 MP stroke
gr

4440 1547 mt 
(J) s
%%IncludeResource: font Helvetica
/Helvetica /ISOLatin1Encoding 144 FMSR

4536 1643 mt 
(010010) s
%%IncludeResource: font Helvetica
/Helvetica /ISOLatin1Encoding 192 FMSR

5016 1547 mt 
(, elasto-plastic) s
gs 3845 449 2351 1299 MR c np
DD
458 0 3936 1564 2 MP stroke
SO
6 w
gr

6 w

end %%Color Dict

eplot
%%EndObject

epage
end

showpage

%%Trailer
%%EOF
