%{
  #include "NonLinearSolverConfig.h"
  #include "simpleFunction.h"
  #include "simpleFunctionTime.h"
  #include "timeFunction.h"
  #include "j2IsotropicHardening.h"
  #include "CLengthLaw.h"
  #include "GursonDamageNucleation.h"
  #include "DamageLaw.h"
  #include "mlaw.h"
  #include "nonLinearBC.h"
  #include "partDomain.h"
  #include "contactDomain.h"
  #include "nonLinearMechSolver.h"
  #include "nlsField.h"
  #include "elementsField.h"
  #include "ipField.h"
  #include "groupOfElements.h"
  #include "elementFilterBox.h"
  #include "numericalMaterial.h"
  #include "getTotalVolume.h"
%}
%nodefaultctor J2IsotropicHardening;
%nodefaultctor CLengthLaw;
%nodefaultctor DamageLaw;
%nodefaultctor GursonDamageNucleation;
%nodefaultctor materialLaw;
%nodefaultctor partDomain;
%nodefaultctor dgPartDomain;
%nodefaultctor contactDomain;
%nodefaultctor rigidCylinderContactDomain;
%nodefaultctor rigidConeContactDomain;
%nodefaultctor nlsField; 
%nodefaultctor elementsField;
%nodefaultctor IPField;
%nodefaultctor materialLaw2LawsInitializer;
%nodefaultctor nonLinearBoundaryCondition;
%nodefaultctor numericalMaterial;
%nodefaultctor getTotalVolume;
%include "NonLinearSolverConfig.h"
%include "simpleFunction.h"
%template(simpleFunctionDouble) simpleFunction<double>;
%include "simpleFunctionTime.h"
%template(simpleFunctionTimeDouble) simpleFunctionTime<double>;
%include "timeFunction.h"
%template(simpleFunctionTimeWithConstantDouble) simpleFunctionTimeWithConstant<double>;
%include "j2IsotropicHardening.h"
%include "CLengthLaw.h"
%include "GursonDamageNucleation.h"
%include "DamageLaw.h"
%include "mlaw.h"
%include "nonLinearBC.h"
%include "partDomain.h"
%include "contactDomain.h"
%include "nonLinearMechSolver.h"
%include "nlsField.h"
%include "elementsField.h"
%include "ipField.h"
%include "groupOfElements.h"
%include "elementFilterBox.h"
%include "numericalMaterial.h"
%include "getTotalVolume.h"
