%!PS-Adobe-2.0 EPSF-1.2
%%Creator: MATLAB, The Mathworks, Inc. Version 7.6.0.324 (R2008a). Operating System: Linux 3.5.0-37-generic #58~precise1-Ubuntu SMP Wed Jul 10 17:48:11 UTC 2013 x86_64.
%%Title: ./detQ.eps
%%CreationDate: 08/01/2013  13:57:35
%%DocumentNeededFonts: Helvetica
%%DocumentProcessColors: Cyan Magenta Yellow Black
%%Pages: 1
%%BoundingBox:    33   187   547   607
%%EndComments

%%BeginProlog
% MathWorks dictionary
/MathWorks 160 dict begin
% definition operators
/bdef {bind def} bind def
/ldef {load def} bind def
/xdef {exch def} bdef
/xstore {exch store} bdef
% operator abbreviations
/c  /clip ldef
/cc /concat ldef
/cp /closepath ldef
/gr /grestore ldef
/gs /gsave ldef
/mt /moveto ldef
/np /newpath ldef
/cm /currentmatrix ldef
/sm /setmatrix ldef
/rm /rmoveto ldef
/rl /rlineto ldef
/s {show newpath} bdef
/sc {setcmykcolor} bdef
/sr /setrgbcolor ldef
/sg /setgray ldef
/w /setlinewidth ldef
/j /setlinejoin ldef
/cap /setlinecap ldef
/rc {rectclip} bdef
/rf {rectfill} bdef
% page state control
/pgsv () def
/bpage {/pgsv save def} bdef
/epage {pgsv restore} bdef
/bplot /gsave ldef
/eplot {stroke grestore} bdef
% orientation switch
/portraitMode 0 def /landscapeMode 1 def /rotateMode 2 def
% coordinate system mappings
/dpi2point 0 def
% font control
/FontSize 0 def
/FMS {/FontSize xstore findfont [FontSize 0 0 FontSize neg 0 0]
  makefont setfont} bdef
/reencode {exch dup where {pop load} {pop StandardEncoding} ifelse
  exch dup 3 1 roll findfont dup length dict begin
  { 1 index /FID ne {def}{pop pop} ifelse } forall
  /Encoding exch def currentdict end definefont pop} bdef
/isroman {findfont /CharStrings get /Agrave known} bdef
/FMSR {3 1 roll 1 index dup isroman {reencode} {pop pop} ifelse
  exch FMS} bdef
/csm {1 dpi2point div -1 dpi2point div scale neg translate
 dup landscapeMode eq {pop -90 rotate}
  {rotateMode eq {90 rotate} if} ifelse} bdef
% line types: solid, dotted, dashed, dotdash
/SO { [] 0 setdash } bdef
/DO { [.5 dpi2point mul 4 dpi2point mul] 0 setdash } bdef
/DA { [6 dpi2point mul] 0 setdash } bdef
/DD { [.5 dpi2point mul 4 dpi2point mul 6 dpi2point mul 4
  dpi2point mul] 0 setdash } bdef
% macros for lines and objects
/L {lineto stroke} bdef
/MP {3 1 roll moveto 1 sub {rlineto} repeat} bdef
/AP {{rlineto} repeat} bdef
/PDlw -1 def
/W {/PDlw currentlinewidth def setlinewidth} def
/PP {closepath eofill} bdef
/DP {closepath stroke} bdef
/MR {4 -2 roll moveto dup  0 exch rlineto exch 0 rlineto
  neg 0 exch rlineto closepath} bdef
/FR {MR stroke} bdef
/PR {MR fill} bdef
/L1i {{currentfile picstr readhexstring pop} image} bdef
/tMatrix matrix def
/MakeOval {newpath tMatrix currentmatrix pop translate scale
0 0 1 0 360 arc tMatrix setmatrix} bdef
/FO {MakeOval stroke} bdef
/PO {MakeOval fill} bdef
/PD {currentlinewidth 2 div 0 360 arc fill
   PDlw -1 eq not {PDlw w /PDlw -1 def} if} def
/FA {newpath tMatrix currentmatrix pop translate scale
  0 0 1 5 -2 roll arc tMatrix setmatrix stroke} bdef
/PA {newpath tMatrix currentmatrix pop	translate 0 0 moveto scale
  0 0 1 5 -2 roll arc closepath tMatrix setmatrix fill} bdef
/FAn {newpath tMatrix currentmatrix pop translate scale
  0 0 1 5 -2 roll arcn tMatrix setmatrix stroke} bdef
/PAn {newpath tMatrix currentmatrix pop translate 0 0 moveto scale
  0 0 1 5 -2 roll arcn closepath tMatrix setmatrix fill} bdef
/vradius 0 def /hradius 0 def /lry 0 def
/lrx 0 def /uly 0 def /ulx 0 def /rad 0 def
/MRR {/vradius xdef /hradius xdef /lry xdef /lrx xdef /uly xdef
  /ulx xdef newpath tMatrix currentmatrix pop ulx hradius add uly
  vradius add translate hradius vradius scale 0 0 1 180 270 arc 
  tMatrix setmatrix lrx hradius sub uly vradius add translate
  hradius vradius scale 0 0 1 270 360 arc tMatrix setmatrix
  lrx hradius sub lry vradius sub translate hradius vradius scale
  0 0 1 0 90 arc tMatrix setmatrix ulx hradius add lry vradius sub
  translate hradius vradius scale 0 0 1 90 180 arc tMatrix setmatrix
  closepath} bdef
/FRR {MRR stroke } bdef
/PRR {MRR fill } bdef
/MlrRR {/lry xdef /lrx xdef /uly xdef /ulx xdef /rad lry uly sub 2 div def
  newpath tMatrix currentmatrix pop ulx rad add uly rad add translate
  rad rad scale 0 0 1 90 270 arc tMatrix setmatrix lrx rad sub lry rad
  sub translate rad rad scale 0 0 1 270 90 arc tMatrix setmatrix
  closepath} bdef
/FlrRR {MlrRR stroke } bdef
/PlrRR {MlrRR fill } bdef
/MtbRR {/lry xdef /lrx xdef /uly xdef /ulx xdef /rad lrx ulx sub 2 div def
  newpath tMatrix currentmatrix pop ulx rad add uly rad add translate
  rad rad scale 0 0 1 180 360 arc tMatrix setmatrix lrx rad sub lry rad
  sub translate rad rad scale 0 0 1 0 180 arc tMatrix setmatrix
  closepath} bdef
/FtbRR {MtbRR stroke } bdef
/PtbRR {MtbRR fill } bdef
/stri 6 array def /dtri 6 array def
/smat 6 array def /dmat 6 array def
/tmat1 6 array def /tmat2 6 array def /dif 3 array def
/asub {/ind2 exch def /ind1 exch def dup dup
  ind1 get exch ind2 get sub exch } bdef
/tri_to_matrix {
  2 0 asub 3 1 asub 4 0 asub 5 1 asub
  dup 0 get exch 1 get 7 -1 roll astore } bdef
/compute_transform {
  dmat dtri tri_to_matrix tmat1 invertmatrix 
  smat stri tri_to_matrix tmat2 concatmatrix } bdef
/ds {stri astore pop} bdef
/dt {dtri astore pop} bdef
/db {2 copy /cols xdef /rows xdef mul dup string
  currentfile exch readhexstring pop
  /bmap xdef pop pop} bdef
/it {gs np dtri aload pop moveto lineto lineto cp c
  cols rows 8 compute_transform 
  {bmap} image gr}bdef
/il {newpath moveto lineto stroke}bdef
currentdict end def
%%EndProlog

%%BeginSetup
MathWorks begin

0 cap

end
%%EndSetup

%%Page: 1 1
%%BeginPageSetup
%%PageBoundingBox:    33   187   547   607
MathWorks begin
bpage
%%EndPageSetup

%%BeginObject: obj1
bplot

/dpi2point 12 def
portraitMode 0216 7344 csm

  184    49  6173  5046 MR c np
85 dict begin %Colortable dictionary
/c0 { 0.000000 0.000000 0.000000 sr} bdef
/c1 { 1.000000 1.000000 1.000000 sr} bdef
/c2 { 0.900000 0.000000 0.000000 sr} bdef
/c3 { 0.000000 0.820000 0.000000 sr} bdef
/c4 { 0.000000 0.000000 0.800000 sr} bdef
/c5 { 0.910000 0.820000 0.320000 sr} bdef
/c6 { 1.000000 0.260000 0.820000 sr} bdef
/c7 { 0.000000 0.820000 0.820000 sr} bdef
c0
1 j
1 sg
   0    0 6913 5186 PR
6 w
0 4227 5356 0 0 -4227 899 4615 4 MP
PP
-5356 0 0 4227 5356 0 0 -4227 899 4615 5 MP stroke
4 w
DO
SO
6 w
0 sg
 899 4615 mt 6255 4615 L
 899 4615 mt  899  388 L
 899 4615 mt  899 4561 L
%%IncludeResource: font Helvetica
/Helvetica /ISOLatin1Encoding 192 FMSR

 846 4827 mt 
(0) s
1664 4615 mt 1664 4561 L
1611 4827 mt 
(1) s
2429 4615 mt 2429 4561 L
2376 4827 mt 
(2) s
3194 4615 mt 3194 4561 L
3141 4827 mt 
(3) s
3959 4615 mt 3959 4561 L
3906 4827 mt 
(4) s
4724 4615 mt 4724 4561 L
4671 4827 mt 
(5) s
5489 4615 mt 5489 4561 L
5436 4827 mt 
(6) s
6255 4615 mt 6255 4561 L
6202 4827 mt 
(7) s
 899 4615 mt  952 4615 L
 646 4686 mt 
(-2) s
 899 4086 mt  952 4086 L
 485 4157 mt 
(-1.5) s
 899 3558 mt  952 3558 L
 646 3629 mt 
(-1) s
 899 3030 mt  952 3030 L
 485 3101 mt 
(-0.5) s
 899 2502 mt  952 2502 L
 758 2573 mt 
(0) s
 899 1973 mt  952 1973 L
 598 2044 mt 
(0.5) s
 899 1445 mt  952 1445 L
 758 1516 mt 
(1) s
 899  917 mt  952  917 L
 598  988 mt 
(1.5) s
 899  389 mt  952  389 L
 758  460 mt 
(2) s
 899  335 mt 
(x 10) s
%%IncludeResource: font Helvetica
/Helvetica /ISOLatin1Encoding 128 FMSR

1261  216 mt 
(5) s
gs 899 389 5357 4227 MR c np
DA
18 w
24 1 24 -1 24 0 25 0 24 -1 24 -1 24 -2 24 -1 
24 -2 25 -2 24 -2 24 -2 24 -2 24 -2 24 -2 25 -2 
24 -2 24 -2 24 -2 24 -2 24 -1 24 -1 25 -1 24 -1 
24 0 24 -1 24 0 24 1 25 0 24 1 24 1 24 1 
24 2 24 1 25 2 24 2 24 2 24 2 24 2 24 2 
24 2 25 1 24 2 24 2 24 1 24 1 24 1 25 1 
24 0 24 0 24 0 24 0 24 0 25 -1 24 -1 24 -2 
24 -1 24 -2 24 -1 24 -2 25 -2 24 -2 24 -3 24 -2 
24 -2 24 -2 25 -1 24 -2 24 -2 24 -1 24 -1 24 -1 
25 -1 24 0 24 0 24 0 24 0 24 1 24 1 25 1 
24 1 24 2 24 2 24 1 24 3 25 2 24 2 24 2 
24 3 24 2 24 2 25 2 24 2 24 2 24 1 24 2 
24 1 24 1 25 0 3314 1222 100 MP stroke
24 0 24 1 24 -1 24 0 24 -1 25 -1 24 -1 24 -2 
24 -1 24 -2 24 -2 25 -2 24 -2 24 -2 24 -2 24 -2 
24 -2 25 -2 24 -2 24 -2 24 -1 24 -2 24 -1 24 -1 
25 0 24 -1 24 0 24 1 24 0 24 1 25 1 24 1 
24 1 24 2 24 1 24 2 25 2 24 2 24 2 24 2 
24 2 24 2 24 1 25 2 24 1 24 2 24 1 24 0 
24 1 25 0 24 0 24 0 24 0 24 -1 24 -1 25 -1 
24 -1 24 -2 24 -2 24 -1 24 -2 24 -2 25 -2 24 -3 
24 -2 24 -2 24 -2 24 -1 25 -2 24 -1 24 -2 24 -1 
24 -1 24 0 25 0 24 0 24 0 24 0 24 1 24 1 
24 1 25 2 24 2 24 2 24 2 24 2 24 2 25 2 
24 2 24 3 24 2 24 2 24 2 25 2 24 1 24 2 
24 1 24 1 24 1 923 1222 100 MP stroke
24 0 899 1222 2 MP stroke
SO
24 1 24 -1 24 0 25 0 24 -1 24 -1 24 -2 24 -1 
24 -2 25 -2 24 -2 24 -2 24 -2 24 -2 24 -2 25 -2 
24 -2 24 -2 24 -2 24 -2 24 -1 24 -1 25 -1 24 -1 
24 0 24 -1 24 0 24 1 25 0 24 1 24 1 24 1 
24 2 24 1 25 2 24 2 24 2 24 2 24 2 24 2 
24 2 25 1 24 2 24 2 24 1 24 1 24 1 25 1 
24 0 24 0 24 0 24 0 24 0 25 -1 24 -1 24 -2 
24 -1 24 -2 24 -1 24 -2 25 -2 24 -2 24 -3 24 -2 
24 -2 24 -2 25 -1 24 -2 24 -2 24 -1 24 -1 24 -1 
25 -1 24 0 24 0 24 0 24 0 24 1 24 1 25 1 
24 1 24 2 24 2 24 1 24 3 25 2 24 2 24 2 
24 3 24 2 24 2 25 2 24 2 24 2 24 1 24 2 
24 1 24 1 25 0 3314 1222 100 MP stroke
24 0 24 1 24 -1 24 0 24 -1 25 -1 24 -1 24 -2 
24 -1 24 -2 24 -2 25 -2 24 -2 24 -2 24 -2 24 -2 
24 -2 25 -2 24 -2 24 -2 24 -1 24 -2 24 -1 24 -1 
25 0 24 -1 24 0 24 1 24 0 24 1 25 1 24 1 
24 1 24 2 24 1 24 2 25 2 24 2 24 2 24 2 
24 2 24 2 24 1 25 2 24 1 24 2 24 1 24 0 
24 1 25 0 24 0 24 0 24 0 24 -1 24 -1 25 -1 
24 -1 24 -2 24 -2 24 -1 24 -2 24 -2 25 -2 24 -3 
24 -2 24 -2 24 -2 24 -1 25 -2 24 -1 24 -2 24 -1 
24 -1 24 0 25 0 24 0 24 0 24 0 24 1 24 1 
24 1 25 2 24 2 24 2 24 2 24 2 24 2 25 2 
24 2 24 3 24 2 24 2 24 2 25 2 24 1 24 2 
24 1 24 1 24 1 923 1222 100 MP stroke
24 0 899 1222 2 MP stroke
DA
24 0 24 0 24 0 25 -1 24 -1 24 -1 24 -1 24 -1 
24 -2 25 -2 24 -1 24 -2 24 -2 24 -2 24 -2 25 -2 
24 -2 24 -2 24 -1 24 -2 24 -1 24 -2 25 -1 24 -1 
24 0 24 -1 24 0 24 0 25 0 24 0 24 1 24 1 
24 1 24 1 25 1 24 1 24 1 24 2 24 1 24 1 
24 2 25 1 24 1 24 1 24 1 24 1 24 1 25 1 
24 0 24 0 24 0 24 0 24 0 25 -1 24 -1 24 0 
24 -1 24 -2 24 -1 24 -1 25 -1 24 -2 24 -1 24 -2 
24 -1 24 -1 25 -2 24 -1 24 -1 24 -1 24 0 24 -1 
25 0 24 0 24 0 24 1 24 0 24 1 24 1 25 1 
24 1 24 2 24 2 24 1 24 2 25 2 24 2 24 2 
24 2 24 2 24 2 25 2 24 2 24 1 24 1 24 2 
24 0 24 1 25 1 3314 1294 100 MP stroke
24 0 24 0 24 0 24 -1 24 0 25 -1 24 -1 24 -2 
24 -1 24 -2 24 -1 25 -2 24 -2 24 -2 24 -2 24 -2 
24 -2 25 -2 24 -2 24 -1 24 -2 24 -1 24 -1 24 -1 
25 -1 24 -1 24 0 24 0 24 0 24 0 25 1 24 0 
24 1 24 1 24 1 24 1 25 2 24 1 24 1 24 2 
24 1 24 1 24 2 25 1 24 1 24 1 24 1 24 0 
24 1 25 0 24 0 24 0 24 0 24 -1 24 0 25 -1 
24 -1 24 -1 24 -1 24 -1 24 -2 24 -1 25 -2 24 -1 
24 -1 24 -2 24 -1 24 -1 25 -1 24 -1 24 -1 24 -1 
24 0 24 0 25 0 24 0 24 1 24 0 24 1 24 1 
24 2 25 1 24 2 24 2 24 1 24 2 24 2 25 2 
24 2 24 2 24 2 24 2 24 2 25 1 24 2 24 1 
24 1 24 1 24 1 923 1294 100 MP stroke
24 0 899 1294 2 MP stroke
24 0 24 0 24 0 25 -1 24 -1 24 -1 24 -1 24 -1 
24 -2 25 -1 24 -2 24 -1 24 -2 24 -2 24 -2 25 -2 
24 -2 24 -1 24 -2 24 -1 24 -2 24 -1 25 -2 24 -1 
24 0 24 -1 24 -1 24 0 25 0 24 0 24 0 24 0 
24 0 24 1 25 1 24 0 24 1 24 1 24 1 24 1 
24 1 25 1 24 1 24 0 24 1 24 1 24 0 25 1 
24 0 24 1 24 0 24 0 24 0 25 -1 24 0 24 -1 
24 0 24 -1 24 0 24 -1 25 -1 24 -1 24 -1 24 0 
24 -1 24 -1 25 0 24 -1 24 0 24 -1 24 0 24 0 
25 0 24 1 24 0 24 1 24 0 24 1 24 1 25 2 
24 1 24 1 24 2 24 2 24 1 25 2 24 2 24 1 
24 2 24 2 24 1 25 2 24 1 24 1 24 1 24 1 
24 1 24 1 25 0 3314 1376 100 MP stroke
24 0 24 0 24 0 24 -1 24 0 25 -1 24 -1 24 -1 
24 -2 24 -1 24 -2 25 -2 24 -1 24 -2 24 -2 24 -2 
24 -2 25 -1 24 -2 24 -2 24 -1 24 -2 24 -1 24 -1 
25 -1 24 -1 24 0 24 -1 24 0 24 0 25 0 24 0 
24 0 24 1 24 0 24 1 25 1 24 1 24 0 24 1 
24 1 24 1 24 1 25 1 24 1 24 1 24 0 24 1 
24 0 25 0 24 1 24 0 24 0 24 -1 24 0 25 0 
24 -1 24 0 24 -1 24 -1 24 -1 24 0 25 -1 24 -1 
24 -1 24 0 24 -1 24 -1 25 0 24 -1 24 0 24 0 
24 0 24 0 25 1 24 0 24 1 24 1 24 1 24 1 
24 1 25 2 24 1 24 2 24 1 24 2 24 2 25 1 
24 2 24 2 24 1 24 2 24 1 25 2 24 1 24 1 
24 1 24 0 24 1 923 1376 100 MP stroke
24 0 899 1376 2 MP stroke
24 0 24 0 24 -1 25 0 24 -1 24 -1 24 -1 24 -1 
24 -2 25 -1 24 -2 24 -1 24 -2 24 -2 24 -2 25 -1 
24 -2 24 -2 24 -1 24 -2 24 -1 24 -2 25 -1 24 -1 
24 -1 24 -1 24 -1 24 0 25 -1 24 0 24 0 24 -1 
24 1 24 0 25 0 24 0 24 1 24 0 24 1 24 1 
24 0 25 1 24 0 24 1 24 1 24 0 24 1 25 0 
24 1 24 0 24 1 24 0 24 0 25 0 24 0 24 0 
24 0 24 0 24 0 24 -1 25 0 24 0 24 0 24 0 
24 0 24 -1 25 0 24 0 24 0 24 1 24 0 24 0 
25 1 24 0 24 1 24 1 24 1 24 1 24 1 25 1 
24 1 24 1 24 2 24 1 24 1 25 2 24 1 24 2 
24 1 24 1 24 1 25 1 24 1 24 1 24 1 24 1 
24 0 24 0 25 0 3314 1489 100 MP stroke
24 0 24 0 24 0 24 -1 24 -1 25 -1 24 -1 24 -1 
24 -1 24 -2 24 -1 25 -2 24 -1 24 -2 24 -2 24 -1 
24 -2 25 -2 24 -2 24 -1 24 -2 24 -1 24 -1 24 -2 
25 -1 24 -1 24 0 24 -1 24 -1 24 0 25 0 24 -1 
24 0 24 1 24 0 24 0 25 1 24 0 24 1 24 0 
24 1 24 0 24 1 25 1 24 0 24 1 24 1 24 0 
24 1 25 0 24 0 24 1 24 0 24 0 24 0 25 0 
24 0 24 0 24 0 24 0 24 -1 24 0 25 0 24 0 
24 0 24 -1 24 0 24 0 25 0 24 1 24 0 24 0 
24 0 24 1 25 1 24 0 24 1 24 1 24 1 24 1 
24 1 25 2 24 1 24 1 24 2 24 1 24 2 25 1 
24 1 24 2 24 1 24 1 24 1 25 1 24 1 24 0 
24 1 24 0 24 0 923 1489 100 MP stroke
24 0 899 1489 2 MP stroke
24 -1 24 0 24 -1 25 -1 24 -1 24 -1 24 -1 24 -1 
24 -2 25 -1 24 -2 24 -1 24 -2 24 -1 24 -2 25 -1 
24 -2 24 -2 24 -1 24 -2 24 -1 24 -1 25 -2 24 -1 
24 -1 24 -1 24 -1 24 0 25 -1 24 0 24 -1 24 0 
24 0 24 0 25 0 24 0 24 0 24 1 24 0 24 0 
24 1 25 0 24 1 24 1 24 0 24 1 24 0 25 1 
24 1 24 0 24 1 24 0 24 1 25 0 24 1 24 0 
24 0 24 1 24 0 24 1 25 0 24 0 24 1 24 0 
24 0 24 1 25 0 24 1 24 0 24 1 24 0 24 1 
25 1 24 0 24 1 24 1 24 1 24 1 24 1 25 1 
24 1 24 1 24 1 24 1 24 1 25 1 24 1 24 1 
24 1 24 0 24 1 25 1 24 0 24 1 24 0 24 0 
24 0 24 0 25 0 3314 1651 100 MP stroke
24 -1 24 0 24 -1 24 0 24 -1 25 -1 24 -1 24 -2 
24 -1 24 -1 24 -2 25 -1 24 -2 24 -1 24 -2 24 -2 
24 -1 25 -2 24 -1 24 -2 24 -1 24 -2 24 -1 24 -1 
25 -1 24 -1 24 -1 24 -1 24 -1 24 0 25 -1 24 0 
24 0 24 0 24 0 24 0 25 0 24 0 24 1 24 0 
24 1 24 0 24 1 25 0 24 1 24 0 24 1 24 1 
24 0 25 1 24 0 24 1 24 0 24 1 24 0 25 1 
24 0 24 1 24 0 24 0 24 1 24 0 25 0 24 1 
24 0 24 1 24 0 24 0 25 1 24 0 24 1 24 1 
24 0 24 1 25 1 24 1 24 0 24 1 24 1 24 1 
24 1 25 1 24 1 24 1 24 1 24 1 24 1 25 1 
24 1 24 1 24 1 24 0 24 1 25 0 24 1 24 0 
24 0 24 0 24 0 923 1651 100 MP stroke
24 0 899 1651 2 MP stroke
24 -1 24 -1 24 -1 25 -1 24 -1 24 -1 24 -1 24 -1 
24 -1 25 -2 24 -1 24 -2 24 -1 24 -2 24 -1 25 -1 
24 -2 24 -1 24 -2 24 -1 24 -1 24 -1 25 -2 24 -1 
24 -1 24 -1 24 0 24 -1 25 -1 24 0 24 -1 24 0 
24 0 24 0 25 0 24 0 24 0 24 0 24 0 24 1 
24 0 25 1 24 0 24 1 24 1 24 0 24 1 25 1 
24 0 24 1 24 1 24 1 24 0 25 1 24 1 24 1 
24 1 24 0 24 1 24 1 25 1 24 0 24 1 24 1 
24 1 24 0 25 1 24 1 24 1 24 1 24 0 24 1 
25 1 24 1 24 1 24 0 24 1 24 1 24 1 25 1 
24 0 24 1 24 1 24 0 24 1 25 1 24 0 24 0 
24 1 24 0 24 0 25 1 24 0 24 0 24 -1 24 0 
24 0 24 0 25 -1 3314 1841 100 MP stroke
24 -1 24 0 24 -1 24 -1 24 -1 25 -1 24 -1 24 -1 
24 -2 24 -1 24 -1 25 -2 24 -1 24 -2 24 -1 24 -2 
24 -1 25 -2 24 -1 24 -1 24 -2 24 -1 24 -1 24 -1 
25 -1 24 -1 24 -1 24 -1 24 0 24 -1 25 0 24 -1 
24 0 24 0 24 0 24 0 25 0 24 0 24 0 24 1 
24 0 24 1 24 0 25 1 24 0 24 1 24 1 24 0 
24 1 25 1 24 1 24 0 24 1 24 1 24 1 25 0 
24 1 24 1 24 1 24 1 24 0 24 1 25 1 24 1 
24 0 24 1 24 1 24 1 25 0 24 1 24 1 24 1 
24 1 24 0 25 1 24 1 24 1 24 1 24 0 24 1 
24 1 25 1 24 0 24 1 24 1 24 0 24 1 25 0 
24 1 24 0 24 0 24 0 24 1 25 0 24 0 24 -1 
24 0 24 0 24 -1 923 1841 100 MP stroke
24 0 899 1841 2 MP stroke
24 -1 24 -1 24 -1 25 -1 24 -1 24 -1 24 -1 24 -1 
24 -1 25 -2 24 -1 24 -1 24 -2 24 -1 24 -1 25 -1 
24 -2 24 -1 24 -1 24 -1 24 -1 24 -1 25 -1 24 -1 
24 -1 24 -1 24 -1 24 0 25 -1 24 0 24 -1 24 0 
24 0 24 0 25 0 24 0 24 0 24 0 24 0 24 0 
24 1 25 0 24 1 24 1 24 0 24 1 24 1 25 0 
24 1 24 1 24 1 24 1 24 1 25 1 24 1 24 1 
24 1 24 1 24 1 24 1 25 1 24 1 24 1 24 1 
24 1 24 1 25 1 24 1 24 1 24 1 24 1 24 0 
25 1 24 1 24 1 24 0 24 1 24 1 24 0 25 1 
24 0 24 1 24 0 24 1 24 0 25 0 24 0 24 0 
24 0 24 0 24 0 25 0 24 0 24 -1 24 0 24 0 
24 -1 24 -1 25 0 3314 2015 100 MP stroke
24 -1 24 -1 24 -1 24 -1 24 -1 25 -1 24 -1 24 -2 
24 -1 24 -1 24 -1 25 -2 24 -1 24 -1 24 -2 24 -1 
24 -1 25 -1 24 -2 24 -1 24 -1 24 -1 24 -1 24 -1 
25 -1 24 -1 24 0 24 -1 24 -1 24 0 25 -1 24 0 
24 0 24 0 24 0 24 0 25 0 24 0 24 0 24 0 
24 1 24 0 24 1 25 0 24 1 24 1 24 0 24 1 
24 1 25 1 24 1 24 1 24 1 24 0 24 1 25 1 
24 1 24 1 24 1 24 1 24 2 24 1 25 1 24 1 
24 1 24 0 24 1 24 1 25 1 24 1 24 1 24 1 
24 1 24 1 25 0 24 1 24 1 24 0 24 1 24 1 
24 0 25 1 24 0 24 1 24 0 24 0 24 0 25 0 
24 0 24 0 24 0 24 0 24 0 25 0 24 -1 24 0 
24 -1 24 0 24 -1 923 2015 100 MP stroke
24 -1 899 2016 2 MP stroke
24 -1 24 -1 24 -1 25 -1 24 -1 24 -1 24 -1 24 -1 
24 -2 25 -1 24 -1 24 -1 24 -1 24 -2 24 -1 25 -1 
24 -1 24 -1 24 -1 24 -1 24 -1 24 -1 25 -1 24 -1 
24 0 24 -1 24 -1 24 0 25 -1 24 0 24 -1 24 0 
24 0 24 0 25 0 24 0 24 0 24 0 24 0 24 1 
24 0 25 1 24 0 24 1 24 0 24 1 24 1 25 1 
24 1 24 1 24 1 24 1 24 1 25 1 24 1 24 1 
24 1 24 1 24 1 24 1 25 1 24 1 24 1 24 2 
24 1 24 1 25 1 24 1 24 1 24 1 24 0 24 1 
25 1 24 1 24 1 24 0 24 1 24 0 24 1 25 0 
24 1 24 0 24 0 24 0 24 0 25 0 24 0 24 0 
24 0 24 0 24 -1 25 0 24 -1 24 0 24 -1 24 0 
24 -1 24 -1 25 -1 3314 2152 100 MP stroke
24 -1 24 0 24 -1 24 -1 24 -2 25 -1 24 -1 24 -1 
24 -1 24 -1 24 -1 25 -2 24 -1 24 -1 24 -1 24 -1 
24 -1 25 -2 24 -1 24 -1 24 -1 24 -1 24 0 24 -1 
25 -1 24 -1 24 0 24 -1 24 -1 24 0 25 0 24 -1 
24 0 24 0 24 0 24 0 25 0 24 0 24 0 24 1 
24 0 24 0 24 1 25 0 24 1 24 1 24 1 24 0 
24 1 25 1 24 1 24 1 24 1 24 1 24 1 25 1 
24 1 24 1 24 2 24 1 24 1 24 1 25 1 24 1 
24 1 24 1 24 1 24 1 25 1 24 1 24 1 24 1 
24 1 24 0 25 1 24 1 24 0 24 1 24 1 24 0 
24 0 25 1 24 0 24 0 24 0 24 0 24 0 25 0 
24 0 24 0 24 -1 24 0 24 0 25 -1 24 0 24 -1 
24 -1 24 0 24 -1 923 2151 100 MP stroke
24 -1 899 2152 2 MP stroke
24 -1 24 0 24 -1 25 -1 24 -1 24 -2 24 -1 24 -1 
24 -1 25 -1 24 -1 24 -1 24 -1 24 -1 24 -1 25 -1 
24 -1 24 -1 24 -1 24 -1 24 -1 24 -1 25 -1 24 -1 
24 0 24 -1 24 0 24 -1 25 0 24 -1 24 0 24 0 
24 0 24 -1 25 0 24 0 24 1 24 0 24 0 24 0 
24 1 25 0 24 1 24 0 24 1 24 1 24 0 25 1 
24 1 24 1 24 1 24 1 24 1 25 1 24 1 24 1 
24 1 24 1 24 1 24 1 25 2 24 1 24 1 24 1 
24 1 24 1 25 1 24 1 24 1 24 1 24 1 24 0 
25 1 24 1 24 1 24 0 24 1 24 0 24 1 25 0 
24 0 24 0 24 1 24 0 24 0 25 0 24 -1 24 0 
24 0 24 0 24 -1 25 0 24 -1 24 0 24 -1 24 -1 
24 -1 24 0 25 -1 3314 2249 100 MP stroke
24 -1 24 -1 24 -1 24 -1 24 -1 25 -1 24 -1 24 -1 
24 -1 24 -1 24 -1 25 -2 24 -1 24 -1 24 -1 24 -1 
24 -1 25 -1 24 -1 24 -1 24 -1 24 -1 24 0 24 -1 
25 -1 24 -1 24 0 24 -1 24 0 24 -1 25 0 24 0 
24 0 24 -1 24 0 24 0 25 0 24 1 24 0 24 0 
24 0 24 1 24 0 25 1 24 1 24 0 24 1 24 1 
24 1 25 0 24 1 24 1 24 1 24 1 24 1 25 1 
24 2 24 1 24 1 24 1 24 1 24 1 25 1 24 1 
24 1 24 1 24 1 24 1 25 1 24 1 24 1 24 1 
24 1 24 1 25 0 24 1 24 0 24 1 24 0 24 1 
24 0 25 0 24 0 24 1 24 0 24 0 24 -1 25 0 
24 0 24 0 24 -1 24 0 24 -1 25 0 24 -1 24 0 
24 -1 24 -1 24 -1 923 2249 100 MP stroke
24 -1 899 2250 2 MP stroke
24 -1 24 -1 24 -1 25 0 24 -1 24 -1 24 -2 24 -1 
24 -1 25 -1 24 -1 24 -1 24 -1 24 -1 24 -1 25 -1 
24 -1 24 -1 24 -1 24 0 24 -1 24 -1 25 -1 24 0 
24 -1 24 -1 24 0 24 -1 25 0 24 0 24 -1 24 0 
24 0 24 0 25 0 24 0 24 0 24 0 24 0 24 0 
24 1 25 0 24 1 24 0 24 1 24 0 24 1 25 1 
24 1 24 0 24 1 24 1 24 1 25 1 24 1 24 1 
24 1 24 1 24 1 24 1 25 1 24 2 24 1 24 1 
24 1 24 1 25 1 24 1 24 1 24 0 24 1 24 1 
25 1 24 0 24 1 24 1 24 0 24 1 24 0 25 0 
24 1 24 0 24 0 24 0 24 0 25 0 24 0 24 0 
24 -1 24 0 24 0 25 -1 24 0 24 -1 24 0 24 -1 
24 -1 24 -1 25 0 3314 2316 100 MP stroke
24 -1 24 -1 24 -1 24 -1 24 -1 25 -1 24 -1 24 -1 
24 -1 24 -1 24 -1 25 -1 24 -1 24 -1 24 -1 24 -1 
24 -1 25 -1 24 -1 24 -1 24 -1 24 -1 24 0 24 -1 
25 -1 24 0 24 -1 24 0 24 -1 24 0 25 -1 24 0 
24 0 24 0 24 0 24 0 25 0 24 0 24 0 24 0 
24 1 24 0 24 0 25 1 24 0 24 1 24 1 24 0 
24 1 25 1 24 1 24 1 24 1 24 1 24 1 25 1 
24 1 24 1 24 1 24 1 24 1 24 1 25 1 24 1 
24 1 24 1 24 1 24 1 25 1 24 1 24 1 24 1 
24 0 24 1 25 1 24 0 24 1 24 0 24 1 24 0 
24 1 25 0 24 0 24 0 24 0 24 0 24 0 25 0 
24 0 24 -1 24 0 24 0 24 -1 25 0 24 -1 24 -1 
24 0 24 -1 24 -1 923 2316 100 MP stroke
24 -1 899 2317 2 MP stroke
24 0 24 -1 24 -1 25 -1 24 -1 24 -1 24 -1 24 -1 
24 -1 25 -1 24 -1 24 -1 24 -1 24 -1 24 -1 25 -1 
24 -1 24 -1 24 0 24 -1 24 -1 24 -1 25 -1 24 0 
24 -1 24 0 24 -1 24 -1 25 0 24 0 24 -1 24 0 
24 0 24 0 25 0 24 0 24 0 24 0 24 0 24 0 
24 1 25 0 24 0 24 1 24 0 24 1 24 0 25 1 
24 1 24 1 24 0 24 1 24 1 25 1 24 1 24 1 
24 1 24 1 24 1 24 1 25 1 24 1 24 1 24 1 
24 1 24 1 25 1 24 0 24 1 24 1 24 1 24 1 
25 1 24 0 24 1 24 1 24 0 24 1 24 0 25 0 
24 1 24 0 24 0 24 0 24 0 25 0 24 0 24 0 
24 0 24 0 24 -1 25 0 24 0 24 -1 24 0 24 -1 
24 -1 24 0 25 -1 3314 2362 100 MP stroke
24 -1 24 -1 24 -1 24 -1 24 0 25 -1 24 -1 24 -1 
24 -1 24 -1 24 -1 25 -1 24 -1 24 -1 24 -1 24 -1 
24 -1 25 -1 24 -1 24 -1 24 -1 24 0 24 -1 24 -1 
25 -1 24 0 24 -1 24 0 24 -1 24 0 25 0 24 -1 
24 0 24 0 24 0 24 0 25 0 24 0 24 0 24 0 
24 0 24 1 24 0 25 1 24 0 24 1 24 0 24 1 
24 0 25 1 24 1 24 1 24 1 24 0 24 1 25 1 
24 1 24 1 24 1 24 1 24 1 24 1 25 1 24 1 
24 1 24 1 24 1 24 1 25 1 24 1 24 1 24 0 
24 1 24 1 25 1 24 0 24 1 24 0 24 1 24 0 
24 1 25 0 24 0 24 0 24 0 24 0 24 0 25 0 
24 0 24 0 24 0 24 -1 24 0 25 -1 24 0 24 -1 
24 0 24 -1 24 -1 923 2362 100 MP stroke
24 -1 899 2363 2 MP stroke
24 0 24 -1 24 -1 25 -1 24 -1 24 -1 24 -1 24 -1 
24 0 25 -1 24 -1 24 -1 24 -1 24 -1 24 -1 25 -1 
24 -1 24 -1 24 -1 24 -1 24 -1 24 0 25 -1 24 -1 
24 0 24 -1 24 -1 24 0 25 0 24 -1 24 0 24 -1 
24 0 24 0 25 0 24 0 24 0 24 0 24 0 24 0 
24 0 25 1 24 0 24 0 24 1 24 0 24 1 25 0 
24 1 24 1 24 0 24 1 24 1 25 1 24 1 24 0 
24 1 24 1 24 1 24 1 25 1 24 1 24 1 24 1 
24 1 24 1 25 0 24 1 24 1 24 1 24 1 24 1 
25 0 24 1 24 1 24 0 24 1 24 1 24 0 25 1 
24 0 24 0 24 1 24 0 24 0 25 0 24 0 24 0 
24 0 24 0 24 0 25 -1 24 0 24 -1 24 0 24 0 
24 -1 24 -1 25 0 3314 2393 100 MP stroke
24 -1 24 -1 24 -1 24 0 24 -1 25 -1 24 -1 24 -1 
24 -1 24 -1 24 -1 25 -1 24 -1 24 -1 24 -1 24 -1 
24 -1 25 -1 24 0 24 -1 24 -1 24 -1 24 -1 24 0 
25 -1 24 -1 24 0 24 -1 24 0 24 -1 25 0 24 0 
24 -1 24 0 24 0 24 0 25 0 24 0 24 0 24 0 
24 0 24 1 24 0 25 0 24 1 24 0 24 1 24 0 
24 1 25 0 24 1 24 1 24 1 24 0 24 1 25 1 
24 1 24 1 24 1 24 1 24 0 24 1 25 1 24 1 
24 1 24 1 24 1 24 1 25 1 24 1 24 0 24 1 
24 1 24 1 25 0 24 1 24 1 24 0 24 1 24 0 
24 1 25 0 24 0 24 1 24 0 24 0 24 0 25 0 
24 0 24 0 24 0 24 -1 24 0 25 0 24 -1 24 0 
24 -1 24 0 24 -1 923 2393 100 MP stroke
24 -1 899 2394 2 MP stroke
24 -1 24 0 24 -1 25 -1 24 -1 24 -1 24 0 24 -1 
24 -1 25 -1 24 -1 24 -1 24 -1 24 -1 24 -1 25 -1 
24 -1 24 -1 24 -1 24 0 24 -1 24 -1 25 -1 24 0 
24 -1 24 -1 24 0 24 -1 25 0 24 -1 24 0 24 -1 
24 0 24 0 25 0 24 0 24 0 24 0 24 0 24 0 
24 0 25 0 24 0 24 1 24 0 24 1 24 0 25 0 
24 1 24 1 24 0 24 1 24 0 25 1 24 1 24 1 
24 0 24 1 24 1 24 1 25 1 24 1 24 0 24 1 
24 1 24 1 25 1 24 1 24 1 24 0 24 1 24 1 
25 1 24 1 24 0 24 1 24 1 24 0 24 1 25 0 
24 1 24 0 24 1 24 0 24 0 25 0 24 1 24 0 
24 0 24 0 24 -1 25 0 24 0 24 0 24 -1 24 0 
24 0 24 -1 25 -1 3314 2415 100 MP stroke
24 0 24 -1 24 -1 24 0 24 -1 25 -1 24 -1 24 -1 
24 -1 24 -1 24 -1 25 -1 24 -1 24 -1 24 0 24 -1 
24 -1 25 -1 24 -1 24 -1 24 -1 24 -1 24 0 24 -1 
25 -1 24 0 24 -1 24 -1 24 0 24 -1 25 0 24 0 
24 -1 24 0 24 0 24 0 25 0 24 0 24 0 24 0 
24 0 24 0 24 0 25 1 24 0 24 0 24 1 24 0 
24 1 25 0 24 1 24 0 24 1 24 1 24 0 25 1 
24 1 24 1 24 1 24 0 24 1 24 1 25 1 24 1 
24 1 24 1 24 0 24 1 25 1 24 1 24 1 24 1 
24 0 24 1 25 1 24 1 24 0 24 1 24 1 24 0 
24 1 25 0 24 0 24 1 24 0 24 0 24 0 25 1 
24 0 24 0 24 0 24 -1 24 0 25 0 24 0 24 -1 
24 0 24 -1 24 0 923 2414 100 MP stroke
24 -1 899 2415 2 MP stroke
24 -1 24 -1 24 0 25 -1 24 -1 24 -1 24 -1 24 0 
24 -1 25 -1 24 -1 24 -1 24 -1 24 -1 24 -1 25 -1 
24 -1 24 -1 24 -1 24 -1 24 0 24 -1 25 -1 24 -1 
24 0 24 -1 24 -1 24 0 25 -1 24 0 24 -1 24 0 
24 0 24 -1 25 0 24 0 24 0 24 0 24 0 24 0 
24 0 25 0 24 0 24 1 24 0 24 0 24 1 25 0 
24 0 24 1 24 0 24 1 24 1 25 0 24 1 24 0 
24 1 24 1 24 1 24 0 25 1 24 1 24 1 24 1 
24 0 24 1 25 1 24 1 24 1 24 1 24 1 24 0 
25 1 24 1 24 1 24 0 24 1 24 1 24 0 25 1 
24 1 24 0 24 1 24 0 24 0 25 1 24 0 24 0 
24 0 24 0 24 0 25 0 24 0 24 0 24 -1 24 0 
24 0 24 -1 25 0 3314 2429 100 MP stroke
24 -1 24 0 24 -1 24 -1 24 -1 25 0 24 -1 24 -1 
24 -1 24 -1 24 -1 25 -1 24 -1 24 -1 24 -1 24 0 
24 -1 25 -1 24 -1 24 -1 24 -1 24 -1 24 -1 24 0 
25 -1 24 -1 24 0 24 -1 24 0 24 -1 25 0 24 -1 
24 0 24 0 24 -1 24 0 25 0 24 0 24 0 24 0 
24 0 24 0 24 0 25 0 24 1 24 0 24 0 24 1 
24 0 25 1 24 0 24 1 24 0 24 1 24 0 25 1 
24 1 24 1 24 0 24 1 24 1 24 1 25 0 24 1 
24 1 24 1 24 1 24 1 25 0 24 1 24 1 24 1 
24 1 24 1 25 0 24 1 24 1 24 0 24 1 24 1 
24 0 25 1 24 0 24 1 24 0 24 0 24 1 25 0 
24 0 24 0 24 0 24 0 24 0 25 0 24 0 24 -1 
24 0 24 0 24 -1 923 2429 100 MP stroke
24 0 899 2429 2 MP stroke
24 0 24 -1 24 0 25 -1 24 -1 24 -1 24 0 24 -1 
24 -1 25 -1 24 -1 24 -1 24 -1 24 -1 24 -1 25 -1 
24 -1 24 0 24 -1 24 -1 24 -1 24 -1 25 -1 24 -1 
24 0 24 -1 24 -1 24 0 25 -1 24 0 24 -1 24 0 
24 0 24 -1 25 0 24 0 24 0 24 0 24 0 24 0 
24 0 25 0 24 0 24 0 24 0 24 0 24 1 25 0 
24 0 24 1 24 0 24 1 24 0 25 1 24 0 24 1 
24 1 24 0 24 1 24 1 25 0 24 1 24 1 24 1 
24 0 24 1 25 1 24 1 24 1 24 1 24 0 24 1 
25 1 24 1 24 1 24 0 24 1 24 1 24 1 25 0 
24 1 24 1 24 0 24 1 24 0 25 0 24 1 24 0 
24 0 24 0 24 0 25 0 24 0 24 0 24 0 24 0 
24 0 24 -1 25 0 3314 2439 100 MP stroke
24 -1 24 0 24 -1 24 -1 24 0 25 -1 24 -1 24 -1 
24 -1 24 -1 24 0 25 -1 24 -1 24 -1 24 -1 24 -1 
24 -1 25 -1 24 -1 24 -1 24 -1 24 -1 24 0 24 -1 
25 -1 24 -1 24 0 24 -1 24 0 24 -1 25 0 24 -1 
24 0 24 -1 24 0 24 0 25 0 24 0 24 0 24 0 
24 0 24 0 24 0 25 0 24 0 24 0 24 1 24 0 
24 0 25 1 24 0 24 1 24 0 24 1 24 0 25 1 
24 0 24 1 24 1 24 0 24 1 24 1 25 1 24 0 
24 1 24 1 24 1 24 1 25 0 24 1 24 1 24 1 
24 1 24 1 25 0 24 1 24 1 24 1 24 0 24 1 
24 1 25 0 24 1 24 0 24 1 24 0 24 1 25 0 
24 0 24 0 24 0 24 0 24 0 25 0 24 0 24 0 
24 0 24 -1 24 0 923 2439 100 MP stroke
24 -1 899 2440 2 MP stroke
24 0 24 -1 24 0 25 -1 24 -1 24 0 24 -1 24 -1 
24 -1 25 -1 24 -1 24 -1 24 0 24 -1 24 -1 25 -1 
24 -1 24 -1 24 -1 24 -1 24 -1 24 -1 25 -1 24 0 
24 -1 24 -1 24 0 24 -1 25 -1 24 0 24 -1 24 0 
24 0 24 -1 25 0 24 0 24 0 24 -1 24 0 24 0 
24 0 25 0 24 0 24 0 24 1 24 0 24 0 25 0 
24 1 24 0 24 0 24 1 24 0 25 1 24 0 24 1 
24 0 24 1 24 1 24 0 25 1 24 1 24 0 24 1 
24 1 24 1 25 0 24 1 24 1 24 1 24 1 24 1 
25 0 24 1 24 1 24 1 24 1 24 0 24 1 25 1 
24 1 24 0 24 1 24 0 24 1 25 0 24 1 24 0 
24 0 24 1 24 0 25 0 24 0 24 0 24 0 24 0 
24 -1 24 0 25 0 3314 2446 100 MP stroke
24 -1 24 0 24 -1 24 -1 24 0 25 -1 24 -1 24 -1 
24 0 24 -1 24 -1 25 -1 24 -1 24 -1 24 -1 24 -1 
24 -1 25 -1 24 -1 24 -1 24 0 24 -1 24 -1 24 -1 
25 -1 24 0 24 -1 24 -1 24 0 24 -1 25 0 24 -1 
24 0 24 -1 24 0 24 0 25 0 24 -1 24 0 24 0 
24 0 24 0 24 0 25 0 24 1 24 0 24 0 24 0 
24 0 25 1 24 0 24 1 24 0 24 0 24 1 25 0 
24 1 24 1 24 0 24 1 24 1 24 0 25 1 24 1 
24 0 24 1 24 1 24 1 25 1 24 1 24 0 24 1 
24 1 24 1 25 1 24 1 24 0 24 1 24 1 24 1 
24 0 25 1 24 1 24 0 24 1 24 0 24 1 25 0 
24 0 24 1 24 0 24 0 24 0 25 0 24 0 24 0 
24 -1 24 0 24 0 923 2446 100 MP stroke
24 -1 899 2447 2 MP stroke
24 0 24 -1 24 0 25 -1 24 0 24 -1 24 -1 24 -1 
24 -1 25 0 24 -1 24 -1 24 -1 24 -1 24 -1 25 -1 
24 -1 24 -1 24 -1 24 -1 24 -1 24 0 25 -1 24 -1 
24 -1 24 -1 24 0 24 -1 25 -1 24 0 24 -1 24 0 
24 0 24 -1 25 0 24 0 24 -1 24 0 24 0 24 0 
24 0 25 0 24 0 24 0 24 0 24 0 24 0 25 1 
24 0 24 0 24 1 24 0 24 0 25 1 24 0 24 1 
24 0 24 1 24 0 24 1 25 1 24 0 24 1 24 1 
24 1 24 0 25 1 24 1 24 1 24 1 24 0 24 1 
25 1 24 1 24 1 24 1 24 0 24 1 24 1 25 1 
24 1 24 0 24 1 24 1 24 0 25 1 24 0 24 0 
24 1 24 0 24 0 25 0 24 1 24 0 24 0 24 -1 
24 0 24 0 25 0 3314 2451 100 MP stroke
24 -1 24 0 24 -1 24 0 24 -1 25 -1 24 -1 24 0 
24 -1 24 -1 24 -1 25 -1 24 -1 24 -1 24 -1 24 -1 
24 -1 25 0 24 -1 24 -1 24 -1 24 -1 24 -1 24 -1 
25 0 24 -1 24 -1 24 -1 24 0 24 -1 25 0 24 -1 
24 0 24 -1 24 0 24 0 25 0 24 -1 24 0 24 0 
24 0 24 0 24 0 25 0 24 0 24 0 24 0 24 1 
24 0 25 0 24 0 24 1 24 0 24 1 24 0 25 1 
24 0 24 1 24 0 24 1 24 0 24 1 25 1 24 0 
24 1 24 1 24 1 24 1 25 0 24 1 24 1 24 1 
24 1 24 1 25 0 24 1 24 1 24 1 24 1 24 0 
24 1 25 1 24 1 24 0 24 1 24 0 24 1 25 0 
24 1 24 0 24 0 24 0 24 1 25 0 24 0 24 -1 
24 0 24 0 24 0 923 2451 100 MP stroke
24 -1 899 2452 2 MP stroke
24 -1 24 0 24 -1 25 0 24 -1 24 -1 24 0 24 -1 
24 -1 25 -1 24 -1 24 -1 24 -1 24 -1 24 0 25 -1 
24 -1 24 -1 24 -1 24 -1 24 -1 24 -1 25 -1 24 -1 
24 0 24 -1 24 -1 24 0 25 -1 24 -1 24 0 24 -1 
24 0 24 0 25 -1 24 0 24 0 24 -1 24 0 24 0 
24 0 25 0 24 0 24 0 24 0 24 0 24 0 25 1 
24 0 24 0 24 0 24 1 24 0 25 1 24 0 24 0 
24 1 24 0 24 1 24 1 25 0 24 1 24 0 24 1 
24 1 24 1 25 0 24 1 24 1 24 1 24 1 24 1 
25 0 24 1 24 1 24 1 24 1 24 1 24 1 25 0 
24 1 24 1 24 1 24 0 24 1 25 0 24 1 24 0 
24 1 24 0 24 0 25 1 24 0 24 0 24 0 24 0 
24 -1 24 0 25 0 3314 2455 100 MP stroke
24 0 24 -1 24 0 24 -1 24 -1 25 0 24 -1 24 -1 
24 -1 24 0 24 -1 25 -1 24 -1 24 -1 24 -1 24 -1 
24 -1 25 -1 24 -1 24 -1 24 -1 24 0 24 -1 24 -1 
25 -1 24 -1 24 0 24 -1 24 -1 24 0 25 -1 24 0 
24 -1 24 0 24 -1 24 0 25 0 24 0 24 -1 24 0 
24 0 24 0 24 0 25 0 24 0 24 0 24 0 24 1 
24 0 25 0 24 0 24 1 24 0 24 0 24 1 25 0 
24 1 24 0 24 1 24 0 24 1 24 0 25 1 24 1 
24 1 24 0 24 1 24 1 25 1 24 0 24 1 24 1 
24 1 24 1 25 1 24 1 24 0 24 1 24 1 24 1 
24 1 25 0 24 1 24 1 24 1 24 0 24 1 25 0 
24 1 24 0 24 0 24 0 24 1 25 0 24 0 24 0 
24 0 24 -1 24 0 923 2455 100 MP stroke
24 0 899 2455 2 MP stroke
24 0 24 -1 24 0 25 -1 24 0 24 -1 24 -1 24 -1 
24 0 25 -1 24 -1 24 -1 24 -1 24 -1 24 -1 25 -1 
24 -1 24 -1 24 -1 24 -1 24 0 24 -1 25 -1 24 -1 
24 -1 24 -1 24 0 24 -1 25 -1 24 0 24 -1 24 0 
24 -1 24 0 25 0 24 -1 24 0 24 0 24 0 24 -1 
24 0 25 0 24 0 24 0 24 0 24 0 24 1 25 0 
24 0 24 0 24 0 24 1 24 0 25 0 24 1 24 0 
24 1 24 0 24 1 24 0 25 1 24 0 24 1 24 1 
24 0 24 1 25 1 24 1 24 1 24 0 24 1 24 1 
25 1 24 1 24 1 24 1 24 0 24 1 24 1 25 1 
24 1 24 1 24 0 24 1 24 1 25 0 24 1 24 0 
24 1 24 0 24 0 25 1 24 0 24 0 24 0 24 0 
24 0 24 0 25 -1 3314 2458 100 MP stroke
24 0 24 -1 24 0 24 -1 24 0 25 -1 24 0 24 -1 
24 -1 24 -1 24 -1 25 -1 24 -1 24 0 24 -1 24 -1 
24 -1 25 -1 24 -1 24 -1 24 -1 24 -1 24 -1 24 -1 
25 0 24 -1 24 -1 24 -1 24 0 24 -1 25 0 24 -1 
24 0 24 -1 24 0 24 -1 25 0 24 0 24 0 24 0 
24 -1 24 0 24 0 25 0 24 0 24 0 24 0 24 1 
24 0 25 0 24 0 24 0 24 1 24 0 24 1 25 0 
24 0 24 1 24 0 24 1 24 0 24 1 25 1 24 0 
24 1 24 1 24 1 24 0 25 1 24 1 24 1 24 1 
24 1 24 0 25 1 24 1 24 1 24 1 24 1 24 1 
24 0 25 1 24 1 24 1 24 0 24 1 24 1 25 0 
24 0 24 1 24 0 24 1 24 0 25 0 24 0 24 0 
24 0 24 0 24 -1 923 2458 100 MP stroke
24 0 899 2458 2 MP stroke
24 0 24 -1 24 0 25 -1 24 0 24 -1 24 -1 24 0 
24 -1 25 -1 24 -1 24 -1 24 -1 24 -1 24 -1 25 -1 
24 -1 24 -1 24 0 24 -1 24 -1 24 -1 25 -1 24 -1 
24 -1 24 0 24 -1 24 -1 25 0 24 -1 24 -1 24 0 
24 -1 24 0 25 0 24 -1 24 0 24 0 24 0 24 -1 
24 0 25 0 24 0 24 0 24 0 24 0 24 0 25 0 
24 1 24 0 24 0 24 0 24 1 25 0 24 0 24 1 
24 0 24 1 24 0 24 1 25 0 24 1 24 0 24 1 
24 1 24 1 25 0 24 1 24 1 24 1 24 1 24 0 
25 1 24 1 24 1 24 1 24 1 24 1 24 1 25 0 
24 1 24 1 24 1 24 1 24 0 25 1 24 0 24 1 
24 0 24 1 24 0 25 0 24 1 24 0 24 0 24 0 
24 0 24 -1 25 0 3314 2460 100 MP stroke
24 0 24 0 24 -1 24 0 24 -1 25 -1 24 0 24 -1 
24 -1 24 -1 24 -1 25 0 24 -1 24 -1 24 -1 24 -1 
24 -1 25 -1 24 -1 24 -1 24 -1 24 -1 24 -1 24 0 
25 -1 24 -1 24 -1 24 0 24 -1 24 -1 25 0 24 -1 
24 0 24 -1 24 0 24 -1 25 0 24 0 24 0 24 -1 
24 0 24 0 24 0 25 0 24 0 24 0 24 0 24 0 
24 1 25 0 24 0 24 0 24 0 24 1 24 0 25 1 
24 0 24 0 24 1 24 0 24 1 24 1 25 0 24 1 
24 1 24 0 24 1 24 1 25 1 24 0 24 1 24 1 
24 1 24 1 25 1 24 1 24 0 24 1 24 1 24 1 
24 1 25 1 24 0 24 1 24 1 24 1 24 0 25 1 
24 0 24 1 24 0 24 0 24 1 25 0 24 0 24 0 
24 0 24 0 24 -1 923 2460 100 MP stroke
24 0 899 2460 2 MP stroke
24 -1 24 0 24 -1 25 0 24 -1 24 0 24 -1 24 -1 
24 -1 25 0 24 -1 24 -1 24 -1 24 -1 24 -1 25 -1 
24 -1 24 -1 24 -1 24 -1 24 -1 24 0 25 -1 24 -1 
24 -1 24 -1 24 0 24 -1 25 -1 24 0 24 -1 24 0 
24 -1 24 0 25 -1 24 0 24 0 24 -1 24 0 24 0 
24 0 25 0 24 0 24 0 24 0 24 0 24 0 25 0 
24 0 24 0 24 0 24 1 24 0 25 0 24 0 24 1 
24 0 24 1 24 0 24 1 25 0 24 1 24 1 24 0 
24 1 24 1 25 0 24 1 24 1 24 1 24 1 24 0 
25 1 24 1 24 1 24 1 24 1 24 1 24 1 25 1 
24 0 24 1 24 1 24 1 24 0 25 1 24 1 24 0 
24 1 24 0 24 0 25 1 24 0 24 0 24 0 24 0 
24 0 24 0 25 0 3314 2461 100 MP stroke
24 -1 24 0 24 0 24 -1 24 0 25 -1 24 -1 24 0 
24 -1 24 -1 24 -1 25 -1 24 -1 24 -1 24 -1 24 0 
24 -1 25 -1 24 -1 24 -1 24 -1 24 -1 24 -1 24 -1 
25 -1 24 0 24 -1 24 -1 24 0 24 -1 25 -1 24 0 
24 -1 24 0 24 -1 24 0 25 0 24 -1 24 0 24 0 
24 0 24 0 24 0 25 0 24 0 24 0 24 0 24 0 
24 0 25 0 24 0 24 0 24 1 24 0 24 0 25 1 
24 0 24 1 24 0 24 0 24 1 24 1 25 0 24 1 
24 1 24 0 24 1 24 1 25 1 24 0 24 1 24 1 
24 1 24 1 25 1 24 1 24 0 24 1 24 1 24 1 
24 1 25 1 24 1 24 0 24 1 24 1 24 0 25 1 
24 0 24 1 24 0 24 1 24 0 25 0 24 0 24 0 
24 0 24 0 24 0 923 2461 100 MP stroke
24 0 899 2461 2 MP stroke
24 0 24 0 24 -1 25 0 24 -1 24 0 24 -1 24 -1 
24 -1 25 0 24 -1 24 -1 24 -1 24 -1 24 -1 25 -1 
24 -1 24 -1 24 -1 24 -1 24 -1 24 0 25 -1 24 -1 
24 -1 24 -1 24 0 24 -1 25 -1 24 0 24 -1 24 -1 
24 0 24 0 25 -1 24 0 24 -1 24 0 24 0 24 0 
24 0 25 -1 24 0 24 0 24 0 24 0 24 0 25 0 
24 1 24 0 24 0 24 0 24 0 25 1 24 0 24 0 
24 1 24 0 24 1 24 0 25 1 24 0 24 1 24 1 
24 0 24 1 25 1 24 1 24 0 24 1 24 1 24 1 
25 1 24 1 24 1 24 0 24 1 24 1 24 1 25 1 
24 1 24 1 24 0 24 1 24 1 25 1 24 0 24 1 
24 0 24 1 24 0 25 0 24 1 24 0 24 0 24 0 
24 0 24 0 25 0 3314 2462 100 MP stroke
24 -1 24 0 24 0 24 -1 24 -1 25 0 24 -1 24 -1 
24 0 24 -1 24 -1 25 -1 24 -1 24 -1 24 -1 24 0 
24 -1 25 -1 24 -1 24 -1 24 -1 24 -1 24 -1 24 -1 
25 -1 24 0 24 -1 24 -1 24 -1 24 0 25 -1 24 0 
24 -1 24 0 24 -1 24 0 25 0 24 -1 24 0 24 0 
24 0 24 -1 24 0 25 0 24 0 24 0 24 0 24 0 
24 1 25 0 24 0 24 0 24 0 24 1 24 0 25 0 
24 1 24 0 24 1 24 0 24 1 24 0 25 1 24 0 
24 1 24 1 24 0 24 1 25 1 24 1 24 1 24 0 
24 1 24 1 25 1 24 1 24 1 24 1 24 1 24 1 
24 0 25 1 24 1 24 1 24 1 24 0 24 1 25 1 
24 0 24 1 24 0 24 0 24 1 25 0 24 0 24 0 
24 0 24 0 24 0 923 2462 100 MP stroke
24 -1 899 2463 2 MP stroke
24 -1 24 0 24 -1 25 0 24 -1 24 0 24 -1 24 -1 
24 0 25 -1 24 -1 24 -1 24 -1 24 -1 24 -1 25 -1 
24 -1 24 -1 24 -1 24 0 24 -1 24 -1 25 -1 24 -1 
24 -1 24 -1 24 0 24 -1 25 -1 24 0 24 -1 24 0 
24 -1 24 0 25 -1 24 0 24 0 24 -1 24 0 24 0 
24 0 25 0 24 -1 24 0 24 0 24 0 24 0 25 0 
24 1 24 0 24 0 24 0 24 0 25 1 24 0 24 0 
24 1 24 0 24 1 24 0 25 1 24 0 24 1 24 0 
24 1 24 1 25 1 24 0 24 1 24 1 24 1 24 1 
25 1 24 0 24 1 24 1 24 1 24 1 24 1 25 1 
24 1 24 0 24 1 24 1 24 1 25 0 24 1 24 1 
24 0 24 1 24 0 25 0 24 1 24 0 24 0 24 0 
24 0 24 0 25 0 3314 2463 100 MP stroke
24 -1 24 0 24 0 24 -1 24 0 25 -1 24 -1 24 0 
24 -1 24 -1 24 -1 25 -1 24 0 24 -1 24 -1 24 -1 
24 -1 25 -1 24 -1 24 -1 24 -1 24 -1 24 -1 24 -1 
25 0 24 -1 24 -1 24 -1 24 0 24 -1 25 -1 24 0 
24 -1 24 0 24 -1 24 0 25 0 24 -1 24 0 24 0 
24 0 24 0 24 -1 25 0 24 0 24 0 24 0 24 0 
24 1 25 0 24 0 24 0 24 0 24 1 24 0 25 0 
24 1 24 0 24 0 24 1 24 0 24 1 25 1 24 0 
24 1 24 0 24 1 24 1 25 1 24 1 24 0 24 1 
24 1 24 1 25 1 24 1 24 1 24 1 24 0 24 1 
24 1 25 1 24 1 24 1 24 0 24 1 24 1 25 0 
24 1 24 0 24 1 24 0 24 1 25 0 24 0 24 0 
24 0 24 0 24 0 923 2463 100 MP stroke
24 0 899 2463 2 MP stroke
24 0 24 -1 24 0 25 -1 24 0 24 -1 24 -1 24 0 
24 -1 25 -1 24 -1 24 -1 24 -1 24 0 24 -1 25 -1 
24 -1 24 -1 24 -1 24 -1 24 -1 24 -1 25 -1 24 -1 
24 0 24 -1 24 -1 24 -1 25 0 24 -1 24 0 24 -1 
24 -1 24 0 25 0 24 -1 24 0 24 0 24 -1 24 0 
24 0 25 0 24 0 24 0 24 0 24 0 24 0 25 0 
24 0 24 0 24 0 24 0 24 1 25 0 24 0 24 0 
24 1 24 0 24 1 24 0 25 1 24 0 24 1 24 1 
24 0 24 1 25 1 24 0 24 1 24 1 24 1 24 1 
25 1 24 0 24 1 24 1 24 1 24 1 24 1 25 1 
24 1 24 1 24 0 24 1 24 1 25 1 24 0 24 1 
24 0 24 1 24 0 25 1 24 0 24 0 24 0 24 0 
24 0 24 0 25 0 3314 2464 100 MP stroke
24 0 24 -1 24 0 24 -1 24 0 25 -1 24 0 24 -1 
24 -1 24 -1 24 0 25 -1 24 -1 24 -1 24 -1 24 -1 
24 -1 25 -1 24 -1 24 -1 24 -1 24 0 24 -1 24 -1 
25 -1 24 -1 24 -1 24 0 24 -1 24 -1 25 0 24 -1 
24 0 24 -1 24 0 24 -1 25 0 24 0 24 -1 24 0 
24 0 24 0 24 0 25 0 24 0 24 0 24 0 24 0 
24 0 25 0 24 0 24 0 24 0 24 1 24 0 25 0 
24 1 24 0 24 0 24 1 24 0 24 1 25 1 24 0 
24 1 24 1 24 0 24 1 25 1 24 1 24 0 24 1 
24 1 24 1 25 1 24 1 24 1 24 1 24 1 24 0 
24 1 25 1 24 1 24 1 24 1 24 0 24 1 25 1 
24 0 24 1 24 0 24 0 24 1 25 0 24 0 24 0 
24 0 24 0 24 0 923 2464 100 MP stroke
24 0 899 2464 2 MP stroke
24 0 24 0 24 -1 25 0 24 -1 24 0 24 -1 24 -1 
24 -1 25 0 24 -1 24 -1 24 -1 24 -1 24 -1 25 -1 
24 -1 24 -1 24 -1 24 -1 24 0 24 -1 25 -1 24 -1 
24 -1 24 -1 24 0 24 -1 25 -1 24 0 24 -1 24 0 
24 -1 24 0 25 -1 24 0 24 -1 24 0 24 0 24 0 
24 -1 25 0 24 0 24 0 24 0 24 0 24 0 25 0 
24 0 24 0 24 0 24 1 24 0 25 0 24 0 24 1 
24 0 24 1 24 0 24 0 25 1 24 1 24 0 24 1 
24 0 24 1 25 1 24 1 24 0 24 1 24 1 24 1 
25 1 24 1 24 1 24 0 24 1 24 1 24 1 25 1 
24 1 24 1 24 1 24 0 24 1 25 1 24 1 24 0 
24 1 24 0 24 1 25 0 24 0 24 0 24 1 24 0 
24 0 24 0 25 -1 3314 2465 100 MP stroke
24 0 24 0 24 -1 24 0 24 -1 25 0 24 -1 24 0 
24 -1 24 -1 24 -1 25 -1 24 -1 24 0 24 -1 24 -1 
24 -1 25 -1 24 -1 24 -1 24 -1 24 -1 24 -1 24 -1 
25 0 24 -1 24 -1 24 -1 24 0 24 -1 25 -1 24 0 
24 -1 24 0 24 -1 24 0 25 0 24 -1 24 0 24 0 
24 -1 24 0 24 0 25 0 24 0 24 0 24 0 24 0 
24 0 25 0 24 0 24 1 24 0 24 0 24 0 25 1 
24 0 24 0 24 1 24 0 24 1 24 0 25 1 24 0 
24 1 24 1 24 0 24 1 25 1 24 1 24 1 24 0 
24 1 24 1 25 1 24 1 24 1 24 1 24 1 24 1 
24 1 25 0 24 1 24 1 24 1 24 1 24 0 25 1 
24 0 24 1 24 0 24 1 24 0 25 0 24 0 24 1 
24 0 24 0 24 -1 923 2465 100 MP stroke
24 0 899 2465 2 MP stroke
24 -1 24 0 24 0 25 -1 24 0 24 -1 24 -1 24 0 
24 -1 25 -1 24 -1 24 0 24 -1 24 -1 24 -1 25 -1 
24 -1 24 -1 24 -1 24 -1 24 -1 24 -1 25 -1 24 0 
24 -1 24 -1 24 -1 24 0 25 -1 24 -1 24 0 24 -1 
24 0 24 -1 25 0 24 -1 24 0 24 0 24 -1 24 0 
24 0 25 0 24 0 24 0 24 0 24 0 24 0 25 0 
24 0 24 0 24 0 24 0 24 0 25 1 24 0 24 0 
24 1 24 0 24 0 24 1 25 0 24 1 24 1 24 0 
24 1 24 1 25 0 24 1 24 1 24 1 24 0 24 1 
25 1 24 1 24 1 24 1 24 1 24 1 24 1 25 0 
24 1 24 1 24 1 24 1 24 1 25 0 24 1 24 1 
24 0 24 1 24 0 25 0 24 1 24 0 24 0 24 0 
24 0 24 0 25 0 3314 2465 100 MP stroke
24 0 24 -1 24 0 24 0 24 -1 25 -1 24 0 24 -1 
24 -1 24 0 24 -1 25 -1 24 -1 24 -1 24 -1 24 -1 
24 -1 25 -1 24 0 24 -1 24 -1 24 -1 24 -1 24 -1 
25 -1 24 -1 24 0 24 -1 24 -1 24 0 25 -1 24 -1 
24 0 24 -1 24 0 24 0 25 -1 24 0 24 0 24 -1 
24 0 24 0 24 0 25 0 24 0 24 0 24 0 24 0 
24 0 25 0 24 0 24 0 24 0 24 0 24 1 25 0 
24 0 24 1 24 0 24 1 24 0 24 1 25 0 24 1 
24 0 24 1 24 1 24 1 25 0 24 1 24 1 24 1 
24 1 24 1 25 0 24 1 24 1 24 1 24 1 24 1 
24 1 25 1 24 1 24 0 24 1 24 1 24 1 25 0 
24 1 24 0 24 1 24 0 24 1 25 0 24 0 24 0 
24 0 24 0 24 0 923 2465 100 MP stroke
24 0 899 2465 2 MP stroke
24 0 24 0 24 -1 25 0 24 -1 24 0 24 -1 24 -1 
24 0 25 -1 24 -1 24 -1 24 -1 24 -1 24 0 25 -1 
24 -1 24 -1 24 -1 24 -1 24 -1 24 -1 25 -1 24 -1 
24 0 24 -1 24 -1 24 -1 25 0 24 -1 24 -1 24 0 
24 -1 24 0 25 -1 24 0 24 0 24 -1 24 0 24 0 
24 0 25 -1 24 0 24 0 24 0 24 0 24 0 25 0 
24 0 24 0 24 1 24 0 24 0 25 0 24 0 24 1 
24 0 24 1 24 0 24 0 25 1 24 0 24 1 24 1 
24 0 24 1 25 1 24 0 24 1 24 1 24 1 24 1 
25 1 24 1 24 0 24 1 24 1 24 1 24 1 25 1 
24 1 24 1 24 1 24 0 24 1 25 1 24 0 24 1 
24 1 24 0 24 1 25 0 24 0 24 0 24 1 24 0 
24 0 24 0 25 -1 3314 2466 100 MP stroke
24 0 24 0 24 0 24 -1 24 0 25 -1 24 -1 24 0 
24 -1 24 -1 24 -1 25 0 24 -1 24 -1 24 -1 24 -1 
24 -1 25 -1 24 -1 24 -1 24 -1 24 -1 24 0 24 -1 
25 -1 24 -1 24 -1 24 0 24 -1 24 -1 25 0 24 -1 
24 0 24 -1 24 0 24 -1 25 0 24 -1 24 0 24 0 
24 0 24 0 24 -1 25 0 24 0 24 0 24 0 24 0 
24 0 25 0 24 0 24 1 24 0 24 0 24 0 25 1 
24 0 24 0 24 1 24 0 24 1 24 0 25 1 24 0 
24 1 24 1 24 0 24 1 25 1 24 1 24 0 24 1 
24 1 24 1 25 1 24 1 24 1 24 1 24 1 24 1 
24 0 25 1 24 1 24 1 24 1 24 0 24 1 25 1 
24 0 24 1 24 0 24 1 24 0 25 0 24 1 24 0 
24 0 24 0 24 0 923 2465 100 MP stroke
24 -1 899 2466 2 MP stroke
24 0 24 -1 24 0 25 0 24 -1 24 0 24 -1 24 -1 
24 -1 25 0 24 -1 24 -1 24 -1 24 -1 24 -1 25 -1 
24 -1 24 -1 24 0 24 -1 24 -1 24 -1 25 -1 24 -1 
24 -1 24 0 24 -1 24 -1 25 -1 24 0 24 -1 24 0 
24 -1 24 0 25 -1 24 0 24 -1 24 0 24 0 24 0 
24 -1 25 0 24 0 24 0 24 0 24 0 24 0 25 0 
24 0 24 0 24 0 24 0 24 1 25 0 24 0 24 0 
24 1 24 0 24 1 24 0 25 1 24 0 24 1 24 0 
24 1 24 1 25 0 24 1 24 1 24 1 24 0 24 1 
25 1 24 1 24 1 24 1 24 1 24 1 24 1 25 1 
24 0 24 1 24 1 24 1 24 1 25 0 24 1 24 1 
24 0 24 1 24 0 25 1 24 0 24 0 24 0 24 0 
24 0 24 0 25 0 3314 2466 100 MP stroke
24 0 24 0 24 -1 24 0 24 -1 25 0 24 -1 24 0 
24 -1 24 -1 24 -1 25 -1 24 0 24 -1 24 -1 24 -1 
24 -1 25 -1 24 -1 24 -1 24 -1 24 -1 24 -1 24 0 
25 -1 24 -1 24 -1 24 -1 24 0 24 -1 25 -1 24 0 
24 -1 24 0 24 -1 24 0 25 0 24 -1 24 0 24 0 
24 -1 24 0 24 0 25 0 24 0 24 0 24 0 24 0 
24 0 25 0 24 0 24 0 24 0 24 1 24 0 25 0 
24 1 24 0 24 0 24 1 24 0 24 1 25 0 24 1 
24 1 24 0 24 1 24 1 25 0 24 1 24 1 24 1 
24 1 24 1 25 1 24 0 24 1 24 1 24 1 24 1 
24 1 25 1 24 1 24 1 24 0 24 1 24 1 25 0 
24 1 24 1 24 0 24 0 24 1 25 0 24 0 24 0 
24 0 24 0 24 0 923 2466 100 MP stroke
24 0 899 2466 2 MP stroke
24 0 24 -1 24 0 25 -1 24 0 24 -1 24 0 24 -1 
24 -1 25 -1 24 0 24 -1 24 -1 24 -1 24 -1 25 -1 
24 -1 24 -1 24 -1 24 -1 24 0 24 -1 25 -1 24 -1 
24 -1 24 -1 24 0 24 -1 25 -1 24 0 24 -1 24 -1 
24 0 24 -1 25 0 24 0 24 -1 24 0 24 0 24 -1 
24 0 25 0 24 0 24 0 24 0 24 0 24 0 25 0 
24 0 24 0 24 0 24 0 24 0 25 1 24 0 24 0 
24 0 24 1 24 0 24 1 25 0 24 1 24 0 24 1 
24 1 24 0 25 1 24 1 24 0 24 1 24 1 24 1 
25 1 24 1 24 1 24 1 24 0 24 1 24 1 25 1 
24 1 24 1 24 1 24 1 24 0 25 1 24 1 24 0 
24 1 24 0 24 1 25 0 24 1 24 0 24 0 24 0 
24 0 24 0 25 0 3314 2466 100 MP stroke
24 0 24 -1 24 0 24 0 24 -1 25 0 24 -1 24 -1 
24 0 24 -1 24 -1 25 -1 24 -1 24 -1 24 0 24 -1 
24 -1 25 -1 24 -1 24 -1 24 -1 24 -1 24 -1 24 -1 
25 0 24 -1 24 -1 24 -1 24 0 24 -1 25 -1 24 0 
24 -1 24 0 24 -1 24 0 25 -1 24 0 24 0 24 -1 
24 0 24 0 24 0 25 0 24 0 24 0 24 0 24 0 
24 0 25 0 24 0 24 0 24 0 24 0 24 1 25 0 
24 0 24 1 24 0 24 1 24 0 24 0 25 1 24 1 
24 0 24 1 24 1 24 0 25 1 24 1 24 1 24 1 
24 0 24 1 25 1 24 1 24 1 24 1 24 1 24 1 
24 1 25 0 24 1 24 1 24 1 24 1 24 0 25 1 
24 1 24 0 24 1 24 0 24 0 25 1 24 0 24 0 
24 0 24 0 24 0 923 2466 100 MP stroke
24 0 899 2466 2 MP stroke
24 -1 24 0 24 0 25 -1 24 0 24 -1 24 -1 24 0 
24 -1 25 -1 24 -1 24 0 24 -1 24 -1 24 -1 25 -1 
24 -1 24 -1 24 -1 24 -1 24 -1 24 0 25 -1 24 -1 
24 -1 24 -1 24 -1 24 0 25 -1 24 -1 24 0 24 -1 
24 0 24 -1 25 0 24 -1 24 0 24 0 24 -1 24 0 
24 0 25 0 24 0 24 0 24 -1 24 0 24 0 25 0 
24 1 24 0 24 0 24 0 24 0 25 0 24 1 24 0 
24 0 24 1 24 0 24 0 25 1 24 0 24 1 24 1 
24 0 24 1 25 1 24 0 24 1 24 1 24 1 24 1 
25 1 24 0 24 1 24 1 24 1 24 1 24 1 25 1 
24 1 24 1 24 0 24 1 24 1 25 1 24 0 24 1 
24 1 24 0 24 1 25 0 24 0 24 1 24 0 24 0 
24 0 24 0 25 0 3314 2466 100 MP stroke
24 -1 24 0 24 0 24 -1 24 0 25 -1 24 0 24 -1 
24 -1 24 0 24 -1 25 -1 24 -1 24 -1 24 -1 24 -1 
24 0 25 -1 24 -1 24 -1 24 -1 24 -1 24 -1 24 -1 
25 -1 24 0 24 -1 24 -1 24 -1 24 0 25 -1 24 0 
24 -1 24 -1 24 0 24 0 25 -1 24 0 24 0 24 -1 
24 0 24 0 24 0 25 0 24 -1 24 0 24 0 24 0 
24 0 25 1 24 0 24 0 24 0 24 0 24 0 25 1 
24 0 24 0 24 1 24 0 24 1 24 0 25 1 24 0 
24 1 24 1 24 0 24 1 25 1 24 1 24 0 24 1 
24 1 24 1 25 1 24 1 24 1 24 1 24 1 24 0 
24 1 25 1 24 1 24 1 24 1 24 0 24 1 25 1 
24 0 24 1 24 0 24 1 24 0 25 0 24 1 24 0 
24 0 24 0 24 0 923 2466 100 MP stroke
24 0 899 2466 2 MP stroke
24 0 24 0 24 -1 25 0 24 0 24 -1 24 -1 24 0 
24 -1 25 -1 24 -1 24 -1 24 0 24 -1 24 -1 25 -1 
24 -1 24 -1 24 -1 24 -1 24 -1 24 -1 25 0 24 -1 
24 -1 24 -1 24 -1 24 0 25 -1 24 -1 24 0 24 -1 
24 0 24 -1 25 0 24 -1 24 0 24 0 24 -1 24 0 
24 0 25 0 24 -1 24 0 24 0 24 0 24 0 25 0 
24 0 24 0 24 1 24 0 24 0 25 0 24 0 24 1 
24 0 24 0 24 1 24 0 25 1 24 0 24 1 24 0 
24 1 24 1 25 0 24 1 24 1 24 1 24 1 24 0 
25 1 24 1 24 1 24 1 24 1 24 1 24 1 25 1 
24 1 24 0 24 1 24 1 24 1 25 1 24 0 24 1 
24 0 24 1 24 0 25 1 24 0 24 0 24 1 24 0 
24 0 24 0 25 -1 3314 2467 100 MP stroke
24 0 24 0 24 0 24 -1 24 0 25 -1 24 0 24 -1 
24 -1 24 0 24 -1 25 -1 24 -1 24 -1 24 -1 24 -1 
24 -1 25 0 24 -1 24 -1 24 -1 24 -1 24 -1 24 -1 
25 -1 24 -1 24 0 24 -1 24 -1 24 0 25 -1 24 -1 
24 0 24 -1 24 0 24 -1 25 0 24 0 24 -1 24 0 
24 0 24 0 24 0 25 -1 24 0 24 0 24 0 24 0 
24 0 25 0 24 0 24 1 24 0 24 0 24 0 25 1 
24 0 24 0 24 1 24 0 24 1 24 0 25 1 24 0 
24 1 24 0 24 1 24 1 25 1 24 0 24 1 24 1 
24 1 24 1 25 1 24 1 24 0 24 1 24 1 24 1 
24 1 25 1 24 1 24 1 24 0 24 1 24 1 25 1 
24 0 24 1 24 0 24 1 24 0 25 0 24 0 24 1 
24 0 24 0 24 0 923 2466 100 MP stroke
24 -1 899 2467 2 MP stroke
24 0 24 0 24 -1 25 0 24 -1 24 0 24 -1 24 0 
24 -1 25 -1 24 -1 24 -1 24 0 24 -1 24 -1 25 -1 
24 -1 24 -1 24 -1 24 -1 24 -1 24 -1 25 -1 24 0 
24 -1 24 -1 24 -1 24 0 25 -1 24 -1 24 0 24 -1 
24 0 24 -1 25 0 24 -1 24 0 24 -1 24 0 24 0 
24 0 25 0 24 -1 24 0 24 0 24 0 24 0 25 0 
24 0 24 0 24 0 24 1 24 0 25 0 24 0 24 1 
24 0 24 0 24 1 24 0 25 1 24 0 24 1 24 0 
24 1 24 1 25 0 24 1 24 1 24 1 24 0 24 1 
25 1 24 1 24 1 24 1 24 1 24 1 24 1 25 0 
24 1 24 1 24 1 24 1 24 1 25 0 24 1 24 1 
24 0 24 1 24 0 25 1 24 0 24 0 24 0 24 0 
24 1 24 -1 25 0 3314 2467 100 MP stroke
24 0 24 0 24 0 24 -1 24 0 25 -1 24 0 24 -1 
24 -1 24 -1 24 0 25 -1 24 -1 24 -1 24 -1 24 -1 
24 -1 25 -1 24 -1 24 0 24 -1 24 -1 24 -1 24 -1 
25 -1 24 -1 24 0 24 -1 24 -1 24 0 25 -1 24 -1 
24 0 24 -1 24 0 24 -1 25 0 24 0 24 -1 24 0 
24 0 24 0 24 -1 25 0 24 0 24 0 24 0 24 0 
24 0 25 0 24 0 24 0 24 1 24 0 24 0 25 0 
24 1 24 0 24 0 24 1 24 0 24 1 25 0 24 1 
24 1 24 0 24 1 24 1 25 0 24 1 24 1 24 1 
24 1 24 1 25 0 24 1 24 1 24 1 24 1 24 1 
24 1 25 1 24 1 24 0 24 1 24 1 24 1 25 0 
24 1 24 0 24 1 24 0 24 1 25 0 24 0 24 0 
24 0 24 0 24 0 923 2467 100 MP stroke
24 0 899 2467 2 MP stroke
SO
24 1 24 -1 24 0 25 0 24 -1 24 -1 24 -2 24 -1 
24 -2 25 -2 24 -2 24 -2 24 -2 24 -2 24 -2 25 -2 
24 -2 24 -2 24 -2 24 -2 24 -1 24 -1 25 -1 24 -1 
24 0 24 -1 24 0 24 1 25 0 24 1 24 1 24 1 
24 2 24 1 25 2 24 2 24 2 24 2 24 2 24 2 
24 2 25 1 24 2 24 2 24 1 24 1 24 1 25 1 
24 0 24 0 24 0 24 0 24 0 25 -1 24 -1 24 -2 
24 -1 24 -2 24 -1 24 -2 25 -2 24 -2 24 -3 24 -2 
24 -2 24 -2 25 -1 24 -2 24 -2 24 -1 24 -1 24 -1 
25 -1 24 0 24 0 24 0 24 0 24 1 24 1 25 1 
24 1 24 2 24 2 24 1 24 3 25 2 24 2 24 2 
24 3 24 2 24 2 25 2 24 2 24 2 24 1 24 2 
24 1 24 1 25 0 3314 1222 100 MP stroke
24 0 24 1 24 -1 24 0 24 -1 25 -1 24 -1 24 -2 
24 -1 24 -2 24 -2 25 -2 24 -2 24 -2 24 -2 24 -2 
24 -2 25 -2 24 -2 24 -2 24 -1 24 -2 24 -1 24 -1 
25 0 24 -1 24 0 24 1 24 0 24 1 25 1 24 1 
24 1 24 2 24 1 24 2 25 2 24 2 24 2 24 2 
24 2 24 2 24 1 25 2 24 1 24 2 24 1 24 0 
24 1 25 0 24 0 24 0 24 0 24 -1 24 -1 25 -1 
24 -1 24 -2 24 -2 24 -1 24 -2 24 -2 25 -2 24 -3 
24 -2 24 -2 24 -2 24 -1 25 -2 24 -1 24 -2 24 -1 
24 -1 24 0 25 0 24 0 24 0 24 0 24 1 24 1 
24 1 25 2 24 2 24 2 24 2 24 2 24 2 25 2 
24 2 24 3 24 2 24 2 24 2 25 2 24 1 24 2 
24 1 24 1 24 1 923 1222 100 MP stroke
24 0 899 1222 2 MP stroke
24 0 24 0 24 0 25 -1 24 -1 24 -1 24 -1 24 -1 
24 -2 25 -2 24 -1 24 -2 24 -2 24 -2 24 -2 25 -2 
24 -2 24 -2 24 -1 24 -2 24 -1 24 -2 25 -1 24 -1 
24 0 24 -1 24 0 24 0 25 0 24 0 24 1 24 1 
24 1 24 1 25 1 24 1 24 1 24 2 24 1 24 1 
24 2 25 1 24 1 24 1 24 1 24 1 24 1 25 1 
24 0 24 0 24 0 24 0 24 0 25 -1 24 -1 24 0 
24 -1 24 -2 24 -1 24 -1 25 -1 24 -2 24 -1 24 -2 
24 -1 24 -1 25 -2 24 -1 24 -1 24 -1 24 0 24 -1 
25 0 24 0 24 0 24 1 24 0 24 1 24 1 25 1 
24 1 24 2 24 2 24 1 24 2 25 2 24 2 24 2 
24 2 24 2 24 2 25 2 24 2 24 1 24 1 24 2 
24 0 24 1 25 1 3314 1294 100 MP stroke
24 0 24 0 24 0 24 -1 24 0 25 -1 24 -1 24 -2 
24 -1 24 -2 24 -1 25 -2 24 -2 24 -2 24 -2 24 -2 
24 -2 25 -2 24 -2 24 -1 24 -2 24 -1 24 -1 24 -1 
25 -1 24 -1 24 0 24 0 24 0 24 0 25 1 24 0 
24 1 24 1 24 1 24 1 25 2 24 1 24 1 24 2 
24 1 24 1 24 2 25 1 24 1 24 1 24 1 24 0 
24 1 25 0 24 0 24 0 24 0 24 -1 24 0 25 -1 
24 -1 24 -1 24 -1 24 -1 24 -2 24 -1 25 -2 24 -1 
24 -1 24 -2 24 -1 24 -1 25 -1 24 -1 24 -1 24 -1 
24 0 24 0 25 0 24 0 24 1 24 0 24 1 24 1 
24 2 25 1 24 2 24 2 24 1 24 2 24 2 25 2 
24 2 24 2 24 2 24 2 24 2 25 1 24 2 24 1 
24 1 24 1 24 1 923 1294 100 MP stroke
24 0 899 1294 2 MP stroke
24 0 24 0 24 0 25 -1 24 -1 24 -1 24 -1 24 -1 
24 -2 25 -1 24 -2 24 -1 24 -2 24 -2 24 -2 25 -2 
24 -2 24 -1 24 -2 24 -1 24 -2 24 -1 25 -2 24 -1 
24 0 24 -1 24 -1 24 0 25 0 24 0 24 0 24 0 
24 0 24 1 25 1 24 0 24 1 24 1 24 1 24 1 
24 1 25 1 24 1 24 0 24 1 24 1 24 0 25 1 
24 0 24 1 24 0 24 0 24 0 25 -1 24 0 24 -1 
24 0 24 -1 24 0 24 -1 25 -1 24 -1 24 -1 24 0 
24 -1 24 -1 25 0 24 -1 24 0 24 -1 24 0 24 0 
25 0 24 1 24 0 24 1 24 0 24 1 24 1 25 2 
24 1 24 1 24 2 24 2 24 1 25 2 24 2 24 1 
24 2 24 2 24 1 25 2 24 1 24 1 24 1 24 1 
24 1 24 1 25 0 3314 1376 100 MP stroke
24 0 24 0 24 0 24 -1 24 0 25 -1 24 -1 24 -1 
24 -2 24 -1 24 -2 25 -2 24 -1 24 -2 24 -2 24 -2 
24 -2 25 -1 24 -2 24 -2 24 -1 24 -2 24 -1 24 -1 
25 -1 24 -1 24 0 24 -1 24 0 24 0 25 0 24 0 
24 0 24 1 24 0 24 1 25 1 24 1 24 0 24 1 
24 1 24 1 24 1 25 1 24 1 24 1 24 0 24 1 
24 0 25 0 24 1 24 0 24 0 24 -1 24 0 25 0 
24 -1 24 0 24 -1 24 -1 24 -1 24 0 25 -1 24 -1 
24 -1 24 0 24 -1 24 -1 25 0 24 -1 24 0 24 0 
24 0 24 0 25 1 24 0 24 1 24 1 24 1 24 1 
24 1 25 2 24 1 24 2 24 1 24 2 24 2 25 1 
24 2 24 2 24 1 24 2 24 1 25 2 24 1 24 1 
24 1 24 0 24 1 923 1376 100 MP stroke
24 0 899 1376 2 MP stroke
24 -2 24 -2 24 -3 25 -3 24 -4 24 -3 24 -4 24 -4 
24 -4 25 -4 24 -3 24 -4 24 -4 24 -3 24 -3 25 -3 
24 -3 24 -3 24 -2 24 -1 24 -2 24 -1 25 0 24 -1 
24 0 24 1 24 0 24 1 25 1 24 1 24 2 24 1 
24 2 24 2 25 2 24 1 24 2 24 2 24 1 24 1 
24 1 25 1 24 1 24 0 24 0 24 0 24 0 25 -1 
24 -1 24 -1 24 -1 24 -1 24 -2 25 -1 24 -2 24 -2 
24 -2 24 -1 24 -2 24 -1 25 -2 24 -1 24 -1 24 0 
24 0 24 0 25 0 24 0 24 1 24 2 24 2 24 2 
25 2 24 3 24 3 24 3 24 3 24 4 24 4 25 3 
24 4 24 4 24 4 24 4 24 3 25 4 24 3 24 2 
24 3 24 2 24 2 25 1 24 1 24 1 24 0 24 0 
24 -1 24 -1 25 -2 3314 1532 100 MP stroke
24 -2 24 -2 24 -3 24 -3 24 -3 25 -4 24 -3 24 -4 
24 -4 24 -4 24 -4 25 -3 24 -4 24 -4 24 -3 24 -3 
24 -3 25 -2 24 -3 24 -1 24 -2 24 -1 24 -1 24 -1 
25 0 24 0 24 1 24 0 24 1 24 2 25 1 24 2 
24 1 24 2 24 2 24 1 25 2 24 2 24 1 24 2 
24 1 24 1 24 1 25 0 24 0 24 0 24 0 24 0 
24 -1 25 -1 24 -1 24 -1 24 -2 24 -2 24 -1 25 -2 
24 -2 24 -1 24 -2 24 -2 24 -1 24 -1 25 -1 24 -1 
24 0 24 -1 24 1 24 0 25 1 24 1 24 2 24 2 
24 2 24 2 25 3 24 3 24 3 24 4 24 4 24 3 
24 4 25 4 24 4 24 4 24 3 24 4 24 3 25 3 
24 3 24 2 24 2 24 2 24 1 25 1 24 0 24 0 
24 -1 24 -1 24 -1 923 1531 100 MP stroke
24 -2 899 1533 2 MP stroke
24 1 24 0 24 -2 25 -3 24 -4 24 -6 24 -6 24 -8 
24 -8 25 -10 24 -10 24 -11 24 -11 24 -11 24 -12 25 -11 
24 -11 24 -12 24 -10 24 -11 24 -9 24 -9 25 -8 24 -7 
24 -7 24 -5 24 -4 24 -4 25 -2 24 -1 24 -1 24 0 
24 1 24 2 25 3 24 3 24 3 24 4 24 4 24 3 
24 4 25 4 24 4 24 3 24 2 24 3 24 1 25 1 
24 1 24 -1 24 -1 24 -1 24 -3 25 -3 24 -3 24 -4 
24 -5 24 -5 24 -5 24 -6 25 -5 24 -5 24 -6 24 -4 
24 -5 24 -4 25 -3 24 -3 24 -1 24 -1 24 0 24 1 
25 2 24 4 24 4 24 6 24 7 24 7 24 9 25 9 
24 11 24 11 24 12 24 12 24 12 25 13 24 13 24 12 
24 13 24 12 24 11 25 11 24 10 24 9 24 8 24 7 
24 6 24 4 25 4 3314 2091 100 MP stroke
24 1 24 1 24 -1 24 -2 24 -4 25 -5 24 -6 24 -7 
24 -8 24 -9 24 -10 25 -10 24 -11 24 -11 24 -12 24 -11 
24 -12 25 -11 24 -11 24 -11 24 -9 24 -10 24 -8 24 -8 
25 -7 24 -5 24 -5 24 -4 24 -3 24 -2 25 -1 24 0 
24 1 24 1 24 2 24 3 25 3 24 4 24 4 24 3 
24 4 24 4 24 4 25 3 24 3 24 3 24 2 24 1 
24 1 25 0 24 -1 24 -1 24 -2 24 -3 24 -3 25 -4 
24 -5 24 -5 24 -5 24 -5 24 -5 24 -6 25 -5 24 -5 
24 -5 24 -4 24 -4 24 -2 25 -3 24 -1 24 0 24 0 
24 2 24 3 25 4 24 5 24 6 24 7 24 8 24 10 
24 10 25 10 24 12 24 12 24 12 24 12 24 13 25 13 
24 12 24 13 24 11 24 12 24 10 25 10 24 8 24 8 
24 6 24 5 24 4 923 2093 100 MP stroke
24 3 899 2090 2 MP stroke
24 3 24 0 24 -3 25 -4 24 -7 24 -9 24 -11 24 -13 
24 -15 25 -15 24 -17 24 -18 24 -18 24 -19 24 -19 25 -19 
24 -18 24 -18 24 -17 24 -15 24 -15 24 -13 25 -11 24 -10 
24 -8 24 -7 24 -4 24 -3 25 -1 24 0 24 3 24 3 
24 5 24 6 25 7 24 7 24 8 24 9 24 8 24 8 
24 8 25 7 24 7 24 5 24 5 24 3 24 2 25 0 
24 -1 24 -3 24 -4 24 -6 24 -7 25 -8 24 -10 24 -11 
24 -12 24 -12 24 -14 24 -13 25 -13 24 -14 24 -13 24 -12 
24 -12 24 -10 25 -9 24 -8 24 -6 24 -4 24 -2 24 0 
25 2 24 5 24 6 24 9 24 11 24 13 24 15 25 16 
24 18 24 20 24 21 24 22 24 23 25 23 24 23 24 23 
24 23 24 22 24 21 25 20 24 18 24 17 24 15 24 13 
24 11 24 9 25 6 3314 3059 100 MP stroke
24 4 24 1 24 -1 24 -4 24 -5 25 -8 24 -11 24 -11 
24 -14 24 -15 24 -17 25 -17 24 -18 24 -19 24 -19 24 -18 
24 -19 25 -18 24 -17 24 -17 24 -15 24 -14 24 -12 24 -11 
25 -9 24 -7 24 -5 24 -4 24 -2 24 0 25 1 24 3 
24 4 24 6 24 6 24 7 25 8 24 9 24 8 24 8 
24 8 24 8 24 7 25 6 24 5 24 4 24 2 24 1 
24 0 25 -2 24 -4 24 -5 24 -6 24 -8 24 -9 25 -11 
24 -11 24 -12 24 -13 24 -13 24 -14 24 -13 25 -13 24 -13 
24 -12 24 -11 24 -10 24 -8 25 -7 24 -5 24 -3 24 -1 
24 1 24 3 25 6 24 7 24 10 24 12 24 14 24 16 
24 17 25 19 24 21 24 21 24 22 24 23 24 23 25 24 
24 22 24 23 24 22 24 20 24 19 25 18 24 16 24 14 
24 12 24 10 24 7 923 3062 100 MP stroke
24 5 899 3057 2 MP stroke
24 1 24 -2 24 -4 25 -8 24 -11 24 -13 24 -17 24 -18 
24 -22 25 -23 24 -25 24 -27 24 -28 24 -29 24 -29 25 -29 
24 -29 24 -29 24 -27 24 -26 24 -24 24 -23 25 -20 24 -17 
24 -15 24 -11 24 -9 24 -5 25 -2 24 1 24 4 24 8 
24 10 24 13 25 16 24 18 24 20 24 21 24 24 24 24 
24 25 25 25 24 25 24 25 24 24 24 23 24 21 25 20 
24 18 24 16 24 14 24 11 24 9 25 6 24 3 24 1 
24 -1 24 -4 24 -7 24 -8 25 -10 24 -11 24 -13 24 -14 
24 -14 24 -15 25 -15 24 -14 24 -14 24 -13 24 -12 24 -10 
25 -9 24 -7 24 -5 24 -2 24 0 24 2 24 4 25 7 
24 9 24 11 24 13 24 14 24 16 25 18 24 18 24 19 
24 20 24 19 24 19 25 19 24 17 24 16 24 15 24 12 
24 11 24 8 25 5 3314 3711 100 MP stroke
24 3 24 -1 24 -3 24 -6 24 -9 25 -12 24 -15 24 -18 
24 -20 24 -22 24 -24 25 -26 24 -28 24 -28 24 -29 24 -30 
24 -29 25 -29 24 -28 24 -26 24 -26 24 -23 24 -21 24 -19 
25 -16 24 -13 24 -10 24 -7 24 -4 24 0 25 3 24 5 
24 9 24 12 24 15 24 16 25 19 24 21 24 23 24 24 
24 24 24 25 24 25 25 25 24 25 24 23 24 23 24 21 
24 19 25 17 24 14 24 13 24 10 24 7 24 5 25 2 
24 0 24 -3 24 -5 24 -7 24 -10 24 -10 25 -13 24 -13 
24 -14 24 -15 24 -15 24 -14 25 -14 24 -14 24 -12 24 -11 
24 -10 24 -8 25 -6 24 -3 24 -2 24 1 24 4 24 5 
24 8 25 10 24 12 24 14 24 15 24 17 24 18 25 19 
24 19 24 20 24 19 24 19 24 18 25 16 24 16 24 13 
24 12 24 9 24 7 923 3713 100 MP stroke
24 4 899 3709 2 MP stroke
24 2 24 0 24 -2 25 -3 24 -6 24 -7 24 -9 24 -12 
24 -12 25 -15 24 -15 24 -17 24 -19 24 -19 24 -19 25 -20 
24 -20 24 -20 24 -19 24 -19 24 -18 24 -16 25 -16 24 -13 
24 -12 24 -10 24 -7 24 -6 25 -3 24 -1 24 2 24 4 
24 6 24 8 25 11 24 13 24 14 24 16 24 17 24 19 
24 20 25 20 24 21 24 21 24 21 24 20 24 20 25 19 
24 18 24 16 24 15 24 14 24 12 25 10 24 8 24 6 
24 4 24 2 24 0 24 -2 25 -3 24 -6 24 -6 24 -8 
24 -9 24 -10 25 -10 24 -11 24 -11 24 -11 24 -11 24 -11 
25 -10 24 -9 24 -8 24 -6 24 -6 24 -4 24 -3 25 -1 
24 0 24 2 24 3 24 4 24 6 25 7 24 8 24 9 
24 9 24 10 24 10 25 10 24 10 24 9 24 9 24 8 
24 7 24 6 25 4 3314 3527 100 MP stroke
24 2 24 1 24 -1 24 -2 24 -5 25 -6 24 -9 24 -10 
24 -12 24 -13 24 -15 25 -17 24 -17 24 -19 24 -19 24 -20 
24 -20 25 -20 24 -20 24 -19 24 -18 24 -17 24 -16 24 -15 
25 -12 24 -11 24 -9 24 -6 24 -5 24 -2 25 1 24 2 
24 5 24 8 24 9 24 12 25 14 24 15 24 17 24 18 
24 19 24 20 24 20 25 21 24 21 24 21 24 20 24 19 
24 19 25 17 24 16 24 14 24 13 24 11 24 9 25 7 
24 5 24 3 24 1 24 -1 24 -3 24 -4 25 -6 24 -7 
24 -8 24 -10 24 -10 24 -11 25 -11 24 -11 24 -11 24 -11 
24 -10 24 -9 25 -9 24 -7 24 -6 24 -5 24 -4 24 -2 
24 0 25 1 24 2 24 4 24 5 24 6 24 8 25 8 
24 9 24 10 24 10 24 10 24 10 25 10 24 9 24 8 
24 8 24 6 24 5 923 3529 100 MP stroke
24 3 899 3526 2 MP stroke
24 0 24 -2 24 -3 25 -3 24 -5 24 -6 24 -7 24 -8 
24 -9 25 -10 24 -11 24 -11 24 -12 24 -12 24 -12 25 -12 
24 -13 24 -12 24 -11 24 -11 24 -10 24 -10 25 -8 24 -7 
24 -6 24 -5 24 -3 24 -2 25 -1 24 2 24 2 24 4 
24 6 24 7 25 8 24 10 24 10 24 12 24 12 24 13 
24 14 25 14 24 14 24 14 24 14 24 14 24 13 25 12 
24 12 24 11 24 10 24 9 24 8 25 6 24 6 24 4 
24 2 24 2 24 0 24 -1 25 -2 24 -3 24 -4 24 -5 
24 -5 24 -7 25 -6 24 -7 24 -7 24 -7 24 -7 24 -6 
25 -6 24 -6 24 -5 24 -5 24 -4 24 -3 24 -2 25 -1 
24 0 24 0 24 1 24 2 24 3 25 3 24 4 24 4 
24 4 24 5 24 5 25 5 24 4 24 4 24 4 24 3 
24 3 24 1 25 1 3314 3224 100 MP stroke
24 0 24 -1 24 -2 24 -3 24 -5 25 -5 24 -7 24 -7 
24 -9 24 -9 24 -11 25 -10 24 -12 24 -12 24 -12 24 -12 
24 -13 25 -12 24 -12 24 -11 24 -10 24 -10 24 -9 24 -8 
25 -7 24 -5 24 -4 24 -3 24 -1 24 1 25 2 24 3 
24 5 24 6 24 8 24 9 25 10 24 11 24 12 24 13 
24 13 24 14 24 14 25 14 24 14 24 14 24 13 24 13 
24 12 25 12 24 10 24 10 24 8 24 7 24 6 25 5 
24 3 24 2 24 1 24 0 24 -2 24 -3 25 -3 24 -4 
24 -6 24 -5 24 -7 24 -6 25 -7 24 -7 24 -7 24 -7 
24 -6 24 -6 25 -6 24 -5 24 -4 24 -3 24 -3 24 -1 
24 -1 25 0 24 0 24 2 24 2 24 3 24 4 25 4 
24 4 24 5 24 4 24 5 24 5 25 4 24 4 24 4 
24 3 24 2 24 1 923 3224 100 MP stroke
24 0 899 3224 2 MP stroke
24 -1 24 -2 24 -2 25 -2 24 -4 24 -4 24 -4 24 -6 
24 -5 25 -6 24 -7 24 -7 24 -7 24 -7 24 -7 25 -8 
24 -7 24 -7 24 -6 24 -6 24 -6 24 -5 25 -5 24 -3 
24 -3 24 -2 24 -2 24 0 25 1 24 1 24 2 24 4 
24 4 24 5 25 5 24 6 24 7 24 8 24 8 24 8 
24 8 25 9 24 8 24 9 24 8 24 8 24 8 25 7 
24 7 24 6 24 6 24 5 24 4 25 3 24 3 24 2 
24 1 24 0 24 0 24 -1 25 -2 24 -2 24 -3 24 -3 
24 -4 24 -3 25 -5 24 -4 24 -4 24 -4 24 -4 24 -4 
25 -4 24 -3 24 -3 24 -3 24 -2 24 -2 24 -1 25 -1 
24 0 24 1 24 1 24 1 24 1 25 2 24 3 24 2 
24 3 24 3 24 2 25 3 24 2 24 3 24 2 24 1 
24 1 24 1 25 0 3314 2988 100 MP stroke
24 -1 24 -1 24 -2 24 -2 24 -3 25 -4 24 -4 24 -5 
24 -5 24 -6 24 -7 25 -6 24 -7 24 -8 24 -7 24 -7 
24 -7 25 -7 24 -7 24 -6 24 -6 24 -6 24 -4 24 -5 
25 -3 24 -2 24 -2 24 -1 24 0 24 1 25 2 24 3 
24 4 24 4 24 5 24 6 25 7 24 7 24 8 24 8 
24 8 24 8 24 9 25 8 24 9 24 8 24 8 24 8 
24 7 25 6 24 6 24 5 24 5 24 4 24 3 25 2 
24 2 24 0 24 0 24 0 24 -2 24 -2 25 -2 24 -3 
24 -4 24 -3 24 -4 24 -5 25 -4 24 -4 24 -4 24 -4 
24 -4 24 -4 25 -3 24 -3 24 -2 24 -2 24 -1 24 -1 
24 -1 25 0 24 1 24 1 24 2 24 1 24 3 25 2 
24 3 24 2 24 3 24 3 24 2 25 3 24 2 24 1 
24 2 24 1 24 0 923 2988 100 MP stroke
24 0 899 2988 2 MP stroke
24 -2 24 -2 24 -3 25 -3 24 -3 24 -3 24 -4 24 -3 
24 -4 25 -5 24 -4 24 -4 24 -5 24 -4 24 -5 25 -4 
24 -4 24 -4 24 -3 24 -3 24 -3 24 -2 25 -2 24 -2 
24 -1 24 -1 24 0 24 1 25 1 24 1 24 2 24 3 
24 3 24 3 25 4 24 4 24 5 24 4 24 5 24 5 
24 5 25 5 24 6 24 5 24 5 24 4 24 5 25 4 
24 5 24 3 24 4 24 3 24 2 25 2 24 2 24 2 
24 1 24 0 24 1 24 -1 25 0 24 -1 24 -1 24 -1 
24 -1 24 -2 25 -1 24 -2 24 -2 24 -1 24 -2 24 -2 
25 -1 24 -2 24 -1 24 -1 24 -1 24 0 24 -1 25 0 
24 0 24 0 24 1 24 0 24 1 25 0 24 1 24 0 
24 1 24 1 24 0 25 1 24 0 24 0 24 0 24 -1 
24 0 24 -1 25 -2 3314 2856 100 MP stroke
24 -1 24 -2 24 -2 24 -3 24 -3 25 -3 24 -4 24 -3 
24 -4 24 -5 24 -4 25 -4 24 -5 24 -4 24 -4 24 -5 
24 -4 25 -4 24 -3 24 -4 24 -3 24 -2 24 -3 24 -1 
25 -2 24 0 24 -1 24 1 24 0 24 2 25 1 24 3 
24 2 24 4 24 3 24 4 25 4 24 5 24 5 24 5 
24 5 24 5 24 5 25 5 24 5 24 5 24 5 24 4 
24 5 25 3 24 4 24 3 24 3 24 2 24 2 25 2 
24 1 24 1 24 0 24 1 24 -1 24 0 25 -1 24 -1 
24 -1 24 -2 24 -2 24 -1 25 -2 24 -2 24 -1 24 -2 
24 -1 24 -2 25 -1 24 -1 24 -1 24 -1 24 0 24 -1 
24 0 25 0 24 0 24 1 24 0 24 1 24 0 25 1 
24 1 24 0 24 1 24 1 24 0 25 0 24 0 24 0 
24 -1 24 -1 24 -1 923 2855 100 MP stroke
24 -1 899 2856 2 MP stroke
24 -2 24 -2 24 -3 25 -3 24 -3 24 -3 24 -3 24 -4 
24 -4 25 -3 24 -4 24 -4 24 -4 24 -3 24 -4 25 -3 
24 -3 24 -3 24 -3 24 -2 24 -2 24 -2 25 -1 24 -1 
24 0 24 0 24 0 24 1 25 1 24 2 24 2 24 3 
24 3 24 3 25 3 24 4 24 4 24 4 24 4 24 5 
24 4 25 4 24 5 24 4 24 4 24 4 24 4 25 3 
24 4 24 3 24 3 24 2 24 2 25 2 24 1 24 2 
24 0 24 1 24 0 24 0 25 0 24 0 24 -1 24 -1 
24 -1 24 -1 25 -1 24 -1 24 -1 24 -1 24 -1 24 -1 
25 -1 24 -1 24 -1 24 -1 24 0 24 -1 24 0 25 0 
24 0 24 0 24 0 24 0 24 1 25 0 24 0 24 0 
24 0 24 1 24 -1 25 0 24 0 24 -1 24 0 24 -1 
24 -2 24 -1 25 -2 3314 2765 100 MP stroke
24 -2 24 -2 24 -2 24 -3 24 -3 25 -3 24 -4 24 -3 
24 -4 24 -3 24 -4 25 -4 24 -4 24 -3 24 -4 24 -3 
24 -4 25 -3 24 -2 24 -3 24 -2 24 -2 24 -1 24 -1 
25 -1 24 0 24 0 24 1 24 1 24 1 25 2 24 2 
24 3 24 3 24 3 24 4 25 4 24 4 24 4 24 4 
24 5 24 4 24 5 25 4 24 4 24 4 24 4 24 4 
24 3 25 3 24 3 24 3 24 2 24 2 24 2 25 1 
24 1 24 1 24 0 24 0 24 0 24 0 25 -1 24 0 
24 -1 24 -1 24 -1 24 -1 25 -2 24 -1 24 -1 24 -1 
24 -1 24 -1 25 -1 24 0 24 -1 24 0 24 -1 24 0 
24 0 25 0 24 0 24 0 24 1 24 0 24 0 25 0 
24 0 24 1 24 0 24 -1 24 0 25 0 24 -1 24 -1 
24 -1 24 -1 24 -2 923 2764 100 MP stroke
24 -2 899 2766 2 MP stroke
24 -3 24 -2 24 -3 25 -3 24 -2 24 -3 24 -3 24 -3 
24 -4 25 -3 24 -3 24 -2 24 -3 24 -3 24 -3 25 -2 
24 -2 24 -2 24 -2 24 -1 24 -1 24 -1 25 -1 24 0 
24 0 24 1 24 0 24 2 25 1 24 2 24 1 24 3 
24 2 24 3 25 2 24 3 24 3 24 4 24 3 24 3 
24 3 25 4 24 3 24 3 24 3 24 3 24 3 25 3 
24 2 24 3 24 2 24 2 24 1 25 2 24 1 24 1 
24 1 24 1 24 1 24 0 25 0 24 0 24 0 24 0 
24 0 24 0 25 0 24 -1 24 0 24 -1 24 0 24 0 
25 -1 24 0 24 0 24 0 24 0 24 -1 24 0 25 0 
24 0 24 0 24 0 24 0 24 -1 25 0 24 0 24 0 
24 -1 24 -1 24 0 25 -1 24 -1 24 -2 24 -1 24 -2 
24 -1 24 -2 25 -2 3314 2717 100 MP stroke
24 -3 24 -2 24 -3 24 -2 24 -3 25 -3 24 -3 24 -3 
24 -3 24 -3 24 -3 25 -3 24 -3 24 -3 24 -2 24 -3 
24 -2 25 -2 24 -2 24 -1 24 -2 24 -1 24 0 24 -1 
25 0 24 0 24 1 24 1 24 1 24 2 25 1 24 2 
24 3 24 2 24 3 24 3 25 3 24 3 24 3 24 4 
24 3 24 3 24 3 25 4 24 3 24 3 24 3 24 2 
24 3 25 2 24 3 24 2 24 2 24 1 24 2 25 1 
24 1 24 1 24 0 24 1 24 0 24 0 25 0 24 0 
24 0 24 0 24 0 24 -1 25 0 24 0 24 -1 24 0 
24 0 24 -1 25 0 24 0 24 0 24 -1 24 0 24 0 
24 0 25 0 24 0 24 0 24 0 24 -1 24 0 25 0 
24 -1 24 0 24 -1 24 -1 24 -1 25 -1 24 -1 24 -2 
24 -1 24 -2 24 -2 923 2716 100 MP stroke
24 -2 899 2718 2 MP stroke
24 -1 24 -1 24 -2 25 -2 24 -2 24 -3 24 -2 24 -3 
24 -3 25 -3 24 -3 24 -3 24 -4 24 -3 24 -3 25 -3 
24 -3 24 -3 24 -3 24 -2 24 -2 24 -2 25 -2 24 -1 
24 -2 24 0 24 -1 24 0 25 1 24 0 24 2 24 1 
24 2 24 2 25 3 24 2 24 3 24 4 24 3 24 4 
24 3 25 4 24 4 24 4 24 4 24 4 24 4 25 3 
24 4 24 3 24 3 24 3 24 2 25 3 24 2 24 1 
24 2 24 1 24 1 24 1 25 0 24 0 24 0 24 0 
24 -1 24 0 25 -1 24 -1 24 -1 24 -1 24 -1 24 -1 
25 -2 24 -1 24 -1 24 -1 24 0 24 -1 24 -1 25 0 
24 -1 24 0 24 0 24 -1 24 0 25 0 24 0 24 0 
24 0 24 0 24 0 25 0 24 0 24 0 24 -1 24 0 
24 -1 24 -1 25 -1 3314 2692 100 MP stroke
24 -1 24 -2 24 -1 24 -2 24 -2 25 -3 24 -2 24 -3 
24 -3 24 -3 24 -3 25 -3 24 -3 24 -3 24 -3 24 -3 
24 -3 25 -3 24 -3 24 -3 24 -2 24 -2 24 -2 24 -2 
25 -1 24 -1 24 -1 24 0 24 0 24 1 25 1 24 1 
24 2 24 2 24 2 24 3 25 3 24 3 24 3 24 4 
24 4 24 3 24 4 25 4 24 4 24 4 24 4 24 3 
24 4 25 3 24 3 24 3 24 3 24 3 24 2 25 2 
24 1 24 2 24 1 24 0 24 1 24 0 25 0 24 0 
24 -1 24 0 24 -1 24 -1 25 -1 24 -1 24 -1 24 -1 
24 -1 24 -1 25 -1 24 -1 24 -1 24 -1 24 0 24 -1 
24 -1 25 0 24 0 24 -1 24 0 24 0 24 0 25 0 
24 0 24 0 24 0 24 0 24 0 25 0 24 0 24 -1 
24 -1 24 0 24 -1 923 2691 100 MP stroke
24 -2 899 2693 2 MP stroke
24 -1 24 -1 24 -2 25 -1 24 -2 24 -2 24 -2 24 -2 
24 -3 25 -3 24 -2 24 -3 24 -4 24 -3 24 -3 25 -3 
24 -3 24 -3 24 -3 24 -3 24 -2 24 -3 25 -2 24 -2 
24 -1 24 -1 24 -1 24 -1 25 0 24 0 24 1 24 1 
24 1 24 2 25 2 24 3 24 2 24 3 24 4 24 3 
24 4 25 3 24 4 24 4 24 4 24 4 24 3 25 4 
24 4 24 3 24 3 24 3 24 3 25 2 24 2 24 2 
24 2 24 1 24 1 24 1 25 0 24 0 24 0 24 0 
24 -1 24 0 25 -1 24 -1 24 -1 24 -2 24 -1 24 -1 
25 -1 24 -2 24 -1 24 -1 24 -1 24 -1 24 -1 25 0 
24 -1 24 0 24 0 24 -1 24 0 25 0 24 1 24 0 
24 0 24 0 24 1 25 0 24 0 24 0 24 0 24 0 
24 0 24 0 25 -1 3314 2658 100 MP stroke
24 -1 24 -1 24 -1 24 -1 24 -2 25 -2 24 -2 24 -2 
24 -3 24 -2 24 -3 25 -3 24 -3 24 -3 24 -3 24 -3 
24 -4 25 -3 24 -3 24 -2 24 -3 24 -3 24 -2 24 -2 
25 -1 24 -2 24 -1 24 0 24 -1 24 0 25 1 24 1 
24 1 24 1 24 2 24 2 25 3 24 3 24 3 24 3 
24 4 24 3 24 4 25 4 24 4 24 4 24 3 24 4 
24 4 25 3 24 4 24 3 24 2 24 3 24 2 25 2 
24 2 24 2 24 1 24 1 24 0 24 0 25 0 24 0 
24 0 24 -1 24 -1 24 -1 25 -1 24 -1 24 -1 24 -1 
24 -2 24 -1 25 -1 24 -1 24 -1 24 -1 24 -1 24 -1 
24 -1 25 0 24 0 24 -1 24 0 24 0 24 0 25 1 
24 0 24 0 24 0 24 1 24 0 25 0 24 0 24 0 
24 0 24 0 24 -1 923 2658 100 MP stroke
24 0 899 2658 2 MP stroke
24 0 24 -1 24 0 25 -1 24 0 24 -2 24 -1 24 -1 
24 -2 25 -2 24 -1 24 -2 24 -3 24 -2 24 -2 25 -2 
24 -2 24 -2 24 -2 24 -2 24 -2 24 -2 25 -1 24 -2 
24 -1 24 -1 24 0 24 -1 25 0 24 0 24 0 24 1 
24 0 24 1 25 1 24 2 24 1 24 2 24 1 24 2 
24 2 25 1 24 2 24 2 24 2 24 1 24 2 25 1 
24 2 24 1 24 1 24 1 24 0 25 1 24 0 24 0 
24 0 24 0 24 -1 24 0 25 -1 24 -1 24 0 24 -1 
24 -1 24 -1 25 -1 24 -1 24 -1 24 -1 24 -1 24 0 
25 -1 24 0 24 -1 24 0 24 0 24 1 24 0 25 1 
24 0 24 1 24 1 24 1 24 2 25 1 24 1 24 2 
24 1 24 2 24 1 25 1 24 2 24 1 24 1 24 1 
24 1 24 0 25 0 3314 2644 100 MP stroke
24 1 24 -1 24 0 24 0 24 -1 25 -1 24 -1 24 -1 
24 -2 24 -2 24 -1 25 -2 24 -2 24 -3 24 -2 24 -2 
24 -2 25 -2 24 -2 24 -2 24 -2 24 -2 24 -2 24 -1 
25 -1 24 -1 24 -1 24 -1 24 0 24 0 25 0 24 0 
24 1 24 1 24 1 24 1 25 1 24 2 24 1 24 2 
24 2 24 2 24 1 25 2 24 2 24 2 24 1 24 2 
24 1 25 1 24 1 24 1 24 1 24 1 24 0 25 0 
24 0 24 0 24 0 24 -1 24 0 24 -1 25 -1 24 -1 
24 -1 24 -1 24 -1 24 -1 25 -1 24 -1 24 0 24 -1 
24 -1 24 0 25 0 24 -1 24 0 24 1 24 0 24 0 
24 1 25 1 24 1 24 1 24 1 24 1 24 2 25 1 
24 2 24 1 24 1 24 2 24 1 25 1 24 1 24 1 
24 1 24 1 24 0 923 2644 100 MP stroke
24 1 899 2643 2 MP stroke
24 0 24 0 24 -1 25 -1 24 -1 24 -1 24 -2 24 -1 
24 -2 25 -2 24 -2 24 -2 24 -3 24 -2 24 -2 25 -3 
24 -2 24 -2 24 -2 24 -2 24 -1 24 -2 25 -1 24 -1 
24 -1 24 0 24 -1 24 0 25 1 24 0 24 1 24 1 
24 1 24 2 25 1 24 2 24 2 24 2 24 2 24 2 
24 2 25 2 24 2 24 2 24 2 24 2 24 1 25 2 
24 1 24 1 24 0 24 1 24 0 25 0 24 0 24 -1 
24 0 24 -1 24 -1 24 -1 25 -2 24 -1 24 -2 24 -1 
24 -2 24 -1 25 -2 24 -1 24 -1 24 -2 24 -1 24 0 
25 -1 24 -1 24 0 24 0 24 0 24 1 24 0 25 1 
24 1 24 1 24 1 24 2 24 1 25 2 24 2 24 1 
24 2 24 2 24 2 25 1 24 2 24 1 24 1 24 1 
24 1 24 0 25 1 3314 2645 100 MP stroke
24 0 24 0 24 -1 24 0 24 -1 25 -1 24 -2 24 -1 
24 -2 24 -2 24 -2 25 -2 24 -2 24 -3 24 -2 24 -2 
24 -3 25 -2 24 -2 24 -2 24 -2 24 -1 24 -1 24 -2 
25 0 24 -1 24 0 24 -1 24 1 24 0 25 1 24 1 
24 1 24 1 24 2 24 1 25 2 24 2 24 2 24 2 
24 2 24 2 24 2 25 2 24 2 24 2 24 2 24 1 
24 1 25 1 24 1 24 1 24 0 24 0 24 0 25 -1 
24 0 24 -1 24 -1 24 -1 24 -1 24 -1 25 -2 24 -1 
24 -2 24 -1 24 -2 24 -1 25 -2 24 -1 24 -1 24 -1 
24 -1 24 0 25 -1 24 0 24 0 24 0 24 1 24 0 
24 1 25 1 24 2 24 1 24 2 24 1 24 2 25 2 
24 1 24 2 24 2 24 1 24 2 25 1 24 2 24 1 
24 1 24 0 24 1 923 2645 100 MP stroke
24 0 899 2645 2 MP stroke
24 0 24 0 24 -1 25 0 24 -1 24 -1 24 -1 24 -2 
24 -1 25 -2 24 -2 24 -2 24 -2 24 -2 24 -2 25 -2 
24 -3 24 -2 24 -2 24 -1 24 -2 24 -2 25 -1 24 -1 
24 -1 24 -1 24 0 24 0 25 0 24 0 24 1 24 0 
24 1 24 1 25 2 24 1 24 2 24 1 24 2 24 2 
24 2 25 1 24 2 24 2 24 1 24 2 24 1 25 1 
24 1 24 1 24 1 24 0 24 0 25 0 24 0 24 -1 
24 0 24 -1 24 -1 24 -1 25 -1 24 -2 24 -1 24 -1 
24 -2 24 -1 25 -1 24 -2 24 -1 24 -1 24 -1 24 -1 
25 0 24 -1 24 0 24 0 24 0 24 1 24 0 25 1 
24 1 24 1 24 2 24 1 24 2 25 1 24 2 24 2 
24 2 24 1 24 2 25 2 24 1 24 2 24 1 24 1 
24 1 24 1 25 0 3314 2625 100 MP stroke
24 1 24 0 24 0 24 -1 24 -1 25 0 24 -2 24 -1 
24 -1 24 -2 24 -2 25 -2 24 -2 24 -2 24 -2 24 -2 
24 -2 25 -3 24 -2 24 -1 24 -2 24 -2 24 -1 24 -1 
25 -1 24 -1 24 -1 24 0 24 0 24 0 25 0 24 1 
24 1 24 1 24 1 24 1 25 2 24 2 24 1 24 2 
24 2 24 2 24 1 25 2 24 2 24 1 24 1 24 2 
24 1 25 1 24 0 24 1 24 0 24 0 24 0 25 0 
24 -1 24 -1 24 0 24 -1 24 -2 24 -1 25 -1 24 -2 
24 -1 24 -1 24 -2 24 -1 25 -1 24 -1 24 -1 24 -1 
24 -1 24 0 25 -1 24 0 24 0 24 0 24 1 24 1 
24 1 25 1 24 1 24 1 24 2 24 1 24 2 25 2 
24 2 24 1 24 2 24 2 24 2 25 1 24 1 24 2 
24 1 24 1 24 0 923 2625 100 MP stroke
24 1 899 2624 2 MP stroke
24 0 24 -1 24 0 25 -1 24 0 24 -1 24 -1 24 -1 
24 -1 25 -2 24 -1 24 -1 24 -2 24 -1 24 -1 25 -2 
24 -1 24 -1 24 -2 24 -1 24 -1 24 -1 25 0 24 -1 
24 0 24 -1 24 0 24 0 25 0 24 0 24 1 24 0 
24 1 24 0 25 1 24 1 24 1 24 1 24 1 24 1 
24 1 25 1 24 1 24 1 24 1 24 1 24 1 25 0 
24 1 24 0 24 1 24 0 24 0 25 0 24 0 24 0 
24 0 24 0 24 -1 24 0 25 -1 24 0 24 -1 24 -1 
24 0 24 -1 25 0 24 -1 24 0 24 -1 24 0 24 0 
25 0 24 0 24 0 24 0 24 0 24 1 24 0 25 1 
24 0 24 1 24 1 24 1 24 1 25 1 24 1 24 1 
24 1 24 1 24 0 25 1 24 1 24 1 24 0 24 1 
24 0 24 0 25 0 3314 2620 100 MP stroke
24 0 24 0 24 -1 24 0 24 -1 25 -1 24 -1 24 -1 
24 -1 24 -1 24 -1 25 -2 24 -1 24 -1 24 -2 24 -1 
24 -1 25 -2 24 -1 24 -1 24 -1 24 -1 24 -1 24 -1 
25 0 24 -1 24 0 24 0 24 0 24 0 25 0 24 1 
24 0 24 1 24 1 24 1 25 1 24 1 24 1 24 1 
24 1 24 1 24 1 25 1 24 1 24 1 24 0 24 1 
24 1 25 0 24 1 24 0 24 0 24 0 24 0 25 0 
24 0 24 0 24 -1 24 0 24 -1 24 0 25 -1 24 0 
24 -1 24 -1 24 0 24 -1 25 0 24 -1 24 0 24 0 
24 0 24 0 25 0 24 0 24 0 24 0 24 1 24 0 
24 1 25 1 24 1 24 0 24 1 24 1 24 1 25 1 
24 1 24 1 24 1 24 1 24 1 25 0 24 1 24 0 
24 1 24 0 24 0 923 2620 100 MP stroke
24 0 899 2620 2 MP stroke
24 0 24 0 24 0 25 -1 24 -1 24 0 24 -1 24 -1 
24 -1 25 -1 24 -1 24 -1 24 -1 24 -1 24 -2 25 -1 
24 -1 24 -1 24 -1 24 -1 24 -1 24 0 25 -1 24 0 
24 -1 24 0 24 0 24 -1 25 1 24 0 24 0 24 0 
24 1 24 0 25 1 24 1 24 0 24 1 24 1 24 1 
24 1 25 1 24 0 24 1 24 1 24 1 24 0 25 1 
24 0 24 1 24 0 24 0 24 0 25 1 24 0 24 -1 
24 0 24 0 24 0 24 -1 25 0 24 -1 24 0 24 0 
24 -1 24 0 25 -1 24 0 24 -1 24 0 24 0 24 0 
25 0 24 0 24 0 24 0 24 0 24 1 24 0 25 0 
24 1 24 1 24 0 24 1 24 1 25 1 24 0 24 1 
24 1 24 1 24 0 25 1 24 1 24 0 24 1 24 0 
24 0 24 0 25 0 3314 2605 100 MP stroke
24 0 24 0 24 0 24 -1 24 0 25 -1 24 -1 24 -1 
24 0 24 -1 24 -1 25 -2 24 -1 24 -1 24 -1 24 -1 
24 -1 25 -1 24 -1 24 -1 24 -1 24 -1 24 -1 24 0 
25 -1 24 0 24 0 24 0 24 -1 24 1 25 0 24 0 
24 1 24 0 24 1 24 0 25 1 24 1 24 1 24 1 
24 0 24 1 24 1 25 1 24 1 24 0 24 1 24 1 
24 0 25 1 24 0 24 0 24 0 24 1 24 0 25 -1 
24 0 24 0 24 0 24 -1 24 0 24 0 25 -1 24 0 
24 -1 24 0 24 -1 24 0 25 0 24 -1 24 0 24 0 
24 0 24 0 25 0 24 0 24 0 24 0 24 1 24 0 
24 1 25 0 24 1 24 1 24 0 24 1 24 1 25 1 
24 1 24 0 24 1 24 1 24 0 25 1 24 0 24 1 
24 0 24 0 24 0 923 2605 100 MP stroke
24 0 899 2605 2 MP stroke
24 -1 24 0 24 0 25 -1 24 0 24 -1 24 -1 24 -1 
24 0 25 -1 24 -1 24 -1 24 -1 24 -1 24 -1 25 -1 
24 -1 24 -1 24 -1 24 -1 24 -1 24 0 25 -1 24 0 
24 0 24 -1 24 0 24 0 25 0 24 1 24 0 24 0 
24 1 24 0 25 1 24 1 24 0 24 1 24 1 24 1 
24 0 25 1 24 1 24 0 24 1 24 1 24 0 25 0 
24 1 24 0 24 0 24 0 24 0 25 0 24 0 24 0 
24 0 24 -1 24 0 24 -1 25 0 24 -1 24 0 24 -1 
24 0 24 0 25 -1 24 0 24 -1 24 0 24 0 24 0 
25 0 24 0 24 0 24 0 24 1 24 0 24 0 25 1 
24 1 24 0 24 1 24 1 24 0 25 1 24 1 24 1 
24 1 24 0 24 1 25 1 24 0 24 1 24 0 24 0 
24 0 24 1 25 0 3314 2590 100 MP stroke
24 -1 24 0 24 0 24 -1 24 0 25 -1 24 0 24 -1 
24 -1 24 -1 24 -1 25 -1 24 -1 24 -1 24 -1 24 -1 
24 -1 25 -1 24 -1 24 -1 24 0 24 -1 24 -1 24 0 
25 0 24 -1 24 0 24 0 24 0 24 0 25 1 24 0 
24 1 24 0 24 1 24 0 25 1 24 1 24 0 24 1 
24 1 24 1 24 0 25 1 24 1 24 0 24 1 24 0 
24 1 25 0 24 0 24 0 24 0 24 0 24 0 25 0 
24 0 24 -1 24 0 24 0 24 -1 24 0 25 -1 24 0 
24 -1 24 0 24 -1 24 0 25 0 24 -1 24 0 24 0 
24 0 24 0 25 0 24 0 24 0 24 1 24 0 24 1 
24 0 25 1 24 1 24 0 24 1 24 1 24 1 25 0 
24 1 24 1 24 1 24 0 24 1 25 0 24 1 24 0 
24 0 24 1 24 0 923 2590 100 MP stroke
24 0 899 2590 2 MP stroke
24 -1 24 0 24 -1 25 -1 24 -1 24 -1 24 -1 24 -1 
24 -1 25 -1 24 0 24 -1 24 -1 24 -1 24 0 25 -1 
24 0 24 -1 24 0 24 0 24 0 24 0 25 0 24 0 
24 1 24 0 24 0 24 1 25 0 24 1 24 1 24 0 
24 1 24 0 25 1 24 1 24 0 24 1 24 0 24 1 
24 0 25 0 24 1 24 0 24 0 24 0 24 0 25 0 
24 -1 24 0 24 0 24 -1 24 0 25 0 24 -1 24 0 
24 -1 24 0 24 -1 24 0 25 0 24 -1 24 0 24 0 
24 0 24 0 25 0 24 0 24 0 24 0 24 0 24 1 
25 0 24 1 24 1 24 0 24 1 24 1 24 0 25 1 
24 1 24 1 24 0 24 1 24 1 25 0 24 1 24 0 
24 1 24 0 24 0 25 0 24 0 24 0 24 0 24 0 
24 -1 24 0 25 -1 3314 2580 100 MP stroke
24 0 24 -1 24 -1 24 -1 24 -1 25 0 24 -1 24 -1 
24 -1 24 -1 24 -1 25 -1 24 -1 24 0 24 -1 24 0 
24 -1 25 0 24 -1 24 0 24 0 24 0 24 0 24 0 
25 0 24 1 24 0 24 1 24 0 24 1 25 0 24 1 
24 0 24 1 24 1 24 0 25 1 24 0 24 1 24 0 
24 1 24 0 24 0 25 1 24 0 24 0 24 0 24 0 
24 -1 25 0 24 0 24 0 24 -1 24 0 24 -1 25 0 
24 -1 24 0 24 0 24 -1 24 0 24 -1 25 0 24 0 
24 0 24 0 24 0 24 0 25 0 24 0 24 0 24 1 
24 0 24 1 25 0 24 1 24 0 24 1 24 1 24 1 
24 0 25 1 24 1 24 1 24 0 24 1 24 1 25 0 
24 0 24 1 24 0 24 0 24 0 25 0 24 0 24 0 
24 -1 24 0 24 0 923 2579 100 MP stroke
24 -1 899 2580 2 MP stroke
24 -1 24 -1 24 -1 25 0 24 -1 24 -1 24 -1 24 -1 
24 0 25 -1 24 0 24 -1 24 0 24 -1 24 0 25 0 
24 0 24 0 24 0 24 0 24 0 24 0 25 0 24 1 
24 0 24 1 24 0 24 1 25 0 24 1 24 0 24 1 
24 0 24 0 25 1 24 0 24 0 24 0 24 1 24 0 
24 0 25 -1 24 0 24 0 24 0 24 -1 24 0 25 -1 
24 0 24 -1 24 0 24 -1 24 0 25 -1 24 0 24 -1 
24 0 24 0 24 -1 24 0 25 0 24 0 24 0 24 0 
24 0 24 1 25 0 24 0 24 1 24 0 24 1 24 1 
25 1 24 0 24 1 24 1 24 1 24 1 24 1 25 0 
24 1 24 1 24 1 24 0 24 1 25 0 24 0 24 1 
24 0 24 0 24 0 25 0 24 -1 24 0 24 0 24 -1 
24 0 24 -1 25 -1 3314 2566 100 MP stroke
24 -1 24 0 24 -1 24 -1 24 -1 25 -1 24 0 24 -1 
24 -1 24 -1 24 0 25 -1 24 0 24 -1 24 0 24 0 
24 0 25 0 24 0 24 0 24 0 24 0 24 0 24 1 
25 0 24 1 24 0 24 0 24 1 24 0 25 1 24 0 
24 1 24 0 24 1 24 0 25 0 24 0 24 1 24 0 
24 0 24 -1 24 0 25 0 24 0 24 -1 24 0 24 0 
24 -1 25 0 24 -1 24 0 24 -1 24 0 24 -1 25 0 
24 -1 24 0 24 0 24 -1 24 0 24 0 25 0 24 0 
24 0 24 0 24 1 24 0 25 1 24 0 24 1 24 0 
24 1 24 1 25 1 24 1 24 1 24 0 24 1 24 1 
24 1 25 1 24 0 24 1 24 0 24 1 24 0 25 1 
24 0 24 0 24 0 24 0 24 0 25 -1 24 0 24 -1 
24 0 24 -1 24 0 923 2565 100 MP stroke
24 -1 899 2566 2 MP stroke
24 -1 24 -1 24 0 25 -1 24 -1 24 0 24 -1 24 -1 
24 -1 25 0 24 -1 24 -1 24 0 24 -1 24 0 25 0 
24 -1 24 0 24 0 24 0 24 0 24 0 25 0 24 1 
24 0 24 0 24 1 24 0 25 0 24 1 24 0 24 1 
24 0 24 1 25 0 24 0 24 1 24 0 24 0 24 0 
24 0 25 0 24 0 24 0 24 0 24 0 24 -1 25 0 
24 0 24 -1 24 0 24 -1 24 0 25 -1 24 0 24 0 
24 -1 24 0 24 0 24 -1 25 0 24 0 24 0 24 0 
24 0 24 0 25 0 24 1 24 0 24 0 24 1 24 0 
25 1 24 1 24 0 24 1 24 1 24 1 24 0 25 1 
24 1 24 1 24 0 24 1 24 1 25 0 24 0 24 1 
24 0 24 0 24 0 25 0 24 0 24 0 24 0 24 0 
24 -1 24 0 25 -1 3314 2555 100 MP stroke
24 -1 24 0 24 -1 24 -1 24 0 25 -1 24 -1 24 -1 
24 0 24 -1 24 -1 25 0 24 -1 24 0 24 -1 24 0 
24 0 25 -1 24 0 24 0 24 0 24 0 24 0 24 1 
25 0 24 0 24 0 24 1 24 0 24 1 25 0 24 1 
24 0 24 0 24 1 24 0 25 0 24 1 24 0 24 0 
24 0 24 0 24 0 25 0 24 0 24 0 24 -1 24 0 
24 0 25 -1 24 0 24 0 24 -1 24 0 24 -1 25 0 
24 -1 24 0 24 0 24 -1 24 0 24 0 25 0 24 0 
24 0 24 0 24 0 24 0 25 1 24 0 24 1 24 0 
24 1 24 0 25 1 24 1 24 1 24 0 24 1 24 1 
24 1 25 0 24 1 24 1 24 0 24 1 24 0 25 1 
24 0 24 0 24 0 24 0 24 0 25 0 24 0 24 0 
24 -1 24 0 24 -1 923 2555 100 MP stroke
24 0 899 2555 2 MP stroke
24 0 24 -1 24 -1 25 0 24 -1 24 -1 24 -1 24 0 
24 -1 25 -1 24 0 24 -1 24 0 24 0 24 -1 25 0 
24 0 24 0 24 0 24 0 24 0 24 0 25 0 24 1 
24 0 24 0 24 1 24 0 25 0 24 1 24 0 24 1 
24 0 24 0 25 1 24 0 24 0 24 0 24 0 24 0 
24 0 25 0 24 0 24 0 24 -1 24 0 24 0 25 -1 
24 0 24 0 24 -1 24 0 24 -1 25 0 24 -1 24 0 
24 0 24 -1 24 0 24 0 25 0 24 0 24 0 24 0 
24 0 24 0 25 0 24 1 24 0 24 1 24 0 24 1 
25 1 24 0 24 1 24 1 24 1 24 0 24 1 25 1 
24 1 24 0 24 1 24 1 24 0 25 1 24 0 24 0 
24 0 24 0 24 0 25 0 24 0 24 0 24 0 24 -1 
24 0 24 -1 25 0 3314 2547 100 MP stroke
24 -1 24 -1 24 0 24 -1 24 -1 25 -1 24 0 24 -1 
24 -1 24 0 24 -1 25 0 24 -1 24 0 24 -1 24 0 
24 0 25 0 24 0 24 0 24 0 24 0 24 0 24 0 
25 1 24 0 24 0 24 1 24 0 24 1 25 0 24 0 
24 1 24 0 24 0 24 1 25 0 24 0 24 0 24 0 
24 0 24 0 24 0 25 0 24 0 24 -1 24 0 24 0 
24 -1 25 0 24 -1 24 0 24 -1 24 0 24 0 25 -1 
24 0 24 -1 24 0 24 0 24 0 24 0 25 0 24 0 
24 0 24 0 24 0 24 1 25 0 24 0 24 1 24 1 
24 0 24 1 25 1 24 1 24 0 24 1 24 1 24 1 
24 0 25 1 24 1 24 0 24 1 24 0 24 1 25 0 
24 0 24 0 24 0 24 0 24 0 25 0 24 0 24 -1 
24 0 24 0 24 -1 923 2547 100 MP stroke
24 -1 899 2548 2 MP stroke
24 0 24 -1 24 -1 25 -1 24 -1 24 0 24 -1 24 0 
24 -1 25 0 24 -1 24 0 24 0 24 0 24 0 25 0 
24 0 24 0 24 0 24 0 24 1 24 0 25 1 24 0 
24 1 24 0 24 1 24 0 25 1 24 0 24 1 24 0 
24 0 24 1 25 0 24 0 24 0 24 0 24 0 24 0 
24 -1 25 0 24 0 24 -1 24 0 24 -1 24 -1 25 0 
24 -1 24 0 24 -1 24 0 24 -1 25 0 24 -1 24 0 
24 -1 24 0 24 0 24 0 25 0 24 0 24 0 24 0 
24 1 24 0 25 1 24 0 24 1 24 1 24 1 24 0 
25 1 24 1 24 1 24 1 24 1 24 1 24 0 25 1 
24 1 24 0 24 1 24 0 24 1 25 0 24 0 24 0 
24 0 24 0 24 -1 25 0 24 0 24 -1 24 0 24 -1 
24 -1 24 0 25 -1 3314 2542 100 MP stroke
24 -1 24 -1 24 -1 24 0 24 -1 25 -1 24 -1 24 0 
24 -1 24 0 24 -1 25 0 24 0 24 0 24 0 24 0 
24 0 25 0 24 0 24 0 24 1 24 0 24 1 24 0 
25 1 24 0 24 1 24 0 24 1 24 0 25 0 24 1 
24 0 24 0 24 1 24 0 25 0 24 0 24 0 24 0 
24 -1 24 0 24 0 25 -1 24 0 24 -1 24 0 24 -1 
24 0 25 -1 24 -1 24 0 24 -1 24 0 24 -1 25 0 
24 0 24 -1 24 0 24 0 24 0 24 0 25 0 24 0 
24 1 24 0 24 1 24 0 25 1 24 0 24 1 24 1 
24 1 24 1 25 1 24 0 24 1 24 1 24 1 24 1 
24 0 25 1 24 1 24 0 24 0 24 1 24 0 25 0 
24 0 24 0 24 0 24 -1 24 0 25 -1 24 0 24 -1 
24 0 24 -1 24 -1 923 2542 100 MP stroke
24 -1 899 2543 2 MP stroke
24 0 24 -1 24 -1 25 0 24 -1 24 0 24 -1 24 -1 
24 0 25 -1 24 0 24 0 24 -1 24 0 24 0 25 0 
24 0 24 0 24 0 24 0 24 1 24 0 25 0 24 1 
24 0 24 0 24 1 24 0 25 1 24 0 24 0 24 1 
24 0 24 0 25 0 24 0 24 0 24 0 24 0 24 0 
24 0 25 0 24 0 24 -1 24 0 24 0 24 -1 25 0 
24 -1 24 0 24 -1 24 0 24 -1 25 0 24 0 24 -1 
24 0 24 0 24 0 24 0 25 0 24 0 24 0 24 0 
24 0 24 1 25 0 24 0 24 1 24 1 24 0 24 1 
25 1 24 0 24 1 24 1 24 0 24 1 24 1 25 0 
24 1 24 1 24 0 24 0 24 1 25 0 24 0 24 0 
24 0 24 0 24 0 25 0 24 0 24 -1 24 0 24 -1 
24 0 24 -1 25 0 3314 2537 100 MP stroke
24 -1 24 -1 24 0 24 -1 24 -1 25 0 24 -1 24 0 
24 -1 24 0 24 -1 25 0 24 0 24 -1 24 0 24 0 
24 0 25 0 24 0 24 0 24 1 24 0 24 0 24 0 
25 1 24 0 24 1 24 0 24 0 24 1 25 0 24 0 
24 1 24 0 24 0 24 0 25 0 24 0 24 0 24 0 
24 0 24 0 24 0 25 -1 24 0 24 0 24 -1 24 0 
24 -1 25 0 24 -1 24 0 24 0 24 -1 24 0 25 -1 
24 0 24 0 24 0 24 0 24 0 24 0 25 0 24 0 
24 0 24 0 24 1 24 0 25 1 24 0 24 1 24 0 
24 1 24 1 25 1 24 0 24 1 24 1 24 0 24 1 
24 1 25 0 24 1 24 0 24 1 24 0 24 0 25 0 
24 0 24 0 24 0 24 0 24 0 25 0 24 -1 24 0 
24 -1 24 0 24 -1 923 2537 100 MP stroke
24 -1 899 2538 2 MP stroke
24 -1 24 -1 24 0 25 -1 24 -1 24 0 24 -1 24 0 
24 -1 25 0 24 -1 24 0 24 0 24 -1 24 0 25 0 
24 0 24 0 24 0 24 0 24 0 24 1 25 0 24 0 
24 1 24 0 24 0 24 1 25 0 24 0 24 1 24 0 
24 0 24 1 25 0 24 0 24 0 24 0 24 0 24 0 
24 0 25 0 24 0 24 -1 24 0 24 0 24 -1 25 0 
24 -1 24 0 24 0 24 -1 24 0 25 -1 24 0 24 0 
24 -1 24 0 24 0 24 0 25 0 24 0 24 0 24 0 
24 0 24 1 25 0 24 0 24 1 24 0 24 1 24 1 
25 0 24 1 24 1 24 0 24 1 24 1 24 0 25 1 
24 1 24 0 24 1 24 0 24 0 25 1 24 0 24 0 
24 0 24 0 24 0 25 0 24 0 24 -1 24 0 24 -1 
24 0 24 -1 25 0 3314 2532 100 MP stroke
24 -1 24 0 24 -1 24 -1 24 0 25 -1 24 -1 24 0 
24 -1 24 0 24 -1 25 0 24 0 24 -1 24 0 24 0 
24 0 25 0 24 0 24 0 24 0 24 0 24 1 24 0 
25 0 24 1 24 0 24 0 24 1 24 0 25 1 24 0 
24 0 24 0 24 1 24 0 25 0 24 0 24 0 24 0 
24 0 24 0 24 0 25 -1 24 0 24 0 24 -1 24 0 
24 0 25 -1 24 0 24 -1 24 0 24 0 24 -1 25 0 
24 0 24 -1 24 0 24 0 24 0 24 0 25 0 24 0 
24 0 24 0 24 1 24 0 25 1 24 0 24 1 24 0 
24 1 24 1 25 0 24 1 24 1 24 0 24 1 24 1 
24 0 25 1 24 0 24 1 24 0 24 0 24 1 25 0 
24 0 24 0 24 0 24 0 24 0 25 -1 24 0 24 0 
24 -1 24 0 24 -1 923 2532 100 MP stroke
24 0 899 2532 2 MP stroke
24 -1 24 -1 24 0 25 -1 24 -1 24 -1 24 0 24 -1 
24 -1 25 0 24 -1 24 -1 24 0 24 -1 24 0 25 -1 
24 0 24 0 24 0 24 0 24 0 24 0 25 0 24 0 
24 0 24 0 24 1 24 0 25 0 24 1 24 0 24 1 
24 0 24 1 25 0 24 1 24 0 24 0 24 1 24 0 
24 0 25 1 24 0 24 0 24 0 24 1 24 0 25 0 
24 0 24 0 24 0 24 0 24 0 25 0 24 -1 24 0 
24 0 24 0 24 0 24 0 25 0 24 0 24 0 24 0 
24 0 24 0 25 0 24 1 24 0 24 0 24 0 24 1 
25 0 24 1 24 0 24 0 24 1 24 0 24 1 25 0 
24 0 24 1 24 0 24 1 24 0 25 0 24 0 24 0 
24 0 24 0 24 0 25 0 24 0 24 -1 24 0 24 0 
24 -1 24 0 25 -1 3314 2529 100 MP stroke
24 -1 24 0 24 -1 24 -1 24 0 25 -1 24 -1 24 -1 
24 0 24 -1 24 -1 25 0 24 -1 24 0 24 -1 24 0 
24 -1 25 0 24 0 24 0 24 0 24 0 24 0 24 0 
25 0 24 0 24 0 24 1 24 0 24 0 25 1 24 0 
24 1 24 0 24 1 24 0 25 1 24 0 24 1 24 0 
24 0 24 1 24 0 25 0 24 0 24 1 24 0 24 0 
24 0 25 0 24 0 24 0 24 0 24 0 24 -1 25 0 
24 0 24 0 24 0 24 0 24 0 24 0 25 0 24 0 
24 0 24 0 24 0 24 0 25 1 24 0 24 0 24 1 
24 0 24 0 25 1 24 0 24 1 24 0 24 0 24 1 
24 0 25 1 24 0 24 0 24 1 24 0 24 0 25 0 
24 0 24 0 24 0 24 0 24 0 25 0 24 -1 24 0 
24 -1 24 0 24 -1 923 2529 100 MP stroke
24 0 899 2529 2 MP stroke
24 -1 24 0 24 -1 25 -1 24 0 24 -1 24 0 24 -1 
24 -1 25 0 24 -1 24 0 24 -1 24 0 24 -1 25 0 
24 0 24 0 24 -1 24 0 24 0 24 0 25 0 24 1 
24 0 24 0 24 0 24 1 25 0 24 0 24 1 24 0 
24 0 24 1 25 0 24 0 24 1 24 0 24 0 24 1 
24 0 25 0 24 0 24 0 24 0 24 1 24 0 25 0 
24 0 24 0 24 -1 24 0 24 0 25 0 24 0 24 0 
24 0 24 0 24 0 24 0 25 0 24 0 24 0 24 0 
24 0 24 0 25 0 24 1 24 0 24 0 24 0 24 1 
25 0 24 1 24 0 24 0 24 1 24 0 24 1 25 0 
24 0 24 1 24 0 24 0 24 1 25 0 24 0 24 0 
24 0 24 0 24 0 25 0 24 0 24 -1 24 0 24 0 
24 -1 24 0 25 -1 3314 2526 100 MP stroke
24 0 24 -1 24 -1 24 0 24 -1 25 0 24 -1 24 -1 
24 0 24 -1 24 -1 25 0 24 -1 24 0 24 0 24 -1 
24 0 25 0 24 0 24 -1 24 0 24 0 24 0 24 1 
25 0 24 0 24 0 24 0 24 1 24 0 25 0 24 1 
24 0 24 1 24 0 24 0 25 1 24 0 24 0 24 1 
24 0 24 0 24 0 25 0 24 0 24 1 24 0 24 0 
24 0 25 0 24 -1 24 0 24 0 24 0 24 0 25 0 
24 0 24 0 24 0 24 0 24 0 24 0 25 0 24 0 
24 0 24 0 24 0 24 0 25 1 24 0 24 0 24 1 
24 0 24 0 25 1 24 0 24 1 24 0 24 1 24 0 
24 0 25 1 24 0 24 0 24 1 24 0 24 0 25 0 
24 0 24 0 24 0 24 0 24 0 25 0 24 -1 24 0 
24 -1 24 0 24 -1 923 2526 100 MP stroke
24 0 899 2526 2 MP stroke
24 -1 24 0 24 -1 25 0 24 -1 24 -1 24 0 24 -1 
24 0 25 -1 24 0 24 -1 24 0 24 -1 24 0 25 0 
24 0 24 -1 24 0 24 0 24 0 24 0 25 0 24 0 
24 0 24 1 24 0 24 0 25 0 24 1 24 0 24 0 
24 1 24 0 25 0 24 0 24 1 24 0 24 0 24 1 
24 0 25 0 24 0 24 0 24 0 24 0 24 0 25 0 
24 0 24 0 24 0 24 0 24 0 25 0 24 0 24 0 
24 0 24 0 24 0 24 0 25 0 24 0 24 0 24 0 
24 0 24 0 25 0 24 0 24 1 24 0 24 0 24 1 
25 0 24 0 24 1 24 0 24 1 24 0 24 0 25 1 
24 0 24 0 24 1 24 0 24 0 25 0 24 1 24 0 
24 0 24 0 24 0 25 -1 24 0 24 0 24 0 24 -1 
24 0 24 0 25 -1 3314 2523 100 MP stroke
24 0 24 -1 24 0 24 -1 24 -1 25 0 24 -1 24 0 
24 -1 24 -1 24 0 25 -1 24 0 24 0 24 -1 24 0 
24 0 25 -1 24 0 24 0 24 0 24 0 24 0 24 0 
25 0 24 1 24 0 24 0 24 0 24 0 25 1 24 0 
24 0 24 1 24 0 24 0 25 1 24 0 24 0 24 0 
24 1 24 0 24 0 25 0 24 0 24 0 24 0 24 0 
24 0 25 0 24 0 24 0 24 0 24 0 24 0 25 0 
24 0 24 0 24 0 24 0 24 0 24 0 25 0 24 0 
24 0 24 0 24 0 24 0 25 1 24 0 24 0 24 0 
24 1 24 0 25 1 24 0 24 0 24 1 24 0 24 1 
24 0 25 0 24 1 24 0 24 0 24 0 24 1 25 0 
24 0 24 0 24 0 24 0 24 -1 25 0 24 0 24 0 
24 -1 24 0 24 -1 923 2523 100 MP stroke
24 0 899 2523 2 MP stroke
24 0 24 -1 24 -1 25 0 24 -1 24 0 24 -1 24 0 
24 -1 25 0 24 -1 24 0 24 -1 24 0 24 -1 25 0 
24 0 24 0 24 0 24 -1 24 0 24 0 25 0 24 1 
24 0 24 0 24 0 24 0 25 1 24 0 24 0 24 1 
24 0 24 0 25 0 24 1 24 0 24 0 24 1 24 0 
24 0 25 0 24 0 24 0 24 0 24 0 24 0 25 0 
24 0 24 0 24 0 24 0 24 0 25 0 24 0 24 0 
24 0 24 -1 24 0 24 0 25 0 24 0 24 0 24 0 
24 1 24 0 25 0 24 0 24 0 24 1 24 0 24 0 
25 1 24 0 24 0 24 1 24 0 24 1 24 0 25 0 
24 1 24 0 24 0 24 1 24 0 25 0 24 0 24 1 
24 0 24 0 24 0 25 -1 24 0 24 0 24 0 24 -1 
24 0 24 0 25 -1 3314 2520 100 MP stroke
24 0 24 -1 24 0 24 -1 24 0 25 -1 24 -1 24 0 
24 -1 24 0 24 -1 25 0 24 -1 24 0 24 0 24 -1 
24 0 25 0 24 0 24 -1 24 0 24 0 24 0 24 1 
25 0 24 0 24 0 24 0 24 0 24 1 25 0 24 0 
24 1 24 0 24 0 24 1 25 0 24 0 24 0 24 1 
24 0 24 0 24 0 25 0 24 0 24 0 24 0 24 0 
24 0 25 0 24 0 24 0 24 0 24 0 24 0 25 0 
24 0 24 -1 24 0 24 0 24 0 24 0 25 0 24 0 
24 0 24 1 24 0 24 0 25 0 24 0 24 1 24 0 
24 0 24 1 25 0 24 1 24 0 24 0 24 1 24 0 
24 1 25 0 24 0 24 1 24 0 24 0 24 0 25 0 
24 1 24 0 24 0 24 0 24 -1 25 0 24 0 24 0 
24 -1 24 0 24 -1 923 2520 100 MP stroke
24 0 899 2520 2 MP stroke
24 0 24 -1 24 0 25 -1 24 0 24 -1 24 0 24 -1 
24 0 25 -1 24 0 24 -1 24 0 24 0 24 -1 25 0 
24 0 24 0 24 0 24 -1 24 0 24 0 25 1 24 0 
24 0 24 0 24 0 24 0 25 1 24 0 24 0 24 0 
24 1 24 0 25 0 24 1 24 0 24 0 24 0 24 0 
24 1 25 0 24 0 24 0 24 0 24 0 24 0 25 0 
24 0 24 0 24 0 24 0 24 -1 25 0 24 0 24 0 
24 0 24 0 24 0 24 0 25 0 24 0 24 0 24 0 
24 0 24 0 25 0 24 1 24 0 24 0 24 0 24 1 
25 0 24 0 24 1 24 0 24 1 24 0 24 0 25 1 
24 0 24 0 24 1 24 0 24 0 25 0 24 1 24 0 
24 0 24 0 24 0 25 0 24 0 24 -1 24 0 24 0 
24 -1 24 0 25 0 3314 2517 100 MP stroke
24 -1 24 0 24 -1 24 0 24 -1 25 0 24 -1 24 0 
24 -1 24 0 24 -1 25 0 24 -1 24 0 24 -1 24 0 
24 0 25 0 24 0 24 0 24 -1 24 0 24 0 24 1 
25 0 24 0 24 0 24 0 24 0 24 1 25 0 24 0 
24 1 24 0 24 0 24 0 25 1 24 0 24 0 24 0 
24 1 24 0 24 0 25 0 24 0 24 0 24 0 24 0 
24 0 25 0 24 0 24 0 24 0 24 -1 24 0 25 0 
24 0 24 0 24 0 24 0 24 0 24 0 25 0 24 0 
24 0 24 0 24 0 24 0 25 1 24 0 24 0 24 0 
24 1 24 0 25 1 24 0 24 0 24 1 24 0 24 1 
24 0 25 0 24 1 24 0 24 0 24 0 24 1 25 0 
24 0 24 0 24 0 24 0 24 0 25 -1 24 0 24 0 
24 0 24 -1 24 0 923 2517 100 MP stroke
24 -1 899 2518 2 MP stroke
24 -1 24 0 24 -1 25 0 24 -1 24 0 24 -1 24 0 
24 -1 25 0 24 -1 24 0 24 -1 24 0 24 -1 25 0 
24 0 24 0 24 -1 24 0 24 0 24 0 25 0 24 0 
24 0 24 0 24 0 24 0 25 0 24 1 24 0 24 0 
24 0 24 1 25 0 24 0 24 0 24 1 24 0 24 0 
24 0 25 1 24 0 24 0 24 0 24 0 24 0 25 0 
24 0 24 0 24 0 24 0 24 0 25 0 24 0 24 0 
24 0 24 0 24 -1 24 0 25 0 24 0 24 0 24 0 
24 0 24 0 25 0 24 0 24 1 24 0 24 0 24 0 
25 1 24 0 24 0 24 1 24 0 24 0 24 1 25 0 
24 0 24 1 24 0 24 1 24 0 25 0 24 0 24 1 
24 0 24 0 24 0 25 0 24 0 24 0 24 0 24 0 
24 -1 24 0 25 0 3314 2515 100 MP stroke
24 -1 24 0 24 0 24 -1 24 0 25 -1 24 0 24 -1 
24 0 24 -1 24 0 25 -1 24 0 24 -1 24 0 24 -1 
24 0 25 0 24 -1 24 0 24 0 24 0 24 0 24 0 
25 0 24 0 24 0 24 0 24 0 24 1 25 0 24 0 
24 0 24 1 24 0 24 0 25 0 24 1 24 0 24 0 
24 0 24 1 24 0 25 0 24 0 24 0 24 0 24 0 
24 0 25 0 24 0 24 0 24 0 24 0 24 0 25 0 
24 0 24 0 24 -1 24 0 24 0 24 0 25 0 24 0 
24 0 24 0 24 0 24 0 25 1 24 0 24 0 24 0 
24 0 24 1 25 0 24 0 24 1 24 0 24 1 24 0 
24 0 25 1 24 0 24 0 24 1 24 0 24 0 25 0 
24 1 24 0 24 0 24 0 24 0 25 0 24 0 24 0 
24 -1 24 0 24 0 923 2515 100 MP stroke
24 0 899 2515 2 MP stroke
gr

18 w
%%IncludeResource: font Symbol
/Symbol /ISOLatin1Encoding 192 FMSR

3526 5014 mt 
(q) s
%%IncludeResource: font Helvetica
/Helvetica /ISOLatin1Encoding 192 FMSR

 387 2775 mt  -90 rotate
(det\(Q\)) s
90 rotate
%%IncludeResource: font Helvetica
/Helvetica /ISOLatin1Encoding 120 FMSR

 882 4658 mt 
( ) s
6239  431 mt 
( ) s
6 w
%%IncludeResource: font Helvetica
/Helvetica /ISOLatin1Encoding 192 FMSR

3327  658 mt 
(Elastic) s
gs 2730 449 1696 501 MR c np
DA
18 w
459 0 2821 589 2 MP stroke
SO
gr

18 w
3327  877 mt 
(Elasto-plastic) s
gs 2730 449 1696 501 MR c np
459 0 2821 808 2 MP stroke
6 w
gr

6 w

end %%Color Dict

eplot
%%EndObject

epage
end

showpage

%%Trailer
%%EOF
