%!PS-Adobe-2.0 EPSF-1.2
%%Creator: MATLAB, The Mathworks, Inc. Version 7.6.0.324 (R2008a). Operating System: Linux 3.5.0-37-generic #58~precise1-Ubuntu SMP Wed Jul 10 17:48:11 UTC 2013 x86_64.
%%Title: ./firsttangent.eps
%%CreationDate: 08/01/2013  13:43:00
%%DocumentNeededFonts: Helvetica
%%DocumentProcessColors: Cyan Magenta Yellow Black
%%Pages: 1
%%BoundingBox:    20   187   563   592
%%EndComments

%%BeginProlog
% MathWorks dictionary
/MathWorks 160 dict begin
% definition operators
/bdef {bind def} bind def
/ldef {load def} bind def
/xdef {exch def} bdef
/xstore {exch store} bdef
% operator abbreviations
/c  /clip ldef
/cc /concat ldef
/cp /closepath ldef
/gr /grestore ldef
/gs /gsave ldef
/mt /moveto ldef
/np /newpath ldef
/cm /currentmatrix ldef
/sm /setmatrix ldef
/rm /rmoveto ldef
/rl /rlineto ldef
/s {show newpath} bdef
/sc {setcmykcolor} bdef
/sr /setrgbcolor ldef
/sg /setgray ldef
/w /setlinewidth ldef
/j /setlinejoin ldef
/cap /setlinecap ldef
/rc {rectclip} bdef
/rf {rectfill} bdef
% page state control
/pgsv () def
/bpage {/pgsv save def} bdef
/epage {pgsv restore} bdef
/bplot /gsave ldef
/eplot {stroke grestore} bdef
% orientation switch
/portraitMode 0 def /landscapeMode 1 def /rotateMode 2 def
% coordinate system mappings
/dpi2point 0 def
% font control
/FontSize 0 def
/FMS {/FontSize xstore findfont [FontSize 0 0 FontSize neg 0 0]
  makefont setfont} bdef
/reencode {exch dup where {pop load} {pop StandardEncoding} ifelse
  exch dup 3 1 roll findfont dup length dict begin
  { 1 index /FID ne {def}{pop pop} ifelse } forall
  /Encoding exch def currentdict end definefont pop} bdef
/isroman {findfont /CharStrings get /Agrave known} bdef
/FMSR {3 1 roll 1 index dup isroman {reencode} {pop pop} ifelse
  exch FMS} bdef
/csm {1 dpi2point div -1 dpi2point div scale neg translate
 dup landscapeMode eq {pop -90 rotate}
  {rotateMode eq {90 rotate} if} ifelse} bdef
% line types: solid, dotted, dashed, dotdash
/SO { [] 0 setdash } bdef
/DO { [.5 dpi2point mul 4 dpi2point mul] 0 setdash } bdef
/DA { [6 dpi2point mul] 0 setdash } bdef
/DD { [.5 dpi2point mul 4 dpi2point mul 6 dpi2point mul 4
  dpi2point mul] 0 setdash } bdef
% macros for lines and objects
/L {lineto stroke} bdef
/MP {3 1 roll moveto 1 sub {rlineto} repeat} bdef
/AP {{rlineto} repeat} bdef
/PDlw -1 def
/W {/PDlw currentlinewidth def setlinewidth} def
/PP {closepath eofill} bdef
/DP {closepath stroke} bdef
/MR {4 -2 roll moveto dup  0 exch rlineto exch 0 rlineto
  neg 0 exch rlineto closepath} bdef
/FR {MR stroke} bdef
/PR {MR fill} bdef
/L1i {{currentfile picstr readhexstring pop} image} bdef
/tMatrix matrix def
/MakeOval {newpath tMatrix currentmatrix pop translate scale
0 0 1 0 360 arc tMatrix setmatrix} bdef
/FO {MakeOval stroke} bdef
/PO {MakeOval fill} bdef
/PD {currentlinewidth 2 div 0 360 arc fill
   PDlw -1 eq not {PDlw w /PDlw -1 def} if} def
/FA {newpath tMatrix currentmatrix pop translate scale
  0 0 1 5 -2 roll arc tMatrix setmatrix stroke} bdef
/PA {newpath tMatrix currentmatrix pop	translate 0 0 moveto scale
  0 0 1 5 -2 roll arc closepath tMatrix setmatrix fill} bdef
/FAn {newpath tMatrix currentmatrix pop translate scale
  0 0 1 5 -2 roll arcn tMatrix setmatrix stroke} bdef
/PAn {newpath tMatrix currentmatrix pop translate 0 0 moveto scale
  0 0 1 5 -2 roll arcn closepath tMatrix setmatrix fill} bdef
/vradius 0 def /hradius 0 def /lry 0 def
/lrx 0 def /uly 0 def /ulx 0 def /rad 0 def
/MRR {/vradius xdef /hradius xdef /lry xdef /lrx xdef /uly xdef
  /ulx xdef newpath tMatrix currentmatrix pop ulx hradius add uly
  vradius add translate hradius vradius scale 0 0 1 180 270 arc 
  tMatrix setmatrix lrx hradius sub uly vradius add translate
  hradius vradius scale 0 0 1 270 360 arc tMatrix setmatrix
  lrx hradius sub lry vradius sub translate hradius vradius scale
  0 0 1 0 90 arc tMatrix setmatrix ulx hradius add lry vradius sub
  translate hradius vradius scale 0 0 1 90 180 arc tMatrix setmatrix
  closepath} bdef
/FRR {MRR stroke } bdef
/PRR {MRR fill } bdef
/MlrRR {/lry xdef /lrx xdef /uly xdef /ulx xdef /rad lry uly sub 2 div def
  newpath tMatrix currentmatrix pop ulx rad add uly rad add translate
  rad rad scale 0 0 1 90 270 arc tMatrix setmatrix lrx rad sub lry rad
  sub translate rad rad scale 0 0 1 270 90 arc tMatrix setmatrix
  closepath} bdef
/FlrRR {MlrRR stroke } bdef
/PlrRR {MlrRR fill } bdef
/MtbRR {/lry xdef /lrx xdef /uly xdef /ulx xdef /rad lrx ulx sub 2 div def
  newpath tMatrix currentmatrix pop ulx rad add uly rad add translate
  rad rad scale 0 0 1 180 360 arc tMatrix setmatrix lrx rad sub lry rad
  sub translate rad rad scale 0 0 1 0 180 arc tMatrix setmatrix
  closepath} bdef
/FtbRR {MtbRR stroke } bdef
/PtbRR {MtbRR fill } bdef
/stri 6 array def /dtri 6 array def
/smat 6 array def /dmat 6 array def
/tmat1 6 array def /tmat2 6 array def /dif 3 array def
/asub {/ind2 exch def /ind1 exch def dup dup
  ind1 get exch ind2 get sub exch } bdef
/tri_to_matrix {
  2 0 asub 3 1 asub 4 0 asub 5 1 asub
  dup 0 get exch 1 get 7 -1 roll astore } bdef
/compute_transform {
  dmat dtri tri_to_matrix tmat1 invertmatrix 
  smat stri tri_to_matrix tmat2 concatmatrix } bdef
/ds {stri astore pop} bdef
/dt {dtri astore pop} bdef
/db {2 copy /cols xdef /rows xdef mul dup string
  currentfile exch readhexstring pop
  /bmap xdef pop pop} bdef
/it {gs np dtri aload pop moveto lineto lineto cp c
  cols rows 8 compute_transform 
  {bmap} image gr}bdef
/il {newpath moveto lineto stroke}bdef
currentdict end def
%%EndProlog

%%BeginSetup
MathWorks begin

0 cap

end
%%EndSetup

%%Page: 1 1
%%BeginPageSetup
%%PageBoundingBox:    20   187   563   592
MathWorks begin
bpage
%%EndPageSetup

%%BeginObject: obj1
bplot

/dpi2point 12 def
portraitMode 0216 7344 csm

   24   234  6520  4857 MR c np
85 dict begin %Colortable dictionary
/c0 { 0.000000 0.000000 0.000000 sr} bdef
/c1 { 1.000000 1.000000 1.000000 sr} bdef
/c2 { 0.900000 0.000000 0.000000 sr} bdef
/c3 { 0.000000 0.820000 0.000000 sr} bdef
/c4 { 0.000000 0.000000 0.800000 sr} bdef
/c5 { 0.910000 0.820000 0.320000 sr} bdef
/c6 { 1.000000 0.260000 0.820000 sr} bdef
/c7 { 0.000000 0.820000 0.820000 sr} bdef
c0
1 j
1 sg
   0    0 6913 5186 PR
6 w
0 4226 5356 0 0 -4226 899 4615 4 MP
PP
-5356 0 0 4226 5356 0 0 -4226 899 4615 5 MP stroke
4 w
DO
SO
6 w
0 sg
 899 4615 mt 6255 4615 L
 899 4615 mt  899  389 L
 899 4615 mt  899 4561 L
%%IncludeResource: font Helvetica
/Helvetica /ISOLatin1Encoding 192 FMSR

 846 4827 mt 
(0) s
1970 4615 mt 1970 4561 L
1730 4827 mt 
(0.005) s
3041 4615 mt 3041 4561 L
2855 4827 mt 
(0.01) s
4112 4615 mt 4112 4561 L
3872 4827 mt 
(0.015) s
5183 4615 mt 5183 4561 L
4997 4827 mt 
(0.02) s
6255 4615 mt 6255 4561 L
6015 4827 mt 
(0.025) s
 899 4615 mt  952 4615 L
 325 4686 mt 
(-5000) s
 899 4086 mt  952 4086 L
 325 4157 mt 
(-4000) s
 899 3558 mt  952 3558 L
 325 3629 mt 
(-3000) s
 899 3030 mt  952 3030 L
 325 3101 mt 
(-2000) s
 899 2502 mt  952 2502 L
 325 2573 mt 
(-1000) s
 899 1973 mt  952 1973 L
 758 2044 mt 
(0) s
 899 1445 mt  952 1445 L
 437 1516 mt 
(1000) s
 899  917 mt  952  917 L
 437  988 mt 
(2000) s
 899  389 mt  952  389 L
 437  460 mt 
(3000) s
gs 899 389 5357 4227 MR c np
DA
18 w
34 0 38 0 38 0 38 0 37 0 37 0 37 0 37 0 
37 0 36 0 37 0 36 0 36 0 35 0 36 0 35 0 
35 0 35 0 35 1 34 0 35 0 34 0 34 0 33 0 
34 0 33 0 33 0 33 0 32 0 32 1 32 0 32 0 
32 0 31 0 32 0 30 0 31 0 31 1 30 0 30 0 
30 0 29 0 29 1 29 0 29 0 29 0 28 0 28 1 
28 0 27 0 27 1 27 0 27 0 27 0 26 1 26 0 
26 1 25 0 25 1 25 0 25 1 24 0 24 1 24 0 
24 1 23 1 23 0 23 1 23 1 22 1 22 1 22 1 
22 1 21 1 21 1 21 1 20 1 21 2 20 1 19 2 
20 2 19 1 19 2 19 2 18 3 19 2 18 3 18 2 
17 3 17 3 18 4 16 3 17 4 17 4 16 4 16 5 
16 5 15 6 16 5 2494 1872 100 MP stroke
15 7 15 6 15 7 14 8 15 8 14 9 14 10 14 10 
14 11 13 12 13 12 14 14 13 15 13 16 13 17 12 18 
13 19 12 21 13 23 12 24 13 26 12 28 12 29 13 31 
12 33 13 35 12 37 13 38 14 40 13 40 14 42 15 43 
15 42 15 43 17 41 18 40 19 39 21 36 23 34 24 31 
28 27 30 24 34 21 37 18 41 14 45 13 48 9 51 9 
53 6 56 6 56 4 58 4 59 4 59 3 60 3 60 3 
60 2 60 3 61 2 60 3 899 699 61 MP stroke
DO
34 0 38 0 38 0 38 0 37 0 37 0 37 0 37 0 
37 1 36 0 37 0 36 0 36 0 35 0 36 0 35 0 
35 0 35 0 35 0 34 0 35 0 34 0 34 0 33 0 
34 1 33 0 33 0 33 0 32 0 32 0 32 0 32 0 
32 0 31 0 32 1 30 0 31 0 31 0 30 0 30 0 
30 0 29 1 29 0 29 0 29 0 29 0 28 1 28 0 
28 0 27 0 27 0 27 1 27 0 27 0 26 1 26 0 
26 0 25 1 25 0 25 0 25 1 24 0 24 1 24 0 
24 1 23 0 23 1 23 1 23 0 22 1 22 1 22 1 
22 1 21 1 21 1 21 1 20 1 21 1 20 1 19 2 
20 1 19 2 19 2 19 1 18 2 19 3 18 2 18 2 
17 3 17 3 18 3 16 3 17 4 17 3 16 5 16 4 
16 5 15 5 16 5 2494 1846 100 MP stroke
15 6 15 7 15 7 14 7 15 8 14 9 14 9 14 11 
14 10 13 12 13 13 14 14 13 14 13 16 13 18 12 18 
13 20 12 21 13 23 12 25 13 26 12 28 12 30 13 32 
12 34 13 35 12 37 13 39 14 40 13 42 14 42 15 43 
15 43 15 42 17 42 18 40 19 38 21 36 23 33 24 30 
28 26 30 23 34 19 37 17 41 13 45 10 48 8 51 6 
53 5 56 4 56 3 58 2 59 1 59 2 60 1 60 1 
60 1 60 0 61 1 60 0 899 703 61 MP stroke
SO
11 0 39 -1 38 -1 38 -1 38 -2 38 0 38 -1 37 -1 
38 -1 37 -2 37 -1 36 -1 37 -1 36 -2 36 -1 35 -1 
36 -2 35 -1 36 -2 35 -1 34 -2 35 -1 35 -2 34 -2 
34 -1 34 -2 33 -2 33 -2 34 -2 33 -1 33 -3 33 -1 
33 -3 32 -2 32 -2 32 -3 32 -2 31 -3 32 -2 31 0 
31 -3 31 -3 30 -3 30 -4 30 -2 30 -1 30 -4 29 -3 
29 -4 29 -2 29 -4 29 -3 28 -5 28 -4 27 -5 28 -5 
27 -5 27 -6 26 -4 25 -6 26 -6 25 -6 25 -7 24 -1 
24 -4 24 -6 24 -4 23 -8 23 -1 23 -5 23 -9 22 -8 
22 -4 21 -7 21 -10 21 -7 21 -10 20 3 21 -8 20 -12 
20 -5 19 -6 19 -6 19 -13 19 -11 18 -2 18 -5 18 8 
18 1 18 13 18 -13 18 -12 17 -6 18 -13 19 22 19 -4 
17 -8 18 -7 18 -15 2438 2368 100 MP stroke
17 -7 17 -6 17 -19 16 3 16 -1 17 -7 16 -16 16 9 
16 -12 15 -8 16 -23 15 -14 15 -7 14 -27 14 -20 13 -34 
13 -27 13 -39 12 -47 11 -43 11 -44 10 -56 10 -47 9 -83 
9 -55 8 -54 8 -84 7 -98 7 -78 6 -75 6 23 6 -159 
5 -196 5 -217 4 -373 4 354 4 -19 4 -163 4 -145 3 279 
5 359 4 344 5 177 5 268 5 242 6 300 6 333 8 332 
11 223 13 235 16 90 18 111 22 93 29 62 33 29 37 18 
41 14 45 13 48 9 51 9 53 6 56 6 56 4 58 4 
59 4 59 3 60 3 60 3 60 2 60 3 61 2 60 3 
899 699 73 MP stroke
DD
11 -1 39 -1 38 -1 38 -1 38 -1 38 -1 38 -1 37 -2 
38 -1 37 -1 37 -1 36 -1 37 -1 36 -2 36 -1 35 -2 
36 -1 35 -1 36 -2 35 -1 34 -1 35 -2 35 -2 34 -2 
34 -1 34 0 33 -2 33 -3 34 -2 33 -2 33 -2 33 -3 
33 -2 32 -2 32 -2 32 -3 32 -2 31 -2 32 -3 31 -1 
31 -3 31 -2 30 -4 30 -2 30 0 30 -2 30 -3 29 -4 
29 -4 29 -3 29 -4 29 -2 28 -5 28 -5 27 -5 28 -4 
27 -6 27 -5 26 -6 25 -6 26 -5 25 -4 25 -4 24 1 
24 -4 24 -3 24 -3 23 -9 23 1 23 -4 23 -8 22 -8 
22 -3 21 -8 21 -10 21 -5 21 -10 20 7 21 -9 20 -11 
20 -7 19 -1 19 -4 19 -13 19 -14 18 -4 18 -9 18 9 
18 3 18 18 18 -13 18 -11 17 -9 18 -11 19 22 19 -3 
17 -4 18 -8 18 -13 2438 2318 100 MP stroke
17 -10 17 -6 17 -20 16 2 16 -3 17 -13 16 -18 16 5 
16 -12 15 -6 16 -20 15 -15 15 -9 14 -27 14 -16 13 -32 
13 -24 13 -39 12 -43 11 -40 11 -42 10 -56 10 -39 9 -82 
9 -41 8 -45 8 -75 7 -80 7 -68 6 -72 6 47 6 -135 
5 -166 5 -197 4 -349 4 386 4 19 4 -132 4 -140 3 301 
5 362 4 358 5 152 5 271 5 212 6 261 6 294 8 276 
11 189 13 189 16 72 18 82 22 69 29 42 33 23 37 17 
41 13 45 10 48 8 51 6 53 5 56 4 56 3 58 2 
59 1 59 2 60 1 60 1 60 1 60 0 61 1 60 0 
899 703 73 MP stroke
gr

18 w
DD
3078 5023 mt 
(Strain norm) s
 227 3128 mt  -90 rotate
(Tangent \(MPa\)) s
90 rotate
%%IncludeResource: font Helvetica
/Helvetica /ISOLatin1Encoding 120 FMSR

 882 4658 mt 
( ) s
6239  431 mt 
( ) s
SO
6 w
%%IncludeResource: font Helvetica
/Helvetica /ISOLatin1Encoding 192 FMSR

4589  612 mt 
(L) s
%%IncludeResource: font Helvetica
/Helvetica /ISOLatin1Encoding 144 FMSR

4695  708 mt 
(1111) s
%%IncludeResource: font Helvetica
/Helvetica /ISOLatin1Encoding 192 FMSR

5015  612 mt 
(, elastic) s
gs 3995 449 2201 1299 MR c np
DA
18 w
457 0 4086 631 2 MP stroke
SO
gr

18 w
4589  924 mt 
(L) s
%%IncludeResource: font Helvetica
/Helvetica /ISOLatin1Encoding 144 FMSR

4695 1020 mt 
(0000) s
%%IncludeResource: font Helvetica
/Helvetica /ISOLatin1Encoding 192 FMSR

5015  924 mt 
(, elastic) s
gs 3995 449 2201 1299 MR c np
DO
457 0 4086 942 2 MP stroke
SO
gr

4589 1235 mt 
(L) s
%%IncludeResource: font Helvetica
/Helvetica /ISOLatin1Encoding 144 FMSR

4695 1331 mt 
(1111) s
%%IncludeResource: font Helvetica
/Helvetica /ISOLatin1Encoding 192 FMSR

5015 1235 mt 
(, elasto-plastic) s
gs 3995 449 2201 1299 MR c np
457 0 4086 1253 2 MP stroke
gr

4589 1547 mt 
(L) s
%%IncludeResource: font Helvetica
/Helvetica /ISOLatin1Encoding 144 FMSR

4695 1643 mt 
(0000) s
%%IncludeResource: font Helvetica
/Helvetica /ISOLatin1Encoding 192 FMSR

5015 1547 mt 
(, elasto-plastic) s
gs 3995 449 2201 1299 MR c np
DD
457 0 4086 1564 2 MP stroke
SO
6 w
gr

6 w

end %%Color Dict

eplot
%%EndObject

epage
end

showpage

%%Trailer
%%EOF
