%!PS-Adobe-2.0 EPSF-1.2
%%Creator: MATLAB, The Mathworks, Inc. Version 7.6.0.324 (R2008a). Operating System: Linux 3.5.0-37-generic #58~precise1-Ubuntu SMP Wed Jul 10 17:48:11 UTC 2013 x86_64.
%%Title: ./mindetQ.eps
%%CreationDate: 08/01/2013  13:57:35
%%DocumentNeededFonts: Helvetica
%%DocumentProcessColors: Cyan Magenta Yellow Black
%%Pages: 1
%%BoundingBox:    33   186   547   607
%%EndComments

%%BeginProlog
% MathWorks dictionary
/MathWorks 160 dict begin
% definition operators
/bdef {bind def} bind def
/ldef {load def} bind def
/xdef {exch def} bdef
/xstore {exch store} bdef
% operator abbreviations
/c  /clip ldef
/cc /concat ldef
/cp /closepath ldef
/gr /grestore ldef
/gs /gsave ldef
/mt /moveto ldef
/np /newpath ldef
/cm /currentmatrix ldef
/sm /setmatrix ldef
/rm /rmoveto ldef
/rl /rlineto ldef
/s {show newpath} bdef
/sc {setcmykcolor} bdef
/sr /setrgbcolor ldef
/sg /setgray ldef
/w /setlinewidth ldef
/j /setlinejoin ldef
/cap /setlinecap ldef
/rc {rectclip} bdef
/rf {rectfill} bdef
% page state control
/pgsv () def
/bpage {/pgsv save def} bdef
/epage {pgsv restore} bdef
/bplot /gsave ldef
/eplot {stroke grestore} bdef
% orientation switch
/portraitMode 0 def /landscapeMode 1 def /rotateMode 2 def
% coordinate system mappings
/dpi2point 0 def
% font control
/FontSize 0 def
/FMS {/FontSize xstore findfont [FontSize 0 0 FontSize neg 0 0]
  makefont setfont} bdef
/reencode {exch dup where {pop load} {pop StandardEncoding} ifelse
  exch dup 3 1 roll findfont dup length dict begin
  { 1 index /FID ne {def}{pop pop} ifelse } forall
  /Encoding exch def currentdict end definefont pop} bdef
/isroman {findfont /CharStrings get /Agrave known} bdef
/FMSR {3 1 roll 1 index dup isroman {reencode} {pop pop} ifelse
  exch FMS} bdef
/csm {1 dpi2point div -1 dpi2point div scale neg translate
 dup landscapeMode eq {pop -90 rotate}
  {rotateMode eq {90 rotate} if} ifelse} bdef
% line types: solid, dotted, dashed, dotdash
/SO { [] 0 setdash } bdef
/DO { [.5 dpi2point mul 4 dpi2point mul] 0 setdash } bdef
/DA { [6 dpi2point mul] 0 setdash } bdef
/DD { [.5 dpi2point mul 4 dpi2point mul 6 dpi2point mul 4
  dpi2point mul] 0 setdash } bdef
% macros for lines and objects
/L {lineto stroke} bdef
/MP {3 1 roll moveto 1 sub {rlineto} repeat} bdef
/AP {{rlineto} repeat} bdef
/PDlw -1 def
/W {/PDlw currentlinewidth def setlinewidth} def
/PP {closepath eofill} bdef
/DP {closepath stroke} bdef
/MR {4 -2 roll moveto dup  0 exch rlineto exch 0 rlineto
  neg 0 exch rlineto closepath} bdef
/FR {MR stroke} bdef
/PR {MR fill} bdef
/L1i {{currentfile picstr readhexstring pop} image} bdef
/tMatrix matrix def
/MakeOval {newpath tMatrix currentmatrix pop translate scale
0 0 1 0 360 arc tMatrix setmatrix} bdef
/FO {MakeOval stroke} bdef
/PO {MakeOval fill} bdef
/PD {currentlinewidth 2 div 0 360 arc fill
   PDlw -1 eq not {PDlw w /PDlw -1 def} if} def
/FA {newpath tMatrix currentmatrix pop translate scale
  0 0 1 5 -2 roll arc tMatrix setmatrix stroke} bdef
/PA {newpath tMatrix currentmatrix pop	translate 0 0 moveto scale
  0 0 1 5 -2 roll arc closepath tMatrix setmatrix fill} bdef
/FAn {newpath tMatrix currentmatrix pop translate scale
  0 0 1 5 -2 roll arcn tMatrix setmatrix stroke} bdef
/PAn {newpath tMatrix currentmatrix pop translate 0 0 moveto scale
  0 0 1 5 -2 roll arcn closepath tMatrix setmatrix fill} bdef
/vradius 0 def /hradius 0 def /lry 0 def
/lrx 0 def /uly 0 def /ulx 0 def /rad 0 def
/MRR {/vradius xdef /hradius xdef /lry xdef /lrx xdef /uly xdef
  /ulx xdef newpath tMatrix currentmatrix pop ulx hradius add uly
  vradius add translate hradius vradius scale 0 0 1 180 270 arc 
  tMatrix setmatrix lrx hradius sub uly vradius add translate
  hradius vradius scale 0 0 1 270 360 arc tMatrix setmatrix
  lrx hradius sub lry vradius sub translate hradius vradius scale
  0 0 1 0 90 arc tMatrix setmatrix ulx hradius add lry vradius sub
  translate hradius vradius scale 0 0 1 90 180 arc tMatrix setmatrix
  closepath} bdef
/FRR {MRR stroke } bdef
/PRR {MRR fill } bdef
/MlrRR {/lry xdef /lrx xdef /uly xdef /ulx xdef /rad lry uly sub 2 div def
  newpath tMatrix currentmatrix pop ulx rad add uly rad add translate
  rad rad scale 0 0 1 90 270 arc tMatrix setmatrix lrx rad sub lry rad
  sub translate rad rad scale 0 0 1 270 90 arc tMatrix setmatrix
  closepath} bdef
/FlrRR {MlrRR stroke } bdef
/PlrRR {MlrRR fill } bdef
/MtbRR {/lry xdef /lrx xdef /uly xdef /ulx xdef /rad lrx ulx sub 2 div def
  newpath tMatrix currentmatrix pop ulx rad add uly rad add translate
  rad rad scale 0 0 1 180 360 arc tMatrix setmatrix lrx rad sub lry rad
  sub translate rad rad scale 0 0 1 0 180 arc tMatrix setmatrix
  closepath} bdef
/FtbRR {MtbRR stroke } bdef
/PtbRR {MtbRR fill } bdef
/stri 6 array def /dtri 6 array def
/smat 6 array def /dmat 6 array def
/tmat1 6 array def /tmat2 6 array def /dif 3 array def
/asub {/ind2 exch def /ind1 exch def dup dup
  ind1 get exch ind2 get sub exch } bdef
/tri_to_matrix {
  2 0 asub 3 1 asub 4 0 asub 5 1 asub
  dup 0 get exch 1 get 7 -1 roll astore } bdef
/compute_transform {
  dmat dtri tri_to_matrix tmat1 invertmatrix 
  smat stri tri_to_matrix tmat2 concatmatrix } bdef
/ds {stri astore pop} bdef
/dt {dtri astore pop} bdef
/db {2 copy /cols xdef /rows xdef mul dup string
  currentfile exch readhexstring pop
  /bmap xdef pop pop} bdef
/it {gs np dtri aload pop moveto lineto lineto cp c
  cols rows 8 compute_transform 
  {bmap} image gr}bdef
/il {newpath moveto lineto stroke}bdef
currentdict end def
%%EndProlog

%%BeginSetup
MathWorks begin

0 cap

end
%%EndSetup

%%Page: 1 1
%%BeginPageSetup
%%PageBoundingBox:    33   186   547   607
MathWorks begin
bpage
%%EndPageSetup

%%BeginObject: obj1
bplot

/dpi2point 12 def
portraitMode 0216 7344 csm

  184    49  6173  5055 MR c np
85 dict begin %Colortable dictionary
/c0 { 0.000000 0.000000 0.000000 sr} bdef
/c1 { 1.000000 1.000000 1.000000 sr} bdef
/c2 { 0.900000 0.000000 0.000000 sr} bdef
/c3 { 0.000000 0.820000 0.000000 sr} bdef
/c4 { 0.000000 0.000000 0.800000 sr} bdef
/c5 { 0.910000 0.820000 0.320000 sr} bdef
/c6 { 1.000000 0.260000 0.820000 sr} bdef
/c7 { 0.000000 0.820000 0.820000 sr} bdef
c0
1 j
1 sg
   0    0 6913 5186 PR
6 w
0 4226 5356 0 0 -4226 899 4615 4 MP
PP
-5356 0 0 4226 5356 0 0 -4226 899 4615 5 MP stroke
4 w
DO
SO
6 w
0 sg
 899 4615 mt 6255 4615 L
 899 4615 mt  899  389 L
 899 4615 mt  899 4561 L
%%IncludeResource: font Helvetica
/Helvetica /ISOLatin1Encoding 192 FMSR

 846 4827 mt 
(0) s
1970 4615 mt 1970 4561 L
1837 4827 mt 
(0.2) s
3041 4615 mt 3041 4561 L
2908 4827 mt 
(0.4) s
4112 4615 mt 4112 4561 L
3979 4827 mt 
(0.6) s
5183 4615 mt 5183 4561 L
5050 4827 mt 
(0.8) s
6255 4615 mt 6255 4561 L
6202 4827 mt 
(1) s
 899 4615 mt  952 4615 L
 646 4686 mt 
(-2) s
 899 4011 mt  952 4011 L
 485 4082 mt 
(-1.5) s
 899 3407 mt  952 3407 L
 646 3478 mt 
(-1) s
 899 2803 mt  952 2803 L
 485 2874 mt 
(-0.5) s
 899 2200 mt  952 2200 L
 758 2271 mt 
(0) s
 899 1596 mt  952 1596 L
 598 1667 mt 
(0.5) s
 899  992 mt  952  992 L
 758 1063 mt 
(1) s
 899  389 mt  952  389 L
 598  460 mt 
(1.5) s
 899  335 mt 
(x 10) s
%%IncludeResource: font Helvetica
/Helvetica /ISOLatin1Encoding 128 FMSR

1261  216 mt 
(5) s
gs 899 389 5357 4227 MR c np
DA
18 w
44 0 47 0 47 0 47 0 47 0 47 0 46 0 46 0 
46 0 46 0 45 0 45 0 45 1 45 0 44 0 44 0 
44 0 44 0 43 0 43 0 43 0 43 0 42 0 42 0 
42 0 41 0 41 0 41 1 41 0 40 0 40 0 40 0 
40 0 39 0 39 0 39 0 38 0 38 1 38 0 37 0 
38 0 36 0 37 0 36 1 36 0 36 0 35 0 35 0 
35 1 34 0 34 0 34 0 34 1 33 0 33 0 32 1 
32 0 32 0 31 1 32 0 30 1 31 0 30 0 30 1 
30 0 29 1 29 1 28 0 29 1 27 1 28 1 27 0 
27 1 27 1 26 1 26 1 26 1 25 2 25 1 25 1 
24 2 24 1 24 2 23 2 24 2 22 2 23 2 22 2 
22 3 22 2 21 3 21 3 21 4 21 3 20 4 20 4 
20 5 19 5 20 5 2893 2111 100 MP stroke
19 6 18 6 19 6 18 7 18 8 18 8 18 9 17 9 
17 10 17 11 17 12 16 13 17 14 16 15 16 16 16 17 
16 19 15 20 16 22 15 23 16 25 15 27 16 29 15 30 
16 33 15 34 16 36 16 38 17 40 17 41 17 42 18 43 
19 44 20 43 21 43 22 43 24 41 26 40 28 38 31 35 
35 33 37 31 43 28 46 26 51 23 56 23 60 20 64 20 
67 18 69 18 71 16 72 17 74 16 74 16 74 15 75 16 
76 15 75 16 76 15 75 15 899 718 61 MP stroke
SO
15 1 48 -1 48 0 48 0 47 -1 48 0 47 0 47 -1 
46 -1 47 0 46 -1 45 -1 46 0 45 -1 45 -1 45 0 
44 -1 44 -2 44 0 44 -1 44 -1 43 -1 43 0 43 -2 
43 -1 42 -1 42 -1 41 -1 42 3 41 -1 42 -1 41 -1 
41 -1 40 -1 40 -2 40 -1 40 -1 39 -1 40 -2 38 0 
39 -2 39 -2 38 -1 38 -2 37 -1 37 -1 37 -2 37 -1 
36 -2 37 -1 36 -3 35 -2 36 -2 35 -2 34 -2 34 -3 
34 -3 34 -3 32 -3 32 -3 32 -6 31 -4 31 -3 31 -5 
30 -1 30 -5 30 -3 29 -3 29 -3 28 -3 28 -5 28 -5 
27 -2 27 -4 27 -4 26 -6 26 -7 25 2 26 -4 25 -7 
25 -3 24 -6 24 -8 24 -7 23 -3 23 -2 22 -7 23 4 
22 9 22 6 23 -8 22 -9 22 -23 23 -9 23 1 23 -1 
23 -10 22 -5 22 -13 2823 2467 100 MP stroke
21 -4 22 -8 21 -10 20 0 20 -2 21 -10 20 -13 20 4 
20 -17 19 -11 20 -22 18 -13 19 -8 18 -21 17 -18 17 -34 
16 -15 16 -30 15 -44 14 -40 13 -32 13 -45 12 -45 12 -67 
11 -65 10 -67 10 -78 9 -97 8 -80 8 -60 7 15 8 -158 
6 -212 6 -212 5 -240 5 264 6 -57 5 -156 4 -78 5 279 
5 288 6 258 6 105 6 245 7 222 6 261 9 275 10 315 
13 201 17 231 19 125 23 136 28 144 35 104 42 41 46 26 
51 23 56 23 60 20 64 20 67 18 69 18 71 16 72 17 
74 16 74 16 74 15 75 16 76 15 75 16 76 15 75 15 
899 718 73 MP stroke
6 w
15 0 48 0 48 0 48 0 47 0 48 0 47 0 47 0 
46 0 47 0 46 0 45 0 46 0 45 0 45 0 45 0 
44 0 44 0 44 0 44 0 44 0 43 0 43 0 43 0 
43 0 42 0 42 0 41 0 42 0 41 0 42 0 41 0 
41 0 40 0 40 0 40 0 40 0 39 0 40 0 38 0 
39 0 39 0 38 0 38 0 37 0 37 0 37 0 37 0 
36 0 37 0 36 0 35 0 36 0 35 0 34 0 34 0 
34 0 34 0 32 0 32 0 32 0 31 0 31 0 31 0 
30 0 30 0 30 0 29 0 29 0 28 0 28 0 28 0 
27 0 27 0 27 0 26 0 26 0 25 0 26 0 25 0 
25 0 24 0 24 0 24 0 23 0 23 0 22 0 23 0 
22 0 22 0 23 0 22 0 22 0 23 0 23 0 23 0 
23 0 22 0 22 0 2823 2200 100 MP stroke
21 0 22 0 21 0 20 0 20 0 21 0 20 0 20 0 
20 0 19 0 20 0 18 0 19 0 18 0 17 0 17 0 
16 0 16 0 15 0 14 0 13 0 13 0 12 0 12 0 
11 0 10 0 10 0 9 0 8 0 8 0 7 0 8 0 
6 0 6 0 5 0 5 0 6 0 5 0 4 0 5 0 
5 0 6 0 6 0 6 0 7 0 6 0 9 0 10 0 
13 0 17 0 19 0 23 0 28 0 35 0 42 0 46 0 
51 0 56 0 60 0 64 0 67 0 69 0 71 0 72 0 
74 0 74 0 74 0 75 0 76 0 75 0 76 0 75 0 
899 2200 73 MP stroke
gr

%%IncludeResource: font Symbol
/Symbol /ISOLatin1Encoding 192 FMSR

3494 5023 mt 
(m) s
%%IncludeResource: font Helvetica
/Helvetica /ISOLatin1Encoding 192 FMSR

3604 5023 mt 
( ) s
 387 2956 mt  -90 rotate
(min det\(Q\)) s
90 rotate
%%IncludeResource: font Helvetica
/Helvetica /ISOLatin1Encoding 120 FMSR

 882 4658 mt 
( ) s
6239  431 mt 
( ) s
%%IncludeResource: font Helvetica
/Helvetica /ISOLatin1Encoding 192 FMSR

3327  658 mt 
(Elastic) s
gs 2730 449 1696 501 MR c np
DA
18 w
459 0 2821 589 2 MP stroke
SO
gr

18 w
3327  877 mt 
(Elasto-plastic) s
gs 2730 449 1696 501 MR c np
459 0 2821 808 2 MP stroke
6 w
gr

6 w

end %%Color Dict

eplot
%%EndObject

epage
end

showpage

%%Trailer
%%EOF
