%!PS-Adobe-2.0 EPSF-1.2
%%Creator: MATLAB, The Mathworks, Inc. Version 7.6.0.324 (R2008a). Operating System: Linux 3.5.0-37-generic #58~precise1-Ubuntu SMP Wed Jul 10 17:48:11 UTC 2013 x86_64.
%%Title: ./stress.eps
%%CreationDate: 08/01/2013  13:43:00
%%DocumentNeededFonts: Helvetica
%%DocumentProcessColors: Cyan Magenta Yellow Black
%%Pages: 1
%%BoundingBox:    47   187   563   592
%%EndComments

%%BeginProlog
% MathWorks dictionary
/MathWorks 160 dict begin
% definition operators
/bdef {bind def} bind def
/ldef {load def} bind def
/xdef {exch def} bdef
/xstore {exch store} bdef
% operator abbreviations
/c  /clip ldef
/cc /concat ldef
/cp /closepath ldef
/gr /grestore ldef
/gs /gsave ldef
/mt /moveto ldef
/np /newpath ldef
/cm /currentmatrix ldef
/sm /setmatrix ldef
/rm /rmoveto ldef
/rl /rlineto ldef
/s {show newpath} bdef
/sc {setcmykcolor} bdef
/sr /setrgbcolor ldef
/sg /setgray ldef
/w /setlinewidth ldef
/j /setlinejoin ldef
/cap /setlinecap ldef
/rc {rectclip} bdef
/rf {rectfill} bdef
% page state control
/pgsv () def
/bpage {/pgsv save def} bdef
/epage {pgsv restore} bdef
/bplot /gsave ldef
/eplot {stroke grestore} bdef
% orientation switch
/portraitMode 0 def /landscapeMode 1 def /rotateMode 2 def
% coordinate system mappings
/dpi2point 0 def
% font control
/FontSize 0 def
/FMS {/FontSize xstore findfont [FontSize 0 0 FontSize neg 0 0]
  makefont setfont} bdef
/reencode {exch dup where {pop load} {pop StandardEncoding} ifelse
  exch dup 3 1 roll findfont dup length dict begin
  { 1 index /FID ne {def}{pop pop} ifelse } forall
  /Encoding exch def currentdict end definefont pop} bdef
/isroman {findfont /CharStrings get /Agrave known} bdef
/FMSR {3 1 roll 1 index dup isroman {reencode} {pop pop} ifelse
  exch FMS} bdef
/csm {1 dpi2point div -1 dpi2point div scale neg translate
 dup landscapeMode eq {pop -90 rotate}
  {rotateMode eq {90 rotate} if} ifelse} bdef
% line types: solid, dotted, dashed, dotdash
/SO { [] 0 setdash } bdef
/DO { [.5 dpi2point mul 4 dpi2point mul] 0 setdash } bdef
/DA { [6 dpi2point mul] 0 setdash } bdef
/DD { [.5 dpi2point mul 4 dpi2point mul 6 dpi2point mul 4
  dpi2point mul] 0 setdash } bdef
% macros for lines and objects
/L {lineto stroke} bdef
/MP {3 1 roll moveto 1 sub {rlineto} repeat} bdef
/AP {{rlineto} repeat} bdef
/PDlw -1 def
/W {/PDlw currentlinewidth def setlinewidth} def
/PP {closepath eofill} bdef
/DP {closepath stroke} bdef
/MR {4 -2 roll moveto dup  0 exch rlineto exch 0 rlineto
  neg 0 exch rlineto closepath} bdef
/FR {MR stroke} bdef
/PR {MR fill} bdef
/L1i {{currentfile picstr readhexstring pop} image} bdef
/tMatrix matrix def
/MakeOval {newpath tMatrix currentmatrix pop translate scale
0 0 1 0 360 arc tMatrix setmatrix} bdef
/FO {MakeOval stroke} bdef
/PO {MakeOval fill} bdef
/PD {currentlinewidth 2 div 0 360 arc fill
   PDlw -1 eq not {PDlw w /PDlw -1 def} if} def
/FA {newpath tMatrix currentmatrix pop translate scale
  0 0 1 5 -2 roll arc tMatrix setmatrix stroke} bdef
/PA {newpath tMatrix currentmatrix pop	translate 0 0 moveto scale
  0 0 1 5 -2 roll arc closepath tMatrix setmatrix fill} bdef
/FAn {newpath tMatrix currentmatrix pop translate scale
  0 0 1 5 -2 roll arcn tMatrix setmatrix stroke} bdef
/PAn {newpath tMatrix currentmatrix pop translate 0 0 moveto scale
  0 0 1 5 -2 roll arcn closepath tMatrix setmatrix fill} bdef
/vradius 0 def /hradius 0 def /lry 0 def
/lrx 0 def /uly 0 def /ulx 0 def /rad 0 def
/MRR {/vradius xdef /hradius xdef /lry xdef /lrx xdef /uly xdef
  /ulx xdef newpath tMatrix currentmatrix pop ulx hradius add uly
  vradius add translate hradius vradius scale 0 0 1 180 270 arc 
  tMatrix setmatrix lrx hradius sub uly vradius add translate
  hradius vradius scale 0 0 1 270 360 arc tMatrix setmatrix
  lrx hradius sub lry vradius sub translate hradius vradius scale
  0 0 1 0 90 arc tMatrix setmatrix ulx hradius add lry vradius sub
  translate hradius vradius scale 0 0 1 90 180 arc tMatrix setmatrix
  closepath} bdef
/FRR {MRR stroke } bdef
/PRR {MRR fill } bdef
/MlrRR {/lry xdef /lrx xdef /uly xdef /ulx xdef /rad lry uly sub 2 div def
  newpath tMatrix currentmatrix pop ulx rad add uly rad add translate
  rad rad scale 0 0 1 90 270 arc tMatrix setmatrix lrx rad sub lry rad
  sub translate rad rad scale 0 0 1 270 90 arc tMatrix setmatrix
  closepath} bdef
/FlrRR {MlrRR stroke } bdef
/PlrRR {MlrRR fill } bdef
/MtbRR {/lry xdef /lrx xdef /uly xdef /ulx xdef /rad lrx ulx sub 2 div def
  newpath tMatrix currentmatrix pop ulx rad add uly rad add translate
  rad rad scale 0 0 1 180 360 arc tMatrix setmatrix lrx rad sub lry rad
  sub translate rad rad scale 0 0 1 0 180 arc tMatrix setmatrix
  closepath} bdef
/FtbRR {MtbRR stroke } bdef
/PtbRR {MtbRR fill } bdef
/stri 6 array def /dtri 6 array def
/smat 6 array def /dmat 6 array def
/tmat1 6 array def /tmat2 6 array def /dif 3 array def
/asub {/ind2 exch def /ind1 exch def dup dup
  ind1 get exch ind2 get sub exch } bdef
/tri_to_matrix {
  2 0 asub 3 1 asub 4 0 asub 5 1 asub
  dup 0 get exch 1 get 7 -1 roll astore } bdef
/compute_transform {
  dmat dtri tri_to_matrix tmat1 invertmatrix 
  smat stri tri_to_matrix tmat2 concatmatrix } bdef
/ds {stri astore pop} bdef
/dt {dtri astore pop} bdef
/db {2 copy /cols xdef /rows xdef mul dup string
  currentfile exch readhexstring pop
  /bmap xdef pop pop} bdef
/it {gs np dtri aload pop moveto lineto lineto cp c
  cols rows 8 compute_transform 
  {bmap} image gr}bdef
/il {newpath moveto lineto stroke}bdef
currentdict end def
%%EndProlog

%%BeginSetup
MathWorks begin

0 cap

end
%%EndSetup

%%Page: 1 1
%%BeginPageSetup
%%PageBoundingBox:    47   187   563   592
MathWorks begin
bpage
%%EndPageSetup

%%BeginObject: obj1
bplot

/dpi2point 12 def
portraitMode 0216 7344 csm

  350   234  6194  4857 MR c np
85 dict begin %Colortable dictionary
/c0 { 0.000000 0.000000 0.000000 sr} bdef
/c1 { 1.000000 1.000000 1.000000 sr} bdef
/c2 { 0.900000 0.000000 0.000000 sr} bdef
/c3 { 0.000000 0.820000 0.000000 sr} bdef
/c4 { 0.000000 0.000000 0.800000 sr} bdef
/c5 { 0.910000 0.820000 0.320000 sr} bdef
/c6 { 1.000000 0.260000 0.820000 sr} bdef
/c7 { 0.000000 0.820000 0.820000 sr} bdef
c0
1 j
1 sg
   0    0 6913 5186 PR
6 w
0 4226 5356 0 0 -4226 899 4615 4 MP
PP
-5356 0 0 4226 5356 0 0 -4226 899 4615 5 MP stroke
4 w
DO
SO
6 w
0 sg
 899 4615 mt 6255 4615 L
 899 4615 mt  899  389 L
 899 4615 mt  899 4561 L
%%IncludeResource: font Helvetica
/Helvetica /ISOLatin1Encoding 192 FMSR

 846 4827 mt 
(0) s
1970 4615 mt 1970 4561 L
1730 4827 mt 
(0.005) s
3041 4615 mt 3041 4561 L
2855 4827 mt 
(0.01) s
4112 4615 mt 4112 4561 L
3872 4827 mt 
(0.015) s
5183 4615 mt 5183 4561 L
4997 4827 mt 
(0.02) s
6255 4615 mt 6255 4561 L
6015 4827 mt 
(0.025) s
 899 4615 mt  952 4615 L
 758 4686 mt 
(0) s
 899 3910 mt  952 3910 L
 758 3981 mt 
(5) s
 899 3206 mt  952 3206 L
 651 3277 mt 
(10) s
 899 2502 mt  952 2502 L
 651 2573 mt 
(15) s
 899 1797 mt  952 1797 L
 651 1868 mt 
(20) s
 899 1093 mt  952 1093 L
 651 1164 mt 
(25) s
 899  389 mt  952  389 L
 651  460 mt 
(30) s
gs 899 389 5357 4227 MR c np
DA
18 w
34 0 38 0 38 0 38 0 37 0 37 0 37 0 37 -1 
37 0 36 0 37 0 36 0 36 0 35 0 36 -1 35 0 
35 0 35 0 35 0 34 0 35 0 34 -1 34 0 33 0 
34 0 33 0 33 -1 33 0 32 0 32 0 32 -1 32 0 
32 0 31 0 32 -1 30 0 31 0 31 0 30 -1 30 0 
30 0 29 -1 29 0 29 0 29 -1 29 0 28 -1 28 0 
28 0 27 -1 27 0 27 -1 27 0 27 -1 26 0 26 -1 
26 0 25 -1 25 -1 25 0 25 -1 24 -1 24 0 24 -1 
24 -1 23 -1 23 0 23 -1 23 -1 22 -1 22 -1 22 -1 
22 -1 21 -1 21 -1 21 -1 20 -1 21 -2 20 -1 19 -1 
20 -2 19 -1 19 -2 19 -1 18 -2 19 -2 18 -2 18 -2 
17 -2 17 -2 18 -2 16 -2 17 -3 17 -3 16 -2 16 -3 
16 -3 15 -3 16 -4 2494 836 100 MP stroke
15 -3 15 -4 15 -4 14 -4 15 -4 14 -5 14 -5 14 -5 
14 -5 13 -6 13 -6 14 -7 13 -7 13 -7 13 -8 12 -8 
13 -9 12 -9 13 -10 12 -11 13 -11 12 -12 12 -13 13 -14 
12 -15 13 -17 12 -17 13 -20 14 -20 13 -23 14 -25 15 -27 
15 -30 15 -34 17 -36 18 -42 19 -46 21 -51 23 -59 24 -66 
28 -75 30 -84 34 -96 37 -108 41 -121 45 -132 48 -144 51 -154 
53 -162 56 -168 56 -173 58 -177 59 -180 59 -183 60 -184 60 -185 
60 -186 60 -186 61 -188 60 -188 899 4615 61 MP stroke
SO
11 2 39 6 38 6 38 6 38 6 38 6 38 6 37 6 
38 6 37 6 37 7 36 6 37 7 36 7 36 6 35 7 
36 7 35 7 36 7 35 7 34 7 35 8 35 7 34 8 
34 8 34 7 33 8 33 8 34 8 33 8 33 9 33 8 
33 9 32 8 32 9 32 9 32 9 31 9 32 9 31 10 
31 9 31 10 30 9 30 10 30 10 30 10 30 11 29 10 
29 11 29 10 29 11 29 11 28 11 28 12 27 11 28 12 
27 12 27 12 26 13 25 12 26 13 25 13 25 13 24 13 
24 13 24 13 24 14 23 13 23 14 23 14 23 14 22 14 
22 14 21 14 21 15 21 15 21 15 20 15 21 15 20 15 
20 16 19 15 19 16 19 16 19 16 18 16 18 16 18 16 
18 16 18 15 18 15 18 16 17 16 18 17 19 17 19 17 
17 16 18 17 18 17 2438 2306 100 MP stroke
17 17 17 17 17 17 16 17 16 17 17 18 16 17 16 18 
16 18 15 18 16 18 15 18 15 19 14 19 14 18 13 19 
13 20 13 19 12 20 11 20 11 21 10 20 10 21 9 21 
9 22 8 21 8 21 7 22 7 21 6 21 6 21 6 21 
5 20 5 21 4 21 4 21 4 20 4 19 4 20 3 20 
5 18 4 17 5 14 5 10 5 10 6 6 6 2 8 -5 
11 -13 13 -24 16 -33 18 -43 22 -56 29 -78 33 -94 37 -108 
41 -121 45 -132 48 -144 51 -154 53 -162 56 -168 56 -173 58 -177 
59 -180 59 -183 60 -184 60 -185 60 -186 60 -186 61 -188 60 -188 
899 4615 73 MP stroke
gr

18 w
3078 5023 mt 
(Strain norm) s
 553 3307 mt  -90 rotate
(Stress norm \(MPa\)) s
90 rotate
%%IncludeResource: font Helvetica
/Helvetica /ISOLatin1Encoding 120 FMSR

 870 4670 mt 
( ) s
6227  443 mt 
( ) s
6 w
%%IncludeResource: font Helvetica
/Helvetica /ISOLatin1Encoding 192 FMSR

4658 1223 mt 
(Elastic) s
gs 4061 1014 1696 501 MR c np
DA
18 w
459 0 4152 1154 2 MP stroke
SO
gr

18 w
4658 1442 mt 
(Elasto-plastic) s
gs 4061 1014 1696 501 MR c np
459 0 4152 1373 2 MP stroke
6 w
gr

6 w

end %%Color Dict

eplot
%%EndObject

epage
end

showpage

%%Trailer
%%EOF
