$MeshFormat
2.2 0 8
$EndMeshFormat
$Nodes
125
1 0 0 0
2 0.0001166340226167161 0 0
3 0.0001166340226167161 6.733868435442992e-05 0
4 0 6.733868435442992e-05 0
5 0 0 2.915850565417902e-06
6 0.0001166340226167161 0 2.915850565417902e-06
7 0.0001166340226167161 6.733868435442992e-05 2.915850565417902e-06
8 0 6.733868435442992e-05 2.915850565417902e-06
9 2.915850565411048e-05 0 0
10 5.83170113082051e-05 0 0
11 8.747551696245594e-05 0 0
12 0.0001166340226167161 1.683467108857023e-05 0
13 0.0001166340226167161 3.36693421771358e-05 0
14 0.0001166340226167161 5.050401326578749e-05 0
15 8.747551696260662e-05 6.733868435442992e-05 0
16 5.831701130851164e-05 6.733868435442992e-05 0
17 2.915850565426048e-05 6.733868435442992e-05 0
18 0 5.050401326586151e-05 0
19 0 3.366934217729703e-05 0
20 0 1.683467108864388e-05 0
21 2.915850565411048e-05 0 2.915850565417902e-06
22 5.83170113082051e-05 0 2.915850565417902e-06
23 8.747551696245594e-05 0 2.915850565417902e-06
24 0.0001166340226167161 1.683467108857023e-05 2.915850565417902e-06
25 0.0001166340226167161 3.36693421771358e-05 2.915850565417902e-06
26 0.0001166340226167161 5.050401326578749e-05 2.915850565417902e-06
27 8.747551696260662e-05 6.733868435442992e-05 2.915850565417902e-06
28 5.831701130851164e-05 6.733868435442992e-05 2.915850565417902e-06
29 2.915850565426048e-05 6.733868435442992e-05 2.915850565417902e-06
30 0 5.050401326586151e-05 2.915850565417902e-06
31 0 3.366934217729703e-05 2.915850565417902e-06
32 0 1.683467108864388e-05 2.915850565417902e-06
33 0 0 7.2896264135274e-07
34 0 0 1.457925282705076e-06
35 0 0 2.186887924061551e-06
36 0.0001166340226167161 0 7.2896264135274e-07
37 0.0001166340226167161 0 1.457925282705076e-06
38 0.0001166340226167161 0 2.186887924061551e-06
39 0.0001166340226167161 6.733868435442992e-05 7.2896264135274e-07
40 0.0001166340226167161 6.733868435442992e-05 1.457925282705076e-06
41 0.0001166340226167161 6.733868435442992e-05 2.186887924061551e-06
42 0 6.733868435442992e-05 7.2896264135274e-07
43 0 6.733868435442992e-05 1.457925282705076e-06
44 0 6.733868435442992e-05 2.186887924061551e-06
45 2.915850565414799e-05 1.683467108862547e-05 0
46 2.915850565418548e-05 3.366934217725673e-05 0
47 2.915850565422298e-05 5.0504013265843e-05 0
48 5.831701130828175e-05 1.683467108860706e-05 0
49 5.831701130835837e-05 3.366934217721643e-05 0
50 5.8317011308435e-05 5.05040132658245e-05 0
51 8.747551696249362e-05 1.683467108858865e-05 0
52 8.747551696253127e-05 3.366934217717613e-05 0
53 8.747551696256896e-05 5.0504013265806e-05 0
54 2.915850565414799e-05 1.683467108862547e-05 2.915850565417902e-06
55 2.915850565418548e-05 3.366934217725673e-05 2.915850565417902e-06
56 2.915850565422298e-05 5.0504013265843e-05 2.915850565417902e-06
57 5.831701130828175e-05 1.683467108860706e-05 2.915850565417902e-06
58 5.831701130835837e-05 3.366934217721643e-05 2.915850565417902e-06
59 5.8317011308435e-05 5.05040132658245e-05 2.915850565417902e-06
60 8.747551696249362e-05 1.683467108858865e-05 2.915850565417902e-06
61 8.747551696253127e-05 3.366934217717613e-05 2.915850565417902e-06
62 8.747551696256896e-05 5.0504013265806e-05 2.915850565417902e-06
63 2.915850565411048e-05 0 7.289626413527399e-07
64 2.915850565411048e-05 0 1.457925282705076e-06
65 2.915850565411048e-05 0 2.186887924061551e-06
66 5.83170113082051e-05 0 7.289626413527399e-07
67 5.831701130820511e-05 0 1.457925282705076e-06
68 5.831701130820509e-05 0 2.186887924061551e-06
69 8.747551696245591e-05 0 7.289626413527399e-07
70 8.747551696245593e-05 0 1.457925282705076e-06
71 8.747551696245594e-05 0 2.186887924061551e-06
72 0.0001166340226167161 1.683467108857023e-05 7.2896264135274e-07
73 0.0001166340226167161 1.683467108857023e-05 1.457925282705076e-06
74 0.0001166340226167161 1.683467108857023e-05 2.186887924061551e-06
75 0.0001166340226167161 3.36693421771358e-05 7.289626413527398e-07
76 0.0001166340226167161 3.36693421771358e-05 1.457925282705076e-06
77 0.0001166340226167161 3.36693421771358e-05 2.186887924061551e-06
78 0.0001166340226167161 5.050401326578749e-05 7.2896264135274e-07
79 0.0001166340226167161 5.050401326578749e-05 1.457925282705076e-06
80 0.0001166340226167161 5.050401326578749e-05 2.186887924061551e-06
81 8.747551696260662e-05 6.733868435442992e-05 7.2896264135274e-07
82 8.747551696260662e-05 6.733868435442992e-05 1.457925282705076e-06
83 8.747551696260662e-05 6.733868435442992e-05 2.186887924061551e-06
84 5.831701130851163e-05 6.733868435442992e-05 7.289626413527399e-07
85 5.831701130851164e-05 6.733868435442992e-05 1.457925282705076e-06
86 5.831701130851164e-05 6.733868435442992e-05 2.186887924061551e-06
87 2.915850565426048e-05 6.733868435442992e-05 7.289626413527401e-07
88 2.915850565426049e-05 6.733868435442992e-05 1.457925282705076e-06
89 2.915850565426048e-05 6.733868435442992e-05 2.186887924061551e-06
90 0 5.050401326586151e-05 7.289626413527399e-07
91 0 5.050401326586149e-05 1.457925282705076e-06
92 0 5.050401326586152e-05 2.186887924061551e-06
93 0 3.366934217729702e-05 7.289626413527401e-07
94 0 3.366934217729702e-05 1.457925282705076e-06
95 0 3.366934217729703e-05 2.186887924061551e-06
96 0 1.683467108864388e-05 7.289626413527401e-07
97 0 1.683467108864388e-05 1.457925282705077e-06
98 0 1.683467108864388e-05 2.186887924061551e-06
99 2.915850565414798e-05 1.683467108862547e-05 7.2896264135274e-07
100 2.915850565414798e-05 1.683467108862546e-05 1.457925282705077e-06
101 2.915850565414799e-05 1.683467108862547e-05 2.18688792406155e-06
102 2.915850565418549e-05 3.366934217725674e-05 7.289626413527401e-07
103 2.915850565418548e-05 3.366934217725672e-05 1.457925282705077e-06
104 2.915850565418548e-05 3.366934217725675e-05 2.186887924061552e-06
105 2.915850565422298e-05 5.0504013265843e-05 7.289626413527399e-07
106 2.915850565422298e-05 5.0504013265843e-05 1.457925282705076e-06
107 2.915850565422297e-05 5.050401326584302e-05 2.186887924061551e-06
108 5.831701130828175e-05 1.683467108860706e-05 7.2896264135274e-07
109 5.831701130828176e-05 1.683467108860706e-05 1.457925282705077e-06
110 5.831701130828175e-05 1.683467108860706e-05 2.186887924061552e-06
111 5.831701130835837e-05 3.366934217721643e-05 7.289626413527399e-07
112 5.831701130835839e-05 3.366934217721643e-05 1.457925282705076e-06
113 5.831701130835836e-05 3.366934217721644e-05 2.186887924061551e-06
114 5.831701130843502e-05 5.050401326582452e-05 7.289626413527398e-07
115 5.831701130843497e-05 5.05040132658245e-05 1.457925282705077e-06
116 5.831701130843501e-05 5.05040132658245e-05 2.186887924061552e-06
117 8.747551696249354e-05 1.683467108858864e-05 7.289626413527398e-07
118 8.747551696249356e-05 1.683467108858865e-05 1.457925282705077e-06
119 8.747551696249359e-05 1.683467108858865e-05 2.18688792406155e-06
120 8.747551696253121e-05 3.366934217717613e-05 7.289626413527399e-07
121 8.747551696253128e-05 3.366934217717613e-05 1.457925282705076e-06
122 8.747551696253129e-05 3.366934217717615e-05 2.186887924061553e-06
123 8.747551696256894e-05 5.050401326580601e-05 7.289626413527397e-07
124 8.747551696256894e-05 5.0504013265806e-05 1.457925282705076e-06
125 8.747551696256894e-05 5.050401326580602e-05 2.18688792406155e-06
$EndNodes
$Elements
216
1 15 2 1 1 1
2 15 2 2 2 2
3 15 2 3 3 3
4 15 2 4 4 4
5 15 2 5 5 5
6 15 2 6 6 6
7 15 2 7 7 7
8 15 2 8 8 8
9 1 2 12 1 1 9
10 1 2 12 1 9 10
11 1 2 12 1 10 11
12 1 2 12 1 11 2
13 1 2 23 2 2 12
14 1 2 23 2 12 13
15 1 2 23 2 13 14
16 1 2 23 2 14 3
17 1 2 34 3 3 15
18 1 2 34 3 15 16
19 1 2 34 3 16 17
20 1 2 34 3 17 4
21 1 2 41 4 4 18
22 1 2 41 4 18 19
23 1 2 41 4 19 20
24 1 2 41 4 20 1
25 1 2 56 5 5 21
26 1 2 56 5 21 22
27 1 2 56 5 22 23
28 1 2 56 5 23 6
29 1 2 67 6 6 24
30 1 2 67 6 24 25
31 1 2 67 6 25 26
32 1 2 67 6 26 7
33 1 2 78 7 7 27
34 1 2 78 7 27 28
35 1 2 78 7 28 29
36 1 2 78 7 29 8
37 1 2 85 8 8 30
38 1 2 85 8 30 31
39 1 2 85 8 31 32
40 1 2 85 8 32 5
41 1 2 15 9 1 33
42 1 2 15 9 33 34
43 1 2 15 9 34 35
44 1 2 15 9 35 5
45 1 2 26 10 2 36
46 1 2 26 10 36 37
47 1 2 26 10 37 38
48 1 2 26 10 38 6
49 1 2 37 11 3 39
50 1 2 37 11 39 40
51 1 2 37 11 40 41
52 1 2 37 11 41 7
53 1 2 48 12 4 42
54 1 2 48 12 42 43
55 1 2 48 12 43 44
56 1 2 48 12 44 8
57 3 2 1234 1 1 9 45 20
58 3 2 1234 1 20 45 46 19
59 3 2 1234 1 19 46 47 18
60 3 2 1234 1 18 47 17 4
61 3 2 1234 1 9 10 48 45
62 3 2 1234 1 45 48 49 46
63 3 2 1234 1 46 49 50 47
64 3 2 1234 1 47 50 16 17
65 3 2 1234 1 10 11 51 48
66 3 2 1234 1 48 51 52 49
67 3 2 1234 1 49 52 53 50
68 3 2 1234 1 50 53 15 16
69 3 2 1234 1 11 2 12 51
70 3 2 1234 1 51 12 13 52
71 3 2 1234 1 52 13 14 53
72 3 2 1234 1 53 14 3 15
73 3 2 5678 2 5 21 54 32
74 3 2 5678 2 32 54 55 31
75 3 2 5678 2 31 55 56 30
76 3 2 5678 2 30 56 29 8
77 3 2 5678 2 21 22 57 54
78 3 2 5678 2 54 57 58 55
79 3 2 5678 2 55 58 59 56
80 3 2 5678 2 56 59 28 29
81 3 2 5678 2 22 23 60 57
82 3 2 5678 2 57 60 61 58
83 3 2 5678 2 58 61 62 59
84 3 2 5678 2 59 62 27 28
85 3 2 5678 2 23 6 24 60
86 3 2 5678 2 60 24 25 61
87 3 2 5678 2 61 25 26 62
88 3 2 5678 2 62 26 7 27
89 3 2 1265 3 1 9 63 33
90 3 2 1265 3 33 63 64 34
91 3 2 1265 3 34 64 65 35
92 3 2 1265 3 35 65 21 5
93 3 2 1265 3 9 10 66 63
94 3 2 1265 3 63 66 67 64
95 3 2 1265 3 64 67 68 65
96 3 2 1265 3 65 68 22 21
97 3 2 1265 3 10 11 69 66
98 3 2 1265 3 66 69 70 67
99 3 2 1265 3 67 70 71 68
100 3 2 1265 3 68 71 23 22
101 3 2 1265 3 11 2 36 69
102 3 2 1265 3 69 36 37 70
103 3 2 1265 3 70 37 38 71
104 3 2 1265 3 71 38 6 23
105 3 2 2376 4 2 12 72 36
106 3 2 2376 4 36 72 73 37
107 3 2 2376 4 37 73 74 38
108 3 2 2376 4 38 74 24 6
109 3 2 2376 4 12 13 75 72
110 3 2 2376 4 72 75 76 73
111 3 2 2376 4 73 76 77 74
112 3 2 2376 4 74 77 25 24
113 3 2 2376 4 13 14 78 75
114 3 2 2376 4 75 78 79 76
115 3 2 2376 4 76 79 80 77
116 3 2 2376 4 77 80 26 25
117 3 2 2376 4 14 3 39 78
118 3 2 2376 4 78 39 40 79
119 3 2 2376 4 79 40 41 80
120 3 2 2376 4 80 41 7 26
121 3 2 3487 5 3 15 81 39
122 3 2 3487 5 39 81 82 40
123 3 2 3487 5 40 82 83 41
124 3 2 3487 5 41 83 27 7
125 3 2 3487 5 15 16 84 81
126 3 2 3487 5 81 84 85 82
127 3 2 3487 5 82 85 86 83
128 3 2 3487 5 83 86 28 27
129 3 2 3487 5 16 17 87 84
130 3 2 3487 5 84 87 88 85
131 3 2 3487 5 85 88 89 86
132 3 2 3487 5 86 89 29 28
133 3 2 3487 5 17 4 42 87
134 3 2 3487 5 87 42 43 88
135 3 2 3487 5 88 43 44 89
136 3 2 3487 5 89 44 8 29
137 3 2 4158 6 4 18 90 42
138 3 2 4158 6 42 90 91 43
139 3 2 4158 6 43 91 92 44
140 3 2 4158 6 44 92 30 8
141 3 2 4158 6 18 19 93 90
142 3 2 4158 6 90 93 94 91
143 3 2 4158 6 91 94 95 92
144 3 2 4158 6 92 95 31 30
145 3 2 4158 6 19 20 96 93
146 3 2 4158 6 93 96 97 94
147 3 2 4158 6 94 97 98 95
148 3 2 4158 6 95 98 32 31
149 3 2 4158 6 20 1 33 96
150 3 2 4158 6 96 33 34 97
151 3 2 4158 6 97 34 35 98
152 3 2 4158 6 98 35 5 32
153 5 2 100 1 1 9 45 20 33 63 99 96
154 5 2 100 1 33 63 99 96 34 64 100 97
155 5 2 100 1 34 64 100 97 35 65 101 98
156 5 2 100 1 35 65 101 98 5 21 54 32
157 5 2 100 1 20 45 46 19 96 99 102 93
158 5 2 100 1 96 99 102 93 97 100 103 94
159 5 2 100 1 97 100 103 94 98 101 104 95
160 5 2 100 1 98 101 104 95 32 54 55 31
161 5 2 100 1 19 46 47 18 93 102 105 90
162 5 2 100 1 93 102 105 90 94 103 106 91
163 5 2 100 1 94 103 106 91 95 104 107 92
164 5 2 100 1 95 104 107 92 31 55 56 30
165 5 2 100 1 18 47 17 4 90 105 87 42
166 5 2 100 1 90 105 87 42 91 106 88 43
167 5 2 100 1 91 106 88 43 92 107 89 44
168 5 2 100 1 92 107 89 44 30 56 29 8
169 5 2 100 1 9 10 48 45 63 66 108 99
170 5 2 100 1 63 66 108 99 64 67 109 100
171 5 2 100 1 64 67 109 100 65 68 110 101
172 5 2 100 1 65 68 110 101 21 22 57 54
173 5 2 100 1 45 48 49 46 99 108 111 102
174 5 2 100 1 99 108 111 102 100 109 112 103
175 5 2 100 1 100 109 112 103 101 110 113 104
176 5 2 100 1 101 110 113 104 54 57 58 55
177 5 2 100 1 46 49 50 47 102 111 114 105
178 5 2 100 1 102 111 114 105 103 112 115 106
179 5 2 100 1 103 112 115 106 104 113 116 107
180 5 2 100 1 104 113 116 107 55 58 59 56
181 5 2 100 1 47 50 16 17 105 114 84 87
182 5 2 100 1 105 114 84 87 106 115 85 88
183 5 2 100 1 106 115 85 88 107 116 86 89
184 5 2 100 1 107 116 86 89 56 59 28 29
185 5 2 100 1 10 11 51 48 66 69 117 108
186 5 2 100 1 66 69 117 108 67 70 118 109
187 5 2 100 1 67 70 118 109 68 71 119 110
188 5 2 100 1 68 71 119 110 22 23 60 57
189 5 2 100 1 48 51 52 49 108 117 120 111
190 5 2 100 1 108 117 120 111 109 118 121 112
191 5 2 100 1 109 118 121 112 110 119 122 113
192 5 2 100 1 110 119 122 113 57 60 61 58
193 5 2 100 1 49 52 53 50 111 120 123 114
194 5 2 100 1 111 120 123 114 112 121 124 115
195 5 2 100 1 112 121 124 115 113 122 125 116
196 5 2 100 1 113 122 125 116 58 61 62 59
197 5 2 100 1 50 53 15 16 114 123 81 84
198 5 2 100 1 114 123 81 84 115 124 82 85
199 5 2 100 1 115 124 82 85 116 125 83 86
200 5 2 100 1 116 125 83 86 59 62 27 28
201 5 2 100 1 11 2 12 51 69 36 72 117
202 5 2 100 1 69 36 72 117 70 37 73 118
203 5 2 100 1 70 37 73 118 71 38 74 119
204 5 2 100 1 71 38 74 119 23 6 24 60
205 5 2 100 1 51 12 13 52 117 72 75 120
206 5 2 100 1 117 72 75 120 118 73 76 121
207 5 2 100 1 118 73 76 121 119 74 77 122
208 5 2 100 1 119 74 77 122 60 24 25 61
209 5 2 100 1 52 13 14 53 120 75 78 123
210 5 2 100 1 120 75 78 123 121 76 79 124
211 5 2 100 1 121 76 79 124 122 77 80 125
212 5 2 100 1 122 77 80 125 61 25 26 62
213 5 2 100 1 53 14 3 15 123 78 39 81
214 5 2 100 1 123 78 39 81 124 79 40 82
215 5 2 100 1 124 79 40 82 125 80 41 83
216 5 2 100 1 125 80 41 83 62 26 7 27
$EndElements
