lc = 100;

Point(1) = {0, 0, 0, lc};
Point(2) = {1.4, 0, 0.297579186338031, lc};
Point(3) = {1.4, 0, -0.76, lc};
Point(4) = {0, 0, -0.76, lc};
Line(1) = {4, 1};
Line(2) = {1, 2};
Line(3) = {2, 3};
Line(4) = {3, 4};
Line Loop(5) = {1, 2, 3, 4};
Plane Surface(6) = {5};
Physical Line("noflux") = {1, 4, 3};
Physical Line("surface") = {2};
Physical Point("bottom") = {1};
Physical Point("top") = {2};
Physical Surface("volume") = {6};
Field[1] = Attractor;
Field[1].NodesList = {1, 2};
Field[4] = Attractor;
Field[4].EdgesList = {2};
Field[2] = MathEval;
Field[2].F = "F1 / 5 + F4 / 10";
Field[3] = Threshold;
Field[3].IField = 2;
Field[3].LcMax = 0.4;
Field[3].LcMin = 0.05;
Field[3].DistMin = 0.05;
Field[3].DistMax = 0.2;
Field[3].Sigmoid = 1;
Background Field = 3;

