nbx=20;
nby=4;
nbz=5;
H=33000;
Point(1) = {0, 0, 0, 100};
Point(2) = {144000, 0, 0, 100};
Point(3) = {144000, 28800, 0, 100};
Point(4) = {0, 28800, 0, 100};
Line(1) = {1, 2};
Line(2) = {2, 3};
Line(3) = {3, 4};
Line(4) = {4, 1};
Line Loop(5) = {1, 2, 3, 4};
Plane Surface(6) = {5};
Transfinite Line {1,3} = nbx+1;
Transfinite Line {2,4} = nby+1;
Transfinite Surface {6} =  {1,2,3,4};
Extrude {0, 0, H} { Surface {6}; Layers{ {nbz}, {1} }; Recombine; }
Recombine Surface "*";
Physical Surface("top_surf") = {28};
Physical Surface("bottom_surf") = {6};
Physical Surface("left") = {27};
Physical Surface("right") = {15};
Physical Surface("top") = {19};
Physical Surface("bottom") = {23};
Physical Volume("vol") = {1};
