$MeshFormat
2.2 0 8
$EndMeshFormat
$Nodes
49
1 0 0 0
2 1 0 0
3 1 1 0
4 0 1 0
5 2 0 0
6 2 1 0
7 3 0 0
8 3 1 0
9 0 2 0
10 1 2 0
11 2 2 0
12 3 2 0
13 0 3 0
14 1 3 0
15 2 3 0
16 3 3 0
17 0.4999999999986718 0 0
18 1 0.4999999999986718 0
19 0.5000000000013305 1 0
20 0 0.5000000000013305 0
21 1.499999999998621 0 0
22 2 0.4999999999986718 0
23 1.500000000001379 1 0
24 2.5 0 0
25 3 0.4999999999986718 0
26 2.5 1 0
27 0 1.500000000001379 0
28 1 1.499999999998621 0
29 0.5000000000013305 2 0
30 2 1.499999999998621 0
31 1.500000000001379 2 0
32 3 1.499999999998621 0
33 2.5 2 0
34 0 2.5 0
35 1 2.5 0
36 0.5000000000013305 3 0
37 2 2.5 0
38 1.500000000001379 3 0
39 3 2.5 0
40 2.5 3 0
41 0.5 0.5 0
42 1.5 0.4999999999986717 0
43 2.5 0.4999999999986717 0
44 0.5000000000013305 1.5 0
45 1.500000000001379 1.499999999998621 0
46 2.5 1.499999999998621 0
47 0.5000000000013305 2.5 0
48 1.500000000001379 2.5 0
49 2.5 2.5 0
$EndNodes
$Elements
18
1 8 2 183 1 1 2 17
2 8 2 182 4 4 1 20
3 8 2 183 9 2 5 21
4 8 2 183 14 5 7 24
5 8 2 182 18 9 4 27
6 8 2 182 33 13 9 34
7 8 2 184 36 14 13 36
8 8 2 184 41 15 14 38
9 8 2 184 46 16 15 40
10 10 2 185 6 4 1 2 3 20 17 18 19 41
11 10 2 186 7 2 5 6 3 21 22 23 18 42
12 10 2 187 12 5 7 8 6 24 25 26 22 43
13 10 2 186 17 9 4 3 10 27 19 28 29 44
14 10 2 186 22 3 6 11 10 23 30 31 28 45
15 10 2 187 27 6 8 12 11 26 32 33 30 46
16 10 2 187 32 13 9 10 14 34 29 35 36 47
17 10 2 187 37 10 11 15 14 31 37 38 35 48
18 10 2 187 42 11 12 16 15 33 39 40 37 49
$EndElements
