$MeshFormat
2.2 0 8
$EndMeshFormat
$Nodes
532
1 -0.5 -0.5 0
2 0.5 -0.5 0
3 0.5 0.5 0
4 -0.5 0.5 0
5 -0.2 0 0
6 0 0.2 0
7 0.2 0 0
8 0 -0.2 0
9 -0.4000000000002772 -0.5 0
10 -0.3000000000005547 -0.5 0
11 -0.2000000000008318 -0.5 0
12 -0.1000000000011089 -0.5 0
13 -1.375122238300719e-12 -0.5 0
14 0.09999999999889131 -0.5 0
15 0.1999999999991684 -0.5 0
16 0.2999999999994456 -0.5 0
17 0.3999999999997228 -0.5 0
18 -0.4500000000001293 -0.5 0
19 -0.3500000000004057 -0.5 0
20 -0.2500000000006932 -0.5 0
21 -0.1500000000009704 -0.5 0
22 -0.05000000000124205 -0.5 0
23 0.04999999999875815 -0.5 0
24 0.1499999999990299 -0.5 0
25 0.249999999999307 -0.5 0
26 0.3499999999995842 -0.5 0
27 0.4499999999998614 -0.5 0
28 0.5 -0.4000000000002772 0
29 0.5 -0.3000000000005547 0
30 0.5 -0.2000000000008318 0
31 0.5 -0.1000000000011089 0
32 0.5 -1.375122238300719e-12 0
33 0.5 0.09999999999889131 0
34 0.5 0.1999999999991684 0
35 0.5 0.2999999999994456 0
36 0.5 0.3999999999997228 0
37 0.5 -0.4500000000001293 0
38 0.5 -0.3500000000004057 0
39 0.5 -0.2500000000006932 0
40 0.5 -0.1500000000009704 0
41 0.5 -0.05000000000124205 0
42 0.5 0.04999999999875815 0
43 0.5 0.1499999999990299 0
44 0.5 0.249999999999307 0
45 0.5 0.3499999999995842 0
46 0.5 0.4499999999998614 0
47 0.4000000000002772 0.5 0
48 0.3000000000005547 0.5 0
49 0.2000000000008318 0.5 0
50 0.1000000000011089 0.5 0
51 1.375122238300719e-12 0.5 0
52 -0.09999999999889131 0.5 0
53 -0.1999999999991684 0.5 0
54 -0.2999999999994456 0.5 0
55 -0.3999999999997228 0.5 0
56 0.4500000000001293 0.5 0
57 0.3500000000004057 0.5 0
58 0.2500000000006932 0.5 0
59 0.1500000000009704 0.5 0
60 0.05000000000124205 0.5 0
61 -0.04999999999875815 0.5 0
62 -0.1499999999990299 0.5 0
63 -0.249999999999307 0.5 0
64 -0.3499999999995842 0.5 0
65 -0.4499999999998614 0.5 0
66 -0.5 0.4000000000002772 0
67 -0.5 0.3000000000005547 0
68 -0.5 0.2000000000008318 0
69 -0.5 0.1000000000011089 0
70 -0.5 1.375122238300719e-12 0
71 -0.5 -0.09999999999889131 0
72 -0.5 -0.1999999999991684 0
73 -0.5 -0.2999999999994456 0
74 -0.5 -0.3999999999997228 0
75 -0.5 0.4500000000001293 0
76 -0.5 0.3500000000004057 0
77 -0.5 0.2500000000006932 0
78 -0.5 0.1500000000009704 0
79 -0.5 0.05000000000124205 0
80 -0.5 -0.04999999999875815 0
81 -0.5 -0.1499999999990299 0
82 -0.5 -0.249999999999307 0
83 -0.5 -0.3499999999995842 0
84 -0.5 -0.4499999999998614 0
85 -0.1902113032590799 0.06180339887483827 0
86 -0.1618033988751638 0.1175570504582548 0
87 -0.117557050458742 0.1618033988748098 0
88 -0.06180339887512018 0.1902113032589883 0
89 -0.1975376681190386 0.03128689300797657 0
90 -0.1782013048377809 0.09079809994769877 0
91 -0.1414213562375997 0.1414213562370193 0
92 -0.0907980999481126 0.17820130483757 0
93 -0.03128689300811255 0.197537668119017 0
94 0.06180339887483256 0.1902113032590817 0
95 0.1175570504582202 0.1618033988751888 0
96 0.1618033988748186 0.1175570504587297 0
97 0.1902113032589903 0.06180339887511378 0
98 0.03128689300797931 0.1975376681190381 0
99 0.09079809994767001 0.1782013048377955 0
100 0.1414213562370422 0.1414213562375767 0
101 0.1782013048375993 0.090798099948055 0
102 0.1975376681190215 0.03128689300808416 0
103 0.1902113032590817 -0.06180339887483256 0
104 0.1618033988751888 -0.1175570504582202 0
105 0.1175570504587297 -0.1618033988748186 0
106 0.06180339887511378 -0.1902113032589903 0
107 0.1975376681190381 -0.03128689300797931 0
108 0.1782013048377955 -0.09079809994767001 0
109 0.1414213562375767 -0.1414213562370422 0
110 0.090798099948055 -0.1782013048375993 0
111 0.03128689300808416 -0.1975376681190215 0
112 -0.06180339887483827 -0.1902113032590799 0
113 -0.1175570504582548 -0.1618033988751638 0
114 -0.1618033988748098 -0.117557050458742 0
115 -0.1902113032589883 -0.06180339887512018 0
116 -0.03128689300797657 -0.1975376681190386 0
117 -0.09079809994769877 -0.1782013048377809 0
118 -0.1414213562370193 -0.1414213562375997 0
119 -0.17820130483757 -0.0907980999481126 0
120 -0.197537668119017 -0.03128689300811255 0
121 -0.1991891562924771 0.2142774552259184 0
122 -0.2091546131314014 -0.1645426947738793 0
123 0.2107359396595745 0.1630954902984711 0
124 0.1997442752974364 -0.214002301139475 0
125 -0.2484145305146559 -0.01579917761160621 0
126 -0.007308865823628928 0.25634111424339 0
127 0.250090771183313 0.01527186612643736 0
128 0.00776127573766307 -0.2561792355814239 0
129 -0.4007358211640998 -0.2059152295304832 0
130 0.4019337090983305 0.2055886015523477 0
131 0.2903942840706041 -0.4041154485420723 0
132 -0.290049851635306 0.40417336929615 0
133 -0.1976730898311328 -0.3784521104304482 0
134 0.2006621843413588 0.3779677384144781 0
135 -0.3994823021568116 0.1940595187052463 0
136 0.400044694963212 -0.1938852953536097 0
137 0.1942254905326232 -0.4089394825813422 0
138 -0.193321221379485 0.408699274303797 0
139 -0.4035087373845215 -0.3034928410295681 0
140 0.4042354446628192 0.303416091020548 0
141 -0.4044338566204303 0.01515973036069848 0
142 -0.09837998886654978 0.4110967413796443 0
143 0.4056682251393244 -0.0152380480887583 0
144 0.09920926428750541 -0.4109987367620666 0
145 0.005492786766316158 -0.4106991375357936 0
146 -0.004941542109922523 0.4110681076591909 0
147 -0.3920197066495378 0.3998924755366268 0
148 0.3920200550626646 -0.3999151343656052 0
149 -0.4018879340743465 -0.4000722328876213 0
150 0.4022113268158415 0.4002613413311633 0
151 0.2689186810138218 -0.2576147796285908 0
152 -0.2680558878054816 0.2575564954347928 0
153 -0.227242705851833 -0.2517565898943592 0
154 0.23110221336343 0.2494521894377181 0
155 -0.06348771956311726 -0.2465603243346885 0
156 0.06450915274537868 0.2462086486761664 0
157 -0.2472294543481274 0.04998557466947566 0
158 0.2485106228595129 -0.0499245376874619 0
159 0.1891168586334172 -0.319468509277992 0
160 -0.1888219686793622 0.3201420871965184 0
161 0.08969008978148557 0.4031720066869218 0
162 -0.08867585263570221 -0.4032400157744317 0
163 0.405878463894437 -0.1059105527099192 0
164 -0.404960721771896 0.1062563392550871 0
165 0.3849362074351998 0.09358177664202205 0
166 -0.3832543624867898 -0.09414759880878218 0
167 -0.3736051530818002 0.2893822900608781 0
168 0.37400114579634 -0.2892714892252965 0
169 -0.3051217116450771 -0.397671370989593 0
170 0.30580624966763 0.3978648394855374 0
171 -0.0866798008854885 0.248272219331335 0
172 0.08700368222099818 -0.2479646020882805 0
173 -0.2361353837133878 -0.08046303819331412 0
174 0.237783798820753 0.07962367144884822 0
175 -0.3118733685371388 -0.3068942287507899 0
176 0.3134002204841614 0.3066286087809614 0
177 -0.1332122475367215 -0.2175838914074504 0
178 0.1342807066922619 0.2168897750508672 0
179 -0.2312769827811209 0.1200126112306353 0
180 0.2321970326811225 -0.1196228175918461 0
181 -0.0971502761863396 0.3253095829253021 0
182 0.09763949162518694 -0.3247818307352314 0
183 -0.2952896951990558 -0.1428843895322292 0
184 0.2978845466619415 0.1417495371832621 0
185 -0.1535765424166824 -0.2889741786626245 0
186 0.154546658871497 0.2881365502883088 0
187 -0.3142975425735328 0.1146289117419867 0
188 0.3155028370051812 -0.1143370732123769 0
189 -0.2766416550766096 0.3159869015186831 0
190 0.2775463130332929 -0.3162526503651685 0
191 0.2497617585000045 0.3079208512478082 0
192 -0.2478075924571995 -0.3085909753122421 0
193 -0.2807742105841468 -0.08896977947960116 0
194 0.2830863240313419 0.08793276832953567 0
195 0.07604920426479805 0.3168099521635948 0
196 -0.07514788466854554 -0.3168946852227978 0
197 -0.3184800305371066 0.03364838431561364 0
198 0.3201152606300448 -0.03380515615554352 0
199 0.008903047432022807 -0.3272899566091797 0
200 -0.008250540074676871 0.327561653932166 0
201 0.3113376469037875 0.2221217743740116 0
202 -0.3092160417761693 -0.2230499535875913 0
203 0.3094517117015 -0.1904859189635419 0
204 -0.3088560094335481 0.1911626630502135 0
205 0.3083938264670494 -0.2432235523725166 0
206 -0.3068766451178079 0.2426732022431014 0
207 0.3066758081881062 0.03973692429827655 0
208 -0.3046870287730102 -0.04037164214806672 0
209 -0.1429344785889828 0.2312748372786267 0
210 -0.09191503853591405 0.2867909011283185 0
211 -0.1429861224328509 0.3227258350609102 0
212 -0.1940055624859197 0.2672097712112184 0
213 -0.1429603005109169 0.2770003361697684 0
214 0.1433739787592173 -0.2309834516138777 0
215 0.09232158692309256 -0.2863732164117559 0
216 0.1433781751293021 -0.3221251700066117 0
217 0.1944305669654268 -0.2667354052087335 0
218 0.1433760769442597 -0.2765543108102447 0
219 -0.3115767760035405 0.1528957873961 0
220 -0.3541691557951799 0.1926110908777299 0
221 -0.4022215119643539 0.1501579289801667 0
222 -0.3596291321727144 0.1104426254985369 0
223 -0.3568991439839472 0.1515268581881334 0
224 0.3124772743533406 -0.1524114960879595 0
225 0.354748203332356 -0.1921856071585758 0
226 0.4029615794288245 -0.1498979240317645 0
227 0.3606906504498091 -0.1101238129611481 0
228 0.3577194268910825 -0.1511547100598619 0
229 0.1451761370614222 0.3905698725506999 0
230 0.08286964702314181 0.3599909794252583 0
231 0.1152979315681475 0.3024732512259518 0
232 0.1776044216064279 0.3330521443513934 0
233 0.1302370343147849 0.3465215618883258 0
234 -0.1431744712334175 -0.39084606310244 0
235 -0.08191186865212388 -0.3600673504986147 0
236 -0.1143622135426139 -0.3029344319427112 0
237 -0.1756248161239076 -0.3337131445465364 0
238 -0.1287683423880157 -0.3468902475225756 0
239 -0.340240899099804 0.2660277461519897 0
240 -0.3865437276193059 0.2417209043830622 0
241 -0.307866327275678 0.2169179326466574 0
242 -0.3472050274474919 0.2293194185148598 0
243 0.3411974861316947 -0.2662475207989066 0
244 0.387022920379776 -0.2415783922894531 0
245 0.3089227690842747 -0.2168547356680293 0
246 0.3479728447320254 -0.2292165639787412 0
247 -0.308497540091108 -0.3522827998701914 0
248 -0.251397400738105 -0.3880617407100206 0
249 -0.2227403411441662 -0.3435215428713452 0
250 -0.2798404804971691 -0.3077426020315159 0
251 -0.265618940617637 -0.3479021713707683 0
252 0.3096032350758957 0.3522467241332494 0
253 0.2532342170044944 0.3879162889500077 0
254 0.2252119714206817 0.3429442948311431 0
255 0.281580989492083 0.3072747300143848 0
256 0.2674076032482887 0.3475955094821963 0
257 0.09842437795634618 -0.367890283748649 0
258 0.1467173774100643 -0.4099691096717044 0
259 0.1916711745830202 -0.3642039959296671 0
260 0.1450477762696832 -0.366047139839158 0
261 -0.0977651325264447 0.3682031621524732 0
262 -0.1458506051230174 0.4098980078417207 0
263 -0.1910715950294236 0.3644206807501577 0
264 -0.1444183637779342 0.3663119214513154 0
265 -0.2327318118779859 0.3180644943576008 0
266 -0.2723487714410456 0.286771698476738 0
267 -0.2336225220489793 0.2359169753303556 0
268 -0.2331771669634826 0.2769907348439782 0
269 0.2333315858333551 -0.3178605798215802 0
270 0.2732324970235573 -0.2869337149968797 0
271 0.2343314781556291 -0.2358085403840329 0
272 0.2338315319944921 -0.2768345601028066 0
273 -0.2375251491545163 -0.2801737826033006 0
274 -0.1904096241342577 -0.2703653842784919 0
275 -0.2065749826392119 -0.3069434635749185 0
276 0.2404319859317173 0.2786865203427631 0
277 0.1928244361174635 0.2687943698630134 0
278 0.2090182037690726 0.3058693323470782 0
279 -0.4046972891961632 0.06070803480789278 0
280 -0.3614569435787685 0.02440405733815606 0
281 -0.3163887865553197 0.07413864802880016 0
282 -0.3605430378757414 0.06742334141834647 0
283 0.4057733445168807 -0.06057430039933877 0
284 0.3628917428846846 -0.02452160212215091 0
285 0.317809048817613 -0.07407111468396024 0
286 0.3617911966672468 -0.06732270754164951 0
287 0.3123689336939744 0.2643751915774865 0
288 0.2712199301336087 0.2357869819058649 0
289 0.2764004598128459 0.2715308559601248 0
290 -0.3105447051566541 -0.2649720911691906 0
291 -0.2682293738140012 -0.2374032717409753 0
292 -0.2740349271555852 -0.2725729368862456 0
293 0.05235102552691078 -0.4108489371489301 0
294 0.05327126952860487 -0.3260358936722055 0
295 0.007197917099169482 -0.3689945470724867 0
296 0.05281114752775783 -0.3684424154105678 0
297 -0.05166076548823615 0.4110824245194176 0
298 -0.05270040813050824 0.326435618428734 0
299 -0.006596041092299698 0.3693148807956784 0
300 -0.0521805868093722 0.3687590214740758 0
301 0.3588178325734903 0.3050223499007547 0
302 0.356635678001059 0.2138551879631796 0
303 0.4030845768805749 0.2545023462864479 0
304 0.3577267552872747 0.2594387689319672 0
305 -0.3576910529608301 -0.305193534890179 0
306 -0.3549759314701346 -0.2144825915590372 0
307 -0.4021222792743107 -0.2547040352800257 0
308 -0.3563334922154824 -0.2598380632246081 0
309 0.2839702985519486 -0.3601840494536204 0
310 0.3412071695666343 -0.4020152914538387 0
311 0.3830106004295023 -0.3445933117954508 0
312 0.3257737294148164 -0.3027620697952325 0
313 0.3334904494907254 -0.3523886806245357 0
314 -0.2833457533559578 0.3600801354074166 0
315 -0.3410347791424219 0.4020329224163884 0
316 -0.382812429865669 0.3446373827987524 0
317 -0.3251234040792049 0.3026845957897806 0
318 -0.3330790916108134 0.3523587591030845 0
319 -0.2416855365073955 0.4064363217999735 0
320 -0.2372086741926907 0.3622504080787871 0
321 0.2423098873016137 -0.4065274655617072 0
322 0.2378207365674844 -0.3621940226916437 0
323 -0.2181986594916172 -0.2081496423341193 0
324 -0.2522221541652286 -0.1537135421530542 0
325 -0.3022528684876126 -0.1829671715599102 0
326 -0.2602257639896149 -0.1955584069470148 0
327 0.2209190765115023 0.2062738398680946 0
328 0.254310243160758 0.1524225137408666 0
329 0.3046110967828645 0.1819356557786369 0
330 0.2627650866471833 0.1941047478233657 0
331 0.4032233857393304 0.3518387161758557 0
332 0.3540087882417358 0.3990630904083504 0
333 0.356413310407613 0.3520427201545526 0
334 -0.402698335729434 -0.3517825369585947 0
335 -0.3535048228597118 -0.3988718019386072 0
336 -0.355597937910271 -0.3520326684143931 0
337 0.09960463214319837 -0.4554993683810333 0
338 0.1971127452658958 -0.4544697412906711 0
339 0.1483586887045471 -0.4549845548358522 0
340 -0.09918999443272054 0.4555483706898221 0
341 -0.1966606106893267 0.4543496371518985 0
342 -0.1479253025610237 0.4549490039208604 0
343 -0.002470771054273701 0.4555340538295954 0
344 -0.05083038274349715 0.4555412122597088 0
345 0.002746393382470518 -0.4553495687678968 0
346 0.05117551276283447 -0.455424468574465 0
347 -0.1988365449159823 -0.4392260552152241 0
348 -0.09433792631840557 -0.4516200078872158 0
349 -0.1465872356171939 -0.44542303155122 0
350 0.2003310921710953 0.438983869207239 0
351 0.09484504489129725 0.4515860033434609 0
352 0.1475880685311963 0.44528493627535 0
353 -0.3025608558228159 -0.4488356854947965 0
354 -0.2506987003693991 -0.4440308703550103 0
355 0.3029031248340923 0.4489324197427687 0
356 0.2516171085025938 0.4439581444750039 0
357 0.2951971420350249 -0.4520577242710361 0
358 0.2461549436504603 -0.4532637327808536 0
359 -0.2950249258173758 0.452086684648075 0
360 -0.2458427682533512 0.4532181608999868 0
361 0.04237427383578152 0.4071200571730563 0
362 0.04618713691851178 0.4535600285865282 0
363 -0.04159153293469303 -0.4069695766551127 0
364 -0.04579576646796754 -0.4534847883275563 0
365 -0.4497411510784058 0.1970297593530391 0
366 -0.452480360885948 0.103128169628098 0
367 -0.4511107559821769 0.1500789644905685 0
368 0.450022347481606 -0.1969426476772208 0
369 0.4529392319472185 -0.1029552763555141 0
370 0.4514807897144123 -0.1499489620163674 0
371 -0.2874662664616447 0.2501148488389471 0
372 -0.3062948352704249 0.2763997223143638 0
373 0.2886562537404356 -0.2504191660005537 0
374 0.307214991577626 -0.2765906178978931 0
375 -0.4522169283102151 0.0075798651810368 0
376 -0.4523486445980816 0.05535401740456741 0
377 0.4528341125696622 -0.007619024045066713 0
378 0.4528866722584404 -0.0552871502002904 0
379 -0.4368025765409001 0.2946911450307164 0
380 -0.4432718638096529 0.2458604521918777 0
381 0.43700057289817 -0.2946357446129256 0
382 0.443511460189888 -0.2457891961450732 0
383 0.4424681037175999 0.09679088832045668 0
384 0.3953022162872621 0.03917186427663187 0
385 0.4476511081436311 0.04458593213769502 0
386 -0.4416271812433949 -0.09707379940383674 0
387 -0.39384410955361 -0.03949393422404185 0
388 -0.446922054776805 -0.0447469671114 0
389 -0.4503679105820499 -0.2029576147648258 0
390 -0.3919950918254448 -0.1500314141696327 0
391 -0.4459975459127223 -0.1500157070843313 0
392 0.4509668545491652 0.2027943007757581 0
393 0.3934349582667651 0.1495851890971849 0
394 0.4467174791333826 0.1497925945481074 0
395 0.07440354054805598 -0.2190879526736354 0
396 0.003880637868831535 -0.2280896177907119 0
397 0.04738247897933062 -0.2520719188348521 0
398 0.03933468599370738 -0.2248047934769368 0
399 -0.213173343486188 -0.07113321853421714 0
400 -0.224207265257328 -0.007899588805803104 0
401 -0.2422749571140219 -0.04813110790246016 0
402 -0.2199063126165194 -0.03970900045528637 0
403 0.2139975510398716 0.07071353516198099 0
404 0.2250453855916565 0.00763593306321868 0
405 0.243937285002033 0.04744776878764279 0
406 0.2207374765605272 0.03936733089786347 0
407 -0.07424159988030435 0.2192417612951616 0
408 -0.003654432911814464 0.228170557121695 0
409 -0.04699433335455871 0.2523066667873625 0
410 -0.03914061318133563 0.2249221674531898 0
411 0.3414103770485706 0.1176656569126421 0
412 0.3490230275248148 0.1657604224379109 0
413 -0.3392720288429228 -0.1185159941705057 0
414 -0.3471239801565287 -0.1664992928647714 0
415 -0.2880319528916013 -0.1159270845059152 0
416 -0.2226449984223946 -0.1225028664835967 0
417 -0.2584547971487673 -0.08471640883645765 0
418 -0.255338475656998 -0.1192149754947559 0
419 0.2904854353466417 0.1148411527563989 0
420 0.2242598692401638 0.1213595808736597 0
421 0.2604350614260474 0.08377821988919194 0
422 0.2573726522934027 0.1181003668150293 0
423 0.09939492971882027 0.2315492118635168 0
424 0.1444136827818794 0.252513162669588 0
425 0.07027917850508836 0.2815093004198806 0
426 0.1073464306434839 0.2670112315447343 0
427 -0.09834998354991939 -0.2320721078710694 0
428 -0.1433943949767019 -0.2532790350350375 0
429 -0.0693178021158314 -0.2817275047787431 0
430 -0.1063560985462667 -0.2675032699068903 0
431 -0.2392532185646241 0.08499909295005548 0
432 -0.2727872626773269 0.117320761486311 0
433 -0.282854742442617 0.04181697949254465 0
434 -0.2778210025599719 0.07956887048942782 0
435 0.2403538277703177 -0.08477367763965399 0
436 0.2738499348431518 -0.1169799454021115 0
437 0.2843129417447788 -0.0418648469215027 0
438 0.2790814382939653 -0.0794223961618071 0
439 -0.4517543686922607 -0.3017464205145068 0
440 -0.4510611396371553 -0.2523520176396663 0
441 0.4521177223314096 0.3017080455099968 0
442 0.4515422884402874 0.2522511731428774 0
443 -0.3439706956299 -0.06725962047842445 0
444 -0.3115835296550584 -0.003361628916226538 0
445 -0.3527138196043342 -0.0214277815701342 0
446 -0.2927306196785785 -0.06467071081383394 0
447 -0.3160013242607507 -0.09159335249216981 0
448 0.345806007811653 0.0666593504701493 0
449 0.2948810661097241 0.06383484631390611 0
450 0.3181457215791473 0.09075025161327409 0
451 0.3960100275311937 -0.4499575671828026 0
452 0.3456035847831093 -0.4510076457269193 0
453 -0.3960098533246303 0.4499462377683134 0
454 -0.345517389571003 0.4510164612081942 0
455 -0.4460098533247689 0.3999462377684521 0
456 -0.4414062149328345 0.347318691399579 0
457 0.4460100275313323 -0.3999575671829412 0
458 0.4415053002147511 -0.3472966558979282 0
459 -0.4480049266623151 0.4499731188842214 0
460 0.4480050137655968 -0.4499787835914659 0
461 0.4511056634079208 0.4001306706654431 0
462 0.4516116928696652 0.35091935808772 0
463 -0.4509439670371732 -0.400036116443672 0
464 -0.451349167864717 -0.3508912684790895 0
465 -0.4009439670373118 -0.4500361164438106 0
466 -0.3517524114300587 -0.4494359009693035 0
467 0.4011056634080594 0.4501306706655817 0
468 0.3520043941210708 0.4495315452041752 0
469 -0.4504719835186513 -0.450018058221836 0
470 0.450552831704025 0.4500653353327215 0
471 -0.1253846489974881 -0.1896936451413071 0
472 -0.1854790060031056 -0.1410498726163106 0
473 -0.1711834303340615 -0.1910632930906648 0
474 -0.1563023932855404 -0.1662423246641322 0
475 -0.1965401908281423 0.118784830844445 0
476 -0.1583731033756096 0.1880404270503641 0
477 -0.215233069536799 0.1671450332282768 0
478 -0.1783272128871993 0.1542831947326481 0
479 0.1970002157781557 -0.1185899340250331 0
480 0.1586506628780831 -0.1879028500071468 0
481 0.2159706539892794 -0.1668125593656605 0
482 0.1786960051134281 -0.1541169578013514 0
483 0.125918878575241 0.189346586963028 0
484 0.1862696692671966 0.1403262703786004 0
485 0.1725083231759182 0.1899926326746691 0
486 0.1569648397064802 0.1657069944561229 0
487 0.008332161584842939 -0.2917345960953018 0
488 0.05032687425396776 -0.2890539062535289 0
489 -0.0077797029491529 0.291951384087778 0
490 -0.04984737074253347 0.2893711426080482 0
491 0.2783832896857096 0.02750439521235695 0
492 0.2694091755558786 0.05564130755077445 0
493 -0.1168662892685477 0.2047380710580984 0
494 0.1170860393536362 -0.2045923782257385 0
495 -0.2004231516299823 -0.1066504832158547 0
496 0.2012305870388815 0.1060788404108573 0
497 0.2545979934994682 -0.2022441100515085 0
498 0.2716271236199519 -0.2263316380260311 0
499 -0.2540225828630126 0.202720059138066 0
500 -0.2707444246623287 0.2264174539885065 0
501 0.02860014346087487 0.2512748814597782 0
502 0.03389933209506059 0.3221858030478804 0
503 0.03124973777796774 0.2867303422538292 0
504 -0.02786322191272709 -0.2513697799580562 0
505 -0.03312241861826137 -0.3220923209159887 0
506 -0.03049282026549423 -0.2867310504370225 0
507 0.249300697021413 -0.01732633578051227 0
508 0.3133955344090755 0.002965884071366519 0
509 0.2813481157152442 -0.007180225854572874 0
510 -0.2765507796438331 -0.02808540987983646 0
511 -0.2478219924313916 0.01709319852893473 0
512 -0.2797027610432251 0.006865784806354094 0
513 0.03813680296542105 0.3646529301104683 0
514 -0.0373569757764772 -0.3645309487855506 0
515 -0.2675027883963002 -0.05640090935814704 0
516 0.3543488753481688 0.0210688741739992 0
517 0.06315627581010562 0.218209975967624 0
518 0.02994351823442709 0.2244062747894081 0
519 -0.06264555921897777 -0.2183858137968842 0
520 -0.02957505746035183 -0.2244537240385474 0
521 0.2193609630592973 -0.05586396828114723 0
522 0.2234191825702256 -0.02430661439424579 0
523 -0.2187203788036036 0.05589448677215696 0
524 -0.2226798302752152 0.02419004576845565 0
525 -0.1807965272341596 -0.2307143386845784 0
526 0.1826663796466908 0.2293935012688413 0
527 -0.2634049227701697 0.1600204103121885 0
528 0.26422396417131 -0.15961202772681 0
529 0.09509651483324515 0.2048752583506561 0
530 -0.09457404174880907 -0.2051367063544251 0
531 0.2092775663040566 -0.087785888793662 0
532 -0.2087272617012025 0.08789859644887713 0
$EndNodes
$Elements
162
1 15 2 1 1 1
2 15 2 2 2 2
3 15 2 3 3 3
4 15 2 4 4 4
5 8 2 1 1 1 9 18
6 8 2 1 1 9 10 19
7 8 2 1 1 10 11 20
8 8 2 1 1 11 12 21
9 8 2 1 1 12 13 22
10 8 2 1 1 13 14 23
11 8 2 1 1 14 15 24
12 8 2 1 1 15 16 25
13 8 2 1 1 16 17 26
14 8 2 1 1 17 2 27
15 8 2 2 2 2 28 37
16 8 2 2 2 28 29 38
17 8 2 2 2 29 30 39
18 8 2 2 2 30 31 40
19 8 2 2 2 31 32 41
20 8 2 2 2 32 33 42
21 8 2 2 2 33 34 43
22 8 2 2 2 34 35 44
23 8 2 2 2 35 36 45
24 8 2 2 2 36 3 46
25 8 2 3 3 3 47 56
26 8 2 3 3 47 48 57
27 8 2 3 3 48 49 58
28 8 2 3 3 49 50 59
29 8 2 3 3 50 51 60
30 8 2 3 3 51 52 61
31 8 2 3 3 52 53 62
32 8 2 3 3 53 54 63
33 8 2 3 3 54 55 64
34 8 2 3 3 55 4 65
35 8 2 4 4 4 66 75
36 8 2 4 4 66 67 76
37 8 2 4 4 67 68 77
38 8 2 4 4 68 69 78
39 8 2 4 4 69 70 79
40 8 2 4 4 70 71 80
41 8 2 4 4 71 72 81
42 8 2 4 4 72 73 82
43 8 2 4 4 73 74 83
44 8 2 4 4 74 1 84
45 10 2 11 11 121 171 181 160 209 210 211 212 213
46 10 2 11 11 124 172 182 159 214 215 216 217 218
47 10 2 11 11 187 204 135 164 219 220 221 222 223
48 10 2 11 11 188 203 136 163 224 225 226 227 228
49 10 2 11 11 134 161 195 186 229 230 231 232 233
50 10 2 11 11 133 162 196 185 234 235 236 237 238
51 10 2 11 11 206 167 135 204 239 240 220 241 242
52 10 2 11 11 205 168 136 203 243 244 225 245 246
53 10 2 11 11 175 169 133 192 247 248 249 250 251
54 10 2 11 11 176 170 134 191 252 253 254 255 256
55 10 2 11 11 182 144 137 159 257 258 259 216 260
56 10 2 11 11 181 142 138 160 261 262 263 211 264
57 10 2 11 11 121 160 189 152 212 265 266 267 268
58 10 2 11 11 124 159 190 151 217 269 270 271 272
59 10 2 11 11 153 192 133 185 273 249 237 274 275
60 10 2 11 11 154 191 134 186 276 254 232 277 278
61 10 2 11 11 187 164 141 197 222 279 280 281 282
62 10 2 11 11 188 163 143 198 227 283 284 285 286
63 10 2 11 11 201 176 191 154 287 255 276 288 289
64 10 2 11 11 202 175 192 153 290 250 273 291 292
65 10 2 11 11 145 144 182 199 293 257 294 295 296
66 10 2 11 11 146 142 181 200 297 261 298 299 300
67 10 2 11 11 140 176 201 130 301 287 302 303 304
68 10 2 11 11 139 175 202 129 305 290 306 307 308
69 10 2 11 11 190 131 148 168 309 310 311 312 313
70 10 2 11 11 189 132 147 167 314 315 316 317 318
71 10 2 11 11 132 189 160 138 314 265 263 319 320
72 10 2 11 11 131 190 159 137 309 269 259 321 322
73 10 2 11 11 202 153 122 183 291 323 324 325 326
74 10 2 11 11 201 154 123 184 288 327 328 329 330
75 10 2 11 11 176 140 150 170 301 331 332 252 333
76 10 2 11 11 175 139 149 169 305 334 335 247 336
77 10 2 11 11 137 144 14 15 258 337 24 338 339
78 10 2 11 11 138 142 52 53 262 340 62 341 342
79 10 2 11 11 146 51 52 142 343 61 340 297 344
80 10 2 11 11 145 13 14 144 345 23 337 293 346
81 10 2 11 11 162 133 11 12 234 347 21 348 349
82 10 2 11 11 161 134 49 50 229 350 59 351 352
83 10 2 11 11 169 10 11 133 353 20 347 248 354
84 10 2 11 11 170 48 49 134 355 58 350 253 356
85 10 2 11 11 131 137 15 16 321 338 25 357 358
86 10 2 11 11 132 138 53 54 319 341 63 359 360
87 10 2 11 11 146 161 50 51 361 351 60 343 362
88 10 2 11 11 145 162 12 13 363 348 22 345 364
89 10 2 11 11 164 135 68 69 221 365 78 366 367
90 10 2 11 11 163 136 30 31 226 368 40 369 370
91 10 2 11 11 167 206 152 189 239 371 266 317 372
92 10 2 11 11 168 205 151 190 243 373 270 312 374
93 10 2 11 11 141 164 69 70 279 366 79 375 376
94 10 2 11 11 143 163 31 32 283 369 41 377 378
95 10 2 11 11 167 67 68 135 379 77 365 240 380
96 10 2 11 11 168 29 30 136 381 39 368 244 382
97 10 2 11 11 143 32 33 165 377 42 383 384 385
98 10 2 11 11 141 70 71 166 375 80 386 387 388
99 10 2 11 11 166 71 72 129 386 81 389 390 391
100 10 2 11 11 165 33 34 130 383 43 392 393 394
101 10 2 11 11 172 106 8 128 395 111 396 397 398
102 10 2 11 11 173 115 5 125 399 120 400 401 402
103 10 2 11 11 174 97 7 127 403 102 404 405 406
104 10 2 11 11 171 88 6 126 407 93 408 409 410
105 10 2 11 11 165 130 201 184 393 302 329 411 412
106 10 2 11 11 166 129 202 183 390 306 325 413 414
107 10 2 11 11 193 183 122 173 415 324 416 417 418
108 10 2 11 11 194 184 123 174 419 328 420 421 422
109 10 2 11 11 156 178 186 195 423 424 231 425 426
110 10 2 11 11 155 177 185 196 427 428 236 429 430
111 10 2 11 11 157 179 187 197 431 432 281 433 434
112 10 2 11 11 158 180 188 198 435 436 285 437 438
113 10 2 11 11 129 72 73 139 389 82 439 307 440
114 10 2 11 11 130 34 35 140 392 44 441 303 442
115 10 2 11 11 166 208 197 141 443 444 280 387 445
116 10 2 11 11 208 166 183 193 443 413 415 446 447
117 10 2 11 11 207 165 184 194 448 411 419 449 450
118 10 2 11 11 131 16 17 148 357 26 451 310 452
119 10 2 11 11 132 54 55 147 359 64 453 315 454
120 10 2 11 11 167 147 66 67 316 455 76 379 456
121 10 2 11 11 168 148 28 29 311 457 38 381 458
122 10 2 11 11 66 147 55 4 455 453 65 75 459
123 10 2 11 11 28 148 17 2 457 451 27 37 460
124 10 2 11 11 140 35 36 150 441 45 461 331 462
125 10 2 11 11 139 73 74 149 439 83 463 334 464
126 10 2 11 11 169 149 9 10 335 465 19 353 466
127 10 2 11 11 170 150 47 48 332 467 57 355 468
128 10 2 11 11 9 149 74 1 465 463 84 18 469
129 10 2 11 11 47 150 36 3 467 461 46 56 470
130 10 2 11 11 177 113 114 122 471 118 472 473 474
131 10 2 11 11 179 86 87 121 475 91 476 477 478
132 10 2 11 11 180 104 105 124 479 109 480 481 482
133 10 2 11 11 178 95 96 123 483 100 484 485 486
134 10 2 11 11 172 128 199 182 397 487 294 215 488
135 10 2 11 11 171 126 200 181 409 489 298 210 490
136 10 2 11 11 174 127 207 194 405 491 449 421 492
137 10 2 11 11 171 121 87 88 209 476 92 407 493
138 10 2 11 11 172 124 105 106 214 480 110 395 494
139 10 2 11 11 173 122 114 115 416 472 119 399 495
140 10 2 11 11 174 123 96 97 420 484 101 403 496
141 10 2 11 11 205 203 124 151 245 497 271 373 498
142 10 2 11 11 206 204 121 152 241 499 267 371 500
143 10 2 11 11 200 126 156 195 489 501 425 502 503
144 10 2 11 11 199 128 155 196 487 504 429 505 506
145 10 2 11 11 207 127 158 198 491 507 437 508 509
146 10 2 11 11 208 125 157 197 510 511 433 444 512
147 10 2 11 11 161 146 200 195 361 299 502 230 513
148 10 2 11 11 162 145 199 196 363 295 505 235 514
149 10 2 11 11 125 208 193 173 510 446 417 401 515
150 10 2 11 11 165 207 198 143 448 508 284 384 516
151 10 2 11 11 94 156 126 6 517 501 408 98 518
152 10 2 11 11 112 155 128 8 519 504 396 116 520
153 10 2 11 11 103 158 127 7 521 507 404 107 522
154 10 2 11 11 85 157 125 5 523 511 400 89 524
155 10 2 11 11 122 153 185 177 323 274 428 473 525
156 10 2 11 11 123 154 186 178 327 277 424 485 526
157 10 2 11 11 121 204 187 179 499 219 432 477 527
158 10 2 11 11 124 203 188 180 497 224 436 481 528
159 10 2 11 11 95 178 156 94 483 423 517 99 529
160 10 2 11 11 113 177 155 112 471 427 519 117 530
161 10 2 11 11 104 180 158 103 479 435 521 108 531
162 10 2 11 11 86 179 157 85 475 431 523 90 532
$EndElements
