mm = 1;
l = 1*mm;
t = 0.025*mm;
lsca = t;

x[0] = 0; y[0]= 0;
x[1] = x[0]+l/2; y[1] = y[0];
x[2] = x[1] +l/2; y[2] = y[1]+l/2;
x[3] = x[1]; y[3] = y[1]+l;
x[4] = x[0]; y[4] = y[2];

x[5] = x[1]+t; y[5] = y[1];
x[6] = x[5]; y[6]=y[2]-t;
x[7] = x[2]; y[7] = y[6];
x[8] = x[7]; y[8] = y[7]+2*t;

x[9] = x[6]; y[9] = y[8];
x[10] = x[9]; y[10] = y[3];

x[11] = x[3]-t; y[11] = y[3];
x[12] = x[11]; y[12] = y[4]+t;
x[13] = x[4]; y[13] = y[4]+t;
x[14] = x[4]; y[14] = y[4]-t;

x[15] = x[12]; y[15] = y[14];
x[16] = x[15]; y[16] = y[1];


For i In {5:16}
	Point(i) = {x[i],y[i],0,lsca};
EndFor


Line(1) = {14, 15};
Line(2) = {15, 16};
Line(3) = {16, 5};
Line(4) = {5, 6};
Line(5) = {6, 7};
Line(6) = {7, 8};
Line(7) = {8, 9};
Line(8) = {9, 10};
Line(9) = {10, 11};
Line(10) = {11, 12};
Line(11) = {12, 13};
Line(12) = {13, 14};
Line(13) = {12, 9};
Line(14) = {9, 6};
Line(15) = {6, 15};
Line(16) = {15, 12};
Line Loop(17) = {8, 9, 10, 13};
Plane Surface(18) = {17};
Line Loop(19) = {7, 14, 5, 6};
Plane Surface(20) = {19};
Line Loop(21) = {4, 15, 2, 3};
Plane Surface(22) = {21};
Line Loop(23) = {1, 16, 11, 12};
Plane Surface(24) = {23};
Line Loop(25) = {13, 14, 15, 16};
Plane Surface(26) = {25};
Coherence;
Translate {1, 0, 0} {
  Duplicata { Surface{26, 24, 22, 20, 18}; }
}
Translate {2, 0, 0} {
  Duplicata { Surface{24, 22, 26, 18, 20, 32, 37, 27, 47, 42}; }
}
Translate {4, 0, 0} {
  Duplicata { Surface{24, 22, 26, 18, 20, 32, 37, 27, 47, 42, 51, 56, 61, 66, 71, 76, 81, 86, 91, 96}; }
}
Translate {0, 1, 0} {
  Duplicata { Surface{24, 22, 26, 18, 20, 32, 37, 27, 47, 42, 51, 56, 61, 66, 71, 76, 81, 86, 91, 96, 101, 106, 111, 116, 121, 126, 131, 136, 141, 146, 151, 156, 161, 166, 171, 176, 181, 186, 191, 196}; }
}
Translate {0, 2, 0} {
  Duplicata { Surface{24, 22, 26, 18, 201, 206, 211, 216, 20, 221, 32, 37, 27, 47, 226, 231, 236, 241, 42, 246, 51, 56, 61, 66, 251, 256, 261, 266, 71, 271, 76, 81, 86, 91, 276, 281, 286, 291, 96, 296, 101, 106, 111, 116, 301, 306, 311, 316, 121, 321, 126, 131, 136, 141, 326, 331, 336, 341, 146, 346, 151, 156, 161, 166, 351, 356, 361, 366, 171, 371, 176, 181, 186, 191, 376, 381, 386, 391, 196, 396}; }
}
Translate {0, 4, 0} {
  Duplicata { Surface{24, 22, 26, 18, 201, 20, 206, 211, 216, 32, 37, 401, 221, 27, 406, 411, 47, 416, 226, 42, 231, 421, 441, 236, 426, 431, 241, 436, 51, 56, 451, 246, 61, 456, 446, 461, 66, 466, 251, 71, 256, 471, 491, 261, 476, 481, 266, 486, 76, 81, 501, 271, 86, 506, 496, 511, 91, 516, 276, 96, 281, 521, 541, 286, 526, 531, 291, 536, 101, 106, 551, 296, 111, 556, 546, 561, 116, 566, 301, 121, 306, 571, 591, 311, 576, 581, 316, 586, 126, 131, 601, 321, 136, 606, 596, 611, 141, 616, 326, 146, 331, 621, 641, 336, 626, 631, 341, 636, 151, 156, 651, 346, 161, 656, 646, 661, 166, 666, 351, 171, 356, 671, 691, 361, 676, 681, 366, 686, 176, 181, 701, 371, 186, 706, 696, 711, 191, 716, 376, 196, 381, 721, 741, 386, 726, 731, 391, 736, 751, 396, 756, 746, 761, 766, 771, 791, 776, 781, 786, 796}; }
}
Physical Line(1) = {3, 41, 60, 85, 110, 135, 160, 185};
Physical Line(2) = {200, 400, 795, 800, 1500, 1550, 1580, 1600};
Physical Line(3) = {1593, 1538, 1438, 1338, 1238, 1138, 1038, 938};
Physical Line(4) = {910, 860, 825, 805, 425, 405, 205, 12};
Physical Surface(11) = {24, 22, 26, 18, 201, 206, 20, 211, 216, 32, 401, 37, 406, 221, 27, 411, 47, 416, 226, 421, 231, 426, 42, 441, 236, 431, 241, 436, 51, 451, 801, 56, 456, 806, 246, 446, 61, 461, 811, 66, 466, 816, 251, 471, 821, 256, 476, 831, 71, 491, 826, 261, 481, 836, 266, 486, 841, 76, 501, 846, 856, 81, 506, 851, 871, 271, 496, 861, 86, 511, 866, 876, 91, 516, 881, 886, 276, 521, 891, 906, 281, 526, 901, 921, 96, 541, 896, 911, 286, 531, 916, 926, 291, 536, 931, 936, 101, 551, 941, 951, 106, 556, 946, 966, 296, 546, 956, 971, 111, 561, 961, 976, 116, 566, 981, 986, 301, 571, 991, 1006, 306, 576, 1001, 1021, 121, 591, 996, 1011, 311, 581, 1016, 1026, 316, 586, 1031, 1036, 126, 601, 1041, 1051, 131, 606, 1046, 1066, 321, 596, 1056, 1071, 136, 611, 1061, 1076, 141, 616, 1081, 1086, 326, 621, 1091, 1106, 331, 626, 1101, 1121, 146, 641, 1096, 1111, 336, 631, 1116, 1126, 341, 636, 1131, 1136, 151, 651, 1141, 1151, 156, 656, 1146, 1166, 346, 646, 1156, 1171, 161, 661, 1161, 1176, 166, 666, 1181, 1186, 351, 671, 1191, 1206, 356, 676, 1201, 1221, 171, 691, 1196, 1211, 361, 681, 1216, 1226, 366, 686, 1231, 1236, 176, 701, 1241, 1251, 181, 706, 1246, 1266, 371, 696, 1256, 1271, 186, 711, 1261, 1276, 191, 716, 1281, 1286, 376, 721, 1291, 1306, 381, 726, 1301, 1321, 196, 741, 1296, 1311, 386, 731, 1316, 1326, 391, 736, 1331, 1336, 751, 1341, 1351, 756, 1346, 1366, 396, 746, 1356, 1371, 761, 1361, 1376, 766, 1381, 1386, 771, 1391, 1406, 776, 1401, 1421, 791, 1396, 1411, 781, 1416, 1426, 786, 1431, 1436, 1441, 1451, 1446, 1466, 796, 1456, 1471, 1461, 1476, 1481, 1486, 1491, 1506, 1501, 1521, 1496, 1511, 1516, 1526, 1531, 1536, 1541, 1551, 1546, 1556, 1561, 1566, 1571, 1581, 1576, 1586, 1591, 1596};
Physical Point(1601) = {2896};
