// Extrusion and rotation. Christophe Geuzaine, Feb 2002.

lc = 0.005;
lc2 = 4*lc;

Point(1)={0.09,0,0,lc};
Point(2)={0.11,0,0,lc};
Point(3)={0,0.09,0,lc};
Point(4)={0,0.11,0,lc};
Point(5)={0.2,0.09,0,lc};
Point(6)={0.2,0.11,0,lc};
Point(7)={0.09,0.2,0,lc};
Point(8)={0.11,0.2,0,lc};
Point(9)={0.09,0.09,0,lc2};
Point(10)={0.09,0.11,0,lc2};
Point(11)={0.11,0.11,0,lc2};
Point(12)={0.11,0.09,0,lc2};

Line(1) = {1,2};
Line(2) = {2,12};
Line(3) = {12,5};
Line(4) = {5,6};
Line(5) = {6,11};
Line(6) = {11,8};
Line(7) = {8,7};
Line(8) = {7,10};
Line(9) = {10,4};
Line(10) = {4,3};
Line(11) = {3,9};
Line(12) = {9,1};

Line Loop(13) = {2,3,4,5,6,7,8,9,10,11,12,1};
Plane Surface(14) = {13};

turns = 1/3;
zz = 0.01;
cc = 0.1;

Extrude Surface {news-1, {0,0,2*zz}, {0,0,1} , {cc,cc,0} , 0}
                { Layers {2}; Recombine; };

For j In {1:3}
  Extrude Surface {news-1, {0,0,zz}, {0,0,1} , {cc,cc,0} , Pi/(40*(4-j))}
                  { Layers {1}; Recombine; };
EndFor

For j In {1:turns*8}
  Extrude Surface {news-1, {0,0,10*zz}, {0,0,1} , {cc,cc,0} , Pi/4}
                  { Layers {10}; Recombine; };
EndFor

For j In {1:3}
  Extrude Surface {news-1, {0,0,zz}, {0,0,1} , {cc,cc,0} , Pi/(40*j)}
                  { Layers {1}; Recombine; };
EndFor

Extrude Surface {news-1, {0,0,2*zz}, {0,0,1} , {cc,cc,0} , 0}
                { Layers {2}; Recombine; };

p = newp;

Point(p+1000)={0.1, -0.02, 0,lc};
Point(p+1001)={0.1, -0.01, 0,lc};
Point(p+1002)={0.1, -0.02, 0.01,lc};
Point(p+1003)={0.1, -0.03, 0,lc};
Point(p+1004)={0.1, -0.02, -0.01,lc};

Circle(1635) = {p+1001,p+1000,p+1002};
Circle(1636) = {p+1002,p+1000,p+1003};
Circle(1637) = {p+1003,p+1000,p+1004};
Circle(1638) = {p+1004,p+1000,p+1001};

Line Loop(1639) = {1635,1636,1637,1638};
Plane Surface(1640) = {1639};

turns = 2;
zz = 0.01/4;

For j In {1:8*turns}
  Extrude Surface {news-1, {0,0,10*zz}, {0,0,1} , {cc,cc,0} , Pi/4}
                  { Layers {10}; Recombine; };
EndFor

Point(p+4000)={0.1, -0.02 + 0.24, 0, lc};
Point(p+4001)={0.1, -0.01 + 0.24, 0, lc};
Point(p+4002)={0.1, -0.02 + 0.24, 0.01, lc};
Point(p+4003)={0.1, -0.03 + 0.24, 0, lc};
Point(p+4004)={0.1, -0.02 + 0.24, -0.01, lc};
Circle(4635) = {p+4001,p+4000,p+4002};
Circle(4636) = {p+4002,p+4000,p+4003};
Circle(4637) = {p+4003,p+4000,p+4004};
Circle(4638) = {p+4004,p+4000,p+4001};

Line Loop(4639) = {4635,4636,4637,4638};
Plane Surface(4640) = {4639};

For j In {1:8*turns}
  Extrude Surface {news-1, {0,0,10*zz}, {0,0,1} , {cc,cc,0} , Pi/4}
                  { Layers {10}; Recombine; };
EndFor

// options
Mesh.PartitionByExtrusion=1; // forces partitioning by columns
Mesh.NbPartitions=20;
Mesh.ColorCarousel = 3;
Mesh.SurfaceFaces= 1;
Mesh.VolumeEdges = 0;
Mesh.VolumeFaces = 1;
Mesh.Color.Zero = {255,0,0};
Mesh.Color.One = {0,0,255};
Mesh.Color.Two = {0,255,0};
Mesh.Color.Three = {255,255,0};
Mesh.Color.Four = {255,0,255};
Mesh.Color.Six = {255,128,0};
Mesh.Color.Seven = {64,128,32};
