l = 5e5;
Point(1) = {-l, -l, 0};
Point(2) = {l, -l, 0};
Point(3) = {l, l, 0};
Point(4) = {-l, l, 0};
Line(1) = {1, 2};
Line(2) = {2, 3};
Line(3) = {3, 4};
Line(4) = {4, 1};
Line Loop(5) = {3, 4, 1, 2};



Field[1] = MathEval;
Field[1].F = "x*(8e5-0.3e5)/1e6+(8e5+0.3e5)/2";
Background Field = 1;

Plane Surface(6) = {5};
Physical Surface("Surface")={6};
Physical Line("Wall") = {1,2,3,4};

Mesh.CharacteristicLengthExtendFromBoundary=1;
Mesh.CharacteristicLengthFromPoints=1;
Mesh.SecondOrderIncomplete=0;
