$MeshFormat
2.2 0 8
$EndMeshFormat
$Nodes
29
1 0 0 0
2 0.0005678496458643832 0 0
3 0.0005678496458643832 0.0004917722188485529 0
4 0 0.0004917722188485529 0
5 0 0 0.0005
6 0.0005678496458643832 0 0.0005
7 0.0005678496458643832 0.0004917722188485529 0.0005
8 0 0.0004917722188485529 0.0005
9 0.0002839248229316427 0 0
10 0.0005678496458643832 0.0002458861094233529 0
11 0.0002839248229326642 0.0004917722188485529 0
12 0 0.0002458861094250047 0
13 0.0002839248229316427 0 0.0005
14 0.0005678496458643832 0.0002458861094233529 0.0005
15 0.0002839248229326642 0.0004917722188485529 0.0005
16 0 0.0002458861094250047 0.0005
17 0 0 0.0002499999999995077
18 0.0005678496458643832 0 0.0002499999999995077
19 0.0005678496458643832 0.0004917722188485529 0.0002499999999995077
20 0 0.0004917722188485529 0.0002499999999995077
21 0.0002839248229321916 0.0002458861094242765 0
22 0.0002839248229321916 0.0002458861094242765 0.0005
23 0.0002839248229321916 0 0.00025
24 0.0005678496458643832 0.0002458861094242765 0.00025
25 0.0002839248229321916 0.0004917722188485529 0.00025
26 0 0.0002458861094242765 0.00025
27 0 0.0002458861094242765 0.00025
28 0.0002839248229321916 0.0002458861094242765 0.00025
29 0.0002839248229321916 0.0004917722188485529 0.00025
$EndNodes
$Elements
38
1 15 2 1 1 1
2 15 2 2 2 2
3 15 2 3 3 3
4 15 2 4 4 4
5 15 2 5 5 5
6 15 2 6 6 6
7 15 2 7 7 7
8 15 2 8 8 8
9 8 2 12 1 1 2 9
10 8 2 23 2 2 3 10
11 8 2 34 3 3 4 11
12 8 2 41 4 4 1 12
13 8 2 56 5 5 6 13
14 8 2 67 6 6 7 14
15 8 2 78 7 7 8 15
16 8 2 85 8 8 5 16
17 8 2 15 9 1 5 17
18 8 2 26 10 2 6 18
19 8 2 37 11 3 7 19
20 8 2 48 12 4 8 20
21 9 2 1234 1 1 2 4 9 21 12
22 9 2 1234 1 4 2 3 21 10 11
23 9 2 5678 2 5 6 8 13 22 16
24 9 2 5678 2 8 6 7 22 14 15
25 9 2 1265 3 1 2 5 9 23 17
26 9 2 1265 3 5 2 6 23 18 13
27 9 2 2376 4 2 3 6 10 24 18
28 9 2 2376 4 6 3 7 24 19 14
29 9 2 3487 5 3 4 7 11 25 19
30 9 2 3487 5 7 4 8 25 20 15
31 9 2 4158 6 4 1 8 12 26 20
32 9 2 4158 6 8 1 5 26 17 16
33 11 2 10 1 1 2 4 5 9 21 12 17 27 23
34 11 2 10 1 2 4 5 6 21 27 23 18 13 28
35 11 2 10 1 5 6 4 8 13 28 27 16 20 22
36 11 2 10 1 2 4 6 3 21 28 18 10 24 11
37 11 2 10 1 4 8 6 3 20 22 28 11 24 29
38 11 2 10 1 6 8 7 3 22 15 14 24 19 29
$EndElements
