3.333333e-03;-2.970008e-03
6.666667e-03;-5.940015e-03
1.000000e-02;-8.910023e-03
1.333333e-02;-1.188003e-02
1.666667e-02;-1.485004e-02
2.000000e-02;-1.782005e-02
2.333333e-02;-2.079005e-02
2.666667e-02;-2.376006e-02
3.000000e-02;-2.673007e-02
3.333333e-02;-2.970008e-02
3.666667e-02;-3.170306e-02
4.000000e-02;-3.361748e-02
4.333333e-02;-3.550999e-02
4.666667e-02;-3.738002e-02
5.000000e-02;-3.922696e-02
5.333333e-02;-4.105019e-02
5.666667e-02;-4.284906e-02
6.000000e-02;-4.462289e-02
6.333333e-02;-4.637101e-02
6.666667e-02;-4.809273e-02
7.000000e-02;-4.978733e-02
7.333333e-02;-5.145409e-02
7.666667e-02;-5.309230e-02
8.000000e-02;-5.470123e-02
8.333333e-02;-5.628015e-02
8.666667e-02;-5.782833e-02
9.000000e-02;-5.934506e-02
9.333333e-02;-6.082961e-02
9.666667e-02;-6.228128e-02
1.000000e-01;-6.369938e-02
1.033333e-01;-6.508324e-02
1.066667e-01;-6.643221e-02
1.100000e-01;-6.774566e-02
1.133333e-01;-6.902300e-02
1.166667e-01;-7.026367e-02
1.200000e-01;-7.146716e-02
1.233333e-01;-7.263300e-02
1.266667e-01;-7.376076e-02
1.300000e-01;-7.485008e-02
1.333333e-01;-7.590065e-02
1.366667e-01;-7.691224e-02
1.400000e-01;-7.788468e-02
1.433333e-01;-7.881785e-02
1.466667e-01;-7.971175e-02
1.500000e-01;-8.056644e-02
1.533333e-01;-8.138204e-02
1.566667e-01;-8.215879e-02
1.600000e-01;-8.289700e-02
1.633333e-01;-8.359705e-02
1.666667e-01;-8.425943e-02
1.700000e-01;-8.488470e-02
1.733333e-01;-8.547349e-02
1.766667e-01;-8.602653e-02
1.800000e-01;-8.654460e-02
1.833333e-01;-8.702855e-02
1.866667e-01;-8.747931e-02
1.900000e-01;-8.789785e-02
1.933333e-01;-8.828519e-02
1.966667e-01;-8.864239e-02
2.000000e-01;-8.897055e-02
2.033333e-01;-8.927079e-02
2.066667e-01;-8.954427e-02
2.100000e-01;-8.979212e-02
2.133333e-01;-9.001551e-02
2.166667e-01;-9.021561e-02
2.200000e-01;-9.039355e-02
2.233333e-01;-9.055049e-02
2.266667e-01;-9.068752e-02
2.300000e-01;-9.080576e-02
2.333333e-01;-9.090626e-02
2.366667e-01;-9.099006e-02
2.400000e-01;-9.105815e-02
2.433333e-01;-9.111152e-02
2.466667e-01;-9.115106e-02
2.500000e-01;-9.117769e-02
2.533333e-01;-9.118243e-02
2.566667e-01;-9.118643e-02
2.600000e-01;-9.118969e-02
2.633333e-01;-9.119224e-02
2.666667e-01;-9.119409e-02
2.700000e-01;-9.119524e-02
2.733333e-01;-9.119572e-02
2.766667e-01;-9.119552e-02
2.800000e-01;-9.119467e-02
2.833333e-01;-9.119317e-02
2.866667e-01;-9.119104e-02
2.900000e-01;-9.118829e-02
2.933333e-01;-9.118492e-02
2.966667e-01;-9.118095e-02
3.000000e-01;-9.117640e-02
3.033333e-01;-9.117126e-02
3.066667e-01;-9.116555e-02
3.100000e-01;-9.115929e-02
3.133333e-01;-9.115248e-02
3.166667e-01;-9.114513e-02
3.200000e-01;-9.113725e-02
3.233333e-01;-9.112885e-02
3.266667e-01;-9.111994e-02
3.300000e-01;-9.111053e-02
3.333333e-01;-9.110063e-02
3.366667e-01;-9.109025e-02
3.400000e-01;-9.107940e-02
3.433333e-01;-9.106808e-02
3.466667e-01;-9.105630e-02
3.500000e-01;-9.104408e-02
3.533333e-01;-9.103142e-02
3.566667e-01;-9.101834e-02
3.600000e-01;-9.100482e-02
3.633333e-01;-9.099090e-02
3.666667e-01;-9.097657e-02
3.700000e-01;-9.096184e-02
3.733333e-01;-9.094672e-02
3.766667e-01;-9.093121e-02
3.800000e-01;-9.091533e-02
3.833333e-01;-9.089909e-02
3.866667e-01;-9.088247e-02
3.900000e-01;-9.086551e-02
3.933333e-01;-9.084820e-02
3.966667e-01;-9.083054e-02
4.000000e-01;-9.081255e-02
4.033333e-01;-9.079424e-02
4.066667e-01;-9.077560e-02
4.100000e-01;-9.075664e-02
4.133333e-01;-9.073738e-02
4.166667e-01;-9.071781e-02
4.200000e-01;-9.069795e-02
4.233333e-01;-9.067779e-02
4.266667e-01;-9.065735e-02
4.300000e-01;-9.063663e-02
4.333333e-01;-9.061564e-02
4.366667e-01;-9.059437e-02
4.400000e-01;-9.057284e-02
4.433333e-01;-9.055106e-02
4.466667e-01;-9.052902e-02
4.500000e-01;-9.050673e-02
4.533333e-01;-9.048420e-02
4.566667e-01;-9.046143e-02
4.600000e-01;-9.043842e-02
4.633333e-01;-9.041519e-02
4.666667e-01;-9.039173e-02
4.700000e-01;-9.036805e-02
4.733333e-01;-9.034416e-02
4.766667e-01;-9.032005e-02
4.800000e-01;-9.029574e-02
4.833333e-01;-9.027123e-02
4.866667e-01;-9.024651e-02
4.900000e-01;-9.022161e-02
4.933333e-01;-9.019651e-02
4.966667e-01;-9.017122e-02
5.000000e-01;-9.014575e-02
5.033333e-01;-9.012010e-02
5.066667e-01;-9.009428e-02
5.100000e-01;-9.006828e-02
5.133333e-01;-9.004212e-02
5.166667e-01;-9.001579e-02
5.200000e-01;-8.998929e-02
5.233333e-01;-8.996264e-02
5.266667e-01;-8.993584e-02
5.300000e-01;-8.990888e-02
5.333333e-01;-8.988177e-02
5.366667e-01;-8.985451e-02
5.400000e-01;-8.982712e-02
5.433333e-01;-8.979958e-02
5.466667e-01;-8.977190e-02
5.500000e-01;-8.974409e-02
5.533333e-01;-8.971615e-02
5.566667e-01;-8.968808e-02
5.600000e-01;-8.965989e-02
5.633333e-01;-8.963157e-02
5.666667e-01;-8.960312e-02
5.700000e-01;-8.957456e-02
5.733333e-01;-8.954589e-02
5.766667e-01;-8.951710e-02
5.800000e-01;-8.948820e-02
5.833333e-01;-8.945918e-02
5.866667e-01;-8.943007e-02
5.900000e-01;-8.940084e-02
5.933333e-01;-8.937152e-02
5.966667e-01;-8.934209e-02
6.000000e-01;-8.931257e-02
6.033333e-01;-8.928294e-02
6.066667e-01;-8.925323e-02
6.100000e-01;-8.922342e-02
6.133333e-01;-8.919352e-02
6.166667e-01;-8.916354e-02
6.200000e-01;-8.913346e-02
6.233333e-01;-8.910330e-02
6.266667e-01;-8.907306e-02
6.300000e-01;-8.904274e-02
6.333333e-01;-8.901233e-02
6.366667e-01;-8.898185e-02
6.400000e-01;-8.895129e-02
6.433333e-01;-8.892066e-02
6.466667e-01;-8.888995e-02
6.500000e-01;-8.885917e-02
6.533333e-01;-8.882832e-02
6.566667e-01;-8.879740e-02
6.600000e-01;-8.876642e-02
6.633333e-01;-8.873537e-02
6.666667e-01;-8.870425e-02
6.700000e-01;-8.867307e-02
6.733333e-01;-8.864183e-02
6.766667e-01;-8.861052e-02
6.800000e-01;-8.857916e-02
6.833333e-01;-8.854774e-02
6.866667e-01;-8.851626e-02
6.900000e-01;-8.848473e-02
6.933333e-01;-8.845314e-02
6.966667e-01;-8.842150e-02
7.000000e-01;-8.838980e-02
7.033333e-01;-8.835805e-02
7.066667e-01;-8.832626e-02
7.100000e-01;-8.829441e-02
7.133333e-01;-8.826252e-02
7.166667e-01;-8.823058e-02
7.200000e-01;-8.819859e-02
7.233333e-01;-8.816655e-02
7.266667e-01;-8.813448e-02
7.300000e-01;-8.810236e-02
7.333333e-01;-8.807019e-02
7.366667e-01;-8.803799e-02
7.400000e-01;-8.800574e-02
7.433333e-01;-8.797345e-02
7.466667e-01;-8.794113e-02
7.500000e-01;-8.790876e-02
7.533333e-01;-8.424108e-02
7.566667e-01;-8.052606e-02
7.600000e-01;-7.681104e-02
7.633333e-01;-7.309602e-02
7.666667e-01;-6.938100e-02
7.700000e-01;-6.566599e-02
7.733333e-01;-6.195097e-02
7.766667e-01;-5.823595e-02
7.800000e-01;-5.452093e-02
7.833333e-01;-5.080591e-02
7.866667e-01;-4.709090e-02
7.900000e-01;-4.337588e-02
7.933333e-01;-3.966086e-02
7.966667e-01;-3.594584e-02
8.000000e-01;-3.223082e-02
8.033333e-01;-2.851580e-02
8.066667e-01;-2.480079e-02
8.100000e-01;-2.108577e-02
8.133333e-01;-1.737075e-02
8.166667e-01;-1.365573e-02
8.200000e-01;-9.940714e-03
8.233333e-01;-6.225696e-03
8.266667e-01;-2.510678e-03
8.300000e-01;1.204340e-03
8.333333e-01;4.919359e-03
8.366667e-01;8.634377e-03
8.400000e-01;1.234939e-02
8.433333e-01;1.606441e-02
8.466667e-01;1.977943e-02
8.500000e-01;2.349445e-02
8.533333e-01;2.720947e-02
8.566667e-01;3.092449e-02
8.600000e-01;3.463950e-02
8.633333e-01;3.835452e-02
8.666667e-01;4.206954e-02
8.700000e-01;4.578456e-02
8.733333e-01;4.949958e-02
8.766667e-01;5.321459e-02
8.800000e-01;5.692961e-02
8.833333e-01;6.064463e-02
8.866667e-01;6.222103e-02
8.900000e-01;6.252025e-02
8.933333e-01;6.277796e-02
8.966667e-01;6.299702e-02
9.000000e-01;6.318021e-02
9.033333e-01;6.333016e-02
9.066667e-01;6.344940e-02
9.100000e-01;6.354033e-02
9.133333e-01;6.360523e-02
9.166667e-01;6.364622e-02
9.200000e-01;6.366533e-02
9.233333e-01;6.366443e-02
9.266667e-01;6.364527e-02
9.300000e-01;6.360947e-02
9.333333e-01;6.355854e-02
9.366667e-01;6.349388e-02
9.400000e-01;6.341676e-02
9.433333e-01;6.332837e-02
9.466667e-01;6.322977e-02
9.500000e-01;6.312196e-02
9.533333e-01;6.300584e-02
9.566667e-01;6.288223e-02
9.600000e-01;6.275187e-02
9.633333e-01;6.261544e-02
9.666667e-01;6.247355e-02
9.700000e-01;6.232676e-02
9.733333e-01;6.217557e-02
9.766667e-01;6.202043e-02
9.800000e-01;6.186175e-02
9.833333e-01;6.169990e-02
9.866667e-01;6.153521e-02
9.900000e-01;6.136798e-02
9.933333e-01;6.119846e-02
9.966667e-01;6.102691e-02
1.000000e+00;6.085354e-02
