lsca = 0.2;
f = 0.993;
gamma = 0.24;


Point(1) = {0,2,0,lsca};
Point(2) = {0,2,1,lsca};
Point(3) = {0,2,2,lsca};
Point(4) = {0,1,2,lsca};
Point(5) = {0,0,2,lsca};
Point(6) = {1,0,2,lsca};
Point(7) = {2,0,2,lsca};
Point(8) = {2,0,1,lsca};
Point(9) = {2,0,0,lsca};
Point(10) = {2,1,0,lsca};
Point(11) = {2,2,0,lsca};
Point(12) = {1,2,0,lsca};

Point(101) = {f*0,f*2,f*0,lsca};
Point(102) = {f*0,f*2,f*1,lsca};
Point(104) = {f*0,f*1,f*2,lsca};
Point(105) = {f*0,f*0,f*2,lsca};
Point(106) = {f*1,f*0,f*2,lsca};
Point(108) = {f*2,f*0,f*1,lsca};
Point(109) = {f*2,f*0,f*0,lsca};
Point(1010) = {f*2,f*1,f*0,lsca};
Point(1012) = {f*1,f*2,f*0,lsca};

Line(1) = {2, 3};
Line(2) = {3, 4};
Line(3) = {4, 5};
Line(4) = {2, 1};
Line(5) = {1, 12};
Line(6) = {2, 12};
Line(7) = {2, 4};
Line(8) = {4, 6};
Line(9) = {6, 8};
Line(10) = {12, 10};
Line(11) = {10, 8};
Line(12) = {6, 7};
Line(13) = {7, 8};
Line(14) = {8, 9};
Line(15) = {9, 10};
Line(16) = {10, 11};
Line(17) = {11, 12};
Line(18) = {5, 6};
Line(20) = {102, 104};
Line(23) = {106, 108};
Line(26) = {1010, 1012};
Line(28) = {108, 1010};
Line(29) = {1012, 102};
Line(30) = {104, 106};

Point(1014) = {1.5, 0, 1.5, lsca};
Point(1015) = {3-1.5*f, 0, 3-1.5*f, lsca};

Point(1016) = {0, 3-1.5*f, 3-1.5*f, lsca};
Point(1017) = {3-1.5*f, 3-1.5*f,0, lsca};

alpha = Fabs(1-1.5*f)*2;
Printf(" val = %e",alpha);

Point(1018) = {2-alpha, 0,2, lsca};
Point(1019) = {2, 0,2-alpha, lsca};
Point(1020) = {0, 2-alpha, 2, lsca};
Point(1021) = {0, 2, 2-alpha, lsca};

Point(1022) = {2, 2-alpha, 0, lsca};
Point(1023) = { 2-alpha, 2, 0, lsca};
Point(1024) = { 2, 2*(1-f), 2, lsca};
Point(1025) = { 2*(1-f), 2, 2,lsca};
Point(1026) = { 2, 2, 2*(1-f), lsca};
Line(38) = {7, 1024};
Line(39) = {1025, 3};
Line(40) = {11, 1026};
beta = 1-f +0.5*alpha;
Point(1027) = { 2, 2-2*beta, 2*(1-f), lsca};
Point(1028) = { 2, 2*(1-f), 2-2*beta, lsca};
Point(1029) = { 2-2*beta, 2*(1-f), 2,   lsca};
Point(1030) = { 2*(1-f), 2-2*beta,  2,   lsca};
Point(1031) = { 2*(1-f),   2, 2-2*beta,   lsca};
Point(1032) = { 2-2*beta,   2,  2*(1-f),   lsca};
Line(47) = {1031, 1030};
Line(48) = {1032, 1027};
Line(49) = {1028, 1029};

Line(50) = {1032, 1031};
Line(51) = {1030, 1029};
Line(52) = {1028, 1027};
Line(53) = {9, 109};
Line(54) = {105, 5};
Line(55) = {101, 1};


Point(1050) = { 2*(1-f), 2-2*beta+2*beta*gamma, 2,  lsca};
Point(1051) = { 2*(1-f), 2, 2-2*beta+2*beta*gamma,  lsca};
Point(1052) = { 2-2*beta+2*beta*gamma,  2, 2*(1-f),  lsca};
Point(1053) = { 2, 2-2*beta+2*beta*gamma,   2*(1-f),  lsca};
Point(1054) = { 2-2*beta+2*beta*gamma,   2*(1-f), 2,   lsca};
Point(1055) = { 2, 2*(1-f), 2-2*beta+2*beta*gamma,   lsca};
Line(102) = {1050, 1051};
Line(103) = {1052, 1053};
Line(104) = {1054, 1055};
Point(1056) = { 2*(1-f)+gamma*f, 2-2*beta, 2-gamma*f,   lsca};
Point(1057) = { 2-2*beta,2*(1-f)+gamma*f, 2-gamma*f,   lsca};
Point(1058) = { 2-2*beta, 2-gamma*f, 2*(1-f)+gamma*f,   lsca};
Point(1059) = { 2*(1-f)+gamma*f, 2-gamma*f, 2-2*beta,   lsca};
Point(1060) = {  2-gamma*f, 2*(1-f)+gamma*f, 2-2*beta,   lsca};
Point(1061) = {  2-gamma*f, 2-2*beta, 2*(1-f)+gamma*f,    lsca};
Line(105) = {1056, 1059};
Line(106) = {1059, 1058};
Line(107) = {1058, 1061};
Line(108) = {1061, 1060};
Line(109) = {1060, 1057};
Line(110) = {1057, 1056};
Line(111) = {1056, 1050};
Line(112) = {1050, 1054};
Line(113) = {1054, 1057};
Line(114) = {1055, 1060};
Line(115) = {1061, 1053};
Line(116) = {1055, 1053};
Line(117) = {1058, 1052};
Line(118) = {1031, 1059};
Line(119) = {1051, 1059};
Line(120) = {1051, 1052};

Point(1062) = {0, 2*f, f-gamma*f, lsca};
Point(1063) = { f-gamma*f, 2*f, 0,  lsca};
Point(1064) = { f-gamma*f, 0,  2*f,  lsca};
Point(1065) = {0, f-gamma*f, 2*f,  lsca};
Point(1066) = { 2*f, 0,f-gamma*f, lsca};
Point(1067) = { 2*f, f-gamma*f, 0, lsca};
Point(1068) = { f, 2*f-gamma*f, gamma*f, lsca};
Point(1069) = { f, gamma*f, 2*f-gamma*f, lsca};
Point(1070) = { 2*f-gamma*f, gamma*f, f,  lsca};
Point(1071) = { 2*f-gamma*f, f,gamma*f,   lsca};
Point(1072) = {gamma*f,  f, 2*f-gamma*f,  lsca};
Point(1073) = {gamma*f, 2*f-gamma*f, f,   lsca};
Line(121) = {1067, 1071};
Line(122) = {1071, 1070};
Line(123) = {1070, 1066};
Line(124) = {1066, 1067};
Line(125) = {1067, 1063};
Line(126) = {1063, 1068};
Line(127) = {1068, 1073};
Line(128) = {1073, 1062};
Line(129) = {1062, 1063};
Line(130) = {1071, 1068};
Line(131) = {1073, 1072};
Line(132) = {1069, 1072};
Line(133) = {1069, 1070};
Line(134) = {1069, 1064};
Line(135) = {1065, 1072};
Line(136) = {1065, 1062};
Line(137) = {1064, 1066};
Line(138) = {108, 1070};
Line(139) = {1010, 1071};
Line(140) = {1012, 1068};
Line(141) = {1073, 102};
Line(142) = {1072, 104};
Line(143) = {1027, 1061};
Line(144) = {1028, 1060};
Line(145) = {1056, 1030};
Line(146) = {1032, 1058};
Line(147) = {1030, 1050};
Line(148) = {1050, 1025};
Line(149) = {1025, 1051};
Line(150) = {1051, 1031};
Line(151) = {1032, 1052};
Line(152) = {1052, 1026};
Line(153) = {1026, 1053};
Line(154) = {1053, 1027};
Line(155) = {1024, 1055};
Line(156) = {1055, 1028};
Line(157) = {1024, 1054};
Line(158) = {1054, 1029};
Line(159) = {106, 1064};
Line(160) = {1064, 105};
Line(161) = {108, 1066};
Line(162) = {1066, 109};
Line(163) = {109, 1067};
Line(164) = {1067, 1010};
Line(165) = {1012, 1063};
Line(166) = {1063, 101};
Line(167) = {101, 1062};
Line(168) = {1062, 102};
Line(169) = {104, 1065};
Line(170) = {1065, 105};
Line(171) = {1069, 106};
Line(172) = {1057, 1029};
Line Loop(173) = {147, -111, 145};
Plane Surface(174) = {173};
Line Loop(175) = {150, 118, -119};
Plane Surface(176) = {175};
Line Loop(177) = {102, 119, -105, 111};
Plane Surface(178) = {177};
Line Loop(179) = {118, -105, 145, -47};
Plane Surface(180) = {179};
Line Loop(181) = {147, 102, 150, 47};
Plane Surface(182) = {181};
Surface Loop(183) = {174, 182, 178, 176, 180};
Volume(184) = {183};
Line Loop(185) = {150, -50, 151, -120};
Plane Surface(186) = {185};
Line Loop(187) = {151, -117, -146};
Plane Surface(188) = {187};
Line Loop(189) = {117, -120, 119, 106};
Plane Surface(190) = {189};
Line Loop(191) = {50, 118, 106, -146};
Plane Surface(192) = {191};
Surface Loop(193) = {190, 188, 186, 192, 176};
Volume(194) = {193};
Line Loop(195) = {117, 103, -115, -107};
Plane Surface(196) = {195};
Line Loop(197) = {103, 154, -48, 151};
Plane Surface(198) = {197};
Line Loop(199) = {48, 143, -107, -146};
Plane Surface(200) = {199};
Line Loop(201) = {154, 143, 115};
Plane Surface(202) = {201};
Surface Loop(203) = {202, 198, 196, 200, 188};
Volume(204) = {203};
Line Loop(205) = {115, -116, 114, -108};
Plane Surface(206) = {205};
Line Loop(207) = {116, 154, -52, -156};
Plane Surface(208) = {207};
Line Loop(209) = {144, -108, -143, -52};
Plane Surface(210) = {209};
Line Loop(211) = {114, -144, -156};
Plane Surface(212) = {211};
Surface Loop(213) = {208, 206, 212, 210, 202};
Volume(214) = {213};
Line Loop(215) = {114, 109, -113, 104};
Plane Surface(216) = {215};
Line Loop(217) = {104, 156, 49, -158};
Plane Surface(218) = {217};
Line Loop(219) = {172, -49, 144, 109};
Plane Surface(220) = {219};
Line Loop(221) = {113, 172, -158};
Plane Surface(222) = {221};
Surface Loop(223) = {222, 216, 220, 212, 218};
Volume(224) = {223};
Line Loop(225) = {113, 110, 111, 112};
Plane Surface(226) = {225};
Line Loop(227) = {112, 158, -51, 147};
Plane Surface(228) = {227};
Line Loop(229) = {51, -172, 110, 145};
Plane Surface(230) = {229};
Surface Loop(231) = {228, 226, 230, 222, 174};
Volume(232) = {231};
Line Loop(233) = {152, 153, -103};
Plane Surface(234) = {233};
Line Loop(235) = {155, -104, -157};
Plane Surface(236) = {235};
Line Loop(237) = {148, 149, -102};
Plane Surface(238) = {237};
Line Loop(239) = {109, 110, 105, 106, 107, 108};
Plane Surface(240) = {239};
Line Loop(241) = {157, 158, -51, 147, 148, 39, 2, 8, 12, 38};
Plane Surface(242) = {241};
Line Loop(243) = {39, -1, 6, -17, 40, -152, -151, 50, -150, -149};
Plane Surface(244) = {243};
Line Loop(245) = {40, 153, 154, -52, -156, -155, -38, 13, -11, 16};
Plane Surface(246) = {245};
Line Loop(247) = {13, -9, 12};
Plane Surface(248) = {247};
Line Loop(249) = {16, 17, 10};
Plane Surface(250) = {249};
Line Loop(251) = {1, 2, -7};
Plane Surface(252) = {251};
Line Loop(253) = {7, 8, 9, -11, -10, -6};
Plane Surface(254) = {253};
Surface Loop(255) = {244, 242, 236, 246, 234, 248, 254, 252, 250, 238, 240, 210, 200, 198, 192, 180, 182, 230, 220, 218};
Volume(256) = {255};
Line(257) = {1065, 1064};
Line Loop(258) = {171, 159, -134};
Plane Surface(259) = {258};
Line Loop(260) = {257, -134, 132, -135};
Plane Surface(261) = {260};
Line Loop(262) = {132, 142, 30, -171};
Plane Surface(263) = {262};
Line Loop(264) = {142, 169, 135};
Plane Surface(265) = {264};
Line Loop(266) = {257, -159, -30, 169};
Plane Surface(267) = {266};
Surface Loop(268) = {265, 263, 261, 267, 259};
Volume(269) = {268};
Line Loop(270) = {23, 161, -137, -159};
Plane Surface(271) = {270};
Line Loop(272) = {161, -123, -138};
Plane Surface(273) = {272};
Line Loop(274) = {138, -133, 171, 23};
Plane Surface(275) = {274};
Line Loop(276) = {133, 123, -137, -134};
Plane Surface(277) = {276};
Surface Loop(278) = {273, 271, 275, 277, 259};
Volume(279) = {278};
Line Loop(280) = {124, 164, -28, 161};
Plane Surface(281) = {280};
Line Loop(282) = {164, 139, -121};
Plane Surface(283) = {282};
Line Loop(284) = {121, 122, 123, 124};
Plane Surface(285) = {284};
Line Loop(286) = {138, -122, -139, -28};
Plane Surface(287) = {286};
Surface Loop(288) = {283, 281, 285, 287, 273};
Volume(289) = {288};
Line Loop(290) = {121, 130, -126, -125};
Plane Surface(291) = {290};
Line Loop(292) = {125, -165, -26, -164};
Plane Surface(293) = {292};
Line Loop(294) = {139, 130, -140, -26};
Plane Surface(295) = {294};
Line Loop(296) = {140, -126, -165};
Plane Surface(297) = {296};
Surface Loop(298) = {295, 291, 297, 293, 283};
Volume(299) = {298};
Line Loop(300) = {127, 128, 129, 126};
Plane Surface(301) = {300};
Line Loop(302) = {129, -165, 29, -168};
Plane Surface(303) = {302};
Line Loop(304) = {127, 141, -29, 140};
Plane Surface(305) = {304};
Line Loop(306) = {141, -168, -128};
Plane Surface(307) = {306};
Surface Loop(308) = {307, 305, 301, 303, 297};
Volume(309) = {308};
Line Loop(310) = {131, -135, 136, -128};
Plane Surface(311) = {310};
Line Loop(312) = {136, 168, 20, 169};
Plane Surface(313) = {312};
Line Loop(314) = {20, -142, -131, 141};
Plane Surface(315) = {314};
Surface Loop(316) = {313, 311, 315, 307, 265};
Volume(317) = {316};
Line Loop(318) = {122, -133, 132, -131, -127, -130};
Plane Surface(319) = {318};
Line Loop(320) = {124, -163, -162};
Plane Surface(321) = {320};
Line Loop(322) = {166, 167, 129};
Plane Surface(323) = {322};
Line Loop(324) = {257, 160, -170};
Plane Surface(325) = {324};
Line Loop(326) = {3, -54, -170, -169, -20, -168, -167, 55, -4, 7};
Plane Surface(327) = {326};
Line Loop(328) = {54, 18, 9, 14, 53, -162, -161, -23, 159, 160};
Plane Surface(329) = {328};
Line Loop(330) = {163, 164, 26, 165, 166, 55, 5, 10, -15, 53};
Plane Surface(331) = {330};
Line Loop(332) = {14, 15, 11};
Plane Surface(333) = {332};
Line Loop(334) = {5, -6, 4};
Plane Surface(335) = {334};
Line Loop(336) = {18, -8, 3};
Plane Surface(337) = {336};
Surface Loop(338) = {337, 329, 327, 325, 323, 331, 321, 335, 333, 319, 254, 263, 267, 275, 281, 287, 295, 305, 303, 315};
Volume(339) = {338};
Coherence;
Symmetry {1, 0, 0, 0} {
  Duplicata { Volume{232, 269, 224, 279, 184, 317, 339, 256, 214, 289, 194, 309, 204, 299}; }
}

Symmetry {0, 1, 0, 0} {
  Duplicata { Volume{232, 340, 269, 364, 224, 184, 436, 388, 279, 317, 460, 412, 256, 339, 484, 601, 214, 194, 766, 718, 289, 309, 790, 742, 204, 814, 299, 838}; }
}
Symmetry {0, 0, 1, -2} {
  Duplicata { Volume{214, 204, 224, 289, 194, 299, 256, 339, 950, 232, 279, 184, 309, 1046, 1610, 1706, 269, 317, 436, 460, 854, 902, 790, 766, 1142, 1259, 364, 340, 1802, 1850, 484, 601, 926, 974, 1070, 1634, 878, 1094, 838, 814, 998, 1730, 412, 388, 1118, 1022, 718, 1493, 1376, 742, 1754, 1658, 1778, 1682, 1874, 1826}; }
}
Physical Volume(11) = {3384, 814, 3360, 3552, 2628, 3810, 718, 838, 766, 2604, 742, 3099, 2982, 790, 601, 484, 3480, 388, 2508, 3882, 3456, 436, 3528, 412, 3906, 2532, 2910, 1022, 340, 3504, 1778, 460, 2364, 2340, 1682, 1118, 184, 2484, 1986, 309, 317, 2886, 364, 194, 3954, 3930, 3693, 3576, 3312, 3216, 878, 926, 1376, 1493, 1826, 1874, 2010, 1914, 2151, 2034, 2460, 2292, 269, 232, 339, 256, 299, 204, 3858, 2580, 902, 3336, 3834, 1658, 1094, 3408, 2316, 1890, 998, 1754, 3264, 1962, 279, 2556, 1938, 854, 1070, 214, 2388, 224, 3240, 1046, 289, 974, 2268, 950, 2769, 2652, 3432, 1259, 1142, 2436, 1730, 3288, 2958, 2412, 1706, 1634, 1610, 1850, 2934, 1802};
Physical Surface(1) = {2679, 2823, 2205, 2061, 2413, 1891, 246, 208, 333, 1313, 1169, 1611};
Physical Surface(2) = {628, 538, 1430, 1520, 1683, 719, 3553, 3126, 3036, 3747, 3603, 3907};
Physical Surface(3) = {244, 335, 534, 602, 186, 776, 2035, 1996, 2201, 3032, 3100, 2638};
Physical Surface(4) = {3577, 3743, 2819, 2653, 3868, 3298, 1494, 1143, 1309, 1426, 1668, 1644};
Physical Surface(5) = {3156, 3017, 3375, 2186, 2025, 2091, 2804, 2709, 2973, 3728, 3633, 3945};
Physical Surface(6) = {658, 519, 1411, 1550, 1294, 1199, 250, 331, 1865, 1889, 853, 293};
