initial{
year 2008
month 12
day 18
hour 0
minute 0
second 0
}
shift{
day 1
}
0
1000
4000
7000
10000
9400
8800
8200
7600
7000
6400
5800
5200
4600
4000
3400
2800
2200
1600
1000
1000
1000
1000
1000
1000
1000
1000
1000
1000
1000
1000
1000
