// honeycomb

mm = 1.e-3;
l = 5.51*mm;
lambda = 0.837;
mu = 0.885;
t = 144.8e-3*mm;

lsca  = 0.1*t;

cp = mu*(2-lambda)*l*Sqrt(3.);
lp = (2-lambda)*l;
lh = lambda*l; 
theta = Acos(cp/2./lp); 

Point(1) = {0,0,0,lsca};
Point(2) = {cp,0,0,lsca};
Point(6) = {cp,2.*lh+2.*lp*Sin(theta),0,lsca};
Point(7) = {0,2*lh+2.*lp*Sin(theta),0,lsca};
Point(9) = {t,0,0,lsca};
Point(10) = {t,lh+t*(Tan(theta)-0.5/Cos(theta)),0,lsca};
Point(11) = {cp/2,lh+lp*Sin(theta)-t*0.5/Cos(theta),0,lsca};
Point(12) = {cp-t,lh+t*(Tan(theta)-0.5/Cos(theta)),0,lsca};
Point(13) = {cp-t,0,0,lsca};
Point(14) = {0,lh+t*0.5/Cos(theta),0,lsca};
Point(15) = {cp/2 -t, lh+lp*Sin(theta)- t*(Tan(theta)-0.5/Cos(theta)), 0, lsca};
Point(16) = {cp,lh+t*0.5/Cos(theta),0,lsca};
Point(17) = {cp/2 +t, lh+lp*Sin(theta)- t*(Tan(theta)-0.5/Cos(theta)), 0, lsca};
Point(18) = {cp/2+t,2*lh+lp*Sin(theta)+t*(Tan(theta)-0.5/Cos(theta)),0,lsca};
Point(19) = {cp/2-t,2*lh+lp*Sin(theta)+t*(Tan(theta)-0.5/Cos(theta)),0,lsca};
Point(20) = {0,2*lh+2.*lp*Sin(theta)-t*0.5/Cos(theta),0,lsca};
Point(21) = {t,2*lh+2.*lp*Sin(theta),0,lsca};
Point(22) = {cp/2,lh+lp*Sin(theta)+lh+t*0.5/Cos(theta),0,lsca};
Point(23) = {cp-t,2.*lh+2.*lp*Sin(theta),0,lsca};
Point(24) = {cp,2.*lh+2.*lp*Sin(theta)-t*0.5/Cos(theta),0,lsca};

Line(1) = {1, 9};
Line(2) = {9, 10};
Line(3) = {1, 14};
Line(4) = {10, 11};
Line(5) = {14, 15};
Line(6) = {17, 16};
Line(7) = {11, 12};
Line(9) = {12, 13};
Line(10) = {2, 16};
Line(11) = {2, 13};
Line(12) = {19, 15};
Line(13) = {17, 18};
Line(14) = {18, 24};
Line(15) = {24, 6};
Line(16) = {6, 23};
Line(17) = {23, 22};
Line(18) = {22, 21};
Line(19) = {21, 7};
Line(20) = {7, 20};
Line(21) = {20, 19};
Line(22) = {19, 22};
Line(23) = {22, 18};
Line(24) = {18, 19};
Line(25) = {20, 21};
Line(26) = {23, 24};
Line(27) = {15, 17};
Line(28) = {17, 11};
Line(29) = {11, 15};
Line(30) = {14, 10};
Line(31) = {12, 16};
Line Loop(32) = {2, -30, -3, 1};
Plane Surface(33) = {32};
Line Loop(34) = {30, 4, 29, -5};
Plane Surface(35) = {34};
Line Loop(36) = {28, 7, 31, -6};
Plane Surface(37) = {36};
Line Loop(38) = {10, -31, 9, -11};
Plane Surface(39) = {38};
Line Loop(40) = {28, 29, 27};
Plane Surface(41) = {40};
Line Loop(42) = {13, 24, 12, 27};
Plane Surface(43) = {42};
Line Loop(44) = {23, 24, 22};
Plane Surface(45) = {44};
Line Loop(46) = {14, -26, 17, 23};
Plane Surface(47) = {46};
Line Loop(48) = {16, 26, 15};
Plane Surface(49) = {48};
Line Loop(50) = {18, -25, 21, 22};
Plane Surface(51) = {50};
Line Loop(52) = {19, 20, 25};
Plane Surface(53) = {52};
Transfinite Line {21, 18, 17, 17, 14, 6, 7, 4, 5, 3, 2, 9, 10,12,13} = 25 Using Progression 1;
Transfinite Line {19, 20, 25, 22, 23, 16, 16, 26, 15, 28, 29, 31, 11, 30, 1} = 3 Using Progression 1;
Transfinite Line {24, 27} = 4 Using Progression 1;
Transfinite Surface {49, 47, 53, 51, 45, 43, 41, 37, 35, 39, 33};
Physical Line(1) = {1, 11};
Physical Line(2) = {10, 15};
Physical Line(3) = {16, 19};
Physical Line(4) = {20, 3};
Physical Surface(11) = {53, 49, 51, 47, 45, 43, 41, 35, 37, 33, 39};

