a = 1;
b = 2;
radius = 20;
r=radius;
a=1;
Point(1) = {0, 0, 0, a};


Point(2) = {r,0,0,a};
Point(3) = {0,-r,0,a};
Point(4) = {-r,0,0,a};
Point(5) = {0,r,0,a};

Circle(2) = {2,1,3};
Circle(3) = {3,1,4};
Circle(4) = {4,1,5};
Circle(5) = {5,1,2};


  

Line Loop(1)={2,3,4,5};
Plane Surface(1)={1};


Physical Line("border") = {2,3,4,5};


Physical Surface("Air") = {1};



