$MeshFormat
2.2 0 8
$EndMeshFormat
$Nodes
562
1 0 0 0
2 0.0001629436171991437 0 0
3 0.0002129436171991437 5e-05 0
4 0.0002129436171991437 0.0001229430547121383 0
5 5e-05 0.0001229430547121383 0
6 0 7.294305471213826e-05 0
7 0.0002129436171991437 0 0
8 0 0.0001229430547121383 0
9 0.0001064718085995719 6.147152735606913e-05 0
10 0.0001775882781398163 3.535533905932738e-05 0
11 0.00019526594766948 1.767766952966369e-05 0
12 0.00019526594766948 0 0
13 0.0002129436171991437 1.767766952966369e-05 0
14 3.535533905932738e-05 8.758771565281088e-05 0
15 1.767766952966369e-05 0.0001052653851824746 0
16 1.767766952966369e-05 0.0001229430547121383 0
17 0 0.0001052653851824746 0
18 0 0 1.064718085995718e-05
19 0.0001629436171991437 0 1.064718085995718e-05
20 0.0002129436171991437 0 1.064718085995718e-05
21 0.0001775882781398163 3.535533905932738e-05 1.064718085995718e-05
22 0.0001064718085995719 6.147152735606913e-05 1.064718085995718e-05
23 0.0002129436171991437 5e-05 1.064718085995718e-05
24 0.0002129436171991437 0.0001229430547121383 1.064718085995718e-05
25 5e-05 0.0001229430547121383 1.064718085995718e-05
26 0 0.0001229430547121383 1.064718085995718e-05
27 3.535533905932738e-05 8.758771565281088e-05 1.064718085995718e-05
28 0 7.294305471213826e-05 1.064718085995718e-05
29 0.00019526594766948 0 1.064718085995718e-05
30 0.00019526594766948 1.767766952966369e-05 1.064718085995718e-05
31 0.0002129436171991437 1.767766952966369e-05 1.064718085995718e-05
32 1.767766952966369e-05 0.0001229430547121383 1.064718085995718e-05
33 1.767766952966369e-05 0.0001052653851824746 1.064718085995718e-05
34 0 0.0001052653851824746 1.064718085995718e-05
35 3.258872343972533e-05 0 0
36 6.517744687946937e-05 0 0
37 9.776617031928741e-05 0 0
38 0.0001303548937591901 0 0
39 0.0002129436171991437 6.458861094235989e-05 0
40 0.0002129436171991437 7.917722188471979e-05 0
41 0.0002129436171991437 9.376583282711355e-05 0
42 0.0002129436171991437 0.0001083544437695751 0
43 0.0001803548937592472 0.0001229430547121383 0
44 0.0001477661703194523 0.0001229430547121383 0
45 0.0001151774468796913 0.0001229430547121383 0
46 8.258872343989651e-05 0.0001229430547121383 0
47 0 5.835444376971061e-05 0
48 0 4.376583282728295e-05 0
49 0 2.91772218848553e-05 0
50 0 1.458861094242765e-05 0
51 0.000169408083293211 0 0
52 0.0001758725493872782 0 0
53 0.0001823370154813455 0 0
54 0.0001888014815754128 0 0
55 0.000198801481575345 0 0
56 0.0002023370154813116 0 0
57 0.0002058725493873121 0 0
58 0.0002094080832932787 0 0
59 0.0002129436171991437 3.535533905924324e-06 0
60 0.0002129436171991437 7.071067811850708e-06 0
61 0.0002129436171991437 1.060660171778202e-05 0
62 0.0002129436171991437 1.414213562371967e-05 0
63 0.0002129436171991437 2.414213562371401e-05 0
64 0.0002129436171991437 3.060660171776433e-05 0
65 0.0002129436171991437 3.707106781183159e-05 0
66 0.0002129436171991437 4.35355339059158e-05 0
67 0.0001811238120456983 3.181980515344546e-05 0
68 0.0001846593459516373 2.828427124750637e-05 0
69 0.000188194879857604 2.474873734153975e-05 0
70 0.0001917304137635642 2.121320343557948e-05 0
71 0.00019526594766948 3.535533905924324e-06 0
72 0.00019526594766948 7.071067811850708e-06 0
73 0.00019526594766948 1.060660171778202e-05 0
74 0.00019526594766948 1.414213562371967e-05 0
75 0.000198801481575345 1.767766952966369e-05 0
76 0.0002023370154813116 1.767766952966369e-05 0
77 0.0002058725493873121 1.767766952966369e-05 0
78 0.0002094080832932787 1.767766952966369e-05 0
79 0.0002051218939471626 4.93844170297617e-05 0
80 0.0001974927674803949 4.755282581475722e-05 0
81 0.000190244092212136 4.455032620940291e-05 0
82 0.0001835543545844922 4.045084971872712e-05 0
83 0.0001724927674804432 2.938926261468822e-05 0
84 0.0001683932909897702 2.269952498706549e-05 0
85 0.0001653907913844049 1.545084971880542e-05 0
86 0.0001635592001693875 7.821723252015517e-06 0
87 4.353553390593274e-05 0.0001229430547121383 0
88 3.707106781186548e-05 0.0001229430547121383 0
89 3.060660171779821e-05 0.0001229430547121383 0
90 2.414213562373095e-05 0.0001229430547121383 0
91 1.414213562373095e-05 0.0001229430547121383 0
92 1.060660171780457e-05 0.0001229430547121383 0
93 7.071067811876063e-06 0.0001229430547121383 0
94 3.535533905941208e-06 0.0001229430547121383 0
95 0 0.0001194075208063072 0
96 0 0.0001158719869003744 0
97 0 0.0001123364529944078 0
98 0 0.0001088009190884412 0
99 0 9.880091908840731e-05 0
100 0 9.233645299434004e-05 0
101 0 8.587198690027277e-05 0
102 0 7.940752080620551e-05 0
103 3.181980515341158e-05 9.112324955872669e-05 0
104 2.828427124748943e-05 9.465878346464883e-05 0
105 2.474873734155669e-05 9.819431737058157e-05 0
106 2.121320343561336e-05 0.0001017298512765249 0
107 1.767766952966369e-05 0.0001194075208063072 0
108 1.767766952966369e-05 0.0001158719869003744 0
109 1.767766952966369e-05 0.0001123364529944078 0
110 1.767766952966369e-05 0.0001088009190884412 0
111 1.414213562373095e-05 0.0001052653851824746 0
112 1.060660171780457e-05 0.0001052653851824746 0
113 7.071067811876063e-06 0.0001052653851824746 0
114 3.535533905941208e-06 0.0001052653851824746 0
115 7.821723251994732e-06 7.355863768237873e-05 0
116 1.545084971872208e-05 7.539022889737238e-05 0
117 2.269952498697072e-05 7.83927285027165e-05 0
118 2.938926261464088e-05 8.249220499340342e-05 0
119 4.045084971884904e-05 9.355379209765455e-05 0
120 4.455032620949716e-05 0.0001002435297253155 0
121 4.755282581477867e-05 0.0001074922049934555 0
122 4.938441702975092e-05 0.0001151213314600891 0
123 0.0001633649842318083 4.057857671866074e-05 0
124 0.0001491416903237106 4.580181437802699e-05 0
125 0.0001349183964156373 5.102505203738429e-05 0
126 0.0001206951025076128 5.624828969672369e-05 0
127 8.517744687971367e-05 4.917722188488774e-05 0
128 6.388308515984743e-05 3.688291641370171e-05 0
129 4.258872343992768e-05 2.458861094248478e-05 0
130 2.129436171995981e-05 1.229430547124006e-05 0
131 4.957863296724985e-05 8.236447799350896e-05 0
132 6.380192687523355e-05 7.714124033418455e-05 0
133 7.802522078326752e-05 7.191800267484168e-05 0
134 9.224851469136666e-05 6.669476501547487e-05 0
135 0.0001277661703195009 7.376583282729142e-05 0
136 0.0001490605320394299 8.606013829851373e-05 0
137 0.0001703548937593443 9.835444376972755e-05 0
138 0.000191649255479244 0.0001106487492409329 0
139 3.258872343972533e-05 0 1.064718085995718e-05
140 6.517744687946937e-05 0 1.064718085995718e-05
141 9.776617031928741e-05 0 1.064718085995718e-05
142 0.0001303548937591901 0 1.064718085995718e-05
143 0.0001635592001693875 7.821723252015517e-06 1.064718085995718e-05
144 0.0001653907913844049 1.545084971880542e-05 1.064718085995718e-05
145 0.0001683932909897702 2.269952498706549e-05 1.064718085995718e-05
146 0.0001724927674804432 2.938926261468822e-05 1.064718085995718e-05
147 0.0001633649842318083 4.057857671866074e-05 1.064718085995718e-05
148 0.0001491416903237106 4.580181437802699e-05 1.064718085995718e-05
149 0.0001349183964156373 5.102505203738429e-05 1.064718085995718e-05
150 0.0001206951025076128 5.624828969672369e-05 1.064718085995718e-05
151 8.517744687971367e-05 4.917722188488774e-05 1.064718085995718e-05
152 6.388308515984743e-05 3.688291641370171e-05 1.064718085995718e-05
153 4.258872343992768e-05 2.458861094248478e-05 1.064718085995718e-05
154 2.129436171995981e-05 1.229430547124006e-05 1.064718085995718e-05
155 0.0002129436171991437 6.458861094235989e-05 1.064718085995718e-05
156 0.0002129436171991437 7.917722188471979e-05 1.064718085995718e-05
157 0.0002129436171991437 9.376583282711355e-05 1.064718085995718e-05
158 0.0002129436171991437 0.0001083544437695751 1.064718085995718e-05
159 0.000191649255479244 0.0001106487492409329 1.064718085995718e-05
160 0.0001703548937593443 9.835444376972755e-05 1.064718085995718e-05
161 0.0001490605320394299 8.606013829851373e-05 1.064718085995718e-05
162 0.0001277661703195009 7.376583282729142e-05 1.064718085995718e-05
163 0.0001835543545844922 4.045084971872712e-05 1.064718085995718e-05
164 0.000190244092212136 4.455032620940291e-05 1.064718085995718e-05
165 0.0001974927674803949 4.755282581475722e-05 1.064718085995718e-05
166 0.0002051218939471626 4.93844170297617e-05 1.064718085995718e-05
167 0.0001803548937592472 0.0001229430547121383 1.064718085995718e-05
168 0.0001477661703194523 0.0001229430547121383 1.064718085995718e-05
169 0.0001151774468796913 0.0001229430547121383 1.064718085995718e-05
170 8.258872343989651e-05 0.0001229430547121383 1.064718085995718e-05
171 4.938441702975092e-05 0.0001151213314600891 1.064718085995718e-05
172 4.755282581477867e-05 0.0001074922049934555 1.064718085995718e-05
173 4.455032620949716e-05 0.0001002435297253155 1.064718085995718e-05
174 4.045084971884904e-05 9.355379209765455e-05 1.064718085995718e-05
175 4.957863296724985e-05 8.236447799350896e-05 1.064718085995718e-05
176 6.380192687523355e-05 7.714124033418455e-05 1.064718085995718e-05
177 7.802522078326752e-05 7.191800267484168e-05 1.064718085995718e-05
178 9.224851469136666e-05 6.669476501547487e-05 1.064718085995718e-05
179 0 5.835444376971061e-05 1.064718085995718e-05
180 0 4.376583282728295e-05 1.064718085995718e-05
181 0 2.91772218848553e-05 1.064718085995718e-05
182 0 1.458861094242765e-05 1.064718085995718e-05
183 2.938926261464088e-05 8.249220499340342e-05 1.064718085995718e-05
184 2.269952498697072e-05 7.83927285027165e-05 1.064718085995718e-05
185 1.545084971872208e-05 7.539022889737238e-05 1.064718085995718e-05
186 7.821723251994732e-06 7.355863768237873e-05 1.064718085995718e-05
187 0.000169408083293211 0 1.064718085995718e-05
188 0.0001758725493872782 0 1.064718085995718e-05
189 0.0001823370154813455 0 1.064718085995718e-05
190 0.0001888014815754128 0 1.064718085995718e-05
191 0.00019526594766948 3.535533905924324e-06 1.064718085995718e-05
192 0.00019526594766948 7.071067811850708e-06 1.064718085995718e-05
193 0.00019526594766948 1.060660171778202e-05 1.064718085995718e-05
194 0.00019526594766948 1.414213562371967e-05 1.064718085995718e-05
195 0.0001917304137635642 2.121320343557948e-05 1.064718085995718e-05
196 0.000188194879857604 2.474873734153975e-05 1.064718085995718e-05
197 0.0001846593459516373 2.828427124750637e-05 1.064718085995718e-05
198 0.0001811238120456983 3.181980515344546e-05 1.064718085995718e-05
199 0.000198801481575345 0 1.064718085995718e-05
200 0.0002023370154813116 0 1.064718085995718e-05
201 0.0002058725493873121 0 1.064718085995718e-05
202 0.0002094080832932787 0 1.064718085995718e-05
203 0.0002129436171991437 3.535533905924324e-06 1.064718085995718e-05
204 0.0002129436171991437 7.071067811850708e-06 1.064718085995718e-05
205 0.0002129436171991437 1.060660171778202e-05 1.064718085995718e-05
206 0.0002129436171991437 1.414213562371967e-05 1.064718085995718e-05
207 0.0002094080832932787 1.767766952966369e-05 1.064718085995718e-05
208 0.0002058725493873121 1.767766952966369e-05 1.064718085995718e-05
209 0.0002023370154813116 1.767766952966369e-05 1.064718085995718e-05
210 0.000198801481575345 1.767766952966369e-05 1.064718085995718e-05
211 0.0002129436171991437 2.414213562371401e-05 1.064718085995718e-05
212 0.0002129436171991437 3.060660171776433e-05 1.064718085995718e-05
213 0.0002129436171991437 3.707106781183159e-05 1.064718085995718e-05
214 0.0002129436171991437 4.35355339059158e-05 1.064718085995718e-05
215 4.353553390593274e-05 0.0001229430547121383 1.064718085995718e-05
216 3.707106781186548e-05 0.0001229430547121383 1.064718085995718e-05
217 3.060660171779821e-05 0.0001229430547121383 1.064718085995718e-05
218 2.414213562373095e-05 0.0001229430547121383 1.064718085995718e-05
219 1.767766952966369e-05 0.0001194075208063072 1.064718085995718e-05
220 1.767766952966369e-05 0.0001158719869003744 1.064718085995718e-05
221 1.767766952966369e-05 0.0001123364529944078 1.064718085995718e-05
222 1.767766952966369e-05 0.0001088009190884412 1.064718085995718e-05
223 2.121320343561336e-05 0.0001017298512765249 1.064718085995718e-05
224 2.474873734155669e-05 9.819431737058157e-05 1.064718085995718e-05
225 2.828427124748943e-05 9.465878346464883e-05 1.064718085995718e-05
226 3.181980515341158e-05 9.112324955872669e-05 1.064718085995718e-05
227 1.414213562373095e-05 0.0001229430547121383 1.064718085995718e-05
228 1.060660171780457e-05 0.0001229430547121383 1.064718085995718e-05
229 7.071067811876063e-06 0.0001229430547121383 1.064718085995718e-05
230 3.535533905941208e-06 0.0001229430547121383 1.064718085995718e-05
231 0 0.0001194075208063072 1.064718085995718e-05
232 0 0.0001158719869003744 1.064718085995718e-05
233 0 0.0001123364529944078 1.064718085995718e-05
234 0 0.0001088009190884412 1.064718085995718e-05
235 3.535533905941208e-06 0.0001052653851824746 1.064718085995718e-05
236 7.071067811876063e-06 0.0001052653851824746 1.064718085995718e-05
237 1.060660171780457e-05 0.0001052653851824746 1.064718085995718e-05
238 1.414213562373095e-05 0.0001052653851824746 1.064718085995718e-05
239 0 9.880091908840731e-05 1.064718085995718e-05
240 0 9.233645299434004e-05 1.064718085995718e-05
241 0 8.587198690027277e-05 1.064718085995718e-05
242 0 7.940752080620551e-05 1.064718085995718e-05
243 4.974732940976249e-05 1.139978902739526e-05 0
244 6.714913702876007e-05 2.276105869774924e-05 0
245 8.4785126325788e-05 3.404623812837527e-05 0
246 0.0001026405109998339 4.521963003084948e-05 0
247 7.820029709957662e-05 1.050527258355175e-05 0
248 9.170955061759672e-05 2.093350645301627e-05 0
249 0.0001056871674917258 3.120955984305263e-05 0
250 0.0001201035751199445 4.126203817681615e-05 0
251 0.0001066532647894586 9.610756139705002e-06 0
252 0.0001162699642064957 1.910595420827673e-05 0
253 0.0001265892086577209 2.837288155771991e-05 0
254 0.000137566639240108 3.730444632276901e-05 0
255 0.000135106232479412 8.716239695856851e-06 0
256 0.0001408303777954535 1.727840196353429e-05 0
257 0.0001474912498237628 2.55362032723826e-05 0
258 0.0001550297033603067 3.334685446871529e-05 0
259 0.0002024273662535864 6.163728347194089e-05 0
260 0.0001920651927362 5.771314940570781e-05 0
261 0.0001820073801776179 5.285228862719207e-05 0
262 0.0001723967177315256 4.711384634041644e-05 0
263 0.0001997328385599921 7.389014991412668e-05 0
264 0.000186637617991969 6.787347299667154e-05 0
265 0.000173770668143046 6.115425104500098e-05 0
266 0.0001612390808784873 5.377684296213211e-05 0
267 0.0001970383108664032 8.614301635633665e-05 0
268 0.0001812100432477486 7.803379658765043e-05 0
269 0.0001655339561084895 6.945621346281649e-05 0
270 0.000150081444025469 6.043983958384634e-05 0
271 0.0001943437831728248 9.839588279859515e-05 0
272 0.0001757824685035488 8.819412017865967e-05 0
273 0.0001572972440739636 7.775817588064529e-05 0
274 0.0001389238071724908 6.710283620555781e-05 0
275 0.0001631962877892609 0.0001115432656847753 0
276 0.0001457944801703294 0.0001001819960144955 0
277 0.0001281584908733239 8.889681658390788e-05 0
278 0.0001103031061992329 7.772342468140948e-05 0
279 0.0001347433200993788 0.0001124377821286104 0
280 0.0001212340665814158 0.0001020095482592488 0
281 0.00010725644970732 9.173349486927964e-05 0
282 9.284004207906858e-05 8.168101653549711e-05 0
283 0.0001062903524095364 0.0001133322985724409 0
284 9.667365299254791e-05 0.0001038371005039927 0
285 8.635440854136817e-05 9.45701731546373e-05 0
286 7.537697795896281e-05 8.56386083895658e-05 0
287 7.783738471967751e-05 0.0001142268150162674 0
288 7.211323940368048e-05 0.000105664652748729 0
289 6.545236737543358e-05 9.74068514399836e-05 0
290 5.791391383889091e-05 8.959620024361951e-05 0
291 1.051625094556246e-05 6.130577124016027e-05 0
292 2.087842446291263e-05 6.522990530641342e-05 0
293 3.09362370214702e-05 7.009076608494139e-05 0
294 4.05468994675543e-05 7.582920837173744e-05 0
295 1.321077863914244e-05 4.905290479793734e-05 0
296 2.630599920712768e-05 5.506958171544549e-05 0
297 3.917294905600643e-05 6.17888036671528e-05 0
298 5.17045363205167e-05 6.916621175005343e-05 0
299 1.590530633273247e-05 3.68000383557107e-05 0
300 3.173357395136283e-05 4.490925812447015e-05 0
301 4.740966109057281e-05 5.348684124935314e-05 0
302 6.286217317351932e-05 6.250321512835471e-05 0
303 1.859983402633554e-05 2.454717191347927e-05 0
304 3.716114869562404e-05 3.474893453348524e-05 0
305 5.564637312517831e-05 4.51848788315391e-05 0
306 7.401981002657407e-05 5.58402185066368e-05 0
307 0.0001699005496693958 6.964485382807444e-06 0
308 0.0001713658226413996 1.377489333743481e-05 0
309 0.0001737678223256817 2.028094033323929e-05 0
310 0.00017704740351821 2.633983721653517e-05 0
311 0.0001762418991694156 6.107247513587934e-06 0
312 0.0001773408538984172 1.209893695604132e-05 0
313 0.0001791423536616275 1.786235567937878e-05 0
314 0.0001816020395560224 2.329041181833638e-05 0
315 0.0001825832486694409 5.250009644362918e-06 0
316 0.0001833158851554458 1.042298057463682e-05 0
317 0.0001845168849975897 1.544377102550176e-05 0
318 0.0001861566755938568 2.024098642011555e-05 0
319 0.0001889245981694649 4.392771775139173e-06 0
320 0.0001892909164124718 8.747024193234877e-06 0
321 0.0001898914163335482 1.302518637162854e-05 0
322 0.0001907113116316862 1.719156102189983e-05 0
323 0.000198801481575345 3.535533905924324e-06 0
324 0.000198801481575345 7.071067811850708e-06 0
325 0.000198801481575345 1.060660171778202e-05 0
326 0.000198801481575345 1.414213562371967e-05 0
327 0.0002023370154813116 3.535533905924324e-06 0
328 0.0002023370154813116 7.071067811850708e-06 0
329 0.0002023370154813116 1.060660171778202e-05 0
330 0.0002023370154813116 1.414213562371967e-05 0
331 0.0002058725493873121 3.535533905924324e-06 0
332 0.0002058725493873121 7.071067811850708e-06 0
333 0.0002058725493873121 1.060660171778202e-05 0
334 0.000205872549387312 1.414213562371967e-05 0
335 0.0002094080832932787 3.535533905924324e-06 0
336 0.0002094080832932787 7.071067811850706e-06 0
337 0.0002094080832932788 1.060660171778202e-05 0
338 0.0002094080832932788 1.414213562371967e-05 0
339 0.0002085508454240593 2.401901902966513e-05 0
340 0.0002041965930059362 2.365270078666366e-05 0
341 0.0001999184308274874 2.305220086559283e-05 0
342 0.0001957520561771885 2.22323055674583e-05 0
343 0.0002076936075548309 3.036036852967548e-05 0
344 0.0002025206366245424 2.962773204368143e-05 0
345 0.0001974998461736366 2.842673220154867e-05 0
346 0.0001927026307789966 2.678694160528848e-05 0
347 0.0002068363696856009 3.670171802970185e-05 0
348 0.0002008446802431454 3.560276330071369e-05 0
349 0.0001950812615197811 3.380126353751685e-05 0
350 0.0001896532053807989 3.134157764312829e-05 0
351 0.0002059791318163761 4.304306752973751e-05 0
352 0.0001991687238617587 4.15777945577469e-05 0
353 0.0001926626768659415 3.917579487347704e-05 0
354 0.0001866037799826227 3.589621368095057e-05 0
355 4.304306752973686e-05 0.0001159785693293293 0
356 4.157779455776245e-05 0.0001091681613748325 0
357 3.917579487354063e-05 0.0001026621143791238 0
358 3.589621368102553e-05 9.660321749579832e-05 0
359 3.670171802972154e-05 0.0001168358071985708 0
360 3.560276330074369e-05 0.000110844117756212 0
361 3.380126353758029e-05 0.0001050806990329359 0
362 3.134157764319692e-05 9.965264289394717e-05 0
363 3.036036852970408e-05 0.0001176930450678144 0
364 2.962773204372069e-05 0.0001125200741375958 0
365 2.842673220161359e-05 0.0001074992836867544 0
366 2.678694160535985e-05 0.0001027020682921045 0
367 2.401901902968452e-05 0.0001185502829370601 0
368 2.365270078669346e-05 0.0001141960305189838 0
369 2.305220086564054e-05 0.0001099178683405792 0
370 2.223230556751431e-05 0.0001057514936902703 0
371 1.414213562373095e-05 0.0001194075208063071 0
372 1.414213562373095e-05 0.0001158719869003744 0
373 1.414213562373095e-05 0.0001123364529944078 0
374 1.414213562373095e-05 0.0001088009190884412 0
375 1.060660171780457e-05 0.0001194075208063071 0
376 1.060660171780457e-05 0.0001158719869003744 0
377 1.060660171780457e-05 0.0001123364529944078 0
378 1.060660171780457e-05 0.0001088009190884412 0
379 7.071067811876061e-06 0.0001194075208063071 0
380 7.071067811876063e-06 0.0001158719869003744 0
381 7.071067811876063e-06 0.0001123364529944078 0
382 7.071067811876063e-06 0.0001088009190884412 0
383 3.535533905941208e-06 0.0001194075208063071 0
384 3.535533905941208e-06 0.0001158719869003744 0
385 3.535533905941208e-06 0.0001123364529944078 0
386 3.535533905941208e-06 0.0001088009190884412 0
387 4.3927717751553e-06 9.892403568245202e-05 0
388 8.747024193252043e-06 9.929035392544736e-05 0
389 1.302518637164796e-05 9.989085384651275e-05 0
390 1.719156102192648e-05 0.0001007107491446468 0
391 5.250009644368123e-06 9.258268618243072e-05 0
392 1.042298057462548e-05 9.33153226684227e-05 0
393 1.544377102548754e-05 9.45163225105548e-05 0
394 2.024098642011694e-05 9.615611310682408e-05 0
395 6.107247513578829e-06 8.624133668241154e-05 0
396 1.209893695599469e-05 8.734029141140223e-05 0
397 1.786235567932078e-05 8.914179117460321e-05 0
398 2.329041181829894e-05 9.160147706900983e-05 0
399 6.964485382787415e-06 7.989998718239451e-05 0
400 1.377489333735966e-05 8.136526015438605e-05 0
401 2.028094033314765e-05 8.376725983865794e-05 0
402 2.633983721647245e-05 8.70468410312041e-05 0
403 4.974732940976249e-05 1.139978902739526e-05 1.064718085995718e-05
404 6.714913702876007e-05 2.276105869774924e-05 1.064718085995718e-05
405 8.4785126325788e-05 3.404623812837527e-05 1.064718085995718e-05
406 0.0001026405109998339 4.521963003084948e-05 1.064718085995718e-05
407 7.820029709957662e-05 1.050527258355175e-05 1.064718085995718e-05
408 9.170955061759672e-05 2.093350645301627e-05 1.064718085995718e-05
409 0.0001056871674917258 3.120955984305263e-05 1.064718085995718e-05
410 0.0001201035751199445 4.126203817681615e-05 1.064718085995718e-05
411 0.0001066532647894586 9.610756139705002e-06 1.064718085995718e-05
412 0.0001162699642064957 1.910595420827673e-05 1.064718085995718e-05
413 0.0001265892086577209 2.837288155771991e-05 1.064718085995718e-05
414 0.000137566639240108 3.730444632276901e-05 1.064718085995718e-05
415 0.000135106232479412 8.716239695856851e-06 1.064718085995718e-05
416 0.0001408303777954535 1.727840196353429e-05 1.064718085995718e-05
417 0.0001474912498237628 2.55362032723826e-05 1.064718085995718e-05
418 0.0001550297033603067 3.334685446871529e-05 1.064718085995718e-05
419 0.0002024273662535864 6.163728347194089e-05 1.064718085995718e-05
420 0.0001920651927362 5.771314940570781e-05 1.064718085995718e-05
421 0.0001820073801776179 5.285228862719207e-05 1.064718085995718e-05
422 0.0001723967177315256 4.711384634041644e-05 1.064718085995718e-05
423 0.0001997328385599921 7.389014991412668e-05 1.064718085995718e-05
424 0.000186637617991969 6.787347299667154e-05 1.064718085995718e-05
425 0.000173770668143046 6.115425104500098e-05 1.064718085995718e-05
426 0.0001612390808784873 5.377684296213211e-05 1.064718085995718e-05
427 0.0001970383108664032 8.614301635633665e-05 1.064718085995718e-05
428 0.0001812100432477486 7.803379658765043e-05 1.064718085995718e-05
429 0.0001655339561084895 6.945621346281649e-05 1.064718085995718e-05
430 0.000150081444025469 6.043983958384634e-05 1.064718085995718e-05
431 0.0001943437831728248 9.839588279859515e-05 1.064718085995718e-05
432 0.0001757824685035488 8.819412017865967e-05 1.064718085995718e-05
433 0.0001572972440739636 7.775817588064529e-05 1.064718085995718e-05
434 0.0001389238071724908 6.710283620555781e-05 1.064718085995718e-05
435 0.0001631962877892609 0.0001115432656847753 1.064718085995718e-05
436 0.0001457944801703294 0.0001001819960144955 1.064718085995718e-05
437 0.0001281584908733239 8.889681658390788e-05 1.064718085995718e-05
438 0.0001103031061992329 7.772342468140948e-05 1.064718085995718e-05
439 0.0001347433200993788 0.0001124377821286104 1.064718085995718e-05
440 0.0001212340665814158 0.0001020095482592488 1.064718085995718e-05
441 0.00010725644970732 9.173349486927964e-05 1.064718085995718e-05
442 9.284004207906858e-05 8.168101653549711e-05 1.064718085995718e-05
443 0.0001062903524095364 0.0001133322985724409 1.064718085995718e-05
444 9.667365299254791e-05 0.0001038371005039927 1.064718085995718e-05
445 8.635440854136817e-05 9.45701731546373e-05 1.064718085995718e-05
446 7.537697795896281e-05 8.56386083895658e-05 1.064718085995718e-05
447 7.783738471967751e-05 0.0001142268150162674 1.064718085995718e-05
448 7.211323940368048e-05 0.000105664652748729 1.064718085995718e-05
449 6.545236737543358e-05 9.74068514399836e-05 1.064718085995718e-05
450 5.791391383889091e-05 8.959620024361951e-05 1.064718085995718e-05
451 1.051625094556246e-05 6.130577124016027e-05 1.064718085995718e-05
452 2.087842446291263e-05 6.522990530641342e-05 1.064718085995718e-05
453 3.09362370214702e-05 7.009076608494139e-05 1.064718085995718e-05
454 4.05468994675543e-05 7.582920837173744e-05 1.064718085995718e-05
455 1.321077863914244e-05 4.905290479793734e-05 1.064718085995718e-05
456 2.630599920712768e-05 5.506958171544549e-05 1.064718085995718e-05
457 3.917294905600643e-05 6.17888036671528e-05 1.064718085995718e-05
458 5.17045363205167e-05 6.916621175005343e-05 1.064718085995718e-05
459 1.590530633273247e-05 3.68000383557107e-05 1.064718085995718e-05
460 3.173357395136283e-05 4.490925812447015e-05 1.064718085995718e-05
461 4.740966109057281e-05 5.348684124935314e-05 1.064718085995718e-05
462 6.286217317351932e-05 6.250321512835471e-05 1.064718085995718e-05
463 1.859983402633554e-05 2.454717191347927e-05 1.064718085995718e-05
464 3.716114869562404e-05 3.474893453348524e-05 1.064718085995718e-05
465 5.564637312517831e-05 4.51848788315391e-05 1.064718085995718e-05
466 7.401981002657407e-05 5.58402185066368e-05 1.064718085995718e-05
467 0.0001699005496693958 6.964485382807444e-06 1.064718085995718e-05
468 0.0001713658226413996 1.377489333743481e-05 1.064718085995718e-05
469 0.0001737678223256817 2.028094033323929e-05 1.064718085995718e-05
470 0.00017704740351821 2.633983721653517e-05 1.064718085995718e-05
471 0.0001762418991694156 6.107247513587934e-06 1.064718085995718e-05
472 0.0001773408538984172 1.209893695604132e-05 1.064718085995718e-05
473 0.0001791423536616275 1.786235567937878e-05 1.064718085995718e-05
474 0.0001816020395560224 2.329041181833638e-05 1.064718085995718e-05
475 0.0001825832486694409 5.250009644362918e-06 1.064718085995718e-05
476 0.0001833158851554458 1.042298057463682e-05 1.064718085995718e-05
477 0.0001845168849975897 1.544377102550176e-05 1.064718085995718e-05
478 0.0001861566755938568 2.024098642011555e-05 1.064718085995718e-05
479 0.0001889245981694649 4.392771775139173e-06 1.064718085995718e-05
480 0.0001892909164124718 8.747024193234877e-06 1.064718085995718e-05
481 0.0001898914163335482 1.302518637162854e-05 1.064718085995718e-05
482 0.0001907113116316862 1.719156102189983e-05 1.064718085995718e-05
483 0.000198801481575345 3.535533905924324e-06 1.064718085995718e-05
484 0.000198801481575345 7.071067811850708e-06 1.064718085995718e-05
485 0.000198801481575345 1.060660171778202e-05 1.064718085995718e-05
486 0.000198801481575345 1.414213562371967e-05 1.064718085995718e-05
487 0.0002023370154813116 3.535533905924324e-06 1.064718085995718e-05
488 0.0002023370154813116 7.071067811850708e-06 1.064718085995718e-05
489 0.0002023370154813116 1.060660171778202e-05 1.064718085995718e-05
490 0.0002023370154813116 1.414213562371967e-05 1.064718085995718e-05
491 0.0002058725493873121 3.535533905924324e-06 1.064718085995718e-05
492 0.0002058725493873121 7.071067811850708e-06 1.064718085995718e-05
493 0.0002058725493873121 1.060660171778202e-05 1.064718085995718e-05
494 0.000205872549387312 1.414213562371967e-05 1.064718085995718e-05
495 0.0002094080832932787 3.535533905924324e-06 1.064718085995718e-05
496 0.0002094080832932787 7.071067811850706e-06 1.064718085995718e-05
497 0.0002094080832932788 1.060660171778202e-05 1.064718085995718e-05
498 0.0002094080832932788 1.414213562371967e-05 1.064718085995718e-05
499 0.0002085508454240593 2.401901902966513e-05 1.064718085995718e-05
500 0.0002041965930059362 2.365270078666366e-05 1.064718085995718e-05
501 0.0001999184308274874 2.305220086559283e-05 1.064718085995718e-05
502 0.0001957520561771885 2.22323055674583e-05 1.064718085995718e-05
503 0.0002076936075548309 3.036036852967548e-05 1.064718085995718e-05
504 0.0002025206366245424 2.962773204368143e-05 1.064718085995718e-05
505 0.0001974998461736366 2.842673220154867e-05 1.064718085995718e-05
506 0.0001927026307789966 2.678694160528848e-05 1.064718085995718e-05
507 0.0002068363696856009 3.670171802970185e-05 1.064718085995718e-05
508 0.0002008446802431454 3.560276330071369e-05 1.064718085995718e-05
509 0.0001950812615197811 3.380126353751685e-05 1.064718085995718e-05
510 0.0001896532053807989 3.134157764312829e-05 1.064718085995718e-05
511 0.0002059791318163761 4.304306752973751e-05 1.064718085995718e-05
512 0.0001991687238617587 4.15777945577469e-05 1.064718085995718e-05
513 0.0001926626768659415 3.917579487347704e-05 1.064718085995718e-05
514 0.0001866037799826227 3.589621368095057e-05 1.064718085995718e-05
515 4.304306752973686e-05 0.0001159785693293293 1.064718085995718e-05
516 4.157779455776245e-05 0.0001091681613748325 1.064718085995718e-05
517 3.917579487354063e-05 0.0001026621143791238 1.064718085995718e-05
518 3.589621368102553e-05 9.660321749579832e-05 1.064718085995718e-05
519 3.670171802972154e-05 0.0001168358071985708 1.064718085995718e-05
520 3.560276330074369e-05 0.000110844117756212 1.064718085995718e-05
521 3.380126353758029e-05 0.0001050806990329359 1.064718085995718e-05
522 3.134157764319692e-05 9.965264289394717e-05 1.064718085995718e-05
523 3.036036852970408e-05 0.0001176930450678144 1.064718085995718e-05
524 2.962773204372069e-05 0.0001125200741375958 1.064718085995718e-05
525 2.842673220161359e-05 0.0001074992836867544 1.064718085995718e-05
526 2.678694160535985e-05 0.0001027020682921045 1.064718085995718e-05
527 2.401901902968452e-05 0.0001185502829370601 1.064718085995718e-05
528 2.365270078669346e-05 0.0001141960305189838 1.064718085995718e-05
529 2.305220086564054e-05 0.0001099178683405792 1.064718085995718e-05
530 2.223230556751431e-05 0.0001057514936902703 1.064718085995718e-05
531 1.414213562373095e-05 0.0001194075208063071 1.064718085995718e-05
532 1.414213562373095e-05 0.0001158719869003744 1.064718085995718e-05
533 1.414213562373095e-05 0.0001123364529944078 1.064718085995718e-05
534 1.414213562373095e-05 0.0001088009190884412 1.064718085995718e-05
535 1.060660171780457e-05 0.0001194075208063071 1.064718085995718e-05
536 1.060660171780457e-05 0.0001158719869003744 1.064718085995718e-05
537 1.060660171780457e-05 0.0001123364529944078 1.064718085995718e-05
538 1.060660171780457e-05 0.0001088009190884412 1.064718085995718e-05
539 7.071067811876061e-06 0.0001194075208063071 1.064718085995718e-05
540 7.071067811876063e-06 0.0001158719869003744 1.064718085995718e-05
541 7.071067811876063e-06 0.0001123364529944078 1.064718085995718e-05
542 7.071067811876063e-06 0.0001088009190884412 1.064718085995718e-05
543 3.535533905941208e-06 0.0001194075208063071 1.064718085995718e-05
544 3.535533905941208e-06 0.0001158719869003744 1.064718085995718e-05
545 3.535533905941208e-06 0.0001123364529944078 1.064718085995718e-05
546 3.535533905941208e-06 0.0001088009190884412 1.064718085995718e-05
547 4.3927717751553e-06 9.892403568245202e-05 1.064718085995718e-05
548 8.747024193252043e-06 9.929035392544736e-05 1.064718085995718e-05
549 1.302518637164796e-05 9.989085384651275e-05 1.064718085995718e-05
550 1.719156102192648e-05 0.0001007107491446468 1.064718085995718e-05
551 5.250009644368123e-06 9.258268618243072e-05 1.064718085995718e-05
552 1.042298057462548e-05 9.33153226684227e-05 1.064718085995718e-05
553 1.544377102548754e-05 9.45163225105548e-05 1.064718085995718e-05
554 2.024098642011694e-05 9.615611310682408e-05 1.064718085995718e-05
555 6.107247513578829e-06 8.624133668241154e-05 1.064718085995718e-05
556 1.209893695599469e-05 8.734029141140223e-05 1.064718085995718e-05
557 1.786235567932078e-05 8.914179117460321e-05 1.064718085995718e-05
558 2.329041181829894e-05 9.160147706900983e-05 1.064718085995718e-05
559 6.964485382787415e-06 7.989998718239451e-05 1.064718085995718e-05
560 1.377489333735966e-05 8.136526015438605e-05 1.064718085995718e-05
561 2.028094033314765e-05 8.376725983865794e-05 1.064718085995718e-05
562 2.633983721647245e-05 8.70468410312041e-05 1.064718085995718e-05
$EndNodes
$Elements
810
1 3 2 121 1 1 35 243 130
2 3 2 121 1 130 243 244 129
3 3 2 121 1 129 244 245 128
4 3 2 121 1 128 245 246 127
5 3 2 121 1 127 246 126 9
6 3 2 121 1 35 36 247 243
7 3 2 121 1 243 247 248 244
8 3 2 121 1 244 248 249 245
9 3 2 121 1 245 249 250 246
10 3 2 121 1 246 250 125 126
11 3 2 121 1 36 37 251 247
12 3 2 121 1 247 251 252 248
13 3 2 121 1 248 252 253 249
14 3 2 121 1 249 253 254 250
15 3 2 121 1 250 254 124 125
16 3 2 121 1 37 38 255 251
17 3 2 121 1 251 255 256 252
18 3 2 121 1 252 256 257 253
19 3 2 121 1 253 257 258 254
20 3 2 121 1 254 258 123 124
21 3 2 121 1 38 2 86 255
22 3 2 121 1 255 86 85 256
23 3 2 121 1 256 85 84 257
24 3 2 121 1 257 84 83 258
25 3 2 121 1 258 83 10 123
26 3 2 121 2 3 39 259 79
27 3 2 121 2 79 259 260 80
28 3 2 121 2 80 260 261 81
29 3 2 121 2 81 261 262 82
30 3 2 121 2 82 262 123 10
31 3 2 121 2 39 40 263 259
32 3 2 121 2 259 263 264 260
33 3 2 121 2 260 264 265 261
34 3 2 121 2 261 265 266 262
35 3 2 121 2 262 266 124 123
36 3 2 121 2 40 41 267 263
37 3 2 121 2 263 267 268 264
38 3 2 121 2 264 268 269 265
39 3 2 121 2 265 269 270 266
40 3 2 121 2 266 270 125 124
41 3 2 121 2 41 42 271 267
42 3 2 121 2 267 271 272 268
43 3 2 121 2 268 272 273 269
44 3 2 121 2 269 273 274 270
45 3 2 121 2 270 274 126 125
46 3 2 121 2 42 4 138 271
47 3 2 121 2 271 138 137 272
48 3 2 121 2 272 137 136 273
49 3 2 121 2 273 136 135 274
50 3 2 121 2 274 135 9 126
51 3 2 121 3 4 43 275 138
52 3 2 121 3 138 275 276 137
53 3 2 121 3 137 276 277 136
54 3 2 121 3 136 277 278 135
55 3 2 121 3 135 278 134 9
56 3 2 121 3 43 44 279 275
57 3 2 121 3 275 279 280 276
58 3 2 121 3 276 280 281 277
59 3 2 121 3 277 281 282 278
60 3 2 121 3 278 282 133 134
61 3 2 121 3 44 45 283 279
62 3 2 121 3 279 283 284 280
63 3 2 121 3 280 284 285 281
64 3 2 121 3 281 285 286 282
65 3 2 121 3 282 286 132 133
66 3 2 121 3 45 46 287 283
67 3 2 121 3 283 287 288 284
68 3 2 121 3 284 288 289 285
69 3 2 121 3 285 289 290 286
70 3 2 121 3 286 290 131 132
71 3 2 121 3 46 5 122 287
72 3 2 121 3 287 122 121 288
73 3 2 121 3 288 121 120 289
74 3 2 121 3 289 120 119 290
75 3 2 121 3 290 119 14 131
76 3 2 121 4 6 47 291 115
77 3 2 121 4 115 291 292 116
78 3 2 121 4 116 292 293 117
79 3 2 121 4 117 293 294 118
80 3 2 121 4 118 294 131 14
81 3 2 121 4 47 48 295 291
82 3 2 121 4 291 295 296 292
83 3 2 121 4 292 296 297 293
84 3 2 121 4 293 297 298 294
85 3 2 121 4 294 298 132 131
86 3 2 121 4 48 49 299 295
87 3 2 121 4 295 299 300 296
88 3 2 121 4 296 300 301 297
89 3 2 121 4 297 301 302 298
90 3 2 121 4 298 302 133 132
91 3 2 121 4 49 50 303 299
92 3 2 121 4 299 303 304 300
93 3 2 121 4 300 304 305 301
94 3 2 121 4 301 305 306 302
95 3 2 121 4 302 306 134 133
96 3 2 121 4 50 1 130 303
97 3 2 121 4 303 130 129 304
98 3 2 121 4 304 129 128 305
99 3 2 121 4 305 128 127 306
100 3 2 121 4 306 127 9 134
101 3 2 121 5 2 51 307 86
102 3 2 121 5 86 307 308 85
103 3 2 121 5 85 308 309 84
104 3 2 121 5 84 309 310 83
105 3 2 121 5 83 310 67 10
106 3 2 121 5 51 52 311 307
107 3 2 121 5 307 311 312 308
108 3 2 121 5 308 312 313 309
109 3 2 121 5 309 313 314 310
110 3 2 121 5 310 314 68 67
111 3 2 121 5 52 53 315 311
112 3 2 121 5 311 315 316 312
113 3 2 121 5 312 316 317 313
114 3 2 121 5 313 317 318 314
115 3 2 121 5 314 318 69 68
116 3 2 121 5 53 54 319 315
117 3 2 121 5 315 319 320 316
118 3 2 121 5 316 320 321 317
119 3 2 121 5 317 321 322 318
120 3 2 121 5 318 322 70 69
121 3 2 121 5 54 12 71 319
122 3 2 121 5 319 71 72 320
123 3 2 121 5 320 72 73 321
124 3 2 121 5 321 73 74 322
125 3 2 121 5 322 74 11 70
126 3 2 121 6 12 55 323 71
127 3 2 121 6 71 323 324 72
128 3 2 121 6 72 324 325 73
129 3 2 121 6 73 325 326 74
130 3 2 121 6 74 326 75 11
131 3 2 121 6 55 56 327 323
132 3 2 121 6 323 327 328 324
133 3 2 121 6 324 328 329 325
134 3 2 121 6 325 329 330 326
135 3 2 121 6 326 330 76 75
136 3 2 121 6 56 57 331 327
137 3 2 121 6 327 331 332 328
138 3 2 121 6 328 332 333 329
139 3 2 121 6 329 333 334 330
140 3 2 121 6 330 334 77 76
141 3 2 121 6 57 58 335 331
142 3 2 121 6 331 335 336 332
143 3 2 121 6 332 336 337 333
144 3 2 121 6 333 337 338 334
145 3 2 121 6 334 338 78 77
146 3 2 121 6 58 7 59 335
147 3 2 121 6 335 59 60 336
148 3 2 121 6 336 60 61 337
149 3 2 121 6 337 61 62 338
150 3 2 121 6 338 62 13 78
151 3 2 121 7 13 63 339 78
152 3 2 121 7 78 339 340 77
153 3 2 121 7 77 340 341 76
154 3 2 121 7 76 341 342 75
155 3 2 121 7 75 342 70 11
156 3 2 121 7 63 64 343 339
157 3 2 121 7 339 343 344 340
158 3 2 121 7 340 344 345 341
159 3 2 121 7 341 345 346 342
160 3 2 121 7 342 346 69 70
161 3 2 121 7 64 65 347 343
162 3 2 121 7 343 347 348 344
163 3 2 121 7 344 348 349 345
164 3 2 121 7 345 349 350 346
165 3 2 121 7 346 350 68 69
166 3 2 121 7 65 66 351 347
167 3 2 121 7 347 351 352 348
168 3 2 121 7 348 352 353 349
169 3 2 121 7 349 353 354 350
170 3 2 121 7 350 354 67 68
171 3 2 121 7 66 3 79 351
172 3 2 121 7 351 79 80 352
173 3 2 121 7 352 80 81 353
174 3 2 121 7 353 81 82 354
175 3 2 121 7 354 82 10 67
176 3 2 121 8 5 87 355 122
177 3 2 121 8 122 355 356 121
178 3 2 121 8 121 356 357 120
179 3 2 121 8 120 357 358 119
180 3 2 121 8 119 358 103 14
181 3 2 121 8 87 88 359 355
182 3 2 121 8 355 359 360 356
183 3 2 121 8 356 360 361 357
184 3 2 121 8 357 361 362 358
185 3 2 121 8 358 362 104 103
186 3 2 121 8 88 89 363 359
187 3 2 121 8 359 363 364 360
188 3 2 121 8 360 364 365 361
189 3 2 121 8 361 365 366 362
190 3 2 121 8 362 366 105 104
191 3 2 121 8 89 90 367 363
192 3 2 121 8 363 367 368 364
193 3 2 121 8 364 368 369 365
194 3 2 121 8 365 369 370 366
195 3 2 121 8 366 370 106 105
196 3 2 121 8 90 16 107 367
197 3 2 121 8 367 107 108 368
198 3 2 121 8 368 108 109 369
199 3 2 121 8 369 109 110 370
200 3 2 121 8 370 110 15 106
201 3 2 121 9 16 91 371 107
202 3 2 121 9 107 371 372 108
203 3 2 121 9 108 372 373 109
204 3 2 121 9 109 373 374 110
205 3 2 121 9 110 374 111 15
206 3 2 121 9 91 92 375 371
207 3 2 121 9 371 375 376 372
208 3 2 121 9 372 376 377 373
209 3 2 121 9 373 377 378 374
210 3 2 121 9 374 378 112 111
211 3 2 121 9 92 93 379 375
212 3 2 121 9 375 379 380 376
213 3 2 121 9 376 380 381 377
214 3 2 121 9 377 381 382 378
215 3 2 121 9 378 382 113 112
216 3 2 121 9 93 94 383 379
217 3 2 121 9 379 383 384 380
218 3 2 121 9 380 384 385 381
219 3 2 121 9 381 385 386 382
220 3 2 121 9 382 386 114 113
221 3 2 121 9 94 8 95 383
222 3 2 121 9 383 95 96 384
223 3 2 121 9 384 96 97 385
224 3 2 121 9 385 97 98 386
225 3 2 121 9 386 98 17 114
226 3 2 121 10 17 99 387 114
227 3 2 121 10 114 387 388 113
228 3 2 121 10 113 388 389 112
229 3 2 121 10 112 389 390 111
230 3 2 121 10 111 390 106 15
231 3 2 121 10 99 100 391 387
232 3 2 121 10 387 391 392 388
233 3 2 121 10 388 392 393 389
234 3 2 121 10 389 393 394 390
235 3 2 121 10 390 394 105 106
236 3 2 121 10 100 101 395 391
237 3 2 121 10 391 395 396 392
238 3 2 121 10 392 396 397 393
239 3 2 121 10 393 397 398 394
240 3 2 121 10 394 398 104 105
241 3 2 121 10 101 102 399 395
242 3 2 121 10 395 399 400 396
243 3 2 121 10 396 400 401 397
244 3 2 121 10 397 401 402 398
245 3 2 121 10 398 402 103 104
246 3 2 121 10 102 6 115 399
247 3 2 121 10 399 115 116 400
248 3 2 121 10 400 116 117 401
249 3 2 121 10 401 117 118 402
250 3 2 121 10 402 118 14 103
251 3 2 111 35 1 35 139 18
252 3 2 111 35 35 36 140 139
253 3 2 111 35 36 37 141 140
254 3 2 111 35 37 38 142 141
255 3 2 111 35 38 2 19 142
256 3 2 122 48 18 139 403 154
257 3 2 122 48 154 403 404 153
258 3 2 122 48 153 404 405 152
259 3 2 122 48 152 405 406 151
260 3 2 122 48 151 406 150 22
261 3 2 122 48 139 140 407 403
262 3 2 122 48 403 407 408 404
263 3 2 122 48 404 408 409 405
264 3 2 122 48 405 409 410 406
265 3 2 122 48 406 410 149 150
266 3 2 122 48 140 141 411 407
267 3 2 122 48 407 411 412 408
268 3 2 122 48 408 412 413 409
269 3 2 122 48 409 413 414 410
270 3 2 122 48 410 414 148 149
271 3 2 122 48 141 142 415 411
272 3 2 122 48 411 415 416 412
273 3 2 122 48 412 416 417 413
274 3 2 122 48 413 417 418 414
275 3 2 122 48 414 418 147 148
276 3 2 122 48 142 19 143 415
277 3 2 122 48 415 143 144 416
278 3 2 122 48 416 144 145 417
279 3 2 122 48 417 145 146 418
280 3 2 122 48 418 146 21 147
281 3 2 102 57 3 39 155 23
282 3 2 102 57 39 40 156 155
283 3 2 102 57 40 41 157 156
284 3 2 102 57 41 42 158 157
285 3 2 102 57 42 4 24 158
286 3 2 122 70 23 155 419 166
287 3 2 122 70 166 419 420 165
288 3 2 122 70 165 420 421 164
289 3 2 122 70 164 421 422 163
290 3 2 122 70 163 422 147 21
291 3 2 122 70 155 156 423 419
292 3 2 122 70 419 423 424 420
293 3 2 122 70 420 424 425 421
294 3 2 122 70 421 425 426 422
295 3 2 122 70 422 426 148 147
296 3 2 122 70 156 157 427 423
297 3 2 122 70 423 427 428 424
298 3 2 122 70 424 428 429 425
299 3 2 122 70 425 429 430 426
300 3 2 122 70 426 430 149 148
301 3 2 122 70 157 158 431 427
302 3 2 122 70 427 431 432 428
303 3 2 122 70 428 432 433 429
304 3 2 122 70 429 433 434 430
305 3 2 122 70 430 434 150 149
306 3 2 122 70 158 24 159 431
307 3 2 122 70 431 159 160 432
308 3 2 122 70 432 160 161 433
309 3 2 122 70 433 161 162 434
310 3 2 122 70 434 162 22 150
311 3 2 112 79 4 43 167 24
312 3 2 112 79 43 44 168 167
313 3 2 112 79 44 45 169 168
314 3 2 112 79 45 46 170 169
315 3 2 112 79 46 5 25 170
316 3 2 122 92 24 167 435 159
317 3 2 122 92 159 435 436 160
318 3 2 122 92 160 436 437 161
319 3 2 122 92 161 437 438 162
320 3 2 122 92 162 438 178 22
321 3 2 122 92 167 168 439 435
322 3 2 122 92 435 439 440 436
323 3 2 122 92 436 440 441 437
324 3 2 122 92 437 441 442 438
325 3 2 122 92 438 442 177 178
326 3 2 122 92 168 169 443 439
327 3 2 122 92 439 443 444 440
328 3 2 122 92 440 444 445 441
329 3 2 122 92 441 445 446 442
330 3 2 122 92 442 446 176 177
331 3 2 122 92 169 170 447 443
332 3 2 122 92 443 447 448 444
333 3 2 122 92 444 448 449 445
334 3 2 122 92 445 449 450 446
335 3 2 122 92 446 450 175 176
336 3 2 122 92 170 25 171 447
337 3 2 122 92 447 171 172 448
338 3 2 122 92 448 172 173 449
339 3 2 122 92 449 173 174 450
340 3 2 122 92 450 174 27 175
341 3 2 101 101 6 47 179 28
342 3 2 101 101 47 48 180 179
343 3 2 101 101 48 49 181 180
344 3 2 101 101 49 50 182 181
345 3 2 101 101 50 1 18 182
346 3 2 122 114 28 179 451 186
347 3 2 122 114 186 451 452 185
348 3 2 122 114 185 452 453 184
349 3 2 122 114 184 453 454 183
350 3 2 122 114 183 454 175 27
351 3 2 122 114 179 180 455 451
352 3 2 122 114 451 455 456 452
353 3 2 122 114 452 456 457 453
354 3 2 122 114 453 457 458 454
355 3 2 122 114 454 458 176 175
356 3 2 122 114 180 181 459 455
357 3 2 122 114 455 459 460 456
358 3 2 122 114 456 460 461 457
359 3 2 122 114 457 461 462 458
360 3 2 122 114 458 462 177 176
361 3 2 122 114 181 182 463 459
362 3 2 122 114 459 463 464 460
363 3 2 122 114 460 464 465 461
364 3 2 122 114 461 465 466 462
365 3 2 122 114 462 466 178 177
366 3 2 122 114 182 18 154 463
367 3 2 122 114 463 154 153 464
368 3 2 122 114 464 153 152 465
369 3 2 122 114 465 152 151 466
370 3 2 122 114 466 151 22 178
371 3 2 111 123 2 51 187 19
372 3 2 111 123 51 52 188 187
373 3 2 111 123 52 53 189 188
374 3 2 111 123 53 54 190 189
375 3 2 111 123 54 12 29 190
376 3 2 122 136 19 187 467 143
377 3 2 122 136 143 467 468 144
378 3 2 122 136 144 468 469 145
379 3 2 122 136 145 469 470 146
380 3 2 122 136 146 470 198 21
381 3 2 122 136 187 188 471 467
382 3 2 122 136 467 471 472 468
383 3 2 122 136 468 472 473 469
384 3 2 122 136 469 473 474 470
385 3 2 122 136 470 474 197 198
386 3 2 122 136 188 189 475 471
387 3 2 122 136 471 475 476 472
388 3 2 122 136 472 476 477 473
389 3 2 122 136 473 477 478 474
390 3 2 122 136 474 478 196 197
391 3 2 122 136 189 190 479 475
392 3 2 122 136 475 479 480 476
393 3 2 122 136 476 480 481 477
394 3 2 122 136 477 481 482 478
395 3 2 122 136 478 482 195 196
396 3 2 122 136 190 29 191 479
397 3 2 122 136 479 191 192 480
398 3 2 122 136 480 192 193 481
399 3 2 122 136 481 193 194 482
400 3 2 122 136 482 194 30 195
401 3 2 111 145 12 55 199 29
402 3 2 111 145 55 56 200 199
403 3 2 111 145 56 57 201 200
404 3 2 111 145 57 58 202 201
405 3 2 111 145 58 7 20 202
406 3 2 102 149 7 59 203 20
407 3 2 102 149 59 60 204 203
408 3 2 102 149 60 61 205 204
409 3 2 102 149 61 62 206 205
410 3 2 102 149 62 13 31 206
411 3 2 122 158 29 199 483 191
412 3 2 122 158 191 483 484 192
413 3 2 122 158 192 484 485 193
414 3 2 122 158 193 485 486 194
415 3 2 122 158 194 486 210 30
416 3 2 122 158 199 200 487 483
417 3 2 122 158 483 487 488 484
418 3 2 122 158 484 488 489 485
419 3 2 122 158 485 489 490 486
420 3 2 122 158 486 490 209 210
421 3 2 122 158 200 201 491 487
422 3 2 122 158 487 491 492 488
423 3 2 122 158 488 492 493 489
424 3 2 122 158 489 493 494 490
425 3 2 122 158 490 494 208 209
426 3 2 122 158 201 202 495 491
427 3 2 122 158 491 495 496 492
428 3 2 122 158 492 496 497 493
429 3 2 122 158 493 497 498 494
430 3 2 122 158 494 498 207 208
431 3 2 122 158 202 20 203 495
432 3 2 122 158 495 203 204 496
433 3 2 122 158 496 204 205 497
434 3 2 122 158 497 205 206 498
435 3 2 122 158 498 206 31 207
436 3 2 102 167 13 63 211 31
437 3 2 102 167 63 64 212 211
438 3 2 102 167 64 65 213 212
439 3 2 102 167 65 66 214 213
440 3 2 102 167 66 3 23 214
441 3 2 122 180 31 211 499 207
442 3 2 122 180 207 499 500 208
443 3 2 122 180 208 500 501 209
444 3 2 122 180 209 501 502 210
445 3 2 122 180 210 502 195 30
446 3 2 122 180 211 212 503 499
447 3 2 122 180 499 503 504 500
448 3 2 122 180 500 504 505 501
449 3 2 122 180 501 505 506 502
450 3 2 122 180 502 506 196 195
451 3 2 122 180 212 213 507 503
452 3 2 122 180 503 507 508 504
453 3 2 122 180 504 508 509 505
454 3 2 122 180 505 509 510 506
455 3 2 122 180 506 510 197 196
456 3 2 122 180 213 214 511 507
457 3 2 122 180 507 511 512 508
458 3 2 122 180 508 512 513 509
459 3 2 122 180 509 513 514 510
460 3 2 122 180 510 514 198 197
461 3 2 122 180 214 23 166 511
462 3 2 122 180 511 166 165 512
463 3 2 122 180 512 165 164 513
464 3 2 122 180 513 164 163 514
465 3 2 122 180 514 163 21 198
466 3 2 112 189 5 87 215 25
467 3 2 112 189 87 88 216 215
468 3 2 112 189 88 89 217 216
469 3 2 112 189 89 90 218 217
470 3 2 112 189 90 16 32 218
471 3 2 122 202 25 215 515 171
472 3 2 122 202 171 515 516 172
473 3 2 122 202 172 516 517 173
474 3 2 122 202 173 517 518 174
475 3 2 122 202 174 518 226 27
476 3 2 122 202 215 216 519 515
477 3 2 122 202 515 519 520 516
478 3 2 122 202 516 520 521 517
479 3 2 122 202 517 521 522 518
480 3 2 122 202 518 522 225 226
481 3 2 122 202 216 217 523 519
482 3 2 122 202 519 523 524 520
483 3 2 122 202 520 524 525 521
484 3 2 122 202 521 525 526 522
485 3 2 122 202 522 526 224 225
486 3 2 122 202 217 218 527 523
487 3 2 122 202 523 527 528 524
488 3 2 122 202 524 528 529 525
489 3 2 122 202 525 529 530 526
490 3 2 122 202 526 530 223 224
491 3 2 122 202 218 32 219 527
492 3 2 122 202 527 219 220 528
493 3 2 122 202 528 220 221 529
494 3 2 122 202 529 221 222 530
495 3 2 122 202 530 222 33 223
496 3 2 112 211 16 91 227 32
497 3 2 112 211 91 92 228 227
498 3 2 112 211 92 93 229 228
499 3 2 112 211 93 94 230 229
500 3 2 112 211 94 8 26 230
501 3 2 101 215 8 95 231 26
502 3 2 101 215 95 96 232 231
503 3 2 101 215 96 97 233 232
504 3 2 101 215 97 98 234 233
505 3 2 101 215 98 17 34 234
506 3 2 122 224 32 227 531 219
507 3 2 122 224 219 531 532 220
508 3 2 122 224 220 532 533 221
509 3 2 122 224 221 533 534 222
510 3 2 122 224 222 534 238 33
511 3 2 122 224 227 228 535 531
512 3 2 122 224 531 535 536 532
513 3 2 122 224 532 536 537 533
514 3 2 122 224 533 537 538 534
515 3 2 122 224 534 538 237 238
516 3 2 122 224 228 229 539 535
517 3 2 122 224 535 539 540 536
518 3 2 122 224 536 540 541 537
519 3 2 122 224 537 541 542 538
520 3 2 122 224 538 542 236 237
521 3 2 122 224 229 230 543 539
522 3 2 122 224 539 543 544 540
523 3 2 122 224 540 544 545 541
524 3 2 122 224 541 545 546 542
525 3 2 122 224 542 546 235 236
526 3 2 122 224 230 26 231 543
527 3 2 122 224 543 231 232 544
528 3 2 122 224 544 232 233 545
529 3 2 122 224 545 233 234 546
530 3 2 122 224 546 234 34 235
531 3 2 101 233 17 99 239 34
532 3 2 101 233 99 100 240 239
533 3 2 101 233 100 101 241 240
534 3 2 101 233 101 102 242 241
535 3 2 101 233 102 6 28 242
536 3 2 122 246 34 239 547 235
537 3 2 122 246 235 547 548 236
538 3 2 122 246 236 548 549 237
539 3 2 122 246 237 549 550 238
540 3 2 122 246 238 550 223 33
541 3 2 122 246 239 240 551 547
542 3 2 122 246 547 551 552 548
543 3 2 122 246 548 552 553 549
544 3 2 122 246 549 553 554 550
545 3 2 122 246 550 554 224 223
546 3 2 122 246 240 241 555 551
547 3 2 122 246 551 555 556 552
548 3 2 122 246 552 556 557 553
549 3 2 122 246 553 557 558 554
550 3 2 122 246 554 558 225 224
551 3 2 122 246 241 242 559 555
552 3 2 122 246 555 559 560 556
553 3 2 122 246 556 560 561 557
554 3 2 122 246 557 561 562 558
555 3 2 122 246 558 562 226 225
556 3 2 122 246 242 28 186 559
557 3 2 122 246 559 186 185 560
558 3 2 122 246 560 185 184 561
559 3 2 122 246 561 184 183 562
560 3 2 122 246 562 183 27 226
561 5 2 1001 1 1 35 243 130 18 139 403 154
562 5 2 1001 1 130 243 244 129 154 403 404 153
563 5 2 1001 1 129 244 245 128 153 404 405 152
564 5 2 1001 1 128 245 246 127 152 405 406 151
565 5 2 1001 1 127 246 126 9 151 406 150 22
566 5 2 1001 1 35 36 247 243 139 140 407 403
567 5 2 1001 1 243 247 248 244 403 407 408 404
568 5 2 1001 1 244 248 249 245 404 408 409 405
569 5 2 1001 1 245 249 250 246 405 409 410 406
570 5 2 1001 1 246 250 125 126 406 410 149 150
571 5 2 1001 1 36 37 251 247 140 141 411 407
572 5 2 1001 1 247 251 252 248 407 411 412 408
573 5 2 1001 1 248 252 253 249 408 412 413 409
574 5 2 1001 1 249 253 254 250 409 413 414 410
575 5 2 1001 1 250 254 124 125 410 414 148 149
576 5 2 1001 1 37 38 255 251 141 142 415 411
577 5 2 1001 1 251 255 256 252 411 415 416 412
578 5 2 1001 1 252 256 257 253 412 416 417 413
579 5 2 1001 1 253 257 258 254 413 417 418 414
580 5 2 1001 1 254 258 123 124 414 418 147 148
581 5 2 1001 1 38 2 86 255 142 19 143 415
582 5 2 1001 1 255 86 85 256 415 143 144 416
583 5 2 1001 1 256 85 84 257 416 144 145 417
584 5 2 1001 1 257 84 83 258 417 145 146 418
585 5 2 1001 1 258 83 10 123 418 146 21 147
586 5 2 1001 2 3 39 259 79 23 155 419 166
587 5 2 1001 2 79 259 260 80 166 419 420 165
588 5 2 1001 2 80 260 261 81 165 420 421 164
589 5 2 1001 2 81 261 262 82 164 421 422 163
590 5 2 1001 2 82 262 123 10 163 422 147 21
591 5 2 1001 2 39 40 263 259 155 156 423 419
592 5 2 1001 2 259 263 264 260 419 423 424 420
593 5 2 1001 2 260 264 265 261 420 424 425 421
594 5 2 1001 2 261 265 266 262 421 425 426 422
595 5 2 1001 2 262 266 124 123 422 426 148 147
596 5 2 1001 2 40 41 267 263 156 157 427 423
597 5 2 1001 2 263 267 268 264 423 427 428 424
598 5 2 1001 2 264 268 269 265 424 428 429 425
599 5 2 1001 2 265 269 270 266 425 429 430 426
600 5 2 1001 2 266 270 125 124 426 430 149 148
601 5 2 1001 2 41 42 271 267 157 158 431 427
602 5 2 1001 2 267 271 272 268 427 431 432 428
603 5 2 1001 2 268 272 273 269 428 432 433 429
604 5 2 1001 2 269 273 274 270 429 433 434 430
605 5 2 1001 2 270 274 126 125 430 434 150 149
606 5 2 1001 2 42 4 138 271 158 24 159 431
607 5 2 1001 2 271 138 137 272 431 159 160 432
608 5 2 1001 2 272 137 136 273 432 160 161 433
609 5 2 1001 2 273 136 135 274 433 161 162 434
610 5 2 1001 2 274 135 9 126 434 162 22 150
611 5 2 1001 3 4 43 275 138 24 167 435 159
612 5 2 1001 3 138 275 276 137 159 435 436 160
613 5 2 1001 3 137 276 277 136 160 436 437 161
614 5 2 1001 3 136 277 278 135 161 437 438 162
615 5 2 1001 3 135 278 134 9 162 438 178 22
616 5 2 1001 3 43 44 279 275 167 168 439 435
617 5 2 1001 3 275 279 280 276 435 439 440 436
618 5 2 1001 3 276 280 281 277 436 440 441 437
619 5 2 1001 3 277 281 282 278 437 441 442 438
620 5 2 1001 3 278 282 133 134 438 442 177 178
621 5 2 1001 3 44 45 283 279 168 169 443 439
622 5 2 1001 3 279 283 284 280 439 443 444 440
623 5 2 1001 3 280 284 285 281 440 444 445 441
624 5 2 1001 3 281 285 286 282 441 445 446 442
625 5 2 1001 3 282 286 132 133 442 446 176 177
626 5 2 1001 3 45 46 287 283 169 170 447 443
627 5 2 1001 3 283 287 288 284 443 447 448 444
628 5 2 1001 3 284 288 289 285 444 448 449 445
629 5 2 1001 3 285 289 290 286 445 449 450 446
630 5 2 1001 3 286 290 131 132 446 450 175 176
631 5 2 1001 3 46 5 122 287 170 25 171 447
632 5 2 1001 3 287 122 121 288 447 171 172 448
633 5 2 1001 3 288 121 120 289 448 172 173 449
634 5 2 1001 3 289 120 119 290 449 173 174 450
635 5 2 1001 3 290 119 14 131 450 174 27 175
636 5 2 1001 4 6 47 291 115 28 179 451 186
637 5 2 1001 4 115 291 292 116 186 451 452 185
638 5 2 1001 4 116 292 293 117 185 452 453 184
639 5 2 1001 4 117 293 294 118 184 453 454 183
640 5 2 1001 4 118 294 131 14 183 454 175 27
641 5 2 1001 4 47 48 295 291 179 180 455 451
642 5 2 1001 4 291 295 296 292 451 455 456 452
643 5 2 1001 4 292 296 297 293 452 456 457 453
644 5 2 1001 4 293 297 298 294 453 457 458 454
645 5 2 1001 4 294 298 132 131 454 458 176 175
646 5 2 1001 4 48 49 299 295 180 181 459 455
647 5 2 1001 4 295 299 300 296 455 459 460 456
648 5 2 1001 4 296 300 301 297 456 460 461 457
649 5 2 1001 4 297 301 302 298 457 461 462 458
650 5 2 1001 4 298 302 133 132 458 462 177 176
651 5 2 1001 4 49 50 303 299 181 182 463 459
652 5 2 1001 4 299 303 304 300 459 463 464 460
653 5 2 1001 4 300 304 305 301 460 464 465 461
654 5 2 1001 4 301 305 306 302 461 465 466 462
655 5 2 1001 4 302 306 134 133 462 466 178 177
656 5 2 1001 4 50 1 130 303 182 18 154 463
657 5 2 1001 4 303 130 129 304 463 154 153 464
658 5 2 1001 4 304 129 128 305 464 153 152 465
659 5 2 1001 4 305 128 127 306 465 152 151 466
660 5 2 1001 4 306 127 9 134 466 151 22 178
661 5 2 1002 5 2 51 307 86 19 187 467 143
662 5 2 1002 5 86 307 308 85 143 467 468 144
663 5 2 1002 5 85 308 309 84 144 468 469 145
664 5 2 1002 5 84 309 310 83 145 469 470 146
665 5 2 1002 5 83 310 67 10 146 470 198 21
666 5 2 1002 5 51 52 311 307 187 188 471 467
667 5 2 1002 5 307 311 312 308 467 471 472 468
668 5 2 1002 5 308 312 313 309 468 472 473 469
669 5 2 1002 5 309 313 314 310 469 473 474 470
670 5 2 1002 5 310 314 68 67 470 474 197 198
671 5 2 1002 5 52 53 315 311 188 189 475 471
672 5 2 1002 5 311 315 316 312 471 475 476 472
673 5 2 1002 5 312 316 317 313 472 476 477 473
674 5 2 1002 5 313 317 318 314 473 477 478 474
675 5 2 1002 5 314 318 69 68 474 478 196 197
676 5 2 1002 5 53 54 319 315 189 190 479 475
677 5 2 1002 5 315 319 320 316 475 479 480 476
678 5 2 1002 5 316 320 321 317 476 480 481 477
679 5 2 1002 5 317 321 322 318 477 481 482 478
680 5 2 1002 5 318 322 70 69 478 482 195 196
681 5 2 1002 5 54 12 71 319 190 29 191 479
682 5 2 1002 5 319 71 72 320 479 191 192 480
683 5 2 1002 5 320 72 73 321 480 192 193 481
684 5 2 1002 5 321 73 74 322 481 193 194 482
685 5 2 1002 5 322 74 11 70 482 194 30 195
686 5 2 1002 6 12 55 323 71 29 199 483 191
687 5 2 1002 6 71 323 324 72 191 483 484 192
688 5 2 1002 6 72 324 325 73 192 484 485 193
689 5 2 1002 6 73 325 326 74 193 485 486 194
690 5 2 1002 6 74 326 75 11 194 486 210 30
691 5 2 1002 6 55 56 327 323 199 200 487 483
692 5 2 1002 6 323 327 328 324 483 487 488 484
693 5 2 1002 6 324 328 329 325 484 488 489 485
694 5 2 1002 6 325 329 330 326 485 489 490 486
695 5 2 1002 6 326 330 76 75 486 490 209 210
696 5 2 1002 6 56 57 331 327 200 201 491 487
697 5 2 1002 6 327 331 332 328 487 491 492 488
698 5 2 1002 6 328 332 333 329 488 492 493 489
699 5 2 1002 6 329 333 334 330 489 493 494 490
700 5 2 1002 6 330 334 77 76 490 494 208 209
701 5 2 1002 6 57 58 335 331 201 202 495 491
702 5 2 1002 6 331 335 336 332 491 495 496 492
703 5 2 1002 6 332 336 337 333 492 496 497 493
704 5 2 1002 6 333 337 338 334 493 497 498 494
705 5 2 1002 6 334 338 78 77 494 498 207 208
706 5 2 1002 6 58 7 59 335 202 20 203 495
707 5 2 1002 6 335 59 60 336 495 203 204 496
708 5 2 1002 6 336 60 61 337 496 204 205 497
709 5 2 1002 6 337 61 62 338 497 205 206 498
710 5 2 1002 6 338 62 13 78 498 206 31 207
711 5 2 1002 7 13 63 339 78 31 211 499 207
712 5 2 1002 7 78 339 340 77 207 499 500 208
713 5 2 1002 7 77 340 341 76 208 500 501 209
714 5 2 1002 7 76 341 342 75 209 501 502 210
715 5 2 1002 7 75 342 70 11 210 502 195 30
716 5 2 1002 7 63 64 343 339 211 212 503 499
717 5 2 1002 7 339 343 344 340 499 503 504 500
718 5 2 1002 7 340 344 345 341 500 504 505 501
719 5 2 1002 7 341 345 346 342 501 505 506 502
720 5 2 1002 7 342 346 69 70 502 506 196 195
721 5 2 1002 7 64 65 347 343 212 213 507 503
722 5 2 1002 7 343 347 348 344 503 507 508 504
723 5 2 1002 7 344 348 349 345 504 508 509 505
724 5 2 1002 7 345 349 350 346 505 509 510 506
725 5 2 1002 7 346 350 68 69 506 510 197 196
726 5 2 1002 7 65 66 351 347 213 214 511 507
727 5 2 1002 7 347 351 352 348 507 511 512 508
728 5 2 1002 7 348 352 353 349 508 512 513 509
729 5 2 1002 7 349 353 354 350 509 513 514 510
730 5 2 1002 7 350 354 67 68 510 514 198 197
731 5 2 1002 7 66 3 79 351 214 23 166 511
732 5 2 1002 7 351 79 80 352 511 166 165 512
733 5 2 1002 7 352 80 81 353 512 165 164 513
734 5 2 1002 7 353 81 82 354 513 164 163 514
735 5 2 1002 7 354 82 10 67 514 163 21 198
736 5 2 1002 8 5 87 355 122 25 215 515 171
737 5 2 1002 8 122 355 356 121 171 515 516 172
738 5 2 1002 8 121 356 357 120 172 516 517 173
739 5 2 1002 8 120 357 358 119 173 517 518 174
740 5 2 1002 8 119 358 103 14 174 518 226 27
741 5 2 1002 8 87 88 359 355 215 216 519 515
742 5 2 1002 8 355 359 360 356 515 519 520 516
743 5 2 1002 8 356 360 361 357 516 520 521 517
744 5 2 1002 8 357 361 362 358 517 521 522 518
745 5 2 1002 8 358 362 104 103 518 522 225 226
746 5 2 1002 8 88 89 363 359 216 217 523 519
747 5 2 1002 8 359 363 364 360 519 523 524 520
748 5 2 1002 8 360 364 365 361 520 524 525 521
749 5 2 1002 8 361 365 366 362 521 525 526 522
750 5 2 1002 8 362 366 105 104 522 526 224 225
751 5 2 1002 8 89 90 367 363 217 218 527 523
752 5 2 1002 8 363 367 368 364 523 527 528 524
753 5 2 1002 8 364 368 369 365 524 528 529 525
754 5 2 1002 8 365 369 370 366 525 529 530 526
755 5 2 1002 8 366 370 106 105 526 530 223 224
756 5 2 1002 8 90 16 107 367 218 32 219 527
757 5 2 1002 8 367 107 108 368 527 219 220 528
758 5 2 1002 8 368 108 109 369 528 220 221 529
759 5 2 1002 8 369 109 110 370 529 221 222 530
760 5 2 1002 8 370 110 15 106 530 222 33 223
761 5 2 1002 9 16 91 371 107 32 227 531 219
762 5 2 1002 9 107 371 372 108 219 531 532 220
763 5 2 1002 9 108 372 373 109 220 532 533 221
764 5 2 1002 9 109 373 374 110 221 533 534 222
765 5 2 1002 9 110 374 111 15 222 534 238 33
766 5 2 1002 9 91 92 375 371 227 228 535 531
767 5 2 1002 9 371 375 376 372 531 535 536 532
768 5 2 1002 9 372 376 377 373 532 536 537 533
769 5 2 1002 9 373 377 378 374 533 537 538 534
770 5 2 1002 9 374 378 112 111 534 538 237 238
771 5 2 1002 9 92 93 379 375 228 229 539 535
772 5 2 1002 9 375 379 380 376 535 539 540 536
773 5 2 1002 9 376 380 381 377 536 540 541 537
774 5 2 1002 9 377 381 382 378 537 541 542 538
775 5 2 1002 9 378 382 113 112 538 542 236 237
776 5 2 1002 9 93 94 383 379 229 230 543 539
777 5 2 1002 9 379 383 384 380 539 543 544 540
778 5 2 1002 9 380 384 385 381 540 544 545 541
779 5 2 1002 9 381 385 386 382 541 545 546 542
780 5 2 1002 9 382 386 114 113 542 546 235 236
781 5 2 1002 9 94 8 95 383 230 26 231 543
782 5 2 1002 9 383 95 96 384 543 231 232 544
783 5 2 1002 9 384 96 97 385 544 232 233 545
784 5 2 1002 9 385 97 98 386 545 233 234 546
785 5 2 1002 9 386 98 17 114 546 234 34 235
786 5 2 1002 10 17 99 387 114 34 239 547 235
787 5 2 1002 10 114 387 388 113 235 547 548 236
788 5 2 1002 10 113 388 389 112 236 548 549 237
789 5 2 1002 10 112 389 390 111 237 549 550 238
790 5 2 1002 10 111 390 106 15 238 550 223 33
791 5 2 1002 10 99 100 391 387 239 240 551 547
792 5 2 1002 10 387 391 392 388 547 551 552 548
793 5 2 1002 10 388 392 393 389 548 552 553 549
794 5 2 1002 10 389 393 394 390 549 553 554 550
795 5 2 1002 10 390 394 105 106 550 554 224 223
796 5 2 1002 10 100 101 395 391 240 241 555 551
797 5 2 1002 10 391 395 396 392 551 555 556 552
798 5 2 1002 10 392 396 397 393 552 556 557 553
799 5 2 1002 10 393 397 398 394 553 557 558 554
800 5 2 1002 10 394 398 104 105 554 558 225 224
801 5 2 1002 10 101 102 399 395 241 242 559 555
802 5 2 1002 10 395 399 400 396 555 559 560 556
803 5 2 1002 10 396 400 401 397 556 560 561 557
804 5 2 1002 10 397 401 402 398 557 561 562 558
805 5 2 1002 10 398 402 103 104 558 562 226 225
806 5 2 1002 10 102 6 115 399 242 28 186 559
807 5 2 1002 10 399 115 116 400 559 186 185 560
808 5 2 1002 10 400 116 117 401 560 185 184 561
809 5 2 1002 10 401 117 118 402 561 184 183 562
810 5 2 1002 10 402 118 14 103 562 183 27 226
$EndElements
