L = 1e5;
Point(1) = {(-L/2) * Cos(Alpha) - (-L/2) * Sin(Alpha), (-L/2) * Sin(Alpha) + (-L/2) * Cos(Alpha), 0};
Point(2) = {( L/2) * Cos(Alpha) - (-L/2) * Sin(Alpha), ( L/2) * Sin(Alpha) + (-L/2) * Cos(Alpha), 0};
Point(3) = {( L/2) * Cos(Alpha) - ( L/2) * Sin(Alpha), ( L/2) * Sin(Alpha) + ( L/2) * Cos(Alpha), 0};
Point(4) = {(-L/2) * Cos(Alpha) - ( L/2) * Sin(Alpha), (-L/2) * Sin(Alpha) + ( L/2) * Cos(Alpha), 0};
Line(1) = {1, 2};
Line(2) = {2, 3};
Line(3) = {3, 4};
Line(4) = {4, 1};
Transfinite Line {1,3} = N + 1;
Transfinite Line {2,4} =  33 * N + 1;
Line Loop(1) = {1, 2, 3, 4};
Plane Surface(1) = {1};
Transfinite Surface{1};
Recombine Surface "*";
