0.0114276 0.0180672 -1.1063e-18 1.3102892936557793E+00 
0.00318797 0.00977036 -5.98262e-19 1.3102892936557797E+00 
0.0224248 0.0247576 -1.51596e-18 1.0870458827848308E+00 
0.0114276 0.0180672 -1.1063e-18 1.0870458827848313E+00 
0.627419 0.042453 -2.5995e-18 7.3420995470026854E-02 
0.600578 0.044743 -2.73972e-18 7.3420995470026881E-02 
0.600578 0.044743 -2.73972e-18 6.9974605346292421E-02 
0.57302 0.0469697 -2.87607e-18 6.9974605346292448E-02 
0.57302 0.0469697 -2.87607e-18 9.5632068738355114E-02 
0.544735 0.0491149 -3.00742e-18 9.5632068738355142E-02 
0.486891 0.0530113 -3.24601e-18 1.1710052991458478E-01 
0.45875 0.0546401 -3.34574e-18 1.1710052991458482E-01 
0.45875 0.0546401 -3.34574e-18 1.3018898679252255E-01 
0.43128 0.0560401 -3.43147e-18 1.3018898679252261E-01 
0.43128 0.0560401 -3.43147e-18 1.3707605333389647E-01 
0.404464 0.0572085 -3.50301e-18 1.3707605333389655E-01 
0.404464 0.0572085 -3.50301e-18 1.5722596238798203E-01 
0.378296 0.0581411 -3.56011e-18 1.5722596238798209E-01 
0.378296 0.0581411 -3.56011e-18 1.6382248628063803E-01 
0.352771 0.0588331 -3.60249e-18 1.6382248628063809E-01 
0.352771 0.0588331 -3.60249e-18 1.8419989260743874E-01 
0.327882 0.0592801 -3.62986e-18 1.8419989260743880E-01 
0.327882 0.0592801 -3.62986e-18 1.9841842889600039E-01 
0.303625 0.0594767 -3.64189e-18 1.9841842889600045E-01 
0.303625 0.0594767 -3.64189e-18 2.1733965970775751E-01 
0.280002 0.0594171 -3.63825e-18 2.1733965970775757E-01 
0.280002 0.0594171 -3.63825e-18 2.3649346066379406E-01 
0.257012 0.0590953 -3.61854e-18 2.3649346066379412E-01 
0.257012 0.0590953 -3.61854e-18 2.5762361100691938E-01 
0.234659 0.0585047 -3.58238e-18 2.5762361100691950E-01 
0.234659 0.0585047 -3.58238e-18 2.8176873107729278E-01 
0.212948 0.0576378 -3.5293e-18 2.8176873107729283E-01 
0.212948 0.0576378 -3.5293e-18 3.0741645672389983E-01 
0.191886 0.0564862 -3.45878e-18 3.0741645672390000E-01 
0.191886 0.0564862 -3.45878e-18 3.3670616028852074E-01 
0.171486 0.0550401 -3.37023e-18 3.3670616028852079E-01 
0.171486 0.0550401 -3.37023e-18 3.6914614840444837E-01 
0.15176 0.0532877 -3.26293e-18 3.6914614840444848E-01 
0.15176 0.0532877 -3.26293e-18 4.0544026761437568E-01 
0.132724 0.0512141 -3.13596e-18 4.0544026761437579E-01 
0.132724 0.0512141 -3.13596e-18 4.4779825582920824E-01 
0.114406 0.0488011 -2.98821e-18 4.4779825582920835E-01 
0.114406 0.0488011 -2.98821e-18 4.9750930314378300E-01 
0.0968322 0.0460234 -2.81812e-18 4.9750930314378317E-01 
0.0968322 0.0460234 -2.81812e-18 5.5586242745203729E-01 
0.0800483 0.0428482 -2.6237e-18 5.5586242745203751E-01 
1 0 0 1.4404324133976839E-03 
0.988665 0.00159687 -9.77798e-20 1.4404324133976841E-03 
0.544735 0.0491149 -3.00742e-18 1.0136883382804497E-01 
0.515706 0.0511573 -3.13248e-18 1.0136883382804500E-01 
0.515706 0.0511573 -3.13248e-18 1.0137045353143721E-01 
0.486891 0.0530113 -3.24601e-18 1.0137045353143724E-01 
0.00318797 0.00977036 -5.98262e-19 2.5042357597155207E-05 
0 -1.9115e-39 1.17046e-55 2.5042357597157359E-05 
0.988665 0.00159687 -9.77798e-20 6.7218537596541172E-03 
0.975566 0.0034142 -2.0906e-19 6.7218537596541198E-03 
0.975566 0.0034142 -2.0906e-19 1.4180365404020347E-02 
0.961328 0.0053566 -3.27997e-19 1.4180365404020356E-02 
0.961328 0.0053566 -3.27997e-19 5.9519917633635965E-03 
0.946113 0.00739545 -4.52841e-19 5.9519917633635983E-03 
0.946113 0.00739545 -4.52841e-19 1.2313009262918052E-02 
0.930017 0.009512 -5.82442e-19 1.2313009262918057E-02 
0.930017 0.009512 -5.82442e-19 1.0468364983691501E-02 
0.913089 0.0116945 -7.16084e-19 1.0468364983691506E-02 
0.913089 0.0116945 -7.16084e-19 1.4153867700944343E-02 
0.895377 0.0139319 -8.53083e-19 1.4153867700944346E-02 
0.895377 0.0139319 -8.53083e-19 1.6440120391500244E-02 
0.876911 0.0162155 -9.92912e-19 1.6440120391500251E-02 
0.876911 0.0162155 -9.92912e-19 1.6621540698546711E-02 
0.857711 0.018538 -1.13513e-18 1.6621540698546721E-02 
0.857711 0.018538 -1.13513e-18 1.5298747448092329E-02 
0.837793 0.0208927 -1.27931e-18 1.5298747448092334E-02 
0.837793 0.0208927 -1.27931e-18 3.0391831813749104E-02 
0.817174 0.0232728 -1.42505e-18 3.0391831813749111E-02 
0.817174 0.0232728 -1.42505e-18 1.7800257691408309E-02 
0.795858 0.0256729 -1.57201e-18 1.7800257691408316E-02 
0.795858 0.0256729 -1.57201e-18 3.9389792039239264E-02 
0.773854 0.0280863 -1.71979e-18 3.9389792039239278E-02 
0.773854 0.0280863 -1.71979e-18 2.4660276021407464E-02 
0.751165 0.0305068 -1.868e-18 2.4660276021407475E-02 
0.751165 0.0305068 -1.868e-18 4.4631247905101604E-02 
0.727792 0.0329278 -2.01625e-18 4.4631247905101618E-02 
0.727792 0.0329278 -2.01625e-18 3.8906282690696160E-02 
0.703734 0.0353418 -2.16406e-18 3.8906282690696174E-02 
0.703734 0.0353418 -2.16406e-18 5.5014669971919138E-02 
0.67899 0.0377404 -2.31094e-18 5.5014669971919158E-02 
0.67899 0.0377404 -2.31094e-18 4.9743304001833528E-02 
0.653553 0.0401145 -2.45631e-18 4.9743304001833542E-02 
0.653553 0.0401145 -2.45631e-18 6.4704954641946061E-02 
0.627419 0.042453 -2.5995e-18 6.4704954641946089E-02 
0.0490875 0.0350894 -2.1486e-18 8.1267884506275456E-01 
0.0351224 0.0303267 -1.85698e-18 8.1267884506275478E-01 
0.0351224 0.0303267 -1.85698e-18 9.4170896572716445E-01 
0.0224248 0.0247576 -1.51596e-18 9.4170896572716478E-01 
0.0800483 0.0428482 -2.6237e-18 6.2351903892922833E-01 
0.0641071 0.0392273 -2.40198e-18 6.2351903892922855E-01 
0.0641071 0.0392273 -2.40198e-18 7.0976886721589372E-01 
0.0490875 0.0350894 -2.1486e-18 7.0976886721589372E-01 
