lc = 0.05;
Point(1) = {20.17366132302381,-36.43074242938831,0.0,lc};
Point(2) = {20.17061249325283,-36.49588002404015,0.0,lc};
Point(3) = {20.16646172090133,-36.56093623964546,0.0,lc};
Point(4) = {20.16328169372584,-36.62297687009974,0.0,lc};
Point(5) = {20.16579595431538,-36.67679329318496,0.0,lc};
Point(6) = {20.16926309467435,-36.73878849491648,0.0,lc};
Point(7) = {20.17225964528915,-36.79507169653483,0.0,lc};
Point(8) = {20.17217053776682,-36.86568313300125,0.0,lc};
Point(9) = {20.17534563568696,-36.94868145619634,0.0,lc};
Point(10) = {20.18099600078379,-37.01785186731463,0.0,lc};
Point(11) = {20.18891576780181,-37.10149098310611,0.0,lc};
Point(12) = {20.19682887654420,-37.19663474385809,0.0,lc};
Point(13) = {20.20464257349407,-37.29473683476331,0.0,lc};
Point(14) = {20.21372198989518,-37.36390457144606,0.0,lc};
Point(15) = {20.23847220040354,-37.46237081682890,0.0,lc};
Point(16) = {20.25360406742278,-37.55687611932834,0.0,lc};
Point(17) = {20.26327828492844,-37.69738732320780,0.0,lc};
Point(18) = {20.26597424417031,-37.78764283774163,0.0,lc};
Point(19) = {20.27484360279100,-37.87883432241897,0.0,lc};
Point(20) = {20.28596866263806,-37.98188447110105,0.0,lc};
Point(21) = {20.30371776384564,-38.10967915607004,0.0,lc};
Point(22) = {20.30960284797359,-38.16152389239695,0.0,lc};
Point(23) = {20.31223775661980,-38.22555120888317,0.0,lc};
Point(24) = {20.31733963083237,-38.32343669544537,0.0,lc};
Point(25) = {20.34891517203698,-38.42295330309271,0.0,lc};
Point(26) = {20.36355085514132,-38.44483015798708,0.0,lc};
Point(27) = {20.37835354915416,-38.47115242707549,0.0,lc};
Point(28) = {20.40240305312277,-38.52371789348513,0.0,lc};
Point(29) = {20.42203190774176,-38.55525708444411,0.0,lc};
Point(30) = {20.43847906254002,-38.59195178568343,0.0,lc};
Point(31) = {20.47138490778465,-38.65111625347225,0.0,lc};
Point(32) = {20.49581539932757,-38.71057137505964,0.0,lc};
Point(33) = {20.52651790743894,-38.76967748638217,0.0,lc};
Point(34) = {20.57111845623955,-38.85611443129975,0.0,lc};
Point(35) = {20.60805456484489,-38.94039815618833,0.0,lc};
Point(36) = {20.64501275844622,-39.00334301718370,0.0,lc};
Point(37) = {20.67709694913912,-39.07750294374504,0.0,lc};
Point(38) = {20.72027687832039,-39.15789092677671,0.0,lc};
Point(39) = {20.75676385220763,-39.22777685051355,0.0,lc};
Point(40) = {20.77794836004503,-39.26919277894316,0.0,lc};
Point(41) = {20.79000610307789,-39.29081209745587,0.0,lc};
Point(42) = {20.81605702412542,-39.34328851513634,0.0,lc};
Point(43) = {20.82781453136703,-39.36792756186026,0.0,lc};
Point(44) = {20.84176721020265,-39.39471884501934,0.0,lc};
Point(45) = {20.85054671858101,-39.41587645198786,0.0,lc};
Point(46) = {20.86949086997026,-39.44835696196140,0.0,lc};
Point(47) = {20.88575312064025,-39.47172333958282,0.0,lc};
Point(48) = {20.91220966269962,-39.51571021242302,0.0,lc};
Point(49) = {20.93229033729803,-39.55850930829750,0.0,lc};
Point(50) = {20.93229033729803,-39.55850930829750,0.0,lc};
Point(51) = {20.95643415617606,-39.59619711680349,0.0,lc};
Point(52) = {20.96417616974291,-39.61495311920088,0.0,lc};
Point(53) = {20.98330086810256,-39.64350937092712,0.0,lc};
Point(54) = {21.00615477161562,-39.68180068448798,0.0,lc};
Point(55) = {21.01587828156341,-39.70214683533514,0.0,lc};
Point(56) = {21.02795375318308,-39.72166935016193,0.0,lc};
Point(57) = {21.03421149396443,-39.73502326645317,0.0,lc};
Point(58) = {21.04415021345338,-39.74892490142608,0.0,lc};
Point(59) = {21.05148797570353,-39.75818413169432,0.0,lc};
Point(60) = {21.06593672720137,-39.77729476957361,0.0,lc};
Point(61) = {21.08556936313727,-39.80590486754983,0.0,lc};
Point(62) = {21.10278389067124,-39.83368571782088,0.0,lc};
Point(63) = {21.12376387513510,-39.86533467280987,0.0,lc};
Point(64) = {21.14500450056933,-39.89554454257396,0.0,lc};
Point(65) = {21.18779963304621,-39.95189469018943,0.0,lc};
Point(66) = {21.22019641684585,-39.99071923525360,0.0,lc};
Point(67) = {21.28601366880649,-40.06084008054479,0.0,lc};
Point(68) = {21.33809578115231,-40.12553981527065,0.0,lc};
Point(69) = {21.38859949750065,-40.19427746605249,0.0,lc};
Point(70) = {20.95017892767605,-40.49750901183008,0.0,lc};
Point(71) = {20.92545669439833,-40.42444452263210,0.0,lc};
Point(72) = {20.90170726158802,-40.35787961490146,0.0,lc};
Point(73) = {20.87102760526233,-40.25568401671966,0.0,lc};
Point(74) = {20.84805801300721,-40.19170405554716,0.0,lc};
Point(75) = {20.80797009878599,-40.08360103970860,0.0,lc};
Point(76) = {20.75880172848312,-39.98277067244872,0.0,lc};
Point(77) = {20.74216860131419,-39.95261611755925,0.0,lc};
Point(78) = {20.71870948566590,-39.91398699003869,0.0,lc};
Point(79) = {20.66673303218021,-39.82562231846091,0.0,lc};
Point(80) = {20.61531093400025,-39.73520591829605,0.0,lc};
Point(81) = {20.60174083194467,-39.71195759082501,0.0,lc};
Point(82) = {20.57376820442331,-39.67293070637913,0.0,lc};
Point(83) = {20.55404492513960,-39.64894936458396,0.0,lc};
Point(84) = {20.52039782079590,-39.60914768158834,0.0,lc};
Point(85) = {20.48313191146033,-39.57881791236084,0.0,lc};
Point(86) = {20.47181616800045,-39.56899719701266,0.0,lc};
Point(87) = {20.44406625852510,-39.55050234842960,0.0,lc};
Point(88) = {20.40645246279344,-39.53418663910834,0.0,lc};
Point(89) = {20.33152968378981,-39.53042769159946,0.0,lc};
Point(90) = {20.26545839725160,-39.59255995049278,0.0,lc};
Point(91) = {20.23757219648344,-39.70502737825174,0.0,lc};
Point(92) = {20.22912230088138,-39.81782668172616,0.0,lc};
Point(93) = {20.22876989419185,-39.87659773080243,0.0,lc};
Point(94) = {20.22443180833640,-40.02275232502071,0.0,lc};
Point(95) = {20.22222597913663,-40.09338349319413,0.0,lc};
Point(96) = {20.22265193355187,-40.16540599705810,0.0,lc};
Point(97) = {20.22836935048561,-40.27837039296941,0.0,lc};
Point(98) = {20.22557548970963,-40.34646254187047,0.0,lc};
Point(99) = {20.23478226732071,-40.41799643136363,0.0,lc};
Point(100) = {20.23595419432325,-40.49345078966785,0.0,lc};
Point(101) = {20.23620310869674,-40.54816893694674,0.0,lc};
Point(102) = {20.23171321764513,-40.59241499641359,0.0,lc};
Point(103) = {20.24634470972193,-40.68627838314092,0.0,lc};
Point(104) = {19.56077960823800,-40.68627838314092,0.0,lc};
Point(105) = {19.57150186541082,-40.60310940995308,0.0,lc};
Point(106) = {19.55394054529024,-40.48006749662424,0.0,lc};
Point(107) = {19.54301261156456,-40.44011686253057,0.0,lc};
Point(108) = {19.51309868389120,-40.32869420850028,0.0,lc};
Point(109) = {19.47267663809766,-40.20438055553382,0.0,lc};
Point(110) = {19.43327356317726,-40.04974401849675,0.0,lc};
Point(111) = {19.41757361159557,-39.89810848862221,0.0,lc};
Point(112) = {19.43409126578956,-39.73474080301722,0.0,lc};
Point(113) = {19.44637076613522,-39.69459650988282,0.0,lc};
Point(114) = {19.46771414416026,-39.61665043740652,0.0,lc};
Point(115) = {19.50884661893316,-39.54237916423138,0.0,lc};
Point(116) = {19.56227237743738,-39.45431081618143,0.0,lc};
Point(117) = {19.58196321182859,-39.39182336911421,0.0,lc};
Point(118) = {19.62413277020497,-39.31075173877202,0.0,lc};
Point(119) = {19.65139287890411,-39.19031933086737,0.0,lc};
Point(120) = {19.67190276377916,-39.06672221471003,0.0,lc};
Point(121) = {19.70216221661232,-38.93376563678235,0.0,lc};
Point(122) = {19.72129283052760,-38.81017192937285,0.0,lc};
Point(123) = {19.73714934743566,-38.68872947480467,0.0,lc};
Point(124) = {19.74875614478800,-38.57517414795815,0.0,lc};
Point(125) = {19.74956480905955,-38.45916883703621,0.0,lc};
Point(126) = {19.74094940532039,-38.35796563887325,0.0,lc};
Point(127) = {19.73483560190517,-38.26802307993811,0.0,lc};
Point(128) = {19.74020485356238,-38.15773416147101,0.0,lc};
Point(129) = {19.74227830661122,-38.06006004825542,0.0,lc};
Point(130) = {19.74798801959919,-37.96901233780867,0.0,lc};
Point(131) = {19.74128486979029,-37.89817698094051,0.0,lc};
Point(132) = {19.73301916116357,-37.79425264086130,0.0,lc};
Point(133) = {19.73076499276789,-37.70239808885193,0.0,lc};
Point(134) = {19.73052701113709,-37.62969070088658,0.0,lc};
Point(135) = {19.72476019050852,-37.55658226512272,0.0,lc};
Point(136) = {19.72284933333787,-37.49181073800722,0.0,lc};
Point(137) = {19.71655276377662,-37.42179219966373,0.0,lc};
Point(138) = {19.71091936047691,-37.37227560782561,0.0,lc};
Point(139) = {19.71111453881608,-37.32369583831797,0.0,lc};
Point(140) = {19.70521986382740,-37.25177675248689,0.0,lc};
Point(141) = {19.70068730630393,-37.16563809436931,0.0,lc};
Point(142) = {19.69480904433588,-37.07677378411916,0.0,lc};
Point(143) = {19.69480353474737,-36.98266321048556,0.0,lc};
Point(144) = {19.68885024784928,-36.88315578174223,0.0,lc};
Point(145) = {19.68106389741142,-36.78661386780399,0.0,lc};
Point(146) = {19.67899118034430,-36.69648151654231,0.0,lc};
Point(147) = {19.67488367138051,-36.60372961914872,0.0,lc};
Point(148) = {19.67820845983558,-36.55649355367191,0.0,lc};
Point(149) = {19.67266263122751,-36.51636141337201,0.0,lc};
