Point(1) = {-32.909,-51,0,0.2};
Point(2) = {32.909,-51,0,0.2};
Point(3) = {32.909,51,0,0.2};
Point(4) = {-32.909,51,0,0.2};
Line(1) = {1,2};
Line(2) = {2,3};
Line(3) = {3,4};
Line(4) = {4,1};
Line Loop(5) = {1,2,3,4};
Plane Surface(11) = {5};
Physical Line(1) = {1};
Physical Line(2) = {2};
Physical Line(3) = {3};
Physical Line(4) = {4};
Physical Surface(11) = {11};
Physical Point(1) = {1};
Physical Point(2) = {2};
Physical Point(3) = {3};
Physical Point(4) = {4};
Transfinite Line {1,3} = 5 Using Progression 1;
Transfinite Line {2,4} = 5 Using Progression 1;
Transfinite Surface {11};
Recombine Surface {11};
