L = 0.0004;
l = 5*L;
lc = L/5;
Point (1) = {0, 0, 0, lc};
Point (2) = {0, L, 0, lc};
Point (3) = {l, L, 0, lc};
Point (4) = {l, 0, 0, lc};
Line (1) = {1, 2};
Line (2) = {2, 3};
Line (3) = {3, 4};
Line (4) = {4, 1};
Line Loop (1) = {1, 2, 3, 4};
Plane Surface (1) = {1};
Physical Surface ("surface") = {1};
Physical Line ("inlet") = {1};
Physical Line ("outlet") = {3};
Physical Line ("wall") = {2, 4};
