l  = 1;
d  = 2;
cl = l / d;

Point(1) = {+l, -l, 0, cl};
Point(2) = {+l, +l, 0, cl};
Point(3) = {-l, +l, 0, cl};
Point(4) = {-l, -l, 0, cl};

Line(1) = {1, 2};
Line(2) = {2, 3};
Line(3) = {3, 4};
Line(4) = {4, 1};

Line Loop(1)     = {1, 2, 3, 4};
Plane Surface(1) = {1};

Physical Line(5)    = {1, 2, 3, 4};
Physical Surface(7) = {1};
