cl = 0.02;

L = 0.5;

Point(0) = {0, 0, 0, cl};

Point(1) = {+L, -L, 0, cl};
Point(2) = {+L, +L, 0, cl};
Point(3) = {-L, +L, 0, cl};
Point(4) = {-L, -L, 0, cl};

Circle(1) = {1, 0, 2};
Circle(2) = {2, 0, 3};
Circle(3) = {3, 0, 4};
Circle(4) = {4, 0, 1};

Line Loop(9)      = {3, 4, 1, 2};
Plane Surface(11) = {9};

Physical Line(5)    = {1, 2, 3, 4};
Physical Surface(7) = {11};
